{
  "puzzleType": 0,
  "unknown2": 4,
  "unknown3": 0,
  "unknown4": 287,
  "flags": "0000000100011111",
  "strings": [
    "My hyperdrive needs a new ALLUVIAL DAMPER! Do you think you could find one for me?",
    "My hyperdrive is as good as new!",
    "In return, I can let you have this ALLUVIAL DAMPER... it's just the thing for your hyperdrive.",
    ""
  ],
  "unusedLength": 0,
  "firstItem": 435,
  "secondItem": 0
}