{
  "puzzleType": 0,
  "unknown2": 2,
  "unknown3": 0,
  "unknown4": 287,
  "flags": "0000000100011111",
  "strings": [
    "My droids are running amok! I need a RESTRAINING BOLT!",
    "Thanks for the help!",
    "In trade, I can give you this RESTRAINING BOLT. Useful for unruly droids!",
    ""
  ],
  "unusedLength": 0,
  "firstItem": 438,
  "secondItem": 0
}