{
  "puzzleType": 0,
  "unknown2": 4,
  "unknown3": 0,
  "unknown4": 287,
  "flags": "0000000100011111",
  "strings": [
    "I'm looking for some DURASTEEL-- all I need is a small BAR.",
    "This is just what I needed.",
    "All I can offer in return is a BAR of DURASTEEL, but who knows? Maybe you need some...",
    ""
  ],
  "unusedLength": 0,
  "firstItem": 443,
  "secondItem": 0
}