{
  "puzzleType": 0,
  "unknown2": 4,
  "unknown3": 0,
  "unknown4": 287,
  "flags": "0000000100011111",
  "strings": [
    "My ship needs an overhaul. Without a DRIVE COMPENSATOR I'll be stalled for weeks!",
    "You've done me a great favor, young Jedi.",
    "You'll never get off this planet without a working DRIVE COMPENSATOR. Mine's yours if you help me...",
    ""
  ],
  "unusedLength": 0,
  "firstItem": 445,
  "secondItem": 0
}