{
  "puzzleType": 0,
  "unknown2": 4,
  "unknown3": 0,
  "unknown4": 287,
  "flags": "0000000100011111",
  "strings": [
    "It's vital to my work that I get a sample of RYLL.",
    "Now I can continue my experiment.",
    "Solve my problem, and this sample of RYLL is yours... it's worth a bundle on the invisible market!",
    ""
  ],
  "unusedLength": 0,
  "firstItem": 452,
  "secondItem": 0
}