{
  "puzzleType": 0,
  "unknown2": 2,
  "unknown3": 0,
  "unknown4": 287,
  "flags": "0000000100011111",
  "strings": [
    "My R2 unit's got a bad motivator! Any idea where I could find a new one?",
    "Thanks! My R2 unit will roll again!",
    "In trade, I offer you a MOTIVATOR-- it's designed for an R2 unit, but it should work in almost anything.",
    ""
  ],
  "unusedLength": 0,
  "firstItem": 467,
  "secondItem": 0
}