{
  "puzzleType": 0,
  "unknown2": 4,
  "unknown3": 0,
  "unknown4": 287,
  "flags": "0000000100011111",
  "strings": [
    "I'm studying to be a Jedi, but I don't have a TRAINING REMOTE! Have you got one?",
    "Thanks for the remote! Look out galaxy, here I come!",
    "I've got a TRAINING REMOTE that could sharpen your skills, young Jedi. Help me out and it's yours.",
    ""
  ],
  "unusedLength": 0,
  "firstItem": 475,
  "secondItem": 0
}