{
  "puzzleType": 1,
  "unknown2": 2,
  "unknown3": 0,
  "unknown4": 287,
  "flags": "0000000100011111",
  "strings": [
    "",
    "",
    "If you're talking servos, I've got a LOCOMOTOR that will move any droid on the market. Bring me what I need and it's yours.",
    ""
  ],
  "unusedLength": 0,
  "firstItem": 476,
  "secondItem": 0
}