{
  "puzzleType": 0,
  "unknown2": 4,
  "unknown3": 0,
  "unknown4": 287,
  "flags": "0000000100011111",
  "strings": [
    "I do some hunting, but I can't hit a thing. I need a RANGEFINDER to improve my accuracy.",
    "Hey, thanks for the Rangefinder!",
    "In exchange, you can have the RANGEFINDER off my old Bryar pistol.",
    ""
  ],
  "unusedLength": 0,
  "firstItem": 488,
  "secondItem": 0
}