{
  "puzzleType": 0,
  "unknown2": 4,
  "unknown3": 0,
  "unknown4": 287,
  "flags": "0000000100011111",
  "strings": [
    "I'm studying the nocturnal habits of mynoks... but I need a MACROSCOPE. They ate my first one!",
    "Now I can continue my research.",
    "Help me out and you can have my MACROSCOPE.",
    ""
  ],
  "unusedLength": 0,
  "firstItem": 495,
  "secondItem": 0
}