{
  "puzzleType": 0,
  "unknown2": 1,
  "unknown3": 0,
  "unknown4": 287,
  "flags": "0000000100011111",
  "strings": [
    "I need a COMLINK; can you help me?",
    "Thanks for the Comlink.",
    "I've got a COMLINK that's tapped into the Imperial frequencies... Interested?",
    ""
  ],
  "unusedLength": 0,
  "firstItem": 503,
  "secondItem": 0
}