{
  "puzzleType": 1,
  "unknown2": 1,
  "unknown3": 4294967295,
  "unknown4": 287,
  "flags": "0000000100011111",
  "strings": [
    "",
    "",
    "If you lend a hand, there's an IM MINE in it for you... it can really blow things up!",
    ""
  ],
  "unusedLength": 0,
  "firstItem": 515,
  "secondItem": 0
}