{
  "puzzleType": 2,
  "unknown2": 4,
  "unknown3": 4294967295,
  "unknown4": 128,
  "flags": "0000000010000000",
  "strings": [
    "",
    "I wish you well on your quest!",
    "If you help me, I can give you a POWER COUPLING that will help wrap up your quest!",
    ""
  ],
  "unusedLength": 0,
  "firstItem": 479,
  "secondItem": 0
}