{
  "puzzleType": 0,
  "unknown2": 0,
  "unknown3": 4294967295,
  "unknown4": 311,
  "flags": "0000000100110111",
  "strings": [
    "I seem to have lost my YELLOW KEY CARD. If you come across it, I'd sure like to have it back.",
    "Thanks for being honest!",
    "You can take my YELLOW KEY CARD in exchange!",
    ""
  ],
  "unusedLength": 0,
  "firstItem": 509,
  "secondItem": 40960
}