{
  "puzzleType": 1,
  "unknown2": 4,
  "unknown3": 4294967295,
  "unknown4": 311,
  "flags": "0000000100110111",
  "strings": [
    "",
    "",
    "You're my only hope, Skywalker! My COMM UNIT is yours if you help me! ",
    ""
  ],
  "unusedLength": 0,
  "firstItem": 446,
  "secondItem": 61440
}