{
  "puzzleType": 1,
  "unknown2": 4,
  "unknown3": 4294967295,
  "unknown4": 311,
  "flags": "0000000100110111",
  "strings": [
    "",
    "",
    "Tell you what... help me out and I'll give you a LOMMITE CRYSTAL, all the way from the mines of Elom.",
    ""
  ],
  "unusedLength": 0,
  "firstItem": 450,
  "secondItem": 28265
}