{
  "puzzleType": 1,
  "unknown2": 4,
  "unknown3": 4294967295,
  "unknown4": 311,
  "flags": "0000000100110111",
  "strings": [
    "",
    "",
    "Help me out, and you can have my MACROSCOPE. I never use it any more.",
    ""
  ],
  "unusedLength": 0,
  "firstItem": 495,
  "secondItem": 25717
}