{
  "puzzleType": 0,
  "unknown2": 1,
  "unknown3": 4294967295,
  "unknown4": 311,
  "flags": "0000000100110111",
  "strings": [
    "I need to blow something up... an IM MINE might do the trick. Get me one!",
    "Now I'm ready to strike a blow for the Rebellion!!",
    "If you help me, I've got an IM MINE for you... if you promise to be careful with it!",
    ""
  ],
  "unusedLength": 0,
  "firstItem": 515,
  "secondItem": 8304
}