{
  "puzzleType": 2,
  "unknown2": 4,
  "unknown3": 4294967295,
  "unknown4": 128,
  "flags": "0000000010000000",
  "strings": [
    "",
    "Use that Crystal wisely!",
    "Now listen up... help me out, and I'll give you a LOMMITE CRYSTAL. It's the key to your quest!",
    ""
  ],
  "unusedLength": 0,
  "firstItem": 450,
  "secondItem": 28265
}