{
  "puzzleType": 2,
  "unknown2": 4,
  "unknown3": 0,
  "unknown4": 128,
  "flags": "0000000010000000",
  "strings": [
    "",
    "You'll thank me for this!",
    "All I can offer in trade is this GLOW ROD, but I believe you will soon find yourself in the dark...",
    ""
  ],
  "unusedLength": 0,
  "firstItem": 478,
  "secondItem": 0
}