{ seed: 4118672836, world: 3, size: 1 }
92
70
110
198
56
203
198
------------------------------------------------
{ visited: 0,
  u02: 0,
  u03: 0,
  u04: 0,
  u05: 0,
  zoneId: 94,
  u07: 65535,
  u08: 65535,
  item: 65535,
  u10: 65535,
  u11: 65535,
  u12: 65535,
  character: 65535,
  wtf: 17,
  u15: 65535 }
------------------------------------------------
------------------------------------------------
{ visited: 0,
  u02: 0,
  u03: 0,
  u04: 0,
  u05: 0,
  zoneId: 95,
  u07: 65535,
  u08: 65535,
  item: 65535,
  u10: 65535,
  u11: 65535,
  u12: 65535,
  character: 65535,
  wtf: 11,
  u15: 65535 }
------------------------------------------------
------------------------------------------------
{ visited: 1,
  u02: 1,
  u03: 0,
  u04: 1,
  u05: 0,
  zoneId: 93,
  u07: 65535,
  u08: 65535,
  item: 479,
  u10: 65535,
  u11: 65535,
  u12: 65535,
  character: 780,
  wtf: 16,
  u15: 65535 }
------------------------------------------------
------------------------------------------------
{ visited: 0,
  u02: 0,
  u03: 0,
  u04: 0,
  u05: 0,
  zoneId: 96,
  u07: 65535,
  u08: 65535,
  item: 65535,
  u10: 65535,
  u11: 65535,
  u12: 65535,
  character: 65535,
  wtf: 1,
  u15: 65535 }
------------------------------------------------
4 4
zoneId 94
zoneWasVisited: 0
{ u01: 0, u02: 2 }
-----------[ ENTITY ]-----------
{ enabled: 0, id: 65535, type: 1, x: 7, y: 3, typeName: 'SPAWN' }
--------------------------------
-----------[ ENTITY ]-----------
{ enabled: 1, id: 266, type: 9, x: 6, y: 0, typeName: 'DOOR_IN' }
--------------------------------
reading subzone
zoneId 266
zoneWasVisited: 0
{ u01: 0, u02: 1 }
-----------[ ENTITY ]-----------
{ enabled: 1,
  id: 65535,
  type: 10,
  x: 4,
  y: 8,
  typeName: 'DOOR_OUT' }
--------------------------------
4 5
zoneId 95
zoneWasVisited: 0
{ u01: 0, u02: 3 }
-----------[ ENTITY ]-----------
{ enabled: 1, id: 535, type: 9, x: 14, y: 5, typeName: 'DOOR_IN' }
--------------------------------
-----------[ ENTITY ]-----------
{ enabled: 0, id: 65535, type: 1, x: 12, y: 8, typeName: 'SPAWN' }
--------------------------------
-----------[ ENTITY ]-----------
{ enabled: 1, id: 271, type: 9, x: 16, y: 12, typeName: 'DOOR_IN' }
--------------------------------
reading subzone
zoneId 535
zoneWasVisited: 0
{ u01: 0, u02: 3 }
-----------[ ENTITY ]-----------
{ enabled: 1,
  id: 65535,
  type: 10,
  x: 5,
  y: 8,
  typeName: 'DOOR_OUT' }
--------------------------------
-----------[ ENTITY ]-----------
{ enabled: 0, id: 65535, type: 1, x: 3, y: 3, typeName: 'SPAWN' }
--------------------------------
-----------[ ENTITY ]-----------
{ enabled: 0, id: 65535, type: 1, x: 3, y: 2, typeName: 'SPAWN' }
--------------------------------
reading subzone
zoneId 271
zoneWasVisited: 0
{ u01: 0, u02: 1 }
-----------[ ENTITY ]-----------
{ enabled: 1,
  id: 65535,
  type: 10,
  x: 8,
  y: 0,
  typeName: 'DOOR_OUT' }
--------------------------------
5 4
zoneId 93
zoneWasVisited: 1
reading bullshit
------------------------ IMPORTANT!
{ u01: 0, u02: 4294967295, u03: 0, u04: 0, u05: 65535, wtf: 5 }
------------------------ IMPORTANT!
####   ###     ###
##### ####    ####
###   ####   #####
###  ##     ####  
#   ####     #    
#       ## #    # 
#   ######   ##   
## #######  ####  
##   #####  ##### 
####          ##  
##    #       ### 
     ##           
     #            
##     ###   #    
  ########        
########   #    ##
### ### ###  #####
####         #####
{ u01: 1, u02: 4 }
-----------[ ENTITY ]-----------
{ enabled: 0, id: 2, type: 14, x: 6, y: 10, typeName: 'XWING_FROM' }
--------------------------------
-----------[ ENTITY ]-----------
{ enabled: 0,
  id: 151,
  type: 14,
  x: 6,
  y: 10,
  typeName: 'XWING_FROM' }
--------------------------------
-----------[ ENTITY ]-----------
{ enabled: 1,
  id: 476,
  type: 14,
  x: 6,
  y: 10,
  typeName: 'XWING_FROM' }
--------------------------------
-----------[ ENTITY ]-----------
{ enabled: 1, id: 780, type: 1, x: 13, y: 4, typeName: 'SPAWN' }
--------------------------------
0
{ u01: 51,
  u02: 0,
  u03: 0,
  u04: 0,
  u05: 0,
  u06: 0,
  u07: 0,
  u08: 0,
  u09: 0,
  u10: 0,
  u11: 0,
  u12: 0,
  u13: 0,
  u14: 0,
  u15: 0,
  u16: 0,
  u17: 0,
  u18: 0,
  u19: 0,
  u20: 0,
  u21: 0,
  u22: 0,
  u23: 0 }
0 0
0 0
0 0
0 0
{ u01: 0,
  u02: 0,
  u03: 0,
  u04: 0,
  u05: 0,
  u06: 0,
  u07: 0,
  u08: 0,
  u09: 0,
  u10: 0,
  u11: 0,
  u12: 1,
  u13: 0,
  u14: 0,
  u15: 0,
  u16: 0,
  u17: 0,
  u18: 0,
  u19: 0,
  u20: 0,
  u21: 0,
  u22: 0,
  u23: 0 }
0 0
1 0
1 0
0 0
0
5 5
zoneId 96
zoneWasVisited: 0
{ u01: 0, u02: 2 }
-----------[ ENTITY ]-----------
{ enabled: 0, id: 65535, type: 1, x: 10, y: 6, typeName: 'SPAWN' }
--------------------------------
-----------[ ENTITY ]-----------
{ enabled: 1, id: 267, type: 9, x: 16, y: 8, typeName: 'DOOR_IN' }
--------------------------------
reading subzone
zoneId 267
zoneWasVisited: 0
{ u01: 0, u02: 1 }
-----------[ ENTITY ]-----------
{ enabled: 1,
  id: 65535,
  type: 10,
  x: 0,
  y: 6,
  typeName: 'DOOR_OUT' }
--------------------------------
{ u01: 4294967295, u02: 4294967295 }
offset:  2731 aab 0xFFFFFFFF:  true
offset:  2735 aaf 0xFFFFFFFF:  true
0 0 { visited: 0,
  u02: 0,
  u03: 0,
  u04: 0,
  u05: 0,
  zoneId: 65535,
  u07: 65535,
  u08: 65535,
  item: 65535,
  u10: 65535,
  u11: 65535,
  u12: 65535,
  character: 65535,
  wtf: 4294967295,
  u15: 65535 }
1 0 { visited: 0,
  u02: 0,
  u03: 0,
  u04: 0,
  u05: 0,
  zoneId: 65535,
  u07: 65535,
  u08: 65535,
  item: 65535,
  u10: 65535,
  u11: 65535,
  u12: 65535,
  character: 65535,
  wtf: 4294967295,
  u15: 65535 }
2 0 { visited: 0,
  u02: 0,
  u03: 0,
  u04: 0,
  u05: 0,
  zoneId: 65535,
  u07: 65535,
  u08: 65535,
  item: 65535,
  u10: 65535,
  u11: 65535,
  u12: 65535,
  character: 65535,
  wtf: 4294967295,
  u15: 65535 }
3 0 { visited: 0,
  u02: 0,
  u03: 0,
  u04: 0,
  u05: 0,
  zoneId: 65535,
  u07: 65535,
  u08: 65535,
  item: 65535,
  u10: 65535,
  u11: 65535,
  u12: 65535,
  character: 65535,
  wtf: 4294967295,
  u15: 65535 }
4 0 { visited: 0,
  u02: 0,
  u03: 0,
  u04: 0,
  u05: 0,
  zoneId: 65535,
  u07: 65535,
  u08: 65535,
  item: 65535,
  u10: 65535,
  u11: 65535,
  u12: 65535,
  character: 65535,
  wtf: 4294967295,
  u15: 65535 }
5 0 { visited: 0,
  u02: 0,
  u03: 0,
  u04: 0,
  u05: 0,
  zoneId: 65535,
  u07: 65535,
  u08: 65535,
  item: 65535,
  u10: 65535,
  u11: 65535,
  u12: 65535,
  character: 65535,
  wtf: 4294967295,
  u15: 65535 }
6 0 { visited: 0,
  u02: 0,
  u03: 0,
  u04: 0,
  u05: 0,
  zoneId: 65535,
  u07: 65535,
  u08: 65535,
  item: 65535,
  u10: 65535,
  u11: 65535,
  u12: 65535,
  character: 65535,
  wtf: 4294967295,
  u15: 65535 }
7 0 { visited: 0,
  u02: 0,
  u03: 0,
  u04: 0,
  u05: 0,
  zoneId: 65535,
  u07: 65535,
  u08: 65535,
  item: 65535,
  u10: 65535,
  u11: 65535,
  u12: 65535,
  character: 65535,
  wtf: 4294967295,
  u15: 65535 }
8 0 { visited: 0,
  u02: 0,
  u03: 0,
  u04: 0,
  u05: 0,
  zoneId: 65535,
  u07: 65535,
  u08: 65535,
  item: 65535,
  u10: 65535,
  u11: 65535,
  u12: 65535,
  character: 65535,
  wtf: 4294967295,
  u15: 65535 }
9 0 { visited: 0,
  u02: 0,
  u03: 0,
  u04: 0,
  u05: 0,
  zoneId: 65535,
  u07: 65535,
  u08: 65535,
  item: 65535,
  u10: 65535,
  u11: 65535,
  u12: 65535,
  character: 65535,
  wtf: 4294967295,
  u15: 65535 }
0 1 { visited: 0,
  u02: 0,
  u03: 0,
  u04: 0,
  u05: 0,
  zoneId: 65535,
  u07: 65535,
  u08: 65535,
  item: 65535,
  u10: 65535,
  u11: 65535,
  u12: 65535,
  character: 65535,
  wtf: 4294967295,
  u15: 65535 }
1 1 { visited: 0,
  u02: 0,
  u03: 0,
  u04: 0,
  u05: 0,
  zoneId: 65535,
  u07: 65535,
  u08: 65535,
  item: 65535,
  u10: 65535,
  u11: 65535,
  u12: 65535,
  character: 65535,
  wtf: 4294967295,
  u15: 65535 }
2 1 { visited: 0,
  u02: 0,
  u03: 0,
  u04: 0,
  u05: 0,
  zoneId: 65535,
  u07: 65535,
  u08: 65535,
  item: 65535,
  u10: 65535,
  u11: 65535,
  u12: 65535,
  character: 65535,
  wtf: 4294967295,
  u15: 65535 }
3 1 { visited: 0,
  u02: 0,
  u03: 0,
  u04: 0,
  u05: 0,
  zoneId: 65535,
  u07: 65535,
  u08: 65535,
  item: 65535,
  u10: 65535,
  u11: 65535,
  u12: 65535,
  character: 65535,
  wtf: 4294967295,
  u15: 65535 }
4 1 { visited: 0,
  u02: 0,
  u03: 0,
  u04: 0,
  u05: 0,
  zoneId: 65535,
  u07: 65535,
  u08: 65535,
  item: 65535,
  u10: 65535,
  u11: 65535,
  u12: 65535,
  character: 65535,
  wtf: 4294967295,
  u15: 65535 }
5 1 { visited: 0,
  u02: 0,
  u03: 0,
  u04: 0,
  u05: 0,
  zoneId: 65535,
  u07: 65535,
  u08: 65535,
  item: 65535,
  u10: 65535,
  u11: 65535,
  u12: 65535,
  character: 65535,
  wtf: 4294967295,
  u15: 65535 }
6 1 { visited: 0,
  u02: 0,
  u03: 0,
  u04: 0,
  u05: 0,
  zoneId: 65535,
  u07: 65535,
  u08: 65535,
  item: 65535,
  u10: 65535,
  u11: 65535,
  u12: 65535,
  character: 65535,
  wtf: 4294967295,
  u15: 65535 }
7 1 { visited: 0,
  u02: 0,
  u03: 0,
  u04: 0,
  u05: 0,
  zoneId: 65535,
  u07: 65535,
  u08: 65535,
  item: 65535,
  u10: 65535,
  u11: 65535,
  u12: 65535,
  character: 65535,
  wtf: 4294967295,
  u15: 65535 }
8 1 { visited: 0,
  u02: 0,
  u03: 0,
  u04: 0,
  u05: 0,
  zoneId: 65535,
  u07: 65535,
  u08: 65535,
  item: 65535,
  u10: 65535,
  u11: 65535,
  u12: 65535,
  character: 65535,
  wtf: 4294967295,
  u15: 65535 }
9 1 { visited: 0,
  u02: 0,
  u03: 0,
  u04: 0,
  u05: 0,
  zoneId: 65535,
  u07: 65535,
  u08: 65535,
  item: 65535,
  u10: 65535,
  u11: 65535,
  u12: 65535,
  character: 65535,
  wtf: 4294967295,
  u15: 65535 }
0 2 { visited: 0,
  u02: 0,
  u03: 0,
  u04: 0,
  u05: 0,
  zoneId: 65535,
  u07: 65535,
  u08: 65535,
  item: 65535,
  u10: 65535,
  u11: 65535,
  u12: 65535,
  character: 65535,
  wtf: 4294967295,
  u15: 65535 }
1 2 { visited: 0,
  u02: 0,
  u03: 0,
  u04: 0,
  u05: 0,
  zoneId: 65535,
  u07: 65535,
  u08: 65535,
  item: 65535,
  u10: 65535,
  u11: 65535,
  u12: 65535,
  character: 65535,
  wtf: 4294967295,
  u15: 65535 }
2 2 { visited: 0,
  u02: 0,
  u03: 0,
  u04: 0,
  u05: 0,
  zoneId: 65535,
  u07: 65535,
  u08: 65535,
  item: 65535,
  u10: 65535,
  u11: 65535,
  u12: 65535,
  character: 65535,
  wtf: 4294967295,
  u15: 65535 }
3 2 { visited: 0,
  u02: 0,
  u03: 0,
  u04: 0,
  u05: 0,
  zoneId: 65535,
  u07: 65535,
  u08: 65535,
  item: 65535,
  u10: 65535,
  u11: 65535,
  u12: 65535,
  character: 65535,
  wtf: 4294967295,
  u15: 65535 }
4 2 { visited: 0,
  u02: 0,
  u03: 0,
  u04: 0,
  u05: 0,
  zoneId: 65535,
  u07: 65535,
  u08: 65535,
  item: 65535,
  u10: 65535,
  u11: 65535,
  u12: 65535,
  character: 65535,
  wtf: 4294967295,
  u15: 65535 }
5 2 { visited: 0,
  u02: 0,
  u03: 0,
  u04: 0,
  u05: 0,
  zoneId: 641,
  u07: 0,
  u08: 479,
  item: 2114,
  u10: 65535,
  u11: 65535,
  u12: 65535,
  character: 1063,
  wtf: 16,
  u15: 0 }
6 2 { visited: 0,
  u02: 0,
  u03: 0,
  u04: 0,
  u05: 0,
  zoneId: 65535,
  u07: 65535,
  u08: 65535,
  item: 65535,
  u10: 65535,
  u11: 65535,
  u12: 65535,
  character: 65535,
  wtf: 4294967295,
  u15: 65535 }
7 2 { visited: 0,
  u02: 0,
  u03: 0,
  u04: 0,
  u05: 0,
  zoneId: 65535,
  u07: 65535,
  u08: 65535,
  item: 65535,
  u10: 65535,
  u11: 65535,
  u12: 65535,
  character: 65535,
  wtf: 4294967295,
  u15: 65535 }
8 2 { visited: 0,
  u02: 0,
  u03: 0,
  u04: 0,
  u05: 0,
  zoneId: 65535,
  u07: 65535,
  u08: 65535,
  item: 65535,
  u10: 65535,
  u11: 65535,
  u12: 65535,
  character: 65535,
  wtf: 4294967295,
  u15: 65535 }
9 2 { visited: 0,
  u02: 0,
  u03: 0,
  u04: 0,
  u05: 0,
  zoneId: 65535,
  u07: 65535,
  u08: 65535,
  item: 65535,
  u10: 65535,
  u11: 65535,
  u12: 65535,
  character: 65535,
  wtf: 4294967295,
  u15: 65535 }
0 3 { visited: 0,
  u02: 0,
  u03: 0,
  u04: 0,
  u05: 0,
  zoneId: 65535,
  u07: 65535,
  u08: 65535,
  item: 65535,
  u10: 65535,
  u11: 65535,
  u12: 65535,
  character: 65535,
  wtf: 4294967295,
  u15: 65535 }
1 3 { visited: 0,
  u02: 0,
  u03: 0,
  u04: 0,
  u05: 0,
  zoneId: 65535,
  u07: 65535,
  u08: 65535,
  item: 65535,
  u10: 65535,
  u11: 65535,
  u12: 65535,
  character: 65535,
  wtf: 4294967295,
  u15: 65535 }
2 3 { visited: 0,
  u02: 0,
  u03: 0,
  u04: 0,
  u05: 0,
  zoneId: 65535,
  u07: 65535,
  u08: 65535,
  item: 65535,
  u10: 65535,
  u11: 65535,
  u12: 65535,
  character: 65535,
  wtf: 4294967295,
  u15: 65535 }
3 3 { visited: 0,
  u02: 0,
  u03: 0,
  u04: 0,
  u05: 0,
  zoneId: 526,
  u07: 65535,
  u08: 65535,
  item: 428,
  u10: 65535,
  u11: 65535,
  u12: 65535,
  character: 65535,
  wtf: 17,
  u15: 65535 }
4 3 { visited: 0,
  u02: 0,
  u03: 0,
  u04: 0,
  u05: 0,
  zoneId: 65535,
  u07: 65535,
  u08: 65535,
  item: 65535,
  u10: 65535,
  u11: 65535,
  u12: 65535,
  character: 65535,
  wtf: 4294967295,
  u15: 65535 }
5 3 { visited: 0,
  u02: 0,
  u03: 0,
  u04: 0,
  u05: 0,
  zoneId: 435,
  u07: 65535,
  u08: 481,
  item: 65535,
  u10: 65535,
  u11: 65535,
  u12: 65535,
  character: 65535,
  wtf: 2,
  u15: 65535 }
6 3 { visited: 0,
  u02: 0,
  u03: 0,
  u04: 0,
  u05: 0,
  zoneId: 65535,
  u07: 65535,
  u08: 65535,
  item: 65535,
  u10: 65535,
  u11: 65535,
  u12: 65535,
  character: 65535,
  wtf: 4294967295,
  u15: 65535 }
7 3 { visited: 0,
  u02: 0,
  u03: 0,
  u04: 0,
  u05: 0,
  zoneId: 65535,
  u07: 65535,
  u08: 65535,
  item: 65535,
  u10: 65535,
  u11: 65535,
  u12: 65535,
  character: 65535,
  wtf: 4294967295,
  u15: 65535 }
8 3 { visited: 0,
  u02: 0,
  u03: 0,
  u04: 0,
  u05: 0,
  zoneId: 65535,
  u07: 65535,
  u08: 65535,
  item: 65535,
  u10: 65535,
  u11: 65535,
  u12: 65535,
  character: 65535,
  wtf: 4294967295,
  u15: 65535 }
9 3 { visited: 0,
  u02: 0,
  u03: 0,
  u04: 0,
  u05: 0,
  zoneId: 65535,
  u07: 65535,
  u08: 65535,
  item: 65535,
  u10: 65535,
  u11: 65535,
  u12: 65535,
  character: 65535,
  wtf: 4294967295,
  u15: 65535 }
0 4 { visited: 0,
  u02: 0,
  u03: 0,
  u04: 0,
  u05: 0,
  zoneId: 65535,
  u07: 65535,
  u08: 65535,
  item: 65535,
  u10: 65535,
  u11: 65535,
  u12: 65535,
  character: 65535,
  wtf: 4294967295,
  u15: 65535 }
1 4 { visited: 0,
  u02: 0,
  u03: 0,
  u04: 0,
  u05: 0,
  zoneId: 648,
  u07: 65535,
  u08: 65535,
  item: 65535,
  u10: 65535,
  u11: 65535,
  u12: 65535,
  character: 65535,
  wtf: 1,
  u15: 65535 }
2 4 { visited: 0,
  u02: 0,
  u03: 0,
  u04: 0,
  u05: 0,
  zoneId: 532,
  u07: 65535,
  u08: 65535,
  item: 65535,
  u10: 65535,
  u11: 65535,
  u12: 65535,
  character: 65535,
  wtf: 1,
  u15: 65535 }
3 4 { visited: 0,
  u02: 0,
  u03: 0,
  u04: 0,
  u05: 0,
  zoneId: 530,
  u07: 65535,
  u08: 65535,
  item: 65535,
  u10: 65535,
  u11: 65535,
  u12: 65535,
  character: 65535,
  wtf: 1,
  u15: 65535 }
4 4 { visited: 0,
  u02: 0,
  u03: 0,
  u04: 0,
  u05: 0,
  zoneId: 331,
  u07: 65535,
  u08: 65535,
  item: 421,
  u10: 65535,
  u11: 65535,
  u12: 65535,
  character: 65535,
  wtf: 17,
  u15: 65535 }
5 4 { visited: 0,
  u02: 0,
  u03: 0,
  u04: 0,
  u05: 0,
  zoneId: 476,
  u07: 65535,
  u08: 65535,
  item: 65535,
  u10: 65535,
  u11: 65535,
  u12: 65535,
  character: 65535,
  wtf: 11,
  u15: 65535 }
6 4 { visited: 0,
  u02: 0,
  u03: 0,
  u04: 0,
  u05: 0,
  zoneId: 433,
  u07: 65535,
  u08: 428,
  item: 65535,
  u10: 65535,
  u11: 65535,
  u12: 65535,
  character: 65535,
  wtf: 4,
  u15: 65535 }
7 4 { visited: 0,
  u02: 0,
  u03: 0,
  u04: 0,
  u05: 0,
  zoneId: 445,
  u07: 0,
  u08: 432,
  item: 494,
  u10: 65535,
  u11: 65535,
  u12: 65535,
  character: 65535,
  wtf: 15,
  u15: 1 }
8 4 { visited: 0,
  u02: 0,
  u03: 0,
  u04: 0,
  u05: 0,
  zoneId: 65535,
  u07: 65535,
  u08: 65535,
  item: 65535,
  u10: 65535,
  u11: 65535,
  u12: 65535,
  character: 65535,
  wtf: 4294967295,
  u15: 65535 }
9 4 { visited: 0,
  u02: 0,
  u03: 0,
  u04: 0,
  u05: 0,
  zoneId: 65535,
  u07: 65535,
  u08: 65535,
  item: 65535,
  u10: 65535,
  u11: 65535,
  u12: 65535,
  character: 65535,
  wtf: 4294967295,
  u15: 65535 }
0 5 { visited: 0,
  u02: 0,
  u03: 0,
  u04: 0,
  u05: 0,
  zoneId: 65535,
  u07: 65535,
  u08: 65535,
  item: 65535,
  u10: 65535,
  u11: 65535,
  u12: 65535,
  character: 65535,
  wtf: 4294967295,
  u15: 65535 }
1 5 { visited: 0,
  u02: 0,
  u03: 0,
  u04: 0,
  u05: 0,
  zoneId: 65535,
  u07: 65535,
  u08: 65535,
  item: 65535,
  u10: 65535,
  u11: 65535,
  u12: 65535,
  character: 65535,
  wtf: 4294967295,
  u15: 65535 }
2 5 { visited: 0,
  u02: 0,
  u03: 0,
  u04: 0,
  u05: 0,
  zoneId: 515,
  u07: 65535,
  u08: 65535,
  item: 65535,
  u10: 65535,
  u11: 65535,
  u12: 65535,
  character: 65535,
  wtf: 1,
  u15: 65535 }
3 5 { visited: 0,
  u02: 0,
  u03: 0,
  u04: 0,
  u05: 0,
  zoneId: 272,
  u07: 65535,
  u08: 65535,
  item: 511,
  u10: 65535,
  u11: 65535,
  u12: 65535,
  character: 65535,
  wtf: 17,
  u15: 65535 }
4 5 { visited: 0,
  u02: 0,
  u03: 0,
  u04: 0,
  u05: 0,
  zoneId: 583,
  u07: 65535,
  u08: 65535,
  item: 65535,
  u10: 65535,
  u11: 65535,
  u12: 65535,
  character: 65535,
  wtf: 1,
  u15: 65535 }
5 5 { visited: 0,
  u02: 0,
  u03: 0,
  u04: 0,
  u05: 0,
  zoneId: 647,
  u07: 65535,
  u08: 65535,
  item: 65535,
  u10: 65535,
  u11: 65535,
  u12: 65535,
  character: 65535,
  wtf: 1,
  u15: 65535 }
6 5 { visited: 0,
  u02: 0,
  u03: 0,
  u04: 0,
  u05: 0,
  zoneId: 65535,
  u07: 65535,
  u08: 65535,
  item: 65535,
  u10: 65535,
  u11: 65535,
  u12: 65535,
  character: 65535,
  wtf: 4294967295,
  u15: 65535 }
7 5 { visited: 0,
  u02: 0,
  u03: 0,
  u04: 0,
  u05: 0,
  zoneId: 65535,
  u07: 65535,
  u08: 65535,
  item: 65535,
  u10: 65535,
  u11: 65535,
  u12: 65535,
  character: 65535,
  wtf: 4294967295,
  u15: 65535 }
8 5 { visited: 0,
  u02: 0,
  u03: 0,
  u04: 0,
  u05: 0,
  zoneId: 65535,
  u07: 65535,
  u08: 65535,
  item: 65535,
  u10: 65535,
  u11: 65535,
  u12: 65535,
  character: 65535,
  wtf: 4294967295,
  u15: 65535 }
9 5 { visited: 0,
  u02: 0,
  u03: 0,
  u04: 0,
  u05: 0,
  zoneId: 65535,
  u07: 65535,
  u08: 65535,
  item: 65535,
  u10: 65535,
  u11: 65535,
  u12: 65535,
  character: 65535,
  wtf: 4294967295,
  u15: 65535 }
0 6 { visited: 0,
  u02: 0,
  u03: 0,
  u04: 0,
  u05: 0,
  zoneId: 534,
  u07: 65535,
  u08: 65535,
  item: 65535,
  u10: 65535,
  u11: 65535,
  u12: 65535,
  character: 65535,
  wtf: 1,
  u15: 65535 }
1 6 { visited: 0,
  u02: 0,
  u03: 0,
  u04: 0,
  u05: 0,
  zoneId: 429,
  u07: 65535,
  u08: 65535,
  item: 65535,
  u10: 65535,
  u11: 65535,
  u12: 65535,
  character: 65535,
  wtf: 1,
  u15: 65535 }
2 6 { visited: 0,
  u02: 0,
  u03: 0,
  u04: 0,
  u05: 0,
  zoneId: 439,
  u07: 65535,
  u08: 65535,
  item: 432,
  u10: 65535,
  u11: 65535,
  u12: 65535,
  character: 65535,
  wtf: 17,
  u15: 65535 }
3 6 { visited: 0,
  u02: 0,
  u03: 0,
  u04: 0,
  u05: 0,
  zoneId: 590,
  u07: 65535,
  u08: 65535,
  item: 65535,
  u10: 65535,
  u11: 65535,
  u12: 65535,
  character: 65535,
  wtf: 1,
  u15: 65535 }
4 6 { visited: 0,
  u02: 0,
  u03: 0,
  u04: 0,
  u05: 0,
  zoneId: 529,
  u07: 65535,
  u08: 65535,
  item: 65535,
  u10: 65535,
  u11: 65535,
  u12: 65535,
  character: 65535,
  wtf: 1,
  u15: 65535 }
5 6 { visited: 0,
  u02: 0,
  u03: 0,
  u04: 0,
  u05: 0,
  zoneId: 455,
  u07: 65535,
  u08: 65535,
  item: 481,
  u10: 65535,
  u11: 65535,
  u12: 65535,
  character: 65535,
  wtf: 17,
  u15: 65535 }
6 6 { visited: 0,
  u02: 0,
  u03: 0,
  u04: 0,
  u05: 0,
  zoneId: 65535,
  u07: 65535,
  u08: 65535,
  item: 65535,
  u10: 65535,
  u11: 65535,
  u12: 65535,
  character: 65535,
  wtf: 4294967295,
  u15: 65535 }
7 6 { visited: 0,
  u02: 0,
  u03: 0,
  u04: 0,
  u05: 0,
  zoneId: 65535,
  u07: 65535,
  u08: 65535,
  item: 65535,
  u10: 65535,
  u11: 65535,
  u12: 65535,
  character: 65535,
  wtf: 4294967295,
  u15: 65535 }
8 6 { visited: 0,
  u02: 0,
  u03: 0,
  u04: 0,
  u05: 0,
  zoneId: 65535,
  u07: 65535,
  u08: 65535,
  item: 65535,
  u10: 65535,
  u11: 65535,
  u12: 65535,
  character: 65535,
  wtf: 4294967295,
  u15: 65535 }
9 6 { visited: 0,
  u02: 0,
  u03: 0,
  u04: 0,
  u05: 0,
  zoneId: 65535,
  u07: 65535,
  u08: 65535,
  item: 65535,
  u10: 65535,
  u11: 65535,
  u12: 65535,
  character: 65535,
  wtf: 4294967295,
  u15: 65535 }
0 7 { visited: 0,
  u02: 0,
  u03: 0,
  u04: 0,
  u05: 0,
  zoneId: 65535,
  u07: 65535,
  u08: 65535,
  item: 65535,
  u10: 65535,
  u11: 65535,
  u12: 65535,
  character: 65535,
  wtf: 4294967295,
  u15: 65535 }
1 7 { visited: 0,
  u02: 0,
  u03: 0,
  u04: 0,
  u05: 0,
  zoneId: 587,
  u07: 65535,
  u08: 65535,
  item: 65535,
  u10: 65535,
  u11: 65535,
  u12: 65535,
  character: 65535,
  wtf: 1,
  u15: 65535 }
2 7 { visited: 0,
  u02: 0,
  u03: 0,
  u04: 0,
  u05: 0,
  zoneId: 542,
  u07: 65535,
  u08: 436,
  item: 65535,
  u10: 65535,
  u11: 65535,
  u12: 65535,
  character: 65535,
  wtf: 6,
  u15: 65535 }
3 7 { visited: 0,
  u02: 0,
  u03: 0,
  u04: 0,
  u05: 0,
  zoneId: 571,
  u07: 65535,
  u08: 65535,
  item: 436,
  u10: 65535,
  u11: 65535,
  u12: 65535,
  character: 65535,
  wtf: 17,
  u15: 65535 }
4 7 { visited: 0,
  u02: 0,
  u03: 0,
  u04: 0,
  u05: 0,
  zoneId: 65535,
  u07: 65535,
  u08: 65535,
  item: 65535,
  u10: 65535,
  u11: 65535,
  u12: 65535,
  character: 65535,
  wtf: 4294967295,
  u15: 65535 }
5 7 { visited: 0,
  u02: 0,
  u03: 0,
  u04: 0,
  u05: 0,
  zoneId: 601,
  u07: 65535,
  u08: 65535,
  item: 65535,
  u10: 65535,
  u11: 65535,
  u12: 65535,
  character: 65535,
  wtf: 1,
  u15: 65535 }
6 7 { visited: 0,
  u02: 0,
  u03: 0,
  u04: 0,
  u05: 0,
  zoneId: 528,
  u07: 65535,
  u08: 65535,
  item: 65535,
  u10: 65535,
  u11: 65535,
  u12: 65535,
  character: 65535,
  wtf: 1,
  u15: 65535 }
7 7 { visited: 0,
  u02: 0,
  u03: 0,
  u04: 0,
  u05: 0,
  zoneId: 65535,
  u07: 65535,
  u08: 65535,
  item: 65535,
  u10: 65535,
  u11: 65535,
  u12: 65535,
  character: 65535,
  wtf: 4294967295,
  u15: 65535 }
8 7 { visited: 0,
  u02: 0,
  u03: 0,
  u04: 0,
  u05: 0,
  zoneId: 65535,
  u07: 65535,
  u08: 65535,
  item: 65535,
  u10: 65535,
  u11: 65535,
  u12: 65535,
  character: 65535,
  wtf: 4294967295,
  u15: 65535 }
9 7 { visited: 0,
  u02: 0,
  u03: 0,
  u04: 0,
  u05: 0,
  zoneId: 65535,
  u07: 65535,
  u08: 65535,
  item: 65535,
  u10: 65535,
  u11: 65535,
  u12: 65535,
  character: 65535,
  wtf: 4294967295,
  u15: 65535 }
0 8 { visited: 0,
  u02: 0,
  u03: 0,
  u04: 0,
  u05: 0,
  zoneId: 572,
  u07: 2,
  u08: 483,
  item: 448,
  u10: 1,
  u11: 2114,
  u12: 1984,
  character: 65535,
  wtf: 10,
  u15: 1 }
1 8 { visited: 0,
  u02: 0,
  u03: 0,
  u04: 0,
  u05: 0,
  zoneId: 592,
  u07: 65535,
  u08: 65535,
  item: 65535,
  u10: 65535,
  u11: 65535,
  u12: 65535,
  character: 65535,
  wtf: 1,
  u15: 65535 }
2 8 { visited: 0,
  u02: 0,
  u03: 0,
  u04: 0,
  u05: 0,
  zoneId: 586,
  u07: 65535,
  u08: 65535,
  item: 65535,
  u10: 65535,
  u11: 65535,
  u12: 65535,
  character: 65535,
  wtf: 1,
  u15: 65535 }
3 8 { visited: 0,
  u02: 0,
  u03: 0,
  u04: 0,
  u05: 0,
  zoneId: 593,
  u07: 65535,
  u08: 65535,
  item: 65535,
  u10: 65535,
  u11: 65535,
  u12: 65535,
  character: 65535,
  wtf: 1,
  u15: 65535 }
4 8 { visited: 0,
  u02: 0,
  u03: 0,
  u04: 0,
  u05: 0,
  zoneId: 65535,
  u07: 65535,
  u08: 65535,
  item: 65535,
  u10: 65535,
  u11: 65535,
  u12: 65535,
  character: 65535,
  wtf: 4294967295,
  u15: 65535 }
5 8 { visited: 0,
  u02: 0,
  u03: 0,
  u04: 0,
  u05: 0,
  zoneId: 65535,
  u07: 65535,
  u08: 65535,
  item: 65535,
  u10: 65535,
  u11: 65535,
  u12: 65535,
  character: 65535,
  wtf: 4294967295,
  u15: 65535 }
6 8 { visited: 0,
  u02: 0,
  u03: 0,
  u04: 0,
  u05: 0,
  zoneId: 65535,
  u07: 65535,
  u08: 65535,
  item: 65535,
  u10: 65535,
  u11: 65535,
  u12: 65535,
  character: 65535,
  wtf: 4294967295,
  u15: 65535 }
7 8 { visited: 0,
  u02: 0,
  u03: 0,
  u04: 0,
  u05: 0,
  zoneId: 65535,
  u07: 65535,
  u08: 65535,
  item: 65535,
  u10: 65535,
  u11: 65535,
  u12: 65535,
  character: 65535,
  wtf: 4294967295,
  u15: 65535 }
8 8 { visited: 0,
  u02: 0,
  u03: 0,
  u04: 0,
  u05: 0,
  zoneId: 65535,
  u07: 65535,
  u08: 65535,
  item: 65535,
  u10: 65535,
  u11: 65535,
  u12: 65535,
  character: 65535,
  wtf: 4294967295,
  u15: 65535 }
9 8 { visited: 0,
  u02: 0,
  u03: 0,
  u04: 0,
  u05: 0,
  zoneId: 65535,
  u07: 65535,
  u08: 65535,
  item: 65535,
  u10: 65535,
  u11: 65535,
  u12: 65535,
  character: 65535,
  wtf: 4294967295,
  u15: 65535 }
0 9 { visited: 0,
  u02: 0,
  u03: 0,
  u04: 0,
  u05: 0,
  zoneId: 457,
  u07: 65535,
  u08: 65535,
  item: 65535,
  u10: 65535,
  u11: 65535,
  u12: 65535,
  character: 65535,
  wtf: 1,
  u15: 65535 }
1 9 { visited: 0,
  u02: 0,
  u03: 0,
  u04: 0,
  u05: 0,
  zoneId: 65535,
  u07: 65535,
  u08: 65535,
  item: 65535,
  u10: 65535,
  u11: 65535,
  u12: 65535,
  character: 65535,
  wtf: 4294967295,
  u15: 65535 }
2 9 { visited: 0,
  u02: 0,
  u03: 0,
  u04: 0,
  u05: 0,
  zoneId: 437,
  u07: 65535,
  u08: 65535,
  item: 65535,
  u10: 65535,
  u11: 65535,
  u12: 65535,
  character: 65535,
  wtf: 1,
  u15: 65535 }
3 9 { visited: 0,
  u02: 0,
  u03: 0,
  u04: 0,
  u05: 0,
  zoneId: 65535,
  u07: 65535,
  u08: 65535,
  item: 65535,
  u10: 65535,
  u11: 65535,
  u12: 65535,
  character: 65535,
  wtf: 4294967295,
  u15: 65535 }
4 9 { visited: 0,
  u02: 0,
  u03: 0,
  u04: 0,
  u05: 0,
  zoneId: 65535,
  u07: 65535,
  u08: 65535,
  item: 65535,
  u10: 65535,
  u11: 65535,
  u12: 65535,
  character: 65535,
  wtf: 4294967295,
  u15: 65535 }
5 9 { visited: 0,
  u02: 0,
  u03: 0,
  u04: 0,
  u05: 0,
  zoneId: 543,
  u07: 65535,
  u08: 436,
  item: 65535,
  u10: 65535,
  u11: 65535,
  u12: 65535,
  character: 65535,
  wtf: 7,
  u15: 65535 }
6 9 { visited: 0,
  u02: 0,
  u03: 0,
  u04: 0,
  u05: 0,
  zoneId: 602,
  u07: 65535,
  u08: 65535,
  item: 65535,
  u10: 65535,
  u11: 65535,
  u12: 65535,
  character: 65535,
  wtf: 1,
  u15: 65535 }
7 9 { visited: 0,
  u02: 0,
  u03: 0,
  u04: 0,
  u05: 0,
  zoneId: 646,
  u07: 65535,
  u08: 65535,
  item: 65535,
  u10: 65535,
  u11: 65535,
  u12: 65535,
  character: 65535,
  wtf: 1,
  u15: 65535 }
8 9 { visited: 0,
  u02: 0,
  u03: 0,
  u04: 0,
  u05: 0,
  zoneId: 522,
  u07: 1,
  u08: 494,
  item: 483,
  u10: 65535,
  u11: 65535,
  u12: 65535,
  character: 1069,
  wtf: 16,
  u15: 1 }
9 9 { visited: 0,
  u02: 0,
  u03: 0,
  u04: 0,
  u05: 0,
  zoneId: 65535,
  u07: 65535,
  u08: 65535,
  item: 65535,
  u10: 65535,
  u11: 65535,
  u12: 65535,
  character: 65535,
  wtf: 4294967295,
  u15: 65535 }
### ### ### ### ### ### ### ### ### ### 
### ### ### ### ### ### ### ### ### ### 
### ### ### ### ### 641 ### ### ### ### 
### ### ### 526 ### 435 ### ### ### ### 
### 648 532 530 331 476 433 445 ### ### 
### ### 515 272 583 647 ### ### ### ### 
534 429 439 590 529 455 ### ### ### ### 
### 587 542 571 ### 601 528 ### ### ### 
572 592 586 593 ### ### ### ### ### ### 
457 ### 437 ### ### 543 602 646 522 ### 
2 5
zoneId 641
zoneWasVisited: 0
{ u01: 0, u02: 2 }
-----------[ ENTITY ]-----------
{ enabled: 1, id: 1063, type: 1, x: 2, y: 5, typeName: 'SPAWN' }
--------------------------------
-----------[ ENTITY ]-----------
{ enabled: 0,
  id: 65535,
  type: 0,
  x: 5,
  y: 4,
  typeName: 'QUEST_ITEM_SPOT' }
--------------------------------
3 3
zoneId 526
zoneWasVisited: 0
{ u01: 0, u02: 2 }
-----------[ ENTITY ]-----------
{ enabled: 1, id: 564, type: 9, x: 10, y: 10, typeName: 'DOOR_IN' }
--------------------------------
-----------[ ENTITY ]-----------
{ enabled: 1,
  id: 428,
  type: 0,
  x: 9,
  y: 9,
  typeName: 'QUEST_ITEM_SPOT' }
--------------------------------
reading subzone
zoneId 564
zoneWasVisited: 0
{ u01: 0, u02: 2 }
-----------[ ENTITY ]-----------
{ enabled: 1,
  id: 65535,
  type: 10,
  x: 4,
  y: 8,
  typeName: 'DOOR_OUT' }
--------------------------------
-----------[ ENTITY ]-----------
{ enabled: 0,
  id: 65535,
  type: 0,
  x: 0,
  y: 0,
  typeName: 'QUEST_ITEM_SPOT' }
--------------------------------
3 5
zoneId 435
zoneWasVisited: 0
{ u01: 0, u02: 2 }
-----------[ ENTITY ]-----------
{ enabled: 1, id: 1197, type: 6, x: 1, y: 4, typeName: 'ITEM' }
--------------------------------
-----------[ ENTITY ]-----------
{ enabled: 1, id: 65535, type: 12, x: 9, y: 9, typeName: 'LOCK' }
--------------------------------
4 1
zoneId 648
zoneWasVisited: 0
{ u01: 0, u02: 1 }
-----------[ ENTITY ]-----------
{ enabled: 1, id: 1198, type: 6, x: 7, y: 8, typeName: 'ITEM' }
--------------------------------
4 2
zoneId 532
zoneWasVisited: 0
{ u01: 0, u02: 1 }
-----------[ ENTITY ]-----------
{ enabled: 1,
  id: 65535,
  type: 13,
  x: 8,
  y: 10,
  typeName: 'TELEPORTER' }
--------------------------------
4 3
zoneId 530
zoneWasVisited: 0
{ u01: 0, u02: 0 }
4 4
zoneId 331
zoneWasVisited: 0
{ u01: 0, u02: 1 }
-----------[ ENTITY ]-----------
{ enabled: 1, id: 421, type: 5, x: 8, y: 8, typeName: 'LOCATOR' }
--------------------------------
4 5
zoneId 476
zoneWasVisited: 0
{ u01: 0, u02: 5 }
-----------[ ENTITY ]-----------
{ enabled: 1, id: 477, type: 9, x: 10, y: 5, typeName: 'DOOR_IN' }
--------------------------------
-----------[ ENTITY ]-----------
{ enabled: 1, id: 478, type: 9, x: 3, y: 4, typeName: 'DOOR_IN' }
--------------------------------
-----------[ ENTITY ]-----------
{ enabled: 1, id: 478, type: 9, x: 15, y: 7, typeName: 'DOOR_IN' }
--------------------------------
-----------[ ENTITY ]-----------
{ enabled: 1, id: 478, type: 9, x: 5, y: 14, typeName: 'DOOR_IN' }
--------------------------------
-----------[ ENTITY ]-----------
{ enabled: 1, id: 93, type: 15, x: 9, y: 8, typeName: 'XWING_TO' }
--------------------------------
reading subzone
zoneId 477
zoneWasVisited: 0
{ u01: 0, u02: 1 }
-----------[ ENTITY ]-----------
{ enabled: 1,
  id: 65535,
  type: 10,
  x: 3,
  y: 8,
  typeName: 'DOOR_OUT' }
--------------------------------
reading subzone
zoneId 478
zoneWasVisited: 0
{ u01: 0, u02: 1 }
-----------[ ENTITY ]-----------
{ enabled: 1,
  id: 65535,
  type: 10,
  x: 4,
  y: 8,
  typeName: 'DOOR_OUT' }
--------------------------------
reading subzone
zoneId 478
zoneWasVisited: 0
{ u01: 0, u02: 1 }
-----------[ ENTITY ]-----------
{ enabled: 1,
  id: 65535,
  type: 10,
  x: 4,
  y: 8,
  typeName: 'DOOR_OUT' }
--------------------------------
reading subzone
zoneId 478
zoneWasVisited: 0
{ u01: 0, u02: 1 }
-----------[ ENTITY ]-----------
{ enabled: 1,
  id: 65535,
  type: 10,
  x: 4,
  y: 8,
  typeName: 'DOOR_OUT' }
--------------------------------
4 6
zoneId 433
zoneWasVisited: 0
{ u01: 0, u02: 0 }
4 7
zoneId 445
zoneWasVisited: 0
{ u01: 0, u02: 2 }
-----------[ ENTITY ]-----------
{ enabled: 1, id: 519, type: 9, x: 3, y: 16, typeName: 'DOOR_IN' }
--------------------------------
-----------[ ENTITY ]-----------
{ enabled: 1, id: 432, type: 12, x: 3, y: 16, typeName: 'LOCK' }
--------------------------------
reading subzone
zoneId 519
zoneWasVisited: 0
{ u01: 0, u02: 2 }
-----------[ ENTITY ]-----------
{ enabled: 1,
  id: 65535,
  type: 10,
  x: 4,
  y: 8,
  typeName: 'DOOR_OUT' }
--------------------------------
-----------[ ENTITY ]-----------
{ enabled: 1,
  id: 494,
  type: 0,
  x: 0,
  y: 0,
  typeName: 'QUEST_ITEM_SPOT' }
--------------------------------
5 2
zoneId 515
zoneWasVisited: 0
{ u01: 0, u02: 0 }
5 3
zoneId 272
zoneWasVisited: 0
{ u01: 0, u02: 1 }
-----------[ ENTITY ]-----------
{ enabled: 1, id: 273, type: 9, x: 9, y: 7, typeName: 'DOOR_IN' }
--------------------------------
reading subzone
zoneId 273
zoneWasVisited: 0
{ u01: 0, u02: 2 }
-----------[ ENTITY ]-----------
{ enabled: 1,
  id: 65535,
  type: 10,
  x: 4,
  y: 8,
  typeName: 'DOOR_OUT' }
--------------------------------
-----------[ ENTITY ]-----------
{ enabled: 1, id: 511, type: 2, x: 0, y: 0, typeName: 'THE_FORCE' }
--------------------------------
5 4
zoneId 583
zoneWasVisited: 0
{ u01: 0, u02: 0 }
5 5
zoneId 647
zoneWasVisited: 0
{ u01: 0, u02: 0 }
6 0
zoneId 534
zoneWasVisited: 0
{ u01: 0, u02: 1 }
-----------[ ENTITY ]-----------
{ enabled: 1,
  id: 65535,
  type: 13,
  x: 8,
  y: 7,
  typeName: 'TELEPORTER' }
--------------------------------
6 1
zoneId 429
zoneWasVisited: 0
{ u01: 0, u02: 1 }
-----------[ ENTITY ]-----------
{ enabled: 1, id: 1197, type: 6, x: 6, y: 7, typeName: 'ITEM' }
--------------------------------
6 2
zoneId 439
zoneWasVisited: 0
{ u01: 0, u02: 1 }
-----------[ ENTITY ]-----------
{ enabled: 1, id: 440, type: 9, x: 5, y: 10, typeName: 'DOOR_IN' }
--------------------------------
reading subzone
zoneId 440
zoneWasVisited: 0
{ u01: 0, u02: 2 }
-----------[ ENTITY ]-----------
{ enabled: 1,
  id: 65535,
  type: 10,
  x: 4,
  y: 8,
  typeName: 'DOOR_OUT' }
--------------------------------
-----------[ ENTITY ]-----------
{ enabled: 1,
  id: 432,
  type: 0,
  x: 0,
  y: 0,
  typeName: 'QUEST_ITEM_SPOT' }
--------------------------------
6 3
zoneId 590
zoneWasVisited: 0
{ u01: 0, u02: 3 }
-----------[ ENTITY ]-----------
{ enabled: 1, id: 1197, type: 6, x: 6, y: 7, typeName: 'ITEM' }
--------------------------------
-----------[ ENTITY ]-----------
{ enabled: 1, id: 1197, type: 6, x: 11, y: 8, typeName: 'ITEM' }
--------------------------------
-----------[ ENTITY ]-----------
{ enabled: 1, id: 1197, type: 6, x: 10, y: 12, typeName: 'ITEM' }
--------------------------------
6 4
zoneId 529
zoneWasVisited: 0
{ u01: 0, u02: 0 }
6 5
zoneId 455
zoneWasVisited: 0
{ u01: 0, u02: 2 }
-----------[ ENTITY ]-----------
{ enabled: 0,
  id: 65535,
  type: 0,
  x: 2,
  y: 5,
  typeName: 'QUEST_ITEM_SPOT' }
--------------------------------
-----------[ ENTITY ]-----------
{ enabled: 1,
  id: 481,
  type: 0,
  x: 12,
  y: 7,
  typeName: 'QUEST_ITEM_SPOT' }
--------------------------------
7 1
zoneId 587
zoneWasVisited: 0
{ u01: 0, u02: 1 }
-----------[ ENTITY ]-----------
{ enabled: 1, id: 1197, type: 6, x: 7, y: 6, typeName: 'ITEM' }
--------------------------------
7 2
zoneId 542
zoneWasVisited: 0
{ u01: 0, u02: 4 }
-----------[ ENTITY ]-----------
{ enabled: 1, id: 543, type: 3, x: 7, y: 6, typeName: 'VEHICLE_TO' }
--------------------------------
-----------[ ENTITY ]-----------
{ enabled: 1, id: 65535, type: 12, x: 8, y: 7, typeName: 'LOCK' }
--------------------------------
-----------[ ENTITY ]-----------
{ enabled: 1, id: 418, type: 6, x: 11, y: 5, typeName: 'ITEM' }
--------------------------------
-----------[ ENTITY ]-----------
{ enabled: 1,
  id: 1819,
  type: 7,
  x: 10,
  y: 7,
  typeName: 'PUZZLE_NPC' }
--------------------------------
7 3
zoneId 571
zoneWasVisited: 0
{ u01: 0, u02: 3 }
-----------[ ENTITY ]-----------
{ enabled: 1,
  id: 436,
  type: 0,
  x: 6,
  y: 2,
  typeName: 'QUEST_ITEM_SPOT' }
--------------------------------
-----------[ ENTITY ]-----------
{ enabled: 1, id: 528, type: 6, x: 14, y: 3, typeName: 'ITEM' }
--------------------------------
-----------[ ENTITY ]-----------
{ enabled: 1,
  id: 1824,
  type: 7,
  x: 6,
  y: 2,
  typeName: 'PUZZLE_NPC' }
--------------------------------
7 5
zoneId 601
zoneWasVisited: 0
{ u01: 0, u02: 0 }
7 6
zoneId 528
zoneWasVisited: 0
{ u01: 0, u02: 0 }
8 0
zoneId 572
zoneWasVisited: 0
{ u01: 0, u02: 4 }
-----------[ ENTITY ]-----------
{ enabled: 1, id: 573, type: 9, x: 4, y: 6, typeName: 'DOOR_IN' }
--------------------------------
-----------[ ENTITY ]-----------
{ enabled: 1, id: 574, type: 9, x: 8, y: 6, typeName: 'DOOR_IN' }
--------------------------------
-----------[ ENTITY ]-----------
{ enabled: 1,
  id: 448,
  type: 0,
  x: 10,
  y: 8,
  typeName: 'QUEST_ITEM_SPOT' }
--------------------------------
-----------[ ENTITY ]-----------
{ enabled: 1,
  id: 1984,
  type: 0,
  x: 11,
  y: 8,
  typeName: 'QUEST_ITEM_SPOT' }
--------------------------------
reading subzone
zoneId 573
zoneWasVisited: 0
{ u01: 0, u02: 2 }
-----------[ ENTITY ]-----------
{ enabled: 1,
  id: 65535,
  type: 10,
  x: 2,
  y: 16,
  typeName: 'DOOR_OUT' }
--------------------------------
-----------[ ENTITY ]-----------
{ enabled: 1, id: 578, type: 9, x: 8, y: 1, typeName: 'DOOR_IN' }
--------------------------------
reading subzone
zoneId 578
zoneWasVisited: 0
{ u01: 0, u02: 1 }
-----------[ ENTITY ]-----------
{ enabled: 1,
  id: 65535,
  type: 10,
  x: 4,
  y: 8,
  typeName: 'DOOR_OUT' }
--------------------------------
reading subzone
zoneId 574
zoneWasVisited: 0
{ u01: 0, u02: 4 }
-----------[ ENTITY ]-----------
{ enabled: 1,
  id: 65535,
  type: 10,
  x: 8,
  y: 17,
  typeName: 'DOOR_OUT' }
--------------------------------
-----------[ ENTITY ]-----------
{ enabled: 1, id: 575, type: 9, x: 0, y: 5, typeName: 'DOOR_IN' }
--------------------------------
-----------[ ENTITY ]-----------
{ enabled: 1, id: 576, type: 9, x: 10, y: 0, typeName: 'DOOR_IN' }
--------------------------------
-----------[ ENTITY ]-----------
{ enabled: 1, id: 577, type: 9, x: 17, y: 8, typeName: 'DOOR_IN' }
--------------------------------
reading subzone
zoneId 575
zoneWasVisited: 0
{ u01: 0, u02: 1 }
-----------[ ENTITY ]-----------
{ enabled: 1,
  id: 65535,
  type: 10,
  x: 17,
  y: 4,
  typeName: 'DOOR_OUT' }
--------------------------------
reading subzone
zoneId 576
zoneWasVisited: 0
{ u01: 0, u02: 2 }
-----------[ ENTITY ]-----------
{ enabled: 1,
  id: 65535,
  type: 10,
  x: 11,
  y: 17,
  typeName: 'DOOR_OUT' }
--------------------------------
-----------[ ENTITY ]-----------
{ enabled: 1, id: 629, type: 9, x: 2, y: 1, typeName: 'DOOR_IN' }
--------------------------------
reading subzone
zoneId 629
zoneWasVisited: 0
{ u01: 0, u02: 2 }
-----------[ ENTITY ]-----------
{ enabled: 1,
  id: 65535,
  type: 10,
  x: 7,
  y: 17,
  typeName: 'DOOR_OUT' }
--------------------------------
-----------[ ENTITY ]-----------
{ enabled: 1, id: 643, type: 9, x: 0, y: 10, typeName: 'DOOR_IN' }
--------------------------------
reading subzone
zoneId 643
zoneWasVisited: 0
{ u01: 0, u02: 1 }
-----------[ ENTITY ]-----------
{ enabled: 1,
  id: 65535,
  type: 10,
  x: 17,
  y: 0,
  typeName: 'DOOR_OUT' }
--------------------------------
reading subzone
zoneId 577
zoneWasVisited: 0
{ u01: 0, u02: 1 }
-----------[ ENTITY ]-----------
{ enabled: 1,
  id: 65535,
  type: 10,
  x: 0,
  y: 7,
  typeName: 'DOOR_OUT' }
--------------------------------
8 1
zoneId 592
zoneWasVisited: 0
{ u01: 0, u02: 0 }
8 2
zoneId 586
zoneWasVisited: 0
{ u01: 0, u02: 4 }
-----------[ ENTITY ]-----------
{ enabled: 1, id: 174, type: 6, x: 10, y: 6, typeName: 'ITEM' }
--------------------------------
-----------[ ENTITY ]-----------
{ enabled: 1, id: 175, type: 6, x: 10, y: 6, typeName: 'ITEM' }
--------------------------------
-----------[ ENTITY ]-----------
{ enabled: 1, id: 418, type: 6, x: 10, y: 6, typeName: 'ITEM' }
--------------------------------
-----------[ ENTITY ]-----------
{ enabled: 1, id: 425, type: 6, x: 10, y: 6, typeName: 'ITEM' }
--------------------------------
8 3
zoneId 593
zoneWasVisited: 0
{ u01: 0, u02: 1 }
-----------[ ENTITY ]-----------
{ enabled: 1,
  id: 65535,
  type: 13,
  x: 9,
  y: 9,
  typeName: 'TELEPORTER' }
--------------------------------
9 0
zoneId 457
zoneWasVisited: 0
{ u01: 0, u02: 1 }
-----------[ ENTITY ]-----------
{ enabled: 1, id: 1197, type: 6, x: 7, y: 10, typeName: 'ITEM' }
--------------------------------
9 2
zoneId 437
zoneWasVisited: 0
{ u01: 0, u02: 1 }
-----------[ ENTITY ]-----------
{ enabled: 1, id: 1197, type: 6, x: 10, y: 7, typeName: 'ITEM' }
--------------------------------
9 5
zoneId 543
zoneWasVisited: 0
{ u01: 0, u02: 2 }
-----------[ ENTITY ]-----------
{ enabled: 1,
  id: 542,
  type: 4,
  x: 13,
  y: 5,
  typeName: 'VEHICLE_FROM' }
--------------------------------
-----------[ ENTITY ]-----------
{ enabled: 1, id: 1197, type: 6, x: 7, y: 14, typeName: 'ITEM' }
--------------------------------
9 6
zoneId 602
zoneWasVisited: 0
{ u01: 0, u02: 0 }
9 7
zoneId 646
zoneWasVisited: 0
{ u01: 0, u02: 0 }
9 8
zoneId 522
zoneWasVisited: 0
{ u01: 0, u02: 1 }
-----------[ ENTITY ]-----------
{ enabled: 1, id: 1069, type: 1, x: 8, y: 8, typeName: 'SPAWN' }
--------------------------------
4294967295 4294967295
skip zone
Inventory [ 18, 794, 479 ]
[ 18, 794, 479 ]
{ zoneId: 93,
  zoneX: 4,
  zoneY: 5,
  u01: 65535,
  u02: 0,
  u03: 0,
  u04: 0,
  u05: 192,
  u06: 384,
  u07: 1,
  u08: 1,
  u09: 50,
  u10: 0,
  u11: 13,
  u12: 0,
  u13: 198,
  u14: 198 }
