{
  "zoneId": 44,
  "zoneType": 1,
  "width": 18,
  "height": 18,
  "type": 15,
  "world": 1,
  "objects": [
    {
      "type": 9,
      "x": 8,
      "y": 16,
      "unknown": 1,
      "param": 45
    },
    {
      "type": 12,
      "x": 8,
      "y": 16,
      "unknown": 1,
      "param": 65535
    }
  ],
  "actions": [
    {
      "triggers": [
        [
          "on_first_enter",
          0,
          0,
          0,
          0,
          0,
          0
        ],
        [
          "on_check_end_item",
          523,
          0,
          0,
          61304,
          320,
          0
        ]
      ],
      "commands": [
        [
          "set_temp_var",
          10,
          0,
          0,
          0,
          0,
          0
        ]
      ]
    },
    {
      "triggers": [
        [
          "on_first_enter",
          0,
          0,
          0,
          0,
          0,
          0
        ],
        [
          "on_check_end_item",
          515,
          0,
          0,
          61304,
          320,
          0
        ]
      ],
      "commands": [
        [
          "set_temp_var",
          10,
          0,
          0,
          0,
          0,
          0
        ]
      ]
    },
    {
      "triggers": [
        [
          "on_bump_tile",
          8,
          16,
          72,
          30018,
          28781,
          0
        ]
      ],
      "commands": [
        [
          "say_text",
          8,
          0,
          26707,
          30575,
          25940,
          26
        ]
      ]
    },
    {
      "triggers": [
        [
          "on_temp_var_eq",
          10,
          8,
          0,
          28483,
          28277,
          0
        ],
        [
          "on_drag_item",
          8,
          16,
          1,
          72,
          65535,
          0
        ]
      ],
      "commands": [
        [
          "play_sound",
          13,
          0,
          27728,
          31073,
          28499,
          0
        ],
        [
          "remove_item_from_inv",
          65535,
          0,
          25938,
          28525,
          25974,
          0
        ],
        [
          "set_tile",
          8,
          16,
          2,
          1073,
          25441,
          0
        ],
        [
          "redraw_tile",
          8,
          16,
          25938,
          29284,
          30561,
          0
        ],
        [
          "render_changes",
          0,
          0,
          55264,
          183,
          0,
          0
        ],
        [
          "wait_ticks",
          2,
          0,
          24919,
          29801,
          28486,
          0
        ],
        [
          "set_tile",
          8,
          16,
          2,
          1074,
          25441,
          0
        ],
        [
          "clear_tile",
          8,
          16,
          1,
          28525,
          25974,
          0
        ],
        [
          "redraw_tile",
          8,
          16,
          25938,
          28525,
          25974,
          0
        ],
        [
          "render_changes",
          0,
          0,
          55288,
          183,
          74,
          0
        ],
        [
          "wait_ticks",
          2,
          0,
          24919,
          29801,
          28486,
          0
        ],
        [
          "set_tile",
          8,
          16,
          2,
          1075,
          25441,
          0
        ],
        [
          "redraw_tile",
          8,
          16,
          25938,
          29284,
          30561,
          0
        ],
        [
          "render_changes",
          0,
          0,
          55784,
          183,
          0,
          0
        ],
        [
          "wait_ticks",
          2,
          0,
          24919,
          29801,
          28486,
          0
        ],
        [
          "clear_tile",
          8,
          16,
          2,
          28525,
          25974,
          0
        ],
        [
          "redraw_tile",
          8,
          16,
          25938,
          29284,
          30561,
          0
        ],
        [
          "render_changes",
          0,
          0,
          8200,
          110,
          0,
          0
        ]
      ]
    },
    {
      "triggers": [
        [
          "on_drag_item",
          8,
          16,
          1,
          72,
          65535,
          0
        ],
        [
          "on_temp_var_eq",
          0,
          8,
          0,
          28483,
          28277,
          0
        ]
      ],
      "commands": [
        [
          "remove_item_from_inv",
          65535,
          191,
          0,
          0,
          2952,
          0
        ],
        [
          "clear_tile",
          8,
          16,
          1,
          28525,
          25974,
          0
        ],
        [
          "redraw_tile",
          8,
          16,
          25938,
          29284,
          30561,
          0
        ],
        [
          "play_sound",
          56,
          0,
          25938,
          29284,
          30561,
          0
        ],
        [
          "render_changes",
          0,
          0,
          18112,
          147,
          0,
          0
        ],
        [
          "set_temp_var",
          2,
          0,
          0,
          0,
          65340,
          0
        ]
      ]
    },
    {
      "triggers": [
        [
          "on_drag_wrong_item",
          8,
          16,
          1,
          72,
          65535,
          0
        ],
        [
          "on_temp_var_eq",
          0,
          9,
          0,
          26707,
          30575,
          0
        ]
      ],
      "commands": [
        [
          "say_text",
          8,
          0,
          26707,
          30575,
          25940,
          47
        ]
      ]
    }
  ],
  "tilemap": [
    [
      [
        0,
        65535,
        65535
      ],
      [
        0,
        65535,
        65535
      ],
      [
        0,
        65535,
        65535
      ],
      [
        3,
        65535,
        65535
      ],
      [
        0,
        65535,
        65535
      ],
      [
        0,
        65535,
        65535
      ],
      [
        0,
        65535,
        65535
      ],
      [
        0,
        65535,
        65535
      ],
      [
        0,
        65535,
        65535
      ],
      [
        0,
        65535,
        65535
      ],
      [
        0,
        65535,
        65535
      ],
      [
        0,
        65535,
        65535
      ],
      [
        0,
        65535,
        65535
      ],
      [
        0,
        65535,
        65535
      ],
      [
        0,
        65535,
        65535
      ],
      [
        0,
        65535,
        65535
      ],
      [
        0,
        65535,
        65535
      ],
      [
        0,
        65535,
        65535
      ]
    ],
    [
      [
        0,
        65535,
        65535
      ],
      [
        0,
        65535,
        65535
      ],
      [
        0,
        65535,
        65535
      ],
      [
        0,
        57,
        65535
      ],
      [
        0,
        54,
        65535
      ],
      [
        0,
        54,
        65535
      ],
      [
        0,
        54,
        65535
      ],
      [
        0,
        59,
        65535
      ],
      [
        2,
        65535,
        65535
      ],
      [
        0,
        57,
        65535
      ],
      [
        0,
        54,
        65535
      ],
      [
        0,
        46,
        65535
      ],
      [
        345,
        65535,
        65535
      ],
      [
        0,
        45,
        65535
      ],
      [
        0,
        59,
        65535
      ],
      [
        0,
        65535,
        65535
      ],
      [
        4,
        65535,
        65535
      ],
      [
        0,
        65535,
        65535
      ]
    ],
    [
      [
        0,
        65535,
        65535
      ],
      [
        0,
        65535,
        65535
      ],
      [
        0,
        57,
        65535
      ],
      [
        0,
        62,
        65535
      ],
      [
        0,
        65535,
        65535
      ],
      [
        0,
        39,
        65535
      ],
      [
        0,
        53,
        65535
      ],
      [
        0,
        61,
        65535
      ],
      [
        0,
        65535,
        65535
      ],
      [
        0,
        60,
        65535
      ],
      [
        0,
        64,
        65535
      ],
      [
        345,
        65535,
        65535
      ],
      [
        99,
        65535,
        65535
      ],
      [
        347,
        65535,
        65535
      ],
      [
        0,
        63,
        65535
      ],
      [
        0,
        59,
        65535
      ],
      [
        0,
        65535,
        65535
      ],
      [
        0,
        65535,
        65535
      ]
    ],
    [
      [
        0,
        65535,
        65535
      ],
      [
        0,
        65535,
        65535
      ],
      [
        0,
        60,
        65535
      ],
      [
        38,
        53,
        65535
      ],
      [
        0,
        40,
        65535
      ],
      [
        0,
        65535,
        65535
      ],
      [
        0,
        65535,
        65535
      ],
      [
        0,
        65535,
        65535
      ],
      [
        0,
        65535,
        65535
      ],
      [
        0,
        65535,
        65535
      ],
      [
        0,
        60,
        65535
      ],
      [
        0,
        64,
        65535
      ],
      [
        98,
        65535,
        65535
      ],
      [
        0,
        89,
        65535
      ],
      [
        100,
        65535,
        65535
      ],
      [
        0,
        63,
        65535
      ],
      [
        0,
        59,
        65535
      ],
      [
        0,
        65535,
        65535
      ]
    ],
    [
      [
        2,
        65535,
        65535
      ],
      [
        0,
        65535,
        65535
      ],
      [
        0,
        65535,
        65535
      ],
      [
        0,
        65535,
        65535
      ],
      [
        0,
        65535,
        65535
      ],
      [
        3,
        65535,
        65535
      ],
      [
        0,
        65535,
        65535
      ],
      [
        0,
        65535,
        65535
      ],
      [
        0,
        57,
        65535
      ],
      [
        0,
        59,
        65535
      ],
      [
        0,
        65535,
        65535
      ],
      [
        0,
        60,
        65535
      ],
      [
        0,
        64,
        65535
      ],
      [
        94,
        65535,
        65535
      ],
      [
        97,
        65535,
        65535
      ],
      [
        93,
        65535,
        65535
      ],
      [
        0,
        56,
        65535
      ],
      [
        0,
        65535,
        65535
      ]
    ],
    [
      [
        0,
        65535,
        65535
      ],
      [
        0,
        57,
        65535
      ],
      [
        0,
        54,
        65535
      ],
      [
        0,
        54,
        65535
      ],
      [
        0,
        54,
        65535
      ],
      [
        0,
        59,
        65535
      ],
      [
        0,
        65535,
        65535
      ],
      [
        0,
        65535,
        65535
      ],
      [
        0,
        60,
        65535
      ],
      [
        0,
        61,
        65535
      ],
      [
        0,
        65535,
        65535
      ],
      [
        0,
        57,
        65535
      ],
      [
        0,
        62,
        65535
      ],
      [
        345,
        65535,
        65535
      ],
      [
        99,
        65535,
        65535
      ],
      [
        346,
        65535,
        65535
      ],
      [
        0,
        56,
        65535
      ],
      [
        0,
        65535,
        65535
      ]
    ],
    [
      [
        0,
        65535,
        65535
      ],
      [
        0,
        60,
        65535
      ],
      [
        0,
        64,
        65535
      ],
      [
        0,
        65,
        65535
      ],
      [
        0,
        53,
        65535
      ],
      [
        0,
        61,
        65535
      ],
      [
        0,
        65535,
        65535
      ],
      [
        0,
        65535,
        65535
      ],
      [
        0,
        65535,
        65535
      ],
      [
        0,
        65535,
        65535
      ],
      [
        0,
        57,
        65535
      ],
      [
        0,
        62,
        65535
      ],
      [
        99,
        65535,
        65535
      ],
      [
        0,
        65535,
        65535
      ],
      [
        0,
        65,
        65535
      ],
      [
        0,
        53,
        65535
      ],
      [
        0,
        61,
        65535
      ],
      [
        0,
        65535,
        65535
      ]
    ],
    [
      [
        0,
        65535,
        65535
      ],
      [
        0,
        65535,
        65535
      ],
      [
        0,
        55,
        65535
      ],
      [
        0,
        56,
        65535
      ],
      [
        0,
        65535,
        65535
      ],
      [
        0,
        65535,
        65535
      ],
      [
        0,
        65535,
        65535
      ],
      [
        0,
        45,
        65535
      ],
      [
        0,
        54,
        65535
      ],
      [
        0,
        59,
        65535
      ],
      [
        0,
        60,
        65535
      ],
      [
        0,
        64,
        65535
      ],
      [
        347,
        65535,
        65535
      ],
      [
        0,
        65535,
        65535
      ],
      [
        0,
        42,
        65535
      ],
      [
        0,
        65535,
        65535
      ],
      [
        0,
        7,
        65535
      ],
      [
        0,
        65535,
        65535
      ]
    ],
    [
      [
        0,
        65535,
        65535
      ],
      [
        0,
        65535,
        65535
      ],
      [
        0,
        55,
        65535
      ],
      [
        0,
        63,
        65535
      ],
      [
        0,
        59,
        65535
      ],
      [
        0,
        65535,
        65535
      ],
      [
        0,
        39,
        65535
      ],
      [
        0,
        64,
        65535
      ],
      [
        0,
        65535,
        65535
      ],
      [
        0,
        63,
        65535
      ],
      [
        0,
        59,
        65535
      ],
      [
        0,
        60,
        65535
      ],
      [
        0,
        64,
        65535
      ],
      [
        0,
        41,
        65535
      ],
      [
        0,
        65535,
        65535
      ],
      [
        0,
        57,
        65535
      ],
      [
        0,
        59,
        65535
      ],
      [
        0,
        65535,
        65535
      ]
    ],
    [
      [
        0,
        65535,
        65535
      ],
      [
        0,
        65535,
        65535
      ],
      [
        0,
        60,
        65535
      ],
      [
        0,
        64,
        65535
      ],
      [
        0,
        56,
        65535
      ],
      [
        0,
        65535,
        65535
      ],
      [
        0,
        65535,
        65535
      ],
      [
        0,
        60,
        65535
      ],
      [
        0,
        64,
        65535
      ],
      [
        0,
        65535,
        65535
      ],
      [
        0,
        56,
        65535
      ],
      [
        0,
        65535,
        65535
      ],
      [
        0,
        60,
        65535
      ],
      [
        0,
        61,
        65535
      ],
      [
        4,
        65535,
        65535
      ],
      [
        0,
        55,
        65535
      ],
      [
        0,
        56,
        65535
      ],
      [
        0,
        65535,
        65535
      ]
    ],
    [
      [
        0,
        65535,
        65535
      ],
      [
        0,
        65535,
        65535
      ],
      [
        0,
        65535,
        65535
      ],
      [
        0,
        60,
        65535
      ],
      [
        0,
        61,
        65535
      ],
      [
        0,
        65535,
        65535
      ],
      [
        0,
        65535,
        65535
      ],
      [
        0,
        65535,
        65535
      ],
      [
        0,
        60,
        65535
      ],
      [
        0,
        64,
        65535
      ],
      [
        0,
        42,
        65535
      ],
      [
        2,
        65535,
        65535
      ],
      [
        0,
        65535,
        65535
      ],
      [
        0,
        65535,
        65535
      ],
      [
        0,
        57,
        65535
      ],
      [
        0,
        62,
        65535
      ],
      [
        0,
        56,
        65535
      ],
      [
        0,
        65535,
        65535
      ]
    ],
    [
      [
        0,
        65535,
        65535
      ],
      [
        0,
        65535,
        65535
      ],
      [
        0,
        65535,
        65535
      ],
      [
        0,
        65535,
        65535
      ],
      [
        0,
        65535,
        65535
      ],
      [
        0,
        65535,
        65535
      ],
      [
        2,
        65535,
        65535
      ],
      [
        0,
        65535,
        65535
      ],
      [
        0,
        65535,
        65535
      ],
      [
        0,
        55,
        65535
      ],
      [
        0,
        65535,
        65535
      ],
      [
        0,
        45,
        65535
      ],
      [
        0,
        54,
        65535
      ],
      [
        0,
        59,
        65535
      ],
      [
        0,
        44,
        65535
      ],
      [
        0,
        65535,
        65535
      ],
      [
        0,
        56,
        65535
      ],
      [
        0,
        65535,
        65535
      ]
    ],
    [
      [
        3,
        65535,
        65535
      ],
      [
        0,
        65535,
        65535
      ],
      [
        0,
        57,
        65535
      ],
      [
        0,
        54,
        65535
      ],
      [
        0,
        59,
        65535
      ],
      [
        0,
        65535,
        65535
      ],
      [
        0,
        65535,
        65535
      ],
      [
        0,
        65535,
        65535
      ],
      [
        0,
        65535,
        65535
      ],
      [
        0,
        55,
        65535
      ],
      [
        0,
        65535,
        65535
      ],
      [
        0,
        65535,
        65535
      ],
      [
        0,
        7,
        65535
      ],
      [
        0,
        42,
        65535
      ],
      [
        0,
        65535,
        65535
      ],
      [
        0,
        65535,
        65535
      ],
      [
        0,
        56,
        65535
      ],
      [
        0,
        65535,
        65535
      ]
    ],
    [
      [
        0,
        65535,
        65535
      ],
      [
        0,
        57,
        65535
      ],
      [
        0,
        62,
        65535
      ],
      [
        0,
        65535,
        65535
      ],
      [
        0,
        42,
        65535
      ],
      [
        0,
        65535,
        65535
      ],
      [
        0,
        65535,
        65535
      ],
      [
        0,
        65535,
        65535
      ],
      [
        0,
        57,
        65535
      ],
      [
        0,
        62,
        65535
      ],
      [
        0,
        65535,
        65535
      ],
      [
        0,
        65535,
        65535
      ],
      [
        0,
        65535,
        65535
      ],
      [
        0,
        65535,
        65535
      ],
      [
        0,
        65535,
        65535
      ],
      [
        0,
        65,
        65535
      ],
      [
        0,
        61,
        65535
      ],
      [
        0,
        65535,
        65535
      ]
    ],
    [
      [
        0,
        65535,
        65535
      ],
      [
        0,
        60,
        65535
      ],
      [
        0,
        64,
        65535
      ],
      [
        0,
        65535,
        65535
      ],
      [
        0,
        65535,
        65535
      ],
      [
        0,
        41,
        65535
      ],
      [
        0,
        65535,
        65535
      ],
      [
        0,
        57,
        65535
      ],
      [
        0,
        62,
        65535
      ],
      [
        0,
        65535,
        65535
      ],
      [
        0,
        65535,
        65535
      ],
      [
        0,
        65535,
        65535
      ],
      [
        0,
        65535,
        65535
      ],
      [
        0,
        65,
        65535
      ],
      [
        0,
        53,
        65535
      ],
      [
        0,
        61,
        65535
      ],
      [
        4,
        65535,
        65535
      ],
      [
        0,
        65535,
        65535
      ]
    ],
    [
      [
        0,
        65535,
        65535
      ],
      [
        0,
        65535,
        65535
      ],
      [
        0,
        60,
        65535
      ],
      [
        0,
        53,
        65535
      ],
      [
        0,
        53,
        65535
      ],
      [
        4,
        61,
        65535
      ],
      [
        0,
        65535,
        65535
      ],
      [
        0,
        66,
        65535
      ],
      [
        0,
        49,
        65535
      ],
      [
        0,
        49,
        65535
      ],
      [
        0,
        49,
        65535
      ],
      [
        0,
        49,
        65535
      ],
      [
        0,
        49,
        65535
      ],
      [
        0,
        68,
        65535
      ],
      [
        0,
        65535,
        65535
      ],
      [
        0,
        65535,
        65535
      ],
      [
        0,
        65535,
        65535
      ],
      [
        0,
        65535,
        65535
      ]
    ],
    [
      [
        0,
        65535,
        65535
      ],
      [
        0,
        65535,
        65535
      ],
      [
        0,
        65535,
        65535
      ],
      [
        0,
        65535,
        65535
      ],
      [
        0,
        65535,
        65535
      ],
      [
        4,
        65535,
        65535
      ],
      [
        0,
        65535,
        65535
      ],
      [
        0,
        67,
        65535
      ],
      [
        80,
        72,
        65535
      ],
      [
        0,
        50,
        65535
      ],
      [
        0,
        50,
        65535
      ],
      [
        0,
        50,
        65535
      ],
      [
        0,
        50,
        65535
      ],
      [
        0,
        69,
        65535
      ],
      [
        0,
        65535,
        65535
      ],
      [
        2,
        65535,
        65535
      ],
      [
        0,
        65535,
        65535
      ],
      [
        0,
        65535,
        65535
      ]
    ],
    [
      [
        0,
        65535,
        65535
      ],
      [
        0,
        65535,
        65535
      ],
      [
        0,
        65535,
        65535
      ],
      [
        3,
        65535,
        65535
      ],
      [
        4,
        65535,
        65535
      ],
      [
        0,
        65535,
        65535
      ],
      [
        0,
        65535,
        65535
      ],
      [
        0,
        65535,
        65535
      ],
      [
        0,
        65535,
        65535
      ],
      [
        0,
        65535,
        65535
      ],
      [
        0,
        65535,
        65535
      ],
      [
        0,
        65535,
        65535
      ],
      [
        0,
        65535,
        65535
      ],
      [
        0,
        65535,
        65535
      ],
      [
        0,
        65535,
        65535
      ],
      [
        0,
        65535,
        65535
      ],
      [
        0,
        65535,
        65535
      ],
      [
        0,
        65535,
        65535
      ]
    ],
    []
  ]
}