{
  "zoneId": 45,
  "zoneType": 1,
  "width": 9,
  "height": 9,
  "type": 8,
  "world": 1,
  "objects": [
    {
      "type": 0,
      "x": 7,
      "y": 1,
      "unknown": 1,
      "param": 65535
    },
    {
      "type": 0,
      "x": 7,
      "y": 5,
      "unknown": 1,
      "param": 65535
    },
    {
      "type": 0,
      "x": 2,
      "y": 5,
      "unknown": 1,
      "param": 65535
    },
    {
      "type": 10,
      "x": 4,
      "y": 8,
      "unknown": 1,
      "param": 65535
    },
    {
      "type": 0,
      "x": 1,
      "y": 1,
      "unknown": 1,
      "param": 65535
    }
  ],
  "actions": [],
  "tilemap": [
    [
      [
        197,
        196,
        65535
      ],
      [
        197,
        65535,
        65535
      ],
      [
        197,
        65535,
        65535
      ],
      [
        197,
        198,
        65535
      ],
      [
        197,
        196,
        65535
      ],
      [
        189,
        65535,
        65535
      ],
      [
        197,
        65535,
        65535
      ],
      [
        197,
        65535,
        65535
      ],
      [
        197,
        198,
        65535
      ]
    ],
    [
      [
        65535,
        202,
        65535
      ],
      [
        192,
        187,
        65535
      ],
      [
        192,
        187,
        65535
      ],
      [
        192,
        201,
        65535
      ],
      [
        192,
        202,
        65535
      ],
      [
        192,
        65535,
        65535
      ],
      [
        192,
        187,
        65535
      ],
      [
        192,
        187,
        65535
      ],
      [
        192,
        201,
        65535
      ]
    ],
    [
      [
        65535,
        202,
        65535
      ],
      [
        192,
        187,
        65535
      ],
      [
        192,
        65535,
        65535
      ],
      [
        192,
        201,
        65535
      ],
      [
        192,
        202,
        65535
      ],
      [
        192,
        65535,
        65535
      ],
      [
        192,
        65535,
        65535
      ],
      [
        192,
        65535,
        65535
      ],
      [
        192,
        201,
        65535
      ]
    ],
    [
      [
        65535,
        202,
        65535
      ],
      [
        192,
        65535,
        65535
      ],
      [
        192,
        65535,
        65535
      ],
      [
        192,
        201,
        65535
      ],
      [
        192,
        202,
        65535
      ],
      [
        192,
        187,
        65535
      ],
      [
        192,
        205,
        65535
      ],
      [
        192,
        218,
        65535
      ],
      [
        192,
        195,
        65535
      ]
    ],
    [
      [
        65535,
        202,
        65535
      ],
      [
        192,
        65535,
        65535
      ],
      [
        192,
        65535,
        65535
      ],
      [
        192,
        201,
        65535
      ],
      [
        192,
        202,
        65535
      ],
      [
        192,
        65535,
        65535
      ],
      [
        204,
        65535,
        65535
      ],
      [
        197,
        65535,
        65535
      ],
      [
        192,
        198,
        65535
      ]
    ],
    [
      [
        65535,
        202,
        65535
      ],
      [
        192,
        187,
        65535
      ],
      [
        192,
        187,
        65535
      ],
      [
        204,
        65535,
        65535
      ],
      [
        203,
        65535,
        65535
      ],
      [
        192,
        65535,
        65535
      ],
      [
        192,
        65535,
        65535
      ],
      [
        192,
        187,
        65535
      ],
      [
        192,
        201,
        65535
      ]
    ],
    [
      [
        65535,
        202,
        65535
      ],
      [
        192,
        65535,
        65535
      ],
      [
        192,
        205,
        65535
      ],
      [
        192,
        218,
        65535
      ],
      [
        192,
        218,
        65535
      ],
      [
        192,
        218,
        65535
      ],
      [
        192,
        206,
        65535
      ],
      [
        192,
        65535,
        65535
      ],
      [
        192,
        201,
        65535
      ]
    ],
    [
      [
        65535,
        202,
        65535
      ],
      [
        192,
        65535,
        65535
      ],
      [
        204,
        65535,
        65535
      ],
      [
        197,
        65535,
        65535
      ],
      [
        197,
        65535,
        65535
      ],
      [
        197,
        65535,
        65535
      ],
      [
        203,
        65535,
        65535
      ],
      [
        192,
        65535,
        65535
      ],
      [
        192,
        201,
        65535
      ]
    ],
    [
      [
        65535,
        195,
        65535
      ],
      [
        65535,
        218,
        65535
      ],
      [
        65535,
        218,
        65535
      ],
      [
        65535,
        206,
        65535
      ],
      [
        194,
        65535,
        65535
      ],
      [
        65535,
        205,
        65535
      ],
      [
        65535,
        218,
        65535
      ],
      [
        65535,
        218,
        65535
      ],
      [
        65535,
        195,
        65535
      ]
    ],
    []
  ]
}