{
  "zoneId": 55,
  "zoneType": 1,
  "width": 18,
  "height": 18,
  "type": 17,
  "world": 1,
  "objects": [
    {
      "type": 0,
      "x": 11,
      "y": 9,
      "unknown": 1,
      "param": 65535
    }
  ],
  "actions": [
    {
      "triggers": [
        [
          "on_first_enter",
          0,
          0,
          0,
          0,
          0,
          0
        ]
      ],
      "commands": [
        [
          "random",
          4,
          0,
          31072,
          185,
          31148,
          0
        ],
        [
          "hide_entity",
          4,
          190,
          0,
          0,
          0,
          0
        ]
      ]
    },
    {
      "triggers": [
        [
          "on_bump_tile",
          2,
          3,
          962,
          0,
          0,
          0
        ],
        [
          "on_rand_var_eq",
          1,
          0,
          0,
          0,
          0,
          0
        ]
      ],
      "commands": [
        [
          "play_sound",
          28,
          0,
          4896,
          128,
          5148,
          0
        ],
        [
          "spawn_item",
          65535,
          2,
          3,
          25966,
          21536,
          0
        ],
        [
          "flag_once",
          0,
          0,
          37208,
          134,
          0,
          0
        ]
      ]
    },
    {
      "triggers": [
        [
          "on_bump_tile",
          9,
          2,
          153,
          28789,
          19488,
          0
        ],
        [
          "on_rand_var_eq",
          2,
          0,
          0,
          0,
          0,
          0
        ]
      ],
      "commands": [
        [
          "clear_tile",
          9,
          2,
          1,
          0,
          28204,
          0
        ],
        [
          "redraw_tile",
          9,
          2,
          0,
          0,
          0,
          0
        ],
        [
          "render_changes",
          19,
          0,
          30018,
          28781,
          26964,
          0
        ],
        [
          "play_sound",
          15,
          0,
          28504,
          185,
          0,
          0
        ],
        [
          "wait_ticks",
          2,
          0,
          27728,
          31073,
          28499,
          0
        ],
        [
          "release_camera",
          0,
          0,
          26212,
          185,
          0,
          0
        ],
        [
          "set_tile",
          9,
          2,
          1,
          1032,
          0,
          0
        ],
        [
          "redraw_tile",
          9,
          2,
          28506,
          25966,
          21536,
          0
        ],
        [
          "render_changes",
          0,
          0,
          0,
          0,
          0,
          0
        ],
        [
          "wait_ticks",
          2,
          0,
          27448,
          185,
          0,
          0
        ],
        [
          "clear_tile",
          9,
          2,
          1,
          30575,
          29254,
          0
        ],
        [
          "redraw_tile",
          9,
          2,
          2336,
          0,
          37952,
          0
        ],
        [
          "render_changes",
          0,
          0,
          0,
          0,
          0,
          0
        ],
        [
          "wait_ticks",
          2,
          0,
          37408,
          185,
          37500,
          0
        ],
        [
          "spawn_item",
          65535,
          9,
          1,
          0,
          0,
          0
        ]
      ]
    },
    {
      "triggers": [
        [
          "on_bump_tile",
          2,
          15,
          133,
          0,
          0,
          0
        ],
        [
          "on_player_at_pos",
          2,
          14,
          0,
          0,
          0,
          0
        ],
        [
          "on_rand_var_eq",
          3,
          11,
          0,
          24919,
          29801,
          0
        ]
      ],
      "commands": [
        [
          "play_sound",
          15,
          0,
          25840,
          185,
          25916,
          0
        ],
        [
          "spawn_item",
          65535,
          2,
          15,
          28781,
          26964,
          0
        ],
        [
          "flag_once",
          0,
          0,
          0,
          0,
          0,
          0
        ]
      ]
    },
    {
      "triggers": [
        [
          "on_bump_tile",
          6,
          11,
          16,
          0,
          0,
          0
        ],
        [
          "on_rand_var_eq",
          4,
          0,
          0,
          30272,
          185,
          0
        ]
      ],
      "commands": [
        [
          "set_tile",
          6,
          11,
          1,
          17,
          20500,
          0
        ],
        [
          "redraw_tile",
          6,
          11,
          0,
          0,
          0,
          0
        ],
        [
          "render_changes",
          0,
          0,
          0,
          0,
          0,
          0
        ],
        [
          "play_sound",
          26,
          0,
          30018,
          28781,
          26964,
          0
        ],
        [
          "wait_ticks",
          2,
          0,
          0,
          0,
          0,
          0
        ],
        [
          "spawn_item",
          65535,
          6,
          11,
          12346,
          8242,
          0
        ]
      ]
    },
    {
      "triggers": [
        [
          "on_has_item",
          65535,
          0,
          0,
          0,
          0,
          0
        ],
        [
          "on_rand_var_eq",
          2,
          22,
          0,
          27728,
          31073,
          0
        ]
      ],
      "commands": [
        [
          "wait_ticks",
          2,
          0,
          0,
          0,
          0,
          0
        ],
        [
          "set_tile",
          9,
          2,
          1,
          799,
          0,
          0
        ],
        [
          "redraw_tile",
          9,
          2,
          1328,
          0,
          24960,
          0
        ],
        [
          "render_changes",
          0,
          0,
          0,
          0,
          0,
          0
        ],
        [
          "wait_ticks",
          2,
          0,
          0,
          0,
          25524,
          0
        ],
        [
          "move_map_tile",
          9,
          2,
          1,
          9,
          3,
          0
        ],
        [
          "redraw_tiles",
          9,
          2,
          9,
          3,
          24948,
          0
        ],
        [
          "render_changes",
          10,
          0,
          25938,
          29284,
          30561,
          0
        ],
        [
          "wait_ticks",
          2,
          0,
          0,
          0,
          0,
          0
        ],
        [
          "set_player_pos",
          9,
          3,
          0,
          0,
          0,
          0
        ],
        [
          "clear_tile",
          9,
          3,
          1,
          10272,
          11321,
          0
        ],
        [
          "lock_camera",
          0,
          0,
          0,
          0,
          0,
          0
        ],
        [
          "wait_ticks",
          2,
          0,
          27632,
          185,
          28076,
          0
        ],
        [
          "flag_once",
          0,
          0,
          0,
          0,
          0,
          0
        ]
      ]
    },
    {
      "triggers": [
        [
          "on_bump_tile",
          2,
          3,
          962,
          0,
          0,
          0
        ],
        [
          "on_rand_var_neq",
          1,
          0,
          0,
          0,
          0,
          0
        ]
      ],
      "commands": [
        [
          "play_sound",
          6,
          0,
          24914,
          25710,
          30030,
          0
        ]
      ]
    },
    {
      "triggers": [
        [
          "on_bump_tile",
          9,
          2,
          153,
          28789,
          19488,
          0
        ],
        [
          "on_rand_var_neq",
          2,
          16,
          0,
          25938,
          29284,
          0
        ]
      ],
      "commands": [
        [
          "play_sound",
          6,
          0,
          28504,
          185,
          0,
          0
        ]
      ]
    },
    {
      "triggers": [
        [
          "on_bump_tile",
          2,
          15,
          133,
          0,
          0,
          0
        ],
        [
          "on_player_at_pos",
          2,
          14,
          0,
          0,
          0,
          0
        ],
        [
          "on_rand_var_neq",
          3,
          0,
          0,
          27728,
          31073,
          0
        ]
      ],
      "commands": [
        [
          "play_sound",
          6,
          0,
          25840,
          185,
          25916,
          0
        ]
      ]
    },
    {
      "triggers": [
        [
          "on_bump_tile",
          6,
          11,
          16,
          0,
          0,
          0
        ],
        [
          "on_rand_var_neq",
          4,
          0,
          0,
          0,
          0,
          0
        ]
      ],
      "commands": [
        [
          "set_tile",
          6,
          11,
          1,
          17,
          20500,
          0
        ],
        [
          "redraw_tile",
          6,
          11,
          0,
          0,
          0,
          0
        ],
        [
          "render_changes",
          0,
          0,
          0,
          0,
          0,
          0
        ],
        [
          "play_sound",
          20,
          0,
          30018,
          28781,
          26964,
          0
        ],
        [
          "wait_ticks",
          2,
          0,
          0,
          0,
          0,
          0
        ]
      ]
    },
    {
      "triggers": [
        [
          "on_bump_tile",
          6,
          1,
          355,
          0,
          0,
          0
        ],
        [
          "on_check_map_tile",
          5,
          6,
          1,
          0,
          0,
          0
        ]
      ],
      "commands": [
        [
          "show_entity",
          4,
          0,
          0,
          0,
          0,
          0
        ],
        [
          "set_tile",
          6,
          1,
          0,
          6,
          25441,
          0
        ]
      ]
    },
    {
      "triggers": [
        [
          "on_enemy_dead",
          4,
          18,
          0,
          28229,
          28005,
          0
        ]
      ],
      "commands": [
        [
          "set_tile",
          6,
          1,
          1,
          355,
          21536,
          0
        ],
        [
          "flag_once",
          0,
          0,
          0,
          0,
          0,
          0
        ]
      ]
    }
  ],
  "tilemap": [
    [
      [
        0,
        65535,
        65535
      ],
      [
        364,
        65535,
        65535
      ],
      [
        0,
        65535,
        65535
      ],
      [
        99,
        65535,
        65535
      ],
      [
        0,
        65535,
        65535
      ],
      [
        0,
        65535,
        65535
      ],
      [
        0,
        65535,
        65535
      ],
      [
        0,
        65535,
        124
      ],
      [
        0,
        65535,
        125
      ],
      [
        0,
        65535,
        125
      ],
      [
        0,
        65535,
        127
      ],
      [
        0,
        65535,
        65535
      ],
      [
        0,
        65535,
        65535
      ],
      [
        0,
        65535,
        65535
      ],
      [
        0,
        65535,
        65535
      ],
      [
        0,
        65535,
        65535
      ],
      [
        0,
        65535,
        65535
      ],
      [
        0,
        65535,
        65535
      ]
    ],
    [
      [
        367,
        65535,
        65535
      ],
      [
        368,
        26,
        65535
      ],
      [
        368,
        9,
        65535
      ],
      [
        0,
        21,
        65535
      ],
      [
        0,
        21,
        65535
      ],
      [
        0,
        24,
        65535
      ],
      [
        5,
        355,
        65535
      ],
      [
        0,
        156,
        65535
      ],
      [
        365,
        133,
        65535
      ],
      [
        0,
        133,
        65535
      ],
      [
        2,
        135,
        65535
      ],
      [
        0,
        65535,
        65535
      ],
      [
        0,
        65535,
        170
      ],
      [
        0,
        65535,
        65535
      ],
      [
        0,
        65535,
        65535
      ],
      [
        345,
        65535,
        65535
      ],
      [
        364,
        65535,
        65535
      ],
      [
        0,
        65535,
        65535
      ]
    ],
    [
      [
        370,
        65535,
        65535
      ],
      [
        0,
        22,
        65535
      ],
      [
        347,
        65535,
        65535
      ],
      [
        0,
        65535,
        65535
      ],
      [
        0,
        186,
        65535
      ],
      [
        0,
        25,
        65535
      ],
      [
        0,
        34,
        65535
      ],
      [
        0,
        136,
        65535
      ],
      [
        368,
        138,
        114
      ],
      [
        154,
        153,
        65535
      ],
      [
        0,
        139,
        65535
      ],
      [
        0,
        7,
        65535
      ],
      [
        368,
        171,
        65535
      ],
      [
        368,
        9,
        65535
      ],
      [
        0,
        21,
        65535
      ],
      [
        0,
        21,
        65535
      ],
      [
        368,
        24,
        65535
      ],
      [
        369,
        65535,
        65535
      ]
    ],
    [
      [
        0,
        65535,
        65535
      ],
      [
        367,
        22,
        65535
      ],
      [
        365,
        962,
        65535
      ],
      [
        366,
        65535,
        65535
      ],
      [
        0,
        26,
        65535
      ],
      [
        0,
        65535,
        65535
      ],
      [
        0,
        65535,
        65535
      ],
      [
        98,
        65535,
        65535
      ],
      [
        370,
        65535,
        65535
      ],
      [
        372,
        65535,
        65535
      ],
      [
        0,
        26,
        65535
      ],
      [
        0,
        65535,
        65535
      ],
      [
        371,
        65535,
        65535
      ],
      [
        0,
        65535,
        65535
      ],
      [
        0,
        65535,
        65535
      ],
      [
        346,
        7,
        65535
      ],
      [
        0,
        22,
        65535
      ],
      [
        0,
        65535,
        65535
      ]
    ],
    [
      [
        0,
        65535,
        65535
      ],
      [
        0,
        22,
        65535
      ],
      [
        370,
        963,
        65535
      ],
      [
        369,
        796,
        65535
      ],
      [
        0,
        25,
        65535
      ],
      [
        0,
        21,
        65535
      ],
      [
        0,
        21,
        65535
      ],
      [
        0,
        21,
        65535
      ],
      [
        0,
        21,
        65535
      ],
      [
        0,
        34,
        65535
      ],
      [
        0,
        22,
        65535
      ],
      [
        0,
        265,
        65535
      ],
      [
        0,
        65535,
        65535
      ],
      [
        0,
        9,
        65535
      ],
      [
        0,
        21,
        65535
      ],
      [
        0,
        30,
        65535
      ],
      [
        0,
        22,
        65535
      ],
      [
        3,
        65535,
        65535
      ]
    ],
    [
      [
        0,
        65535,
        65535
      ],
      [
        0,
        25,
        65535
      ],
      [
        0,
        21,
        65535
      ],
      [
        0,
        24,
        65535
      ],
      [
        0,
        65535,
        65535
      ],
      [
        0,
        65535,
        170
      ],
      [
        367,
        65535,
        65535
      ],
      [
        369,
        65535,
        65535
      ],
      [
        0,
        65535,
        65535
      ],
      [
        0,
        65535,
        65535
      ],
      [
        0,
        25,
        65535
      ],
      [
        0,
        21,
        65535
      ],
      [
        345,
        30,
        65535
      ],
      [
        0,
        186,
        124
      ],
      [
        0,
        65535,
        127
      ],
      [
        0,
        65535,
        65535
      ],
      [
        0,
        22,
        65535
      ],
      [
        0,
        65535,
        65535
      ]
    ],
    [
      [
        0,
        65535,
        65535
      ],
      [
        0,
        65535,
        65535
      ],
      [
        0,
        7,
        65535
      ],
      [
        0,
        25,
        65535
      ],
      [
        0,
        34,
        65535
      ],
      [
        368,
        171,
        65535
      ],
      [
        0,
        9,
        65535
      ],
      [
        0,
        21,
        65535
      ],
      [
        0,
        21,
        65535
      ],
      [
        0,
        24,
        65535
      ],
      [
        366,
        65535,
        65535
      ],
      [
        0,
        65535,
        65535
      ],
      [
        0,
        65535,
        65535
      ],
      [
        0,
        128,
        65535
      ],
      [
        0,
        131,
        65535
      ],
      [
        100,
        65535,
        65535
      ],
      [
        0,
        22,
        65535
      ],
      [
        0,
        65535,
        65535
      ]
    ],
    [
      [
        0,
        65535,
        65535
      ],
      [
        0,
        7,
        65535
      ],
      [
        0,
        7,
        65535
      ],
      [
        0,
        265,
        65535
      ],
      [
        0,
        65535,
        65535
      ],
      [
        371,
        65535,
        65535
      ],
      [
        0,
        1768,
        65535
      ],
      [
        0,
        65535,
        65535
      ],
      [
        0,
        65535,
        65535
      ],
      [
        367,
        25,
        65535
      ],
      [
        368,
        21,
        65535
      ],
      [
        369,
        21,
        65535
      ],
      [
        0,
        21,
        65535
      ],
      [
        117,
        156,
        65535
      ],
      [
        0,
        135,
        65535
      ],
      [
        0,
        65535,
        65535
      ],
      [
        0,
        22,
        65535
      ],
      [
        0,
        65535,
        65535
      ]
    ],
    [
      [
        0,
        65535,
        65535
      ],
      [
        0,
        7,
        65535
      ],
      [
        345,
        65535,
        65535
      ],
      [
        0,
        23,
        65535
      ],
      [
        0,
        21,
        65535
      ],
      [
        0,
        21,
        65535
      ],
      [
        0,
        21,
        65535
      ],
      [
        0,
        21,
        65535
      ],
      [
        0,
        24,
        65535
      ],
      [
        0,
        65535,
        65535
      ],
      [
        371,
        65535,
        124
      ],
      [
        0,
        65535,
        126
      ],
      [
        0,
        65535,
        127
      ],
      [
        0,
        136,
        65535
      ],
      [
        0,
        139,
        65535
      ],
      [
        0,
        796,
        65535
      ],
      [
        0,
        22,
        170
      ],
      [
        0,
        65535,
        65535
      ]
    ],
    [
      [
        0,
        65535,
        65535
      ],
      [
        0,
        23,
        65535
      ],
      [
        368,
        21,
        65535
      ],
      [
        0,
        29,
        65535
      ],
      [
        0,
        65535,
        65535
      ],
      [
        99,
        65535,
        65535
      ],
      [
        0,
        65535,
        65535
      ],
      [
        0,
        65535,
        65535
      ],
      [
        0,
        25,
        65535
      ],
      [
        0,
        21,
        65535
      ],
      [
        117,
        156,
        65535
      ],
      [
        0,
        134,
        65535
      ],
      [
        0,
        135,
        65535
      ],
      [
        0,
        65535,
        65535
      ],
      [
        0,
        26,
        65535
      ],
      [
        346,
        65535,
        65535
      ],
      [
        368,
        171,
        65535
      ],
      [
        369,
        65535,
        65535
      ]
    ],
    [
      [
        2,
        65535,
        65535
      ],
      [
        368,
        22,
        65535
      ],
      [
        372,
        65535,
        65535
      ],
      [
        0,
        65535,
        65535
      ],
      [
        0,
        23,
        65535
      ],
      [
        0,
        21,
        65535
      ],
      [
        0,
        21,
        65535
      ],
      [
        0,
        24,
        65535
      ],
      [
        0,
        186,
        65535
      ],
      [
        0,
        65535,
        65535
      ],
      [
        0,
        136,
        65535
      ],
      [
        0,
        138,
        114
      ],
      [
        0,
        139,
        65535
      ],
      [
        0,
        65535,
        65535
      ],
      [
        0,
        22,
        65535
      ],
      [
        0,
        65535,
        65535
      ],
      [
        0,
        26,
        65535
      ],
      [
        99,
        65535,
        65535
      ]
    ],
    [
      [
        0,
        65535,
        65535
      ],
      [
        0,
        22,
        65535
      ],
      [
        0,
        65535,
        65535
      ],
      [
        0,
        23,
        65535
      ],
      [
        0,
        29,
        65535
      ],
      [
        0,
        65535,
        65535
      ],
      [
        4,
        16,
        65535
      ],
      [
        0,
        22,
        65535
      ],
      [
        0,
        65535,
        65535
      ],
      [
        0,
        26,
        65535
      ],
      [
        0,
        65535,
        65535
      ],
      [
        0,
        65535,
        65535
      ],
      [
        0,
        65535,
        65535
      ],
      [
        0,
        23,
        65535
      ],
      [
        366,
        29,
        65535
      ],
      [
        0,
        65535,
        65535
      ],
      [
        0,
        22,
        65535
      ],
      [
        0,
        65535,
        65535
      ]
    ],
    [
      [
        0,
        65535,
        65535
      ],
      [
        0,
        22,
        65535
      ],
      [
        0,
        65535,
        65535
      ],
      [
        0,
        10,
        65535
      ],
      [
        0,
        65535,
        65535
      ],
      [
        0,
        9,
        65535
      ],
      [
        0,
        21,
        65535
      ],
      [
        0,
        29,
        65535
      ],
      [
        98,
        65535,
        65535
      ],
      [
        0,
        25,
        65535
      ],
      [
        0,
        21,
        65535
      ],
      [
        0,
        21,
        65535
      ],
      [
        0,
        21,
        65535
      ],
      [
        0,
        19,
        65535
      ],
      [
        371,
        65535,
        65535
      ],
      [
        0,
        65535,
        65535
      ],
      [
        0,
        22,
        65535
      ],
      [
        0,
        65535,
        65535
      ]
    ],
    [
      [
        0,
        65535,
        65535
      ],
      [
        0,
        22,
        65535
      ],
      [
        0,
        65535,
        65535
      ],
      [
        0,
        26,
        65535
      ],
      [
        0,
        186,
        65535
      ],
      [
        0,
        186,
        65535
      ],
      [
        0,
        65535,
        65535
      ],
      [
        0,
        65535,
        65535
      ],
      [
        0,
        26,
        65535
      ],
      [
        0,
        65535,
        65535
      ],
      [
        0,
        65535,
        65535
      ],
      [
        0,
        65535,
        65535
      ],
      [
        0,
        65535,
        65535
      ],
      [
        0,
        25,
        65535
      ],
      [
        0,
        24,
        65535
      ],
      [
        0,
        65535,
        65535
      ],
      [
        0,
        22,
        65535
      ],
      [
        0,
        65535,
        65535
      ]
    ],
    [
      [
        0,
        65535,
        65535
      ],
      [
        0,
        22,
        124
      ],
      [
        0,
        65535,
        125
      ],
      [
        0,
        22,
        127
      ],
      [
        0,
        65535,
        65535
      ],
      [
        0,
        9,
        65535
      ],
      [
        0,
        21,
        65535
      ],
      [
        0,
        21,
        65535
      ],
      [
        0,
        37,
        65535
      ],
      [
        0,
        21,
        65535
      ],
      [
        0,
        21,
        65535
      ],
      [
        0,
        21,
        65535
      ],
      [
        0,
        30,
        65535
      ],
      [
        0,
        7,
        65535
      ],
      [
        0,
        10,
        65535
      ],
      [
        0,
        65535,
        65535
      ],
      [
        368,
        22,
        65535
      ],
      [
        369,
        65535,
        65535
      ]
    ],
    [
      [
        0,
        65535,
        65535
      ],
      [
        0,
        156,
        158
      ],
      [
        3,
        133,
        65535
      ],
      [
        0,
        135,
        65535
      ],
      [
        0,
        65535,
        65535
      ],
      [
        0,
        65535,
        65535
      ],
      [
        0,
        65535,
        65535
      ],
      [
        0,
        65535,
        65535
      ],
      [
        0,
        65535,
        65535
      ],
      [
        365,
        65535,
        65535
      ],
      [
        0,
        65535,
        65535
      ],
      [
        0,
        1768,
        65535
      ],
      [
        0,
        65535,
        65535
      ],
      [
        0,
        65535,
        65535
      ],
      [
        0,
        65535,
        65535
      ],
      [
        345,
        65535,
        65535
      ],
      [
        0,
        22,
        65535
      ],
      [
        0,
        65535,
        65535
      ]
    ],
    [
      [
        3,
        65535,
        65535
      ],
      [
        0,
        136,
        65535
      ],
      [
        0,
        115,
        65535
      ],
      [
        0,
        139,
        65535
      ],
      [
        0,
        9,
        65535
      ],
      [
        0,
        21,
        65535
      ],
      [
        0,
        21,
        65535
      ],
      [
        0,
        21,
        65535
      ],
      [
        368,
        34,
        65535
      ],
      [
        368,
        9,
        65535
      ],
      [
        0,
        21,
        65535
      ],
      [
        0,
        21,
        65535
      ],
      [
        0,
        30,
        65535
      ],
      [
        0,
        7,
        65535
      ],
      [
        0,
        9,
        65535
      ],
      [
        0,
        21,
        65535
      ],
      [
        0,
        29,
        65535
      ],
      [
        0,
        65535,
        65535
      ]
    ],
    [
      [
        0,
        65535,
        65535
      ],
      [
        0,
        65535,
        65535
      ],
      [
        0,
        65535,
        65535
      ],
      [
        0,
        65535,
        65535
      ],
      [
        0,
        65535,
        65535
      ],
      [
        0,
        65535,
        65535
      ],
      [
        0,
        65535,
        65535
      ],
      [
        100,
        65535,
        65535
      ],
      [
        371,
        65535,
        65535
      ],
      [
        0,
        65535,
        65535
      ],
      [
        0,
        65535,
        65535
      ],
      [
        0,
        65535,
        65535
      ],
      [
        0,
        65535,
        65535
      ],
      [
        0,
        65535,
        65535
      ],
      [
        4,
        65535,
        65535
      ],
      [
        0,
        65535,
        65535
      ],
      [
        0,
        65535,
        65535
      ],
      [
        98,
        65535,
        65535
      ]
    ],
    []
  ]
}