{
  "zoneId": 72,
  "zoneType": 1,
  "width": 18,
  "height": 18,
  "type": 8,
  "world": 1,
  "objects": [
    {
      "type": 10,
      "x": 8,
      "y": 17,
      "unknown": 1,
      "param": 65535
    },
    {
      "type": 0,
      "x": 3,
      "y": 1,
      "unknown": 1,
      "param": 65535
    },
    {
      "type": 0,
      "x": 9,
      "y": 1,
      "unknown": 1,
      "param": 65535
    },
    {
      "type": 6,
      "x": 6,
      "y": 12,
      "unknown": 1,
      "param": 506
    },
    {
      "type": 8,
      "x": 6,
      "y": 16,
      "unknown": 1,
      "param": 512
    },
    {
      "type": 8,
      "x": 1,
      "y": 8,
      "unknown": 1,
      "param": 514
    }
  ],
  "actions": [
    {
      "triggers": [
        [
          "on_first_enter",
          110,
          3,
          0,
          272,
          0,
          0
        ],
        [
          "on_unknown2",
          809,
          11,
          0,
          27728,
          25441,
          0
        ]
      ],
      "commands": [
        [
          "set_temp_var",
          1,
          0,
          25939,
          17268,
          30063,
          0
        ]
      ]
    },
    {
      "triggers": [
        [
          "on_first_enter",
          110,
          0,
          0,
          18160,
          110,
          0
        ],
        [
          "on_temp_var_eq",
          0,
          8,
          0,
          28483,
          28277,
          0
        ]
      ],
      "commands": [
        [
          "random",
          3,
          0,
          26708,
          28530,
          21111,
          0
        ],
        [
          "hide_object",
          1,
          0,
          0,
          0,
          0,
          0
        ],
        [
          "hide_object",
          2,
          0,
          28488,
          21364,
          28528,
          0
        ],
        [
          "clear_tile",
          3,
          1,
          1,
          28525,
          25974,
          0
        ],
        [
          "clear_tile",
          9,
          1,
          1,
          28525,
          25974,
          0
        ],
        [
          "redraw_tiles",
          3,
          1,
          9,
          1,
          30561,
          0
        ]
      ]
    },
    {
      "triggers": [
        [
          "on_bump_tile",
          15,
          7,
          233,
          30018,
          28781,
          0
        ]
      ],
      "commands": [
        [
          "play_sound",
          16,
          0,
          27728,
          31073,
          28499,
          0
        ],
        [
          "clear_tile",
          15,
          7,
          1,
          28525,
          25974,
          0
        ],
        [
          "redraw_tile",
          15,
          7,
          25938,
          29284,
          30561,
          0
        ],
        [
          "render_changes",
          21,
          40960,
          32696,
          148,
          30976,
          0
        ]
      ]
    },
    {
      "triggers": [
        [
          "on_bump_tile",
          2,
          11,
          232,
          30018,
          28781,
          0
        ]
      ],
      "commands": [
        [
          "play_sound",
          16,
          0,
          27728,
          31073,
          28499,
          0
        ],
        [
          "clear_tile",
          2,
          11,
          1,
          28525,
          25974,
          0
        ],
        [
          "redraw_tile",
          2,
          11,
          25938,
          29284,
          30561,
          0
        ],
        [
          "render_changes",
          21,
          40960,
          32696,
          148,
          30976,
          0
        ]
      ]
    },
    {
      "triggers": [
        [
          "on_bump_tile",
          3,
          1,
          809,
          30018,
          28781,
          0
        ],
        [
          "on_temp_var_eq",
          1,
          8,
          0,
          28483,
          28277,
          0
        ]
      ],
      "commands": [
        [
          "show_text",
          3,
          1,
          26707,
          30575,
          25940,
          90
        ],
        [
          "hide_object",
          1,
          0,
          28488,
          21364,
          28528,
          0
        ],
        [
          "clear_tile",
          3,
          1,
          1,
          28525,
          25974,
          0
        ],
        [
          "spawn_item",
          809,
          3,
          1,
          28783,
          29769,
          0
        ],
        [
          "set_temp_var",
          2,
          0,
          25939,
          17268,
          30063,
          0
        ]
      ]
    },
    {
      "triggers": [
        [
          "on_bump_tile",
          9,
          1,
          809,
          30018,
          28781,
          0
        ],
        [
          "on_temp_var_eq",
          1,
          8,
          0,
          28483,
          28277,
          0
        ]
      ],
      "commands": [
        [
          "show_text",
          9,
          1,
          26707,
          30575,
          25940,
          90
        ],
        [
          "hide_object",
          2,
          0,
          28488,
          21364,
          28528,
          0
        ],
        [
          "clear_tile",
          9,
          1,
          1,
          28525,
          25974,
          0
        ],
        [
          "spawn_item",
          809,
          9,
          1,
          28783,
          29769,
          0
        ],
        [
          "set_temp_var",
          2,
          0,
          25939,
          17268,
          30063,
          0
        ]
      ]
    },
    {
      "triggers": [
        [
          "on_bump_tile",
          1,
          1,
          273,
          30018,
          28781,
          0
        ],
        [
          "on_rand_var_neq",
          1,
          10,
          0,
          24914,
          25710,
          0
        ]
      ],
      "commands": [
        [
          "show_text",
          1,
          1,
          26707,
          30575,
          25940,
          6
        ]
      ]
    },
    {
      "triggers": [
        [
          "on_bump_tile",
          1,
          1,
          273,
          30018,
          28781,
          0
        ],
        [
          "on_rand_var_eq",
          1,
          8,
          0,
          24914,
          25710,
          0
        ],
        [
          "on_temp_var_eq",
          5,
          8,
          0,
          28483,
          28277,
          0
        ]
      ],
      "commands": [
        [
          "show_text",
          1,
          1,
          26707,
          30575,
          25940,
          31
        ]
      ]
    },
    {
      "triggers": [
        [
          "on_bump_tile",
          1,
          1,
          273,
          30018,
          28781,
          0
        ],
        [
          "on_rand_var_eq",
          1,
          8,
          0,
          24914,
          25710,
          0
        ],
        [
          "on_temp_var_eq",
          0,
          8,
          0,
          28483,
          28277,
          0
        ]
      ],
      "commands": [
        [
          "show_text",
          1,
          1,
          26707,
          30575,
          25940,
          101
        ],
        [
          "spawn_item",
          65535,
          1,
          1,
          28783,
          29769,
          0
        ],
        [
          "set_temp_var",
          5,
          0,
          25939,
          17268,
          30063,
          0
        ]
      ]
    },
    {
      "triggers": [
        [
          "on_bump_tile",
          5,
          3,
          303,
          30018,
          28781,
          0
        ],
        [
          "on_rand_var_neq",
          2,
          10,
          0,
          24914,
          25710,
          0
        ]
      ],
      "commands": [
        [
          "show_text",
          5,
          2,
          26707,
          30575,
          25940,
          22
        ]
      ]
    },
    {
      "triggers": [
        [
          "on_bump_tile",
          5,
          3,
          303,
          30018,
          28781,
          0
        ],
        [
          "on_temp_var_eq",
          5,
          8,
          0,
          28483,
          28277,
          0
        ],
        [
          "on_rand_var_eq",
          2,
          8,
          0,
          24914,
          25710,
          0
        ]
      ],
      "commands": [
        [
          "show_text",
          5,
          2,
          26707,
          30575,
          25940,
          33
        ]
      ]
    },
    {
      "triggers": [
        [
          "on_bump_tile",
          5,
          3,
          303,
          30018,
          28781,
          0
        ],
        [
          "on_temp_var_eq",
          0,
          8,
          0,
          28483,
          28277,
          0
        ],
        [
          "on_rand_var_eq",
          2,
          8,
          0,
          24914,
          25710,
          0
        ]
      ],
      "commands": [
        [
          "show_text",
          5,
          2,
          26707,
          30575,
          25940,
          23
        ],
        [
          "say_text",
          8,
          0,
          26707,
          30575,
          25940,
          17
        ],
        [
          "show_text",
          5,
          2,
          26707,
          30575,
          25940,
          52
        ],
        [
          "spawn_item",
          65535,
          5,
          3,
          28783,
          29769,
          0
        ],
        [
          "set_temp_var",
          5,
          0,
          25939,
          17268,
          30063,
          0
        ]
      ]
    },
    {
      "triggers": [
        [
          "on_bump_tile",
          10,
          12,
          1057,
          30018,
          28781,
          0
        ],
        [
          "on_rand_var_neq",
          3,
          10,
          0,
          24914,
          25710,
          0
        ]
      ],
      "commands": [
        [
          "say_text",
          8,
          0,
          26707,
          30575,
          25940,
          59
        ],
        [
          "show_text",
          10,
          12,
          26707,
          30575,
          25940,
          65
        ]
      ]
    },
    {
      "triggers": [
        [
          "on_bump_tile",
          10,
          12,
          1057,
          30018,
          28781,
          0
        ],
        [
          "on_rand_var_eq",
          3,
          8,
          0,
          24914,
          25710,
          0
        ],
        [
          "on_temp_var_eq",
          5,
          8,
          0,
          28483,
          28277,
          0
        ]
      ],
      "commands": [
        [
          "show_text",
          10,
          12,
          26707,
          30575,
          25940,
          24
        ]
      ]
    },
    {
      "triggers": [
        [
          "on_bump_tile",
          10,
          12,
          1057,
          30018,
          28781,
          0
        ],
        [
          "on_rand_var_eq",
          3,
          8,
          0,
          24914,
          25710,
          0
        ],
        [
          "on_temp_var_eq",
          4,
          8,
          0,
          28483,
          28277,
          0
        ]
      ],
      "commands": [
        [
          "show_text",
          10,
          12,
          26707,
          30575,
          25940,
          121
        ],
        [
          "spawn_item",
          65535,
          10,
          12,
          0,
          0,
          0
        ],
        [
          "set_temp_var",
          5,
          0,
          25939,
          17268,
          30063,
          0
        ]
      ]
    },
    {
      "triggers": [
        [
          "on_bump_tile",
          10,
          12,
          1057,
          30018,
          28781,
          0
        ],
        [
          "on_rand_var_eq",
          3,
          8,
          0,
          24914,
          25710,
          0
        ],
        [
          "on_temp_var_eq",
          0,
          8,
          0,
          28483,
          28277,
          0
        ]
      ],
      "commands": [
        [
          "show_text",
          10,
          12,
          26707,
          30575,
          25940,
          107
        ],
        [
          "set_temp_var",
          4,
          0,
          25939,
          17268,
          30063,
          0
        ]
      ]
    },
    {
      "triggers": [
        [
          "on_bump_tile",
          11,
          14,
          629,
          30018,
          28781,
          0
        ],
        [
          "on_check_map_tile",
          623,
          11,
          14,
          2,
          25964,
          0
        ]
      ],
      "commands": [
        [
          "play_sound",
          2,
          0,
          27728,
          31073,
          28499,
          0
        ],
        [
          "set_tile",
          11,
          14,
          2,
          624,
          25441,
          0
        ],
        [
          "redraw_tile",
          11,
          14,
          25938,
          29284,
          30561,
          0
        ],
        [
          "render_changes",
          10,
          0,
          1530,
          0,
          64160,
          0
        ],
        [
          "wait_ticks",
          3,
          0,
          24919,
          29801,
          28486,
          0
        ],
        [
          "play_sound",
          16,
          0,
          27728,
          31073,
          28499,
          0
        ],
        [
          "clear_tile",
          10,
          14,
          1,
          28525,
          25974,
          0
        ],
        [
          "redraw_tile",
          10,
          14,
          25938,
          29284,
          30561,
          0
        ],
        [
          "render_changes",
          0,
          0,
          19860,
          216,
          0,
          0
        ]
      ]
    },
    {
      "triggers": [
        [
          "on_bump_tile",
          15,
          14,
          629,
          30018,
          28781,
          0
        ],
        [
          "on_check_map_tile",
          623,
          15,
          14,
          2,
          25964,
          0
        ]
      ],
      "commands": [
        [
          "play_sound",
          2,
          0,
          27728,
          31073,
          28499,
          0
        ],
        [
          "set_tile",
          15,
          14,
          2,
          624,
          25441,
          0
        ],
        [
          "redraw_tile",
          15,
          14,
          25938,
          29284,
          30561,
          0
        ],
        [
          "render_changes",
          10,
          0,
          1530,
          0,
          64160,
          0
        ],
        [
          "wait_ticks",
          3,
          0,
          24919,
          29801,
          28486,
          0
        ],
        [
          "play_sound",
          16,
          0,
          27728,
          31073,
          28499,
          0
        ],
        [
          "clear_tile",
          16,
          14,
          1,
          28525,
          25974,
          0
        ],
        [
          "redraw_tile",
          16,
          14,
          25938,
          29284,
          30561,
          0
        ],
        [
          "render_changes",
          0,
          0,
          19860,
          216,
          0,
          0
        ]
      ]
    },
    {
      "triggers": [
        [
          "on_bump_tile",
          13,
          11,
          582,
          30018,
          28781,
          0
        ]
      ],
      "commands": [
        [
          "play_sound",
          16,
          0,
          27728,
          31073,
          28499,
          0
        ],
        [
          "clear_tile",
          13,
          11,
          1,
          28525,
          25974,
          0
        ],
        [
          "redraw_tile",
          13,
          11,
          25938,
          29284,
          30561,
          0
        ],
        [
          "render_changes",
          30309,
          27749,
          8250,
          50,
          0,
          0
        ]
      ]
    }
  ],
  "tilemap": [
    [
      [
        226,
        235,
        65535
      ],
      [
        226,
        236,
        65535
      ],
      [
        226,
        236,
        65535
      ],
      [
        226,
        236,
        256
      ],
      [
        226,
        296,
        65535
      ],
      [
        226,
        272,
        65535
      ],
      [
        226,
        297,
        65535
      ],
      [
        226,
        236,
        255
      ],
      [
        226,
        236,
        65535
      ],
      [
        226,
        236,
        65535
      ],
      [
        226,
        245,
        65535
      ],
      [
        226,
        236,
        65535
      ],
      [
        226,
        236,
        65535
      ],
      [
        226,
        236,
        65535
      ],
      [
        226,
        296,
        65535
      ],
      [
        226,
        236,
        65535
      ],
      [
        226,
        272,
        65535
      ],
      [
        226,
        238,
        65535
      ]
    ],
    [
      [
        226,
        239,
        269
      ],
      [
        226,
        273,
        1062
      ],
      [
        226,
        305,
        262
      ],
      [
        226,
        65535,
        65535
      ],
      [
        226,
        298,
        65535
      ],
      [
        226,
        299,
        65535
      ],
      [
        226,
        300,
        65535
      ],
      [
        226,
        65535,
        65535
      ],
      [
        226,
        257,
        65535
      ],
      [
        226,
        65535,
        65535
      ],
      [
        226,
        240,
        270
      ],
      [
        226,
        273,
        65535
      ],
      [
        226,
        305,
        65535
      ],
      [
        226,
        1070,
        65535
      ],
      [
        226,
        298,
        65535
      ],
      [
        192,
        195,
        65535
      ],
      [
        226,
        299,
        65535
      ],
      [
        300,
        240,
        65535
      ]
    ],
    [
      [
        226,
        279,
        65535
      ],
      [
        280,
        280,
        65535
      ],
      [
        226,
        65535,
        65535
      ],
      [
        226,
        65535,
        65535
      ],
      [
        226,
        298,
        65535
      ],
      [
        301,
        1281,
        65535
      ],
      [
        226,
        300,
        65535
      ],
      [
        226,
        1060,
        65535
      ],
      [
        226,
        65535,
        65535
      ],
      [
        292,
        292,
        65535
      ],
      [
        226,
        293,
        65535
      ],
      [
        226,
        305,
        65535
      ],
      [
        226,
        1841,
        65535
      ],
      [
        226,
        65535,
        65535
      ],
      [
        226,
        298,
        65535
      ],
      [
        192,
        195,
        65535
      ],
      [
        226,
        299,
        65535
      ],
      [
        300,
        240,
        65535
      ]
    ],
    [
      [
        226,
        276,
        65535
      ],
      [
        277,
        277,
        65535
      ],
      [
        226,
        65535,
        65535
      ],
      [
        226,
        1070,
        65535
      ],
      [
        226,
        302,
        65535
      ],
      [
        226,
        303,
        65535
      ],
      [
        226,
        304,
        65535
      ],
      [
        226,
        65535,
        65535
      ],
      [
        226,
        65535,
        65535
      ],
      [
        290,
        290,
        65535
      ],
      [
        226,
        291,
        65535
      ],
      [
        226,
        65535,
        65535
      ],
      [
        226,
        65535,
        65535
      ],
      [
        226,
        65535,
        65535
      ],
      [
        226,
        298,
        65535
      ],
      [
        192,
        195,
        65535
      ],
      [
        301,
        65535,
        65535
      ],
      [
        300,
        240,
        65535
      ]
    ],
    [
      [
        226,
        279,
        65535
      ],
      [
        280,
        280,
        65535
      ],
      [
        226,
        65535,
        65535
      ],
      [
        226,
        784,
        65535
      ],
      [
        226,
        65535,
        65535
      ],
      [
        226,
        65535,
        65535
      ],
      [
        226,
        65535,
        65535
      ],
      [
        226,
        65535,
        65535
      ],
      [
        226,
        65535,
        65535
      ],
      [
        226,
        65535,
        65535
      ],
      [
        415,
        65535,
        417
      ],
      [
        226,
        65535,
        65535
      ],
      [
        226,
        65535,
        65535
      ],
      [
        226,
        65535,
        65535
      ],
      [
        226,
        302,
        65535
      ],
      [
        226,
        303,
        65535
      ],
      [
        226,
        303,
        65535
      ],
      [
        226,
        303,
        240
      ]
    ],
    [
      [
        226,
        276,
        65535
      ],
      [
        277,
        277,
        65535
      ],
      [
        226,
        65535,
        65535
      ],
      [
        226,
        65535,
        65535
      ],
      [
        226,
        65535,
        65535
      ],
      [
        226,
        65535,
        65535
      ],
      [
        226,
        65535,
        65535
      ],
      [
        226,
        65535,
        65535
      ],
      [
        226,
        65535,
        65535
      ],
      [
        290,
        290,
        65535
      ],
      [
        290,
        291,
        65535
      ],
      [
        226,
        65535,
        65535
      ],
      [
        226,
        65535,
        65535
      ],
      [
        226,
        65535,
        65535
      ],
      [
        226,
        65535,
        65535
      ],
      [
        226,
        65535,
        65535
      ],
      [
        226,
        1841,
        65535
      ],
      [
        226,
        240,
        65535
      ]
    ],
    [
      [
        226,
        239,
        65535
      ],
      [
        226,
        305,
        263
      ],
      [
        226,
        65535,
        65535
      ],
      [
        226,
        1841,
        65535
      ],
      [
        226,
        257,
        262
      ],
      [
        226,
        65535,
        65535
      ],
      [
        226,
        65535,
        65535
      ],
      [
        226,
        305,
        65535
      ],
      [
        226,
        65535,
        65535
      ],
      [
        226,
        305,
        65535
      ],
      [
        226,
        240,
        65535
      ],
      [
        226,
        1060,
        65535
      ],
      [
        226,
        801,
        65535
      ],
      [
        226,
        65535,
        65535
      ],
      [
        226,
        784,
        65535
      ],
      [
        226,
        65535,
        65535
      ],
      [
        226,
        65535,
        65535
      ],
      [
        226,
        240,
        65535
      ]
    ],
    [
      [
        226,
        235,
        65535
      ],
      [
        226,
        236,
        65535
      ],
      [
        226,
        253,
        65535
      ],
      [
        226,
        236,
        65535
      ],
      [
        226,
        245,
        65535
      ],
      [
        226,
        236,
        65535
      ],
      [
        226,
        236,
        65535
      ],
      [
        226,
        236,
        65535
      ],
      [
        226,
        236,
        254
      ],
      [
        226,
        236,
        65535
      ],
      [
        226,
        236,
        65535
      ],
      [
        226,
        236,
        65535
      ],
      [
        226,
        236,
        254
      ],
      [
        226,
        236,
        65535
      ],
      [
        226,
        236,
        65535
      ],
      [
        228,
        233,
        230
      ],
      [
        226,
        236,
        65535
      ],
      [
        226,
        238,
        65535
      ]
    ],
    [
      [
        306,
        239,
        632
      ],
      [
        306,
        265,
        65535
      ],
      [
        306,
        622,
        65535
      ],
      [
        306,
        266,
        65535
      ],
      [
        306,
        240,
        270
      ],
      [
        306,
        65535,
        65535
      ],
      [
        306,
        784,
        65535
      ],
      [
        306,
        65535,
        65535
      ],
      [
        306,
        65535,
        65535
      ],
      [
        306,
        65535,
        65535
      ],
      [
        306,
        65535,
        65535
      ],
      [
        306,
        65535,
        65535
      ],
      [
        306,
        65535,
        65535
      ],
      [
        306,
        65535,
        65535
      ],
      [
        306,
        65535,
        65535
      ],
      [
        306,
        801,
        65535
      ],
      [
        306,
        65535,
        65535
      ],
      [
        306,
        240,
        65535
      ]
    ],
    [
      [
        306,
        239,
        65535
      ],
      [
        306,
        266,
        65535
      ],
      [
        306,
        265,
        65535
      ],
      [
        306,
        65535,
        65535
      ],
      [
        310,
        65535,
        417
      ],
      [
        306,
        801,
        65535
      ],
      [
        306,
        65535,
        65535
      ],
      [
        306,
        65535,
        65535
      ],
      [
        306,
        65535,
        65535
      ],
      [
        306,
        65535,
        65535
      ],
      [
        306,
        65535,
        65535
      ],
      [
        306,
        65535,
        65535
      ],
      [
        306,
        65535,
        65535
      ],
      [
        306,
        65535,
        65535
      ],
      [
        306,
        65535,
        65535
      ],
      [
        306,
        65535,
        65535
      ],
      [
        306,
        65535,
        65535
      ],
      [
        306,
        240,
        65535
      ]
    ],
    [
      [
        306,
        239,
        632
      ],
      [
        306,
        622,
        65535
      ],
      [
        306,
        65535,
        65535
      ],
      [
        306,
        65535,
        65535
      ],
      [
        306,
        240,
        270
      ],
      [
        306,
        65535,
        65535
      ],
      [
        306,
        65535,
        65535
      ],
      [
        306,
        65535,
        65535
      ],
      [
        306,
        65535,
        65535
      ],
      [
        306,
        1841,
        65535
      ],
      [
        306,
        65535,
        65535
      ],
      [
        306,
        65535,
        65535
      ],
      [
        306,
        65535,
        65535
      ],
      [
        306,
        801,
        65535
      ],
      [
        306,
        65535,
        65535
      ],
      [
        306,
        65535,
        65535
      ],
      [
        306,
        65535,
        65535
      ],
      [
        306,
        240,
        65535
      ]
    ],
    [
      [
        226,
        235,
        65535
      ],
      [
        226,
        236,
        65535
      ],
      [
        307,
        232,
        230
      ],
      [
        226,
        237,
        65535
      ],
      [
        226,
        253,
        65535
      ],
      [
        226,
        236,
        65535
      ],
      [
        226,
        236,
        65535
      ],
      [
        226,
        238,
        65535
      ],
      [
        306,
        65535,
        65535
      ],
      [
        600,
        540,
        616
      ],
      [
        600,
        629,
        617
      ],
      [
        600,
        629,
        617
      ],
      [
        600,
        541,
        618
      ],
      [
        307,
        582,
        583
      ],
      [
        600,
        540,
        616
      ],
      [
        600,
        629,
        617
      ],
      [
        600,
        629,
        617
      ],
      [
        600,
        541,
        618
      ]
    ],
    [
      [
        226,
        239,
        811
      ],
      [
        226,
        65535,
        65535
      ],
      [
        226,
        65535,
        65535
      ],
      [
        226,
        239,
        65535
      ],
      [
        226,
        65535,
        65535
      ],
      [
        226,
        186,
        65535
      ],
      [
        226,
        186,
        65535
      ],
      [
        226,
        240,
        65535
      ],
      [
        306,
        65535,
        65535
      ],
      [
        600,
        545,
        613
      ],
      [
        600,
        1057,
        65535
      ],
      [
        600,
        65535,
        65535
      ],
      [
        600,
        544,
        614
      ],
      [
        598,
        65535,
        65535
      ],
      [
        600,
        545,
        613
      ],
      [
        600,
        65535,
        65535
      ],
      [
        600,
        784,
        65535
      ],
      [
        600,
        544,
        614
      ]
    ],
    [
      [
        226,
        239,
        811
      ],
      [
        226,
        65535,
        65535
      ],
      [
        226,
        801,
        65535
      ],
      [
        226,
        239,
        65535
      ],
      [
        226,
        65535,
        65535
      ],
      [
        226,
        801,
        65535
      ],
      [
        226,
        65535,
        65535
      ],
      [
        226,
        240,
        65535
      ],
      [
        306,
        65535,
        65535
      ],
      [
        600,
        545,
        613
      ],
      [
        600,
        65535,
        65535
      ],
      [
        600,
        65535,
        65535
      ],
      [
        600,
        544,
        614
      ],
      [
        598,
        65535,
        65535
      ],
      [
        600,
        545,
        613
      ],
      [
        600,
        65535,
        65535
      ],
      [
        600,
        65535,
        65535
      ],
      [
        600,
        544,
        614
      ]
    ],
    [
      [
        226,
        235,
        65535
      ],
      [
        226,
        236,
        65535
      ],
      [
        228,
        65535,
        230
      ],
      [
        226,
        246,
        65535
      ],
      [
        226,
        65535,
        65535
      ],
      [
        226,
        65535,
        65535
      ],
      [
        226,
        186,
        65535
      ],
      [
        226,
        240,
        65535
      ],
      [
        306,
        65535,
        65535
      ],
      [
        600,
        540,
        65535
      ],
      [
        601,
        1439,
        583
      ],
      [
        600,
        629,
        623
      ],
      [
        600,
        541,
        65535
      ],
      [
        598,
        65535,
        65535
      ],
      [
        600,
        540,
        65535
      ],
      [
        600,
        629,
        623
      ],
      [
        601,
        1439,
        583
      ],
      [
        600,
        541,
        65535
      ]
    ],
    [
      [
        226,
        239,
        65535
      ],
      [
        226,
        65535,
        65535
      ],
      [
        226,
        65535,
        65535
      ],
      [
        226,
        65535,
        65535
      ],
      [
        226,
        65535,
        65535
      ],
      [
        226,
        65535,
        65535
      ],
      [
        226,
        1841,
        65535
      ],
      [
        226,
        240,
        65535
      ],
      [
        306,
        65535,
        65535
      ],
      [
        600,
        545,
        65535
      ],
      [
        600,
        801,
        65535
      ],
      [
        600,
        65535,
        65535
      ],
      [
        600,
        65535,
        591
      ],
      [
        598,
        1841,
        65535
      ],
      [
        600,
        65535,
        593
      ],
      [
        600,
        65535,
        65535
      ],
      [
        600,
        801,
        65535
      ],
      [
        600,
        544,
        65535
      ]
    ],
    [
      [
        226,
        239,
        65535
      ],
      [
        226,
        65535,
        65535
      ],
      [
        226,
        65535,
        65535
      ],
      [
        226,
        65535,
        65535
      ],
      [
        226,
        186,
        65535
      ],
      [
        226,
        65535,
        65535
      ],
      [
        226,
        186,
        65535
      ],
      [
        226,
        240,
        65535
      ],
      [
        306,
        65535,
        65535
      ],
      [
        600,
        545,
        65535
      ],
      [
        600,
        65535,
        65535
      ],
      [
        600,
        65535,
        65535
      ],
      [
        600,
        544,
        65535
      ],
      [
        598,
        65535,
        65535
      ],
      [
        600,
        545,
        65535
      ],
      [
        600,
        65535,
        65535
      ],
      [
        600,
        65535,
        65535
      ],
      [
        600,
        544,
        65535
      ]
    ],
    [
      [
        226,
        241,
        65535
      ],
      [
        226,
        236,
        65535
      ],
      [
        226,
        236,
        65535
      ],
      [
        226,
        236,
        65535
      ],
      [
        226,
        236,
        65535
      ],
      [
        226,
        236,
        65535
      ],
      [
        226,
        236,
        65535
      ],
      [
        226,
        236,
        65535
      ],
      [
        308,
        65535,
        230
      ],
      [
        600,
        236,
        65535
      ],
      [
        600,
        236,
        65535
      ],
      [
        600,
        236,
        65535
      ],
      [
        600,
        236,
        65535
      ],
      [
        600,
        236,
        65535
      ],
      [
        600,
        236,
        65535
      ],
      [
        600,
        236,
        65535
      ],
      [
        600,
        236,
        65535
      ],
      [
        600,
        242,
        65535
      ]
    ],
    []
  ]
}