{
  "zoneId": 82,
  "zoneType": 1,
  "width": 9,
  "height": 9,
  "type": 8,
  "world": 1,
  "objects": [
    {
      "type": 1,
      "x": 7,
      "y": 1,
      "unknown": 1,
      "param": 65535
    },
    {
      "type": 10,
      "x": 4,
      "y": 8,
      "unknown": 1,
      "param": 65535
    }
  ],
  "actions": [],
  "tilemap": [
    [
      [
        306,
        235,
        65535
      ],
      [
        306,
        236,
        255
      ],
      [
        306,
        214,
        65535
      ],
      [
        306,
        215,
        65535
      ],
      [
        306,
        214,
        65535
      ],
      [
        306,
        245,
        65535
      ],
      [
        306,
        236,
        65535
      ],
      [
        306,
        236,
        256
      ],
      [
        306,
        238,
        65535
      ]
    ],
    [
      [
        306,
        239,
        65535
      ],
      [
        306,
        65535,
        65535
      ],
      [
        213,
        65535,
        65535
      ],
      [
        212,
        65535,
        65535
      ],
      [
        211,
        65535,
        65535
      ],
      [
        306,
        240,
        65535
      ],
      [
        306,
        257,
        65535
      ],
      [
        306,
        65535,
        65535
      ],
      [
        306,
        240,
        65535
      ]
    ],
    [
      [
        306,
        239,
        65535
      ],
      [
        306,
        273,
        65535
      ],
      [
        306,
        65535,
        65535
      ],
      [
        306,
        65535,
        65535
      ],
      [
        306,
        65535,
        65535
      ],
      [
        306,
        240,
        65535
      ],
      [
        306,
        65535,
        65535
      ],
      [
        306,
        65535,
        65535
      ],
      [
        306,
        240,
        65535
      ]
    ],
    [
      [
        306,
        239,
        65535
      ],
      [
        306,
        257,
        263
      ],
      [
        306,
        65535,
        65535
      ],
      [
        306,
        65535,
        65535
      ],
      [
        306,
        65535,
        65535
      ],
      [
        306,
        240,
        65535
      ],
      [
        306,
        65535,
        65535
      ],
      [
        306,
        65535,
        65535
      ],
      [
        306,
        240,
        65535
      ]
    ],
    [
      [
        306,
        235,
        65535
      ],
      [
        306,
        236,
        65535
      ],
      [
        306,
        236,
        65535
      ],
      [
        306,
        236,
        65535
      ],
      [
        307,
        65535,
        230
      ],
      [
        306,
        242,
        65535
      ],
      [
        306,
        65535,
        65535
      ],
      [
        306,
        65535,
        65535
      ],
      [
        306,
        240,
        65535
      ]
    ],
    [
      [
        306,
        239,
        65535
      ],
      [
        306,
        420,
        65535
      ],
      [
        306,
        65535,
        65535
      ],
      [
        306,
        65535,
        65535
      ],
      [
        306,
        65535,
        65535
      ],
      [
        306,
        65535,
        65535
      ],
      [
        306,
        65535,
        65535
      ],
      [
        306,
        419,
        65535
      ],
      [
        306,
        240,
        65535
      ]
    ],
    [
      [
        306,
        239,
        65535
      ],
      [
        306,
        261,
        262
      ],
      [
        306,
        65535,
        65535
      ],
      [
        306,
        65535,
        65535
      ],
      [
        306,
        65535,
        65535
      ],
      [
        306,
        65535,
        65535
      ],
      [
        306,
        65535,
        65535
      ],
      [
        306,
        260,
        262
      ],
      [
        306,
        240,
        65535
      ]
    ],
    [
      [
        306,
        239,
        65535
      ],
      [
        306,
        65535,
        65535
      ],
      [
        306,
        65535,
        65535
      ],
      [
        306,
        65535,
        65535
      ],
      [
        306,
        65535,
        65535
      ],
      [
        306,
        65535,
        65535
      ],
      [
        306,
        65535,
        65535
      ],
      [
        306,
        65535,
        65535
      ],
      [
        306,
        240,
        65535
      ]
    ],
    [
      [
        306,
        241,
        65535
      ],
      [
        306,
        236,
        65535
      ],
      [
        306,
        236,
        65535
      ],
      [
        306,
        236,
        65535
      ],
      [
        308,
        65535,
        230
      ],
      [
        306,
        236,
        65535
      ],
      [
        306,
        236,
        65535
      ],
      [
        306,
        236,
        65535
      ],
      [
        306,
        242,
        65535
      ]
    ],
    []
  ]
}