{
  "zoneId": 88,
  "zoneType": 1,
  "width": 9,
  "height": 9,
  "type": 8,
  "world": 1,
  "objects": [
    {
      "type": 10,
      "x": 4,
      "y": 8,
      "unknown": 1,
      "param": 65535
    },
    {
      "type": 1,
      "x": 5,
      "y": 0,
      "unknown": 1,
      "param": 65535
    }
  ],
  "actions": [
    {
      "triggers": [
        [
          "on_bump_tile",
          4,
          1,
          1059,
          0,
          0,
          0
        ],
        [
          "on_temp_var_eq",
          1,
          0,
          0,
          22484,
          143,
          0
        ]
      ],
      "commands": [
        [
          "show_text",
          4,
          1,
          0,
          0,
          0,
          50
        ]
      ]
    },
    {
      "triggers": [
        [
          "on_bump_tile",
          4,
          1,
          1059,
          0,
          0,
          0
        ],
        [
          "on_temp_var_eq",
          0,
          0,
          0,
          22484,
          143,
          0
        ]
      ],
      "commands": [
        [
          "show_text",
          4,
          1,
          0,
          0,
          0,
          141
        ]
      ]
    },
    {
      "triggers": [
        [
          "on_drag_item",
          4,
          1,
          1,
          1059,
          65535,
          0
        ]
      ],
      "commands": [
        [
          "play_sound",
          0,
          0,
          0,
          0,
          0,
          0
        ],
        [
          "remove_item_from_inv",
          65535,
          0,
          0,
          0,
          0,
          0
        ],
        [
          "spawn_item",
          65535,
          4,
          1,
          0,
          0,
          0
        ],
        [
          "show_text",
          4,
          1,
          0,
          0,
          0,
          45
        ],
        [
          "open",
          0,
          0,
          0,
          0,
          0,
          0
        ],
        [
          "set_temp_var",
          1,
          0,
          26707,
          30575,
          0,
          0
        ]
      ]
    }
  ],
  "tilemap": [
    [
      [
        197,
        195,
        65535
      ],
      [
        197,
        235,
        65535
      ],
      [
        197,
        236,
        65535
      ],
      [
        189,
        236,
        65535
      ],
      [
        197,
        236,
        65535
      ],
      [
        197,
        236,
        65535
      ],
      [
        197,
        236,
        65535
      ],
      [
        197,
        238,
        65535
      ],
      [
        197,
        195,
        65535
      ]
    ],
    [
      [
        192,
        195,
        65535
      ],
      [
        2041,
        239,
        65535
      ],
      [
        2041,
        257,
        1173
      ],
      [
        2041,
        65535,
        65535
      ],
      [
        2041,
        1059,
        65535
      ],
      [
        2041,
        65535,
        65535
      ],
      [
        2041,
        257,
        1172
      ],
      [
        2041,
        240,
        65535
      ],
      [
        2041,
        195,
        65535
      ]
    ],
    [
      [
        192,
        195,
        65535
      ],
      [
        2041,
        239,
        65535
      ],
      [
        2041,
        65535,
        65535
      ],
      [
        2041,
        65535,
        65535
      ],
      [
        2041,
        65535,
        65535
      ],
      [
        2041,
        65535,
        65535
      ],
      [
        2041,
        65535,
        65535
      ],
      [
        2041,
        240,
        270
      ],
      [
        2041,
        195,
        65535
      ]
    ],
    [
      [
        192,
        195,
        65535
      ],
      [
        2041,
        239,
        65535
      ],
      [
        2041,
        257,
        262
      ],
      [
        192,
        235,
        65535
      ],
      [
        2043,
        65535,
        230
      ],
      [
        192,
        238,
        65535
      ],
      [
        2041,
        65535,
        65535
      ],
      [
        2041,
        240,
        65535
      ],
      [
        65535,
        195,
        65535
      ]
    ],
    [
      [
        192,
        196,
        65535
      ],
      [
        197,
        241,
        65535
      ],
      [
        197,
        236,
        621
      ],
      [
        203,
        246,
        65535
      ],
      [
        2041,
        65535,
        65535
      ],
      [
        192,
        247,
        65535
      ],
      [
        192,
        236,
        621
      ],
      [
        197,
        242,
        65535
      ],
      [
        192,
        198,
        65535
      ]
    ],
    [
      [
        192,
        202,
        65535
      ],
      [
        192,
        65535,
        65535
      ],
      [
        192,
        65535,
        65535
      ],
      [
        192,
        65535,
        65535
      ],
      [
        2041,
        65535,
        65535
      ],
      [
        192,
        65535,
        65535
      ],
      [
        192,
        65535,
        65535
      ],
      [
        192,
        65535,
        65535
      ],
      [
        192,
        201,
        65535
      ]
    ],
    [
      [
        192,
        202,
        65535
      ],
      [
        192,
        190,
        65535
      ],
      [
        192,
        65535,
        65535
      ],
      [
        192,
        65535,
        65535
      ],
      [
        2041,
        65535,
        65535
      ],
      [
        192,
        65535,
        65535
      ],
      [
        192,
        65535,
        65535
      ],
      [
        192,
        190,
        65535
      ],
      [
        192,
        201,
        65535
      ]
    ],
    [
      [
        192,
        202,
        65535
      ],
      [
        192,
        65535,
        65535
      ],
      [
        192,
        65535,
        65535
      ],
      [
        192,
        65535,
        65535
      ],
      [
        2041,
        65535,
        65535
      ],
      [
        192,
        65535,
        65535
      ],
      [
        192,
        65535,
        65535
      ],
      [
        192,
        65535,
        65535
      ],
      [
        192,
        201,
        65535
      ]
    ],
    [
      [
        192,
        195,
        65535
      ],
      [
        192,
        218,
        65535
      ],
      [
        192,
        218,
        65535
      ],
      [
        192,
        206,
        65535
      ],
      [
        2041,
        65535,
        65535
      ],
      [
        192,
        205,
        65535
      ],
      [
        192,
        218,
        65535
      ],
      [
        192,
        218,
        65535
      ],
      [
        192,
        195,
        65535
      ]
    ],
    []
  ]
}