{
  "zoneId": 113,
  "zoneType": 1,
  "width": 9,
  "height": 9,
  "type": 8,
  "world": 1,
  "objects": [
    {
      "type": 10,
      "x": 3,
      "y": 1,
      "unknown": 1,
      "param": 65535
    },
    {
      "type": 9,
      "x": 1,
      "y": 1,
      "unknown": 1,
      "param": 114
    }
  ],
  "actions": [],
  "tilemap": [
    [
      [
        192,
        196,
        65535
      ],
      [
        188,
        65535,
        65535
      ],
      [
        197,
        207,
        65535
      ],
      [
        197,
        65535,
        65535
      ],
      [
        197,
        65535,
        65535
      ],
      [
        197,
        207,
        65535
      ],
      [
        197,
        65535,
        65535
      ],
      [
        189,
        65535,
        65535
      ],
      [
        192,
        198,
        65535
      ]
    ],
    [
      [
        192,
        202,
        65535
      ],
      [
        216,
        65535,
        65535
      ],
      [
        192,
        208,
        65535
      ],
      [
        216,
        65535,
        65535
      ],
      [
        192,
        65535,
        65535
      ],
      [
        192,
        201,
        65535
      ],
      [
        192,
        206,
        65535
      ],
      [
        192,
        65535,
        65535
      ],
      [
        192,
        201,
        65535
      ]
    ],
    [
      [
        192,
        202,
        65535
      ],
      [
        192,
        65535,
        65535
      ],
      [
        204,
        201,
        65535
      ],
      [
        192,
        206,
        65535
      ],
      [
        192,
        65535,
        65535
      ],
      [
        204,
        65535,
        65535
      ],
      [
        203,
        65535,
        65535
      ],
      [
        192,
        65535,
        65535
      ],
      [
        192,
        201,
        65535
      ]
    ],
    [
      [
        192,
        202,
        65535
      ],
      [
        192,
        65535,
        65535
      ],
      [
        204,
        65535,
        65535
      ],
      [
        192,
        198,
        65535
      ],
      [
        192,
        218,
        65535
      ],
      [
        192,
        206,
        65535
      ],
      [
        192,
        65535,
        65535
      ],
      [
        192,
        65535,
        65535
      ],
      [
        192,
        201,
        65535
      ]
    ],
    [
      [
        192,
        195,
        65535
      ],
      [
        192,
        206,
        65535
      ],
      [
        192,
        65535,
        65535
      ],
      [
        192,
        201,
        65535
      ],
      [
        192,
        195,
        65535
      ],
      [
        192,
        195,
        65535
      ],
      [
        192,
        206,
        65535
      ],
      [
        192,
        65535,
        65535
      ],
      [
        192,
        201,
        65535
      ]
    ],
    [
      [
        192,
        196,
        65535
      ],
      [
        203,
        65535,
        65535
      ],
      [
        192,
        210,
        65535
      ],
      [
        204,
        65535,
        65535
      ],
      [
        197,
        207,
        65535
      ],
      [
        197,
        65535,
        65535
      ],
      [
        203,
        65535,
        65535
      ],
      [
        192,
        65535,
        65535
      ],
      [
        192,
        201,
        65535
      ]
    ],
    [
      [
        192,
        202,
        65535
      ],
      [
        192,
        65535,
        65535
      ],
      [
        192,
        201,
        65535
      ],
      [
        192,
        206,
        65535
      ],
      [
        209,
        65535,
        65535
      ],
      [
        192,
        65535,
        65535
      ],
      [
        192,
        190,
        65535
      ],
      [
        192,
        65535,
        65535
      ],
      [
        192,
        201,
        65535
      ]
    ],
    [
      [
        192,
        202,
        65535
      ],
      [
        192,
        65535,
        65535
      ],
      [
        192,
        201,
        65535
      ],
      [
        192,
        202,
        65535
      ],
      [
        192,
        65535,
        65535
      ],
      [
        192,
        65535,
        65535
      ],
      [
        192,
        65535,
        65535
      ],
      [
        192,
        65535,
        65535
      ],
      [
        192,
        201,
        65535
      ]
    ],
    [
      [
        192,
        195,
        65535
      ],
      [
        192,
        218,
        65535
      ],
      [
        192,
        195,
        65535
      ],
      [
        192,
        195,
        65535
      ],
      [
        192,
        218,
        65535
      ],
      [
        192,
        218,
        65535
      ],
      [
        192,
        218,
        65535
      ],
      [
        192,
        218,
        65535
      ],
      [
        192,
        195,
        65535
      ]
    ],
    []
  ]
}