{
  "zoneId": 132,
  "zoneType": 2,
  "width": 18,
  "height": 18,
  "type": 15,
  "world": 2,
  "objects": [
    {
      "type": 9,
      "x": 10,
      "y": 3,
      "unknown": 1,
      "param": 190
    }
  ],
  "actions": [
    {
      "triggers": [
        [
          "on_first_enter",
          0,
          4,
          0,
          25971,
          13172,
          0
        ]
      ],
      "commands": [
        [
          "random",
          4,
          0,
          0,
          0,
          0,
          0
        ]
      ]
    },
    {
      "triggers": [
        [
          "on_bump_tile",
          2,
          13,
          1922,
          28392,
          320,
          0
        ],
        [
          "on_rand_var_eq",
          1,
          0,
          0,
          0,
          0,
          0
        ]
      ],
      "commands": [
        [
          "play_sound",
          16,
          0,
          0,
          0,
          0,
          0
        ],
        [
          "set_tile",
          2,
          13,
          1,
          1934,
          0,
          0
        ],
        [
          "redraw_tile",
          2,
          13,
          27728,
          31073,
          28499,
          0
        ],
        [
          "render_changes",
          102,
          189,
          64180,
          109,
          0,
          0
        ],
        [
          "spawn_item",
          513,
          2,
          13,
          109,
          0,
          0
        ]
      ]
    },
    {
      "triggers": [
        [
          "on_bump_tile",
          2,
          13,
          1922,
          28392,
          320,
          0
        ],
        [
          "on_rand_var_neq",
          1,
          0,
          0,
          0,
          0,
          0
        ]
      ],
      "commands": [
        [
          "play_sound",
          16,
          0,
          0,
          0,
          0,
          0
        ],
        [
          "set_tile",
          2,
          13,
          1,
          1934,
          0,
          0
        ],
        [
          "redraw_tile",
          2,
          13,
          27728,
          31073,
          28499,
          0
        ],
        [
          "render_changes",
          102,
          189,
          64180,
          109,
          0,
          0
        ]
      ]
    },
    {
      "triggers": [
        [
          "on_bump_tile",
          14,
          8,
          1175,
          28392,
          320,
          0
        ],
        [
          "on_rand_var_eq",
          3,
          0,
          0,
          0,
          0,
          0
        ]
      ],
      "commands": [
        [
          "play_sound",
          16,
          0,
          0,
          0,
          0,
          0
        ],
        [
          "set_tile",
          14,
          8,
          1,
          1250,
          0,
          0
        ],
        [
          "redraw_tile",
          14,
          8,
          27728,
          31073,
          28499,
          0
        ],
        [
          "render_changes",
          102,
          189,
          64180,
          109,
          0,
          0
        ],
        [
          "spawn_item",
          513,
          14,
          8,
          109,
          0,
          0
        ]
      ]
    },
    {
      "triggers": [
        [
          "on_bump_tile",
          14,
          8,
          1175,
          28392,
          320,
          0
        ],
        [
          "on_rand_var_neq",
          3,
          20,
          0,
          29252,
          28783,
          0
        ]
      ],
      "commands": [
        [
          "play_sound",
          16,
          0,
          0,
          0,
          0,
          0
        ],
        [
          "set_tile",
          14,
          8,
          1,
          1250,
          0,
          0
        ],
        [
          "redraw_tile",
          14,
          8,
          27728,
          31073,
          28499,
          0
        ],
        [
          "render_changes",
          102,
          189,
          64180,
          109,
          0,
          0
        ]
      ]
    }
  ],
  "tilemap": [
    [
      [
        648,
        65535,
        65535
      ],
      [
        648,
        65535,
        65535
      ],
      [
        648,
        65535,
        65535
      ],
      [
        648,
        65535,
        65535
      ],
      [
        648,
        65535,
        65535
      ],
      [
        648,
        65535,
        65535
      ],
      [
        648,
        65535,
        65535
      ],
      [
        648,
        65535,
        65535
      ],
      [
        648,
        65535,
        65535
      ],
      [
        648,
        65535,
        65535
      ],
      [
        648,
        65535,
        65535
      ],
      [
        648,
        65535,
        65535
      ],
      [
        648,
        65535,
        65535
      ],
      [
        648,
        65535,
        65535
      ],
      [
        648,
        65535,
        65535
      ],
      [
        648,
        65535,
        65535
      ],
      [
        648,
        65535,
        65535
      ],
      [
        648,
        65535,
        65535
      ]
    ],
    [
      [
        648,
        65535,
        65535
      ],
      [
        648,
        65535,
        65535
      ],
      [
        648,
        65535,
        65535
      ],
      [
        648,
        65535,
        65535
      ],
      [
        648,
        65535,
        65535
      ],
      [
        648,
        654,
        65535
      ],
      [
        648,
        660,
        65535
      ],
      [
        648,
        661,
        65535
      ],
      [
        648,
        651,
        65535
      ],
      [
        648,
        660,
        65535
      ],
      [
        648,
        661,
        65535
      ],
      [
        648,
        650,
        65535
      ],
      [
        648,
        660,
        65535
      ],
      [
        648,
        65535,
        65535
      ],
      [
        648,
        65535,
        65535
      ],
      [
        648,
        65535,
        65535
      ],
      [
        648,
        65535,
        65535
      ],
      [
        648,
        65535,
        65535
      ]
    ],
    [
      [
        648,
        65535,
        65535
      ],
      [
        648,
        672,
        65535
      ],
      [
        648,
        670,
        65535
      ],
      [
        648,
        670,
        65535
      ],
      [
        648,
        659,
        65535
      ],
      [
        648,
        65535,
        65535
      ],
      [
        648,
        656,
        65535
      ],
      [
        648,
        657,
        65535
      ],
      [
        648,
        65535,
        65535
      ],
      [
        648,
        664,
        65535
      ],
      [
        676,
        663,
        65535
      ],
      [
        648,
        659,
        65535
      ],
      [
        648,
        656,
        65535
      ],
      [
        648,
        650,
        65535
      ],
      [
        648,
        660,
        65535
      ],
      [
        648,
        65535,
        65535
      ],
      [
        648,
        65535,
        65535
      ],
      [
        648,
        65535,
        65535
      ]
    ],
    [
      [
        648,
        65535,
        65535
      ],
      [
        648,
        65535,
        65535
      ],
      [
        648,
        65535,
        65535
      ],
      [
        648,
        661,
        65535
      ],
      [
        648,
        657,
        65535
      ],
      [
        648,
        65535,
        65535
      ],
      [
        648,
        65535,
        65535
      ],
      [
        648,
        65535,
        65535
      ],
      [
        648,
        65535,
        65535
      ],
      [
        648,
        656,
        65535
      ],
      [
        676,
        65535,
        1755
      ],
      [
        648,
        657,
        65535
      ],
      [
        648,
        65535,
        65535
      ],
      [
        674,
        65535,
        65535
      ],
      [
        648,
        664,
        65535
      ],
      [
        648,
        65535,
        65535
      ],
      [
        648,
        65535,
        65535
      ],
      [
        648,
        65535,
        65535
      ]
    ],
    [
      [
        648,
        65535,
        65535
      ],
      [
        648,
        65535,
        65535
      ],
      [
        648,
        65535,
        65535
      ],
      [
        648,
        667,
        65535
      ],
      [
        648,
        65535,
        65535
      ],
      [
        648,
        65535,
        65535
      ],
      [
        648,
        65535,
        65535
      ],
      [
        648,
        65535,
        65535
      ],
      [
        648,
        65535,
        65535
      ],
      [
        648,
        65535,
        65535
      ],
      [
        648,
        65535,
        65535
      ],
      [
        648,
        65535,
        65535
      ],
      [
        648,
        65535,
        65535
      ],
      [
        648,
        996,
        65535
      ],
      [
        648,
        664,
        65535
      ],
      [
        648,
        65535,
        65535
      ],
      [
        648,
        65535,
        65535
      ],
      [
        648,
        65535,
        65535
      ]
    ],
    [
      [
        648,
        65535,
        65535
      ],
      [
        648,
        65535,
        65535
      ],
      [
        648,
        661,
        65535
      ],
      [
        648,
        657,
        65535
      ],
      [
        648,
        65535,
        65535
      ],
      [
        1013,
        65535,
        65535
      ],
      [
        1009,
        65535,
        65535
      ],
      [
        1009,
        65535,
        65535
      ],
      [
        1014,
        65535,
        65535
      ],
      [
        648,
        65535,
        65535
      ],
      [
        648,
        658,
        65535
      ],
      [
        648,
        670,
        65535
      ],
      [
        648,
        670,
        65535
      ],
      [
        648,
        670,
        65535
      ],
      [
        648,
        662,
        65535
      ],
      [
        648,
        65535,
        65535
      ],
      [
        648,
        65535,
        65535
      ],
      [
        648,
        65535,
        65535
      ]
    ],
    [
      [
        648,
        65535,
        65535
      ],
      [
        648,
        65535,
        65535
      ],
      [
        648,
        667,
        65535
      ],
      [
        648,
        65535,
        65535
      ],
      [
        1013,
        65535,
        65535
      ],
      [
        1017,
        65535,
        65535
      ],
      [
        1008,
        65535,
        65535
      ],
      [
        1008,
        1021,
        65535
      ],
      [
        1018,
        65535,
        65535
      ],
      [
        1014,
        65535,
        65535
      ],
      [
        648,
        664,
        65535
      ],
      [
        648,
        65535,
        65535
      ],
      [
        648,
        65535,
        65535
      ],
      [
        648,
        65535,
        65535
      ],
      [
        648,
        65535,
        65535
      ],
      [
        997,
        65535,
        65535
      ],
      [
        648,
        65535,
        65535
      ],
      [
        648,
        65535,
        65535
      ]
    ],
    [
      [
        648,
        65535,
        65535
      ],
      [
        648,
        65535,
        65535
      ],
      [
        648,
        667,
        65535
      ],
      [
        1013,
        65535,
        65535
      ],
      [
        1017,
        65535,
        65535
      ],
      [
        1008,
        65535,
        65535
      ],
      [
        1008,
        65535,
        65535
      ],
      [
        1020,
        65535,
        65535
      ],
      [
        1012,
        65535,
        65535
      ],
      [
        1016,
        65535,
        65535
      ],
      [
        648,
        666,
        65535
      ],
      [
        648,
        65535,
        65535
      ],
      [
        648,
        65535,
        65535
      ],
      [
        648,
        65535,
        65535
      ],
      [
        648,
        65535,
        65535
      ],
      [
        648,
        65535,
        65535
      ],
      [
        648,
        65535,
        65535
      ],
      [
        648,
        65535,
        65535
      ]
    ],
    [
      [
        648,
        65535,
        65535
      ],
      [
        648,
        65535,
        65535
      ],
      [
        648,
        667,
        65535
      ],
      [
        1010,
        65535,
        65535
      ],
      [
        1008,
        65535,
        65535
      ],
      [
        1020,
        65535,
        65535
      ],
      [
        1012,
        65535,
        65535
      ],
      [
        1016,
        65535,
        65535
      ],
      [
        648,
        65535,
        65535
      ],
      [
        648,
        665,
        65535
      ],
      [
        648,
        65535,
        65535
      ],
      [
        648,
        65535,
        65535
      ],
      [
        648,
        65535,
        65535
      ],
      [
        648,
        1174,
        65535
      ],
      [
        648,
        1175,
        65535
      ],
      [
        1000,
        65535,
        65535
      ],
      [
        1000,
        65535,
        65535
      ],
      [
        1000,
        65535,
        65535
      ]
    ],
    [
      [
        648,
        65535,
        65535
      ],
      [
        648,
        65535,
        65535
      ],
      [
        648,
        667,
        65535
      ],
      [
        1015,
        65535,
        65535
      ],
      [
        1012,
        65535,
        65535
      ],
      [
        1016,
        65535,
        65535
      ],
      [
        998,
        65535,
        65535
      ],
      [
        648,
        65535,
        65535
      ],
      [
        648,
        658,
        65535
      ],
      [
        648,
        662,
        65535
      ],
      [
        648,
        65535,
        65535
      ],
      [
        648,
        65535,
        65535
      ],
      [
        648,
        65535,
        65535
      ],
      [
        648,
        65535,
        65535
      ],
      [
        648,
        65535,
        65535
      ],
      [
        648,
        65535,
        65535
      ],
      [
        648,
        65535,
        65535
      ],
      [
        648,
        65535,
        65535
      ]
    ],
    [
      [
        648,
        65535,
        65535
      ],
      [
        648,
        65535,
        65535
      ],
      [
        648,
        663,
        65535
      ],
      [
        648,
        670,
        65535
      ],
      [
        648,
        671,
        65535
      ],
      [
        674,
        65535,
        65535
      ],
      [
        648,
        672,
        65535
      ],
      [
        648,
        670,
        65535
      ],
      [
        648,
        662,
        65535
      ],
      [
        648,
        65535,
        65535
      ],
      [
        648,
        65535,
        65535
      ],
      [
        648,
        65535,
        65535
      ],
      [
        648,
        65535,
        65535
      ],
      [
        648,
        65535,
        65535
      ],
      [
        648,
        65535,
        65535
      ],
      [
        648,
        65535,
        65535
      ],
      [
        648,
        65535,
        65535
      ],
      [
        648,
        65535,
        65535
      ]
    ],
    [
      [
        648,
        65535,
        65535
      ],
      [
        648,
        65535,
        65535
      ],
      [
        648,
        65535,
        65535
      ],
      [
        648,
        65535,
        65535
      ],
      [
        648,
        65535,
        65535
      ],
      [
        648,
        65535,
        65535
      ],
      [
        648,
        65535,
        65535
      ],
      [
        648,
        65535,
        65535
      ],
      [
        648,
        65535,
        65535
      ],
      [
        648,
        65535,
        65535
      ],
      [
        648,
        65535,
        65535
      ],
      [
        648,
        65535,
        65535
      ],
      [
        648,
        65535,
        65535
      ],
      [
        648,
        65535,
        65535
      ],
      [
        648,
        65535,
        65535
      ],
      [
        648,
        65535,
        65535
      ],
      [
        648,
        65535,
        65535
      ],
      [
        648,
        65535,
        65535
      ]
    ],
    [
      [
        648,
        65535,
        65535
      ],
      [
        648,
        65535,
        65535
      ],
      [
        997,
        65535,
        65535
      ],
      [
        648,
        65535,
        65535
      ],
      [
        648,
        65535,
        65535
      ],
      [
        648,
        65535,
        65535
      ],
      [
        648,
        65535,
        65535
      ],
      [
        648,
        65535,
        65535
      ],
      [
        648,
        658,
        65535
      ],
      [
        648,
        659,
        65535
      ],
      [
        648,
        65535,
        65535
      ],
      [
        648,
        658,
        65535
      ],
      [
        648,
        659,
        65535
      ],
      [
        648,
        65535,
        65535
      ],
      [
        648,
        65535,
        65535
      ],
      [
        648,
        65535,
        65535
      ],
      [
        648,
        65535,
        65535
      ],
      [
        648,
        65535,
        65535
      ]
    ],
    [
      [
        1000,
        65535,
        65535
      ],
      [
        1000,
        65535,
        65535
      ],
      [
        648,
        1922,
        65535
      ],
      [
        648,
        1923,
        65535
      ],
      [
        648,
        65535,
        65535
      ],
      [
        648,
        65535,
        65535
      ],
      [
        648,
        65535,
        65535
      ],
      [
        648,
        65535,
        65535
      ],
      [
        648,
        664,
        65535
      ],
      [
        648,
        663,
        65535
      ],
      [
        648,
        670,
        995
      ],
      [
        648,
        662,
        65535
      ],
      [
        648,
        667,
        65535
      ],
      [
        648,
        65535,
        65535
      ],
      [
        648,
        65535,
        65535
      ],
      [
        648,
        65535,
        65535
      ],
      [
        648,
        65535,
        65535
      ],
      [
        998,
        65535,
        65535
      ]
    ],
    [
      [
        648,
        65535,
        65535
      ],
      [
        648,
        65535,
        65535
      ],
      [
        648,
        65535,
        65535
      ],
      [
        648,
        65535,
        65535
      ],
      [
        648,
        65535,
        65535
      ],
      [
        648,
        65535,
        65535
      ],
      [
        648,
        65535,
        65535
      ],
      [
        648,
        658,
        65535
      ],
      [
        648,
        662,
        65535
      ],
      [
        648,
        65535,
        65535
      ],
      [
        648,
        994,
        65535
      ],
      [
        648,
        675,
        65535
      ],
      [
        648,
        667,
        65535
      ],
      [
        648,
        65535,
        65535
      ],
      [
        648,
        65535,
        65535
      ],
      [
        648,
        65535,
        65535
      ],
      [
        648,
        65535,
        65535
      ],
      [
        648,
        65535,
        65535
      ]
    ],
    [
      [
        648,
        65535,
        65535
      ],
      [
        648,
        65535,
        65535
      ],
      [
        648,
        65535,
        65535
      ],
      [
        648,
        65535,
        65535
      ],
      [
        648,
        65535,
        65535
      ],
      [
        648,
        65535,
        65535
      ],
      [
        648,
        65535,
        65535
      ],
      [
        648,
        656,
        65535
      ],
      [
        648,
        650,
        65535
      ],
      [
        648,
        650,
        65535
      ],
      [
        648,
        650,
        65535
      ],
      [
        648,
        650,
        65535
      ],
      [
        648,
        657,
        65535
      ],
      [
        648,
        65535,
        65535
      ],
      [
        648,
        65535,
        65535
      ],
      [
        648,
        65535,
        65535
      ],
      [
        648,
        65535,
        65535
      ],
      [
        648,
        65535,
        65535
      ]
    ],
    [
      [
        648,
        65535,
        65535
      ],
      [
        648,
        65535,
        65535
      ],
      [
        648,
        65535,
        65535
      ],
      [
        648,
        65535,
        65535
      ],
      [
        648,
        65535,
        65535
      ],
      [
        648,
        65535,
        65535
      ],
      [
        648,
        65535,
        65535
      ],
      [
        648,
        65535,
        65535
      ],
      [
        648,
        65535,
        65535
      ],
      [
        648,
        65535,
        65535
      ],
      [
        648,
        65535,
        65535
      ],
      [
        648,
        65535,
        65535
      ],
      [
        648,
        65535,
        65535
      ],
      [
        648,
        65535,
        65535
      ],
      [
        997,
        65535,
        65535
      ],
      [
        648,
        65535,
        65535
      ],
      [
        648,
        65535,
        65535
      ],
      [
        648,
        65535,
        65535
      ]
    ],
    [
      [
        648,
        65535,
        65535
      ],
      [
        648,
        65535,
        65535
      ],
      [
        648,
        65535,
        65535
      ],
      [
        648,
        65535,
        65535
      ],
      [
        648,
        65535,
        65535
      ],
      [
        648,
        65535,
        65535
      ],
      [
        648,
        65535,
        65535
      ],
      [
        648,
        65535,
        65535
      ],
      [
        648,
        65535,
        65535
      ],
      [
        648,
        65535,
        65535
      ],
      [
        648,
        65535,
        65535
      ],
      [
        648,
        65535,
        65535
      ],
      [
        648,
        65535,
        65535
      ],
      [
        648,
        65535,
        65535
      ],
      [
        648,
        65535,
        65535
      ],
      [
        648,
        65535,
        65535
      ],
      [
        648,
        65535,
        65535
      ],
      [
        648,
        65535,
        65535
      ]
    ],
    []
  ]
}