{
  "zoneId": 136,
  "zoneType": 2,
  "width": 18,
  "height": 18,
  "type": 8,
  "world": 2,
  "objects": [
    {
      "type": 10,
      "x": 10,
      "y": 17,
      "unknown": 1,
      "param": 65535
    },
    {
      "type": 0,
      "x": 9,
      "y": 9,
      "unknown": 1,
      "param": 65535
    }
  ],
  "actions": [
    {
      "triggers": [
        [
          "on_first_enter",
          110,
          0,
          0,
          10048,
          158,
          0
        ]
      ],
      "commands": [
        [
          "random",
          2,
          0,
          26708,
          28530,
          21111,
          0
        ]
      ]
    },
    {
      "triggers": [
        [
          "on_first_enter",
          110,
          0,
          0,
          0,
          0,
          0
        ],
        [
          "on_rand_var_eq",
          1,
          0,
          0,
          0,
          0,
          0
        ]
      ],
      "commands": [
        [
          "clear_tile",
          7,
          1,
          1,
          28525,
          25974,
          0
        ],
        [
          "set_tile",
          6,
          1,
          1,
          692,
          0,
          0
        ],
        [
          "set_tile",
          8,
          1,
          1,
          691,
          25441,
          0
        ],
        [
          "set_tile",
          6,
          2,
          0,
          689,
          25441,
          0
        ],
        [
          "set_tile",
          7,
          2,
          0,
          678,
          25441,
          0
        ],
        [
          "set_tile",
          8,
          2,
          1,
          698,
          25441,
          0
        ],
        [
          "redraw_tiles",
          6,
          1,
          8,
          2,
          30561,
          0
        ]
      ]
    },
    {
      "triggers": [
        [
          "on_first_enter",
          157,
          0,
          0,
          10112,
          158,
          0
        ],
        [
          "on_rand_var_eq",
          2,
          28789,
          19488,
          30309,
          27749,
          0
        ]
      ],
      "commands": [
        [
          "clear_tile",
          15,
          3,
          1,
          28525,
          25974,
          0
        ],
        [
          "set_tile",
          15,
          4,
          1,
          696,
          25441,
          0
        ],
        [
          "redraw_tiles",
          15,
          3,
          15,
          4,
          30561,
          0
        ]
      ]
    },
    {
      "triggers": [
        [
          "on_first_enter",
          110,
          0,
          0,
          48704,
          158,
          0
        ]
      ],
      "commands": [
        [
          "random",
          2,
          0,
          26708,
          28530,
          21111,
          0
        ]
      ]
    },
    {
      "triggers": [
        [
          "on_first_enter",
          110,
          0,
          0,
          0,
          0,
          0
        ],
        [
          "on_rand_var_eq",
          1,
          0,
          0,
          0,
          0,
          0
        ]
      ],
      "commands": [
        [
          "clear_tile",
          5,
          3,
          1,
          28525,
          25974,
          0
        ],
        [
          "set_tile",
          4,
          3,
          1,
          696,
          0,
          0
        ],
        [
          "set_tile",
          6,
          3,
          1,
          691,
          25441,
          0
        ],
        [
          "set_tile",
          4,
          4,
          1,
          694,
          25441,
          0
        ],
        [
          "set_tile",
          5,
          4,
          0,
          678,
          25441,
          0
        ],
        [
          "set_tile",
          6,
          4,
          0,
          690,
          25441,
          0
        ],
        [
          "redraw_tiles",
          4,
          3,
          6,
          4,
          30561,
          0
        ]
      ]
    },
    {
      "triggers": [
        [
          "on_first_enter",
          110,
          0,
          0,
          0,
          0,
          0
        ],
        [
          "on_rand_var_eq",
          2,
          0,
          0,
          0,
          0,
          0
        ]
      ],
      "commands": [
        [
          "clear_tile",
          11,
          3,
          1,
          28525,
          25974,
          0
        ],
        [
          "set_tile",
          10,
          3,
          1,
          692,
          0,
          0
        ],
        [
          "set_tile",
          12,
          3,
          1,
          691,
          25441,
          0
        ],
        [
          "set_tile",
          10,
          4,
          0,
          689,
          25441,
          0
        ],
        [
          "set_tile",
          11,
          4,
          0,
          678,
          25441,
          0
        ],
        [
          "set_tile",
          12,
          4,
          0,
          690,
          25441,
          0
        ],
        [
          "redraw_tiles",
          10,
          3,
          12,
          4,
          30561,
          0
        ]
      ]
    },
    {
      "triggers": [
        [
          "on_has_item",
          65535,
          12,
          0,
          28506,
          25966,
          0
        ]
      ],
      "commands": [
        [
          "open",
          0,
          0,
          0,
          0,
          0,
          0
        ],
        [
          "flag_once",
          0,
          0,
          0,
          0,
          0,
          0
        ]
      ]
    }
  ],
  "tilemap": [
    [
      [
        678,
        682,
        65535
      ],
      [
        683,
        65535,
        65535
      ],
      [
        683,
        65535,
        65535
      ],
      [
        683,
        65535,
        65535
      ],
      [
        683,
        65535,
        65535
      ],
      [
        683,
        65535,
        65535
      ],
      [
        683,
        65535,
        65535
      ],
      [
        683,
        65535,
        65535
      ],
      [
        683,
        65535,
        65535
      ],
      [
        683,
        693,
        65535
      ],
      [
        683,
        65535,
        65535
      ],
      [
        683,
        65535,
        65535
      ],
      [
        683,
        65535,
        65535
      ],
      [
        683,
        65535,
        65535
      ],
      [
        683,
        65535,
        65535
      ],
      [
        683,
        65535,
        65535
      ],
      [
        683,
        65535,
        65535
      ],
      [
        678,
        684,
        65535
      ]
    ],
    [
      [
        678,
        688,
        65535
      ],
      [
        678,
        65535,
        65535
      ],
      [
        678,
        691,
        65535
      ],
      [
        678,
        686,
        65535
      ],
      [
        678,
        686,
        65535
      ],
      [
        678,
        686,
        65535
      ],
      [
        678,
        686,
        65535
      ],
      [
        678,
        686,
        65535
      ],
      [
        678,
        686,
        65535
      ],
      [
        678,
        681,
        65535
      ],
      [
        678,
        686,
        65535
      ],
      [
        678,
        686,
        65535
      ],
      [
        678,
        686,
        65535
      ],
      [
        678,
        686,
        65535
      ],
      [
        678,
        686,
        65535
      ],
      [
        678,
        692,
        65535
      ],
      [
        678,
        65535,
        65535
      ],
      [
        678,
        687,
        65535
      ]
    ],
    [
      [
        678,
        688,
        65535
      ],
      [
        678,
        65535,
        65535
      ],
      [
        678,
        687,
        65535
      ],
      [
        683,
        682,
        65535
      ],
      [
        683,
        65535,
        65535
      ],
      [
        683,
        65535,
        65535
      ],
      [
        683,
        65535,
        65535
      ],
      [
        683,
        65535,
        65535
      ],
      [
        683,
        693,
        65535
      ],
      [
        683,
        65535,
        65535
      ],
      [
        683,
        65535,
        65535
      ],
      [
        683,
        65535,
        65535
      ],
      [
        683,
        65535,
        65535
      ],
      [
        683,
        65535,
        65535
      ],
      [
        683,
        684,
        65535
      ],
      [
        678,
        688,
        65535
      ],
      [
        678,
        65535,
        65535
      ],
      [
        678,
        687,
        65535
      ]
    ],
    [
      [
        678,
        688,
        65535
      ],
      [
        678,
        65535,
        65535
      ],
      [
        678,
        698,
        65535
      ],
      [
        689,
        65535,
        65535
      ],
      [
        678,
        691,
        65535
      ],
      [
        678,
        686,
        65535
      ],
      [
        678,
        686,
        65535
      ],
      [
        678,
        686,
        65535
      ],
      [
        678,
        681,
        65535
      ],
      [
        678,
        686,
        65535
      ],
      [
        678,
        686,
        65535
      ],
      [
        678,
        686,
        65535
      ],
      [
        678,
        686,
        65535
      ],
      [
        678,
        692,
        65535
      ],
      [
        690,
        65535,
        65535
      ],
      [
        689,
        697,
        65535
      ],
      [
        678,
        65535,
        65535
      ],
      [
        678,
        687,
        65535
      ]
    ],
    [
      [
        678,
        688,
        65535
      ],
      [
        678,
        65535,
        65535
      ],
      [
        678,
        694,
        65535
      ],
      [
        678,
        65535,
        65535
      ],
      [
        678,
        698,
        65535
      ],
      [
        683,
        65535,
        65535
      ],
      [
        683,
        65535,
        65535
      ],
      [
        683,
        65535,
        65535
      ],
      [
        683,
        65535,
        65535
      ],
      [
        683,
        693,
        65535
      ],
      [
        683,
        65535,
        65535
      ],
      [
        683,
        65535,
        65535
      ],
      [
        683,
        65535,
        65535
      ],
      [
        678,
        697,
        65535
      ],
      [
        678,
        65535,
        65535
      ],
      [
        678,
        694,
        65535
      ],
      [
        678,
        65535,
        65535
      ],
      [
        678,
        687,
        65535
      ]
    ],
    [
      [
        678,
        688,
        65535
      ],
      [
        678,
        65535,
        65535
      ],
      [
        678,
        694,
        65535
      ],
      [
        678,
        65535,
        65535
      ],
      [
        678,
        694,
        65535
      ],
      [
        678,
        65535,
        65535
      ],
      [
        678,
        691,
        65535
      ],
      [
        678,
        686,
        65535
      ],
      [
        678,
        686,
        65535
      ],
      [
        678,
        681,
        65535
      ],
      [
        678,
        686,
        65535
      ],
      [
        678,
        692,
        65535
      ],
      [
        678,
        65535,
        65535
      ],
      [
        678,
        694,
        65535
      ],
      [
        678,
        65535,
        65535
      ],
      [
        678,
        694,
        65535
      ],
      [
        678,
        65535,
        65535
      ],
      [
        678,
        687,
        65535
      ]
    ],
    [
      [
        678,
        688,
        65535
      ],
      [
        678,
        65535,
        65535
      ],
      [
        678,
        694,
        65535
      ],
      [
        678,
        65535,
        65535
      ],
      [
        678,
        694,
        65535
      ],
      [
        678,
        65535,
        65535
      ],
      [
        678,
        698,
        65535
      ],
      [
        683,
        65535,
        65535
      ],
      [
        683,
        65535,
        65535
      ],
      [
        683,
        65535,
        65535
      ],
      [
        683,
        65535,
        65535
      ],
      [
        678,
        697,
        65535
      ],
      [
        678,
        65535,
        65535
      ],
      [
        678,
        694,
        65535
      ],
      [
        678,
        65535,
        65535
      ],
      [
        678,
        694,
        65535
      ],
      [
        678,
        65535,
        65535
      ],
      [
        678,
        687,
        65535
      ]
    ],
    [
      [
        678,
        688,
        65535
      ],
      [
        678,
        65535,
        65535
      ],
      [
        678,
        694,
        65535
      ],
      [
        678,
        65535,
        65535
      ],
      [
        678,
        694,
        65535
      ],
      [
        678,
        65535,
        65535
      ],
      [
        678,
        694,
        65535
      ],
      [
        678,
        65535,
        65535
      ],
      [
        678,
        691,
        65535
      ],
      [
        678,
        692,
        65535
      ],
      [
        678,
        65535,
        65535
      ],
      [
        678,
        694,
        65535
      ],
      [
        678,
        65535,
        65535
      ],
      [
        678,
        694,
        65535
      ],
      [
        678,
        65535,
        65535
      ],
      [
        678,
        694,
        65535
      ],
      [
        678,
        65535,
        65535
      ],
      [
        678,
        687,
        65535
      ]
    ],
    [
      [
        678,
        688,
        65535
      ],
      [
        678,
        65535,
        65535
      ],
      [
        678,
        694,
        65535
      ],
      [
        678,
        65535,
        65535
      ],
      [
        678,
        694,
        65535
      ],
      [
        678,
        65535,
        65535
      ],
      [
        678,
        694,
        65535
      ],
      [
        678,
        65535,
        65535
      ],
      [
        678,
        698,
        65535
      ],
      [
        689,
        65535,
        65535
      ],
      [
        678,
        65535,
        65535
      ],
      [
        678,
        694,
        65535
      ],
      [
        678,
        65535,
        65535
      ],
      [
        678,
        694,
        65535
      ],
      [
        678,
        65535,
        65535
      ],
      [
        678,
        694,
        65535
      ],
      [
        678,
        65535,
        65535
      ],
      [
        678,
        687,
        65535
      ]
    ],
    [
      [
        678,
        688,
        65535
      ],
      [
        678,
        65535,
        65535
      ],
      [
        678,
        694,
        65535
      ],
      [
        678,
        65535,
        65535
      ],
      [
        678,
        694,
        65535
      ],
      [
        678,
        65535,
        65535
      ],
      [
        678,
        694,
        65535
      ],
      [
        678,
        65535,
        65535
      ],
      [
        678,
        694,
        65535
      ],
      [
        1201,
        65535,
        65535
      ],
      [
        678,
        65535,
        65535
      ],
      [
        678,
        694,
        65535
      ],
      [
        678,
        65535,
        65535
      ],
      [
        678,
        694,
        65535
      ],
      [
        678,
        65535,
        65535
      ],
      [
        678,
        694,
        65535
      ],
      [
        678,
        65535,
        65535
      ],
      [
        678,
        687,
        65535
      ]
    ],
    [
      [
        678,
        688,
        65535
      ],
      [
        678,
        65535,
        65535
      ],
      [
        678,
        694,
        65535
      ],
      [
        678,
        65535,
        65535
      ],
      [
        678,
        694,
        65535
      ],
      [
        678,
        65535,
        65535
      ],
      [
        678,
        694,
        65535
      ],
      [
        678,
        65535,
        65535
      ],
      [
        695,
        65535,
        65535
      ],
      [
        678,
        65535,
        65535
      ],
      [
        678,
        65535,
        65535
      ],
      [
        678,
        694,
        65535
      ],
      [
        678,
        65535,
        65535
      ],
      [
        678,
        694,
        65535
      ],
      [
        678,
        65535,
        65535
      ],
      [
        678,
        694,
        65535
      ],
      [
        678,
        65535,
        65535
      ],
      [
        678,
        687,
        65535
      ]
    ],
    [
      [
        678,
        688,
        65535
      ],
      [
        678,
        65535,
        65535
      ],
      [
        678,
        694,
        65535
      ],
      [
        678,
        65535,
        65535
      ],
      [
        678,
        694,
        65535
      ],
      [
        678,
        65535,
        65535
      ],
      [
        678,
        687,
        65535
      ],
      [
        678,
        692,
        65535
      ],
      [
        678,
        65535,
        65535
      ],
      [
        678,
        691,
        65535
      ],
      [
        678,
        686,
        65535
      ],
      [
        678,
        688,
        65535
      ],
      [
        678,
        65535,
        65535
      ],
      [
        678,
        694,
        65535
      ],
      [
        678,
        65535,
        65535
      ],
      [
        678,
        694,
        65535
      ],
      [
        678,
        65535,
        65535
      ],
      [
        678,
        687,
        65535
      ]
    ],
    [
      [
        678,
        688,
        65535
      ],
      [
        678,
        65535,
        65535
      ],
      [
        678,
        694,
        65535
      ],
      [
        678,
        65535,
        65535
      ],
      [
        678,
        694,
        65535
      ],
      [
        678,
        65535,
        65535
      ],
      [
        690,
        65535,
        65535
      ],
      [
        689,
        65535,
        65535
      ],
      [
        678,
        65535,
        65535
      ],
      [
        690,
        65535,
        65535
      ],
      [
        683,
        65535,
        65535
      ],
      [
        689,
        65535,
        65535
      ],
      [
        678,
        65535,
        65535
      ],
      [
        678,
        694,
        65535
      ],
      [
        678,
        65535,
        65535
      ],
      [
        678,
        694,
        65535
      ],
      [
        678,
        65535,
        65535
      ],
      [
        678,
        687,
        65535
      ]
    ],
    [
      [
        678,
        688,
        65535
      ],
      [
        678,
        65535,
        65535
      ],
      [
        678,
        694,
        65535
      ],
      [
        678,
        65535,
        65535
      ],
      [
        678,
        687,
        65535
      ],
      [
        678,
        686,
        65535
      ],
      [
        678,
        686,
        65535
      ],
      [
        678,
        686,
        65535
      ],
      [
        678,
        686,
        65535
      ],
      [
        678,
        686,
        65535
      ],
      [
        678,
        686,
        65535
      ],
      [
        678,
        686,
        65535
      ],
      [
        678,
        686,
        65535
      ],
      [
        678,
        688,
        65535
      ],
      [
        678,
        65535,
        65535
      ],
      [
        678,
        694,
        65535
      ],
      [
        678,
        65535,
        65535
      ],
      [
        678,
        687,
        65535
      ]
    ],
    [
      [
        678,
        688,
        65535
      ],
      [
        678,
        65535,
        65535
      ],
      [
        678,
        694,
        65535
      ],
      [
        678,
        65535,
        65535
      ],
      [
        690,
        65535,
        65535
      ],
      [
        683,
        65535,
        65535
      ],
      [
        683,
        65535,
        65535
      ],
      [
        683,
        65535,
        65535
      ],
      [
        683,
        65535,
        65535
      ],
      [
        683,
        65535,
        65535
      ],
      [
        683,
        65535,
        65535
      ],
      [
        683,
        65535,
        65535
      ],
      [
        683,
        65535,
        65535
      ],
      [
        689,
        65535,
        65535
      ],
      [
        678,
        65535,
        65535
      ],
      [
        678,
        694,
        65535
      ],
      [
        678,
        65535,
        65535
      ],
      [
        678,
        687,
        65535
      ]
    ],
    [
      [
        678,
        688,
        65535
      ],
      [
        678,
        65535,
        65535
      ],
      [
        678,
        687,
        65535
      ],
      [
        678,
        686,
        65535
      ],
      [
        678,
        686,
        65535
      ],
      [
        678,
        686,
        65535
      ],
      [
        678,
        686,
        65535
      ],
      [
        678,
        686,
        65535
      ],
      [
        678,
        686,
        65535
      ],
      [
        678,
        686,
        65535
      ],
      [
        678,
        686,
        65535
      ],
      [
        678,
        686,
        65535
      ],
      [
        678,
        686,
        65535
      ],
      [
        678,
        686,
        65535
      ],
      [
        678,
        686,
        65535
      ],
      [
        678,
        688,
        65535
      ],
      [
        678,
        65535,
        65535
      ],
      [
        678,
        687,
        65535
      ]
    ],
    [
      [
        678,
        688,
        65535
      ],
      [
        678,
        65535,
        65535
      ],
      [
        690,
        65535,
        65535
      ],
      [
        683,
        65535,
        65535
      ],
      [
        683,
        65535,
        65535
      ],
      [
        683,
        65535,
        65535
      ],
      [
        683,
        65535,
        65535
      ],
      [
        683,
        65535,
        65535
      ],
      [
        683,
        65535,
        65535
      ],
      [
        683,
        65535,
        65535
      ],
      [
        683,
        65535,
        65535
      ],
      [
        683,
        65535,
        65535
      ],
      [
        683,
        65535,
        65535
      ],
      [
        683,
        65535,
        65535
      ],
      [
        683,
        65535,
        65535
      ],
      [
        689,
        65535,
        65535
      ],
      [
        678,
        65535,
        65535
      ],
      [
        678,
        687,
        65535
      ]
    ],
    [
      [
        678,
        681,
        65535
      ],
      [
        678,
        686,
        65535
      ],
      [
        678,
        686,
        65535
      ],
      [
        678,
        686,
        65535
      ],
      [
        678,
        686,
        65535
      ],
      [
        678,
        686,
        65535
      ],
      [
        678,
        686,
        65535
      ],
      [
        678,
        686,
        65535
      ],
      [
        678,
        686,
        65535
      ],
      [
        678,
        692,
        65535
      ],
      [
        679,
        65535,
        65535
      ],
      [
        678,
        691,
        65535
      ],
      [
        678,
        686,
        65535
      ],
      [
        678,
        686,
        65535
      ],
      [
        678,
        686,
        65535
      ],
      [
        678,
        686,
        65535
      ],
      [
        678,
        686,
        65535
      ],
      [
        678,
        681,
        65535
      ]
    ],
    []
  ]
}