{
  "zoneId": 141,
  "zoneType": 1,
  "width": 18,
  "height": 18,
  "type": 17,
  "world": 1,
  "objects": [
    {
      "type": 0,
      "x": 13,
      "y": 3,
      "unknown": 1,
      "param": 65535
    }
  ],
  "actions": [
    {
      "triggers": [
        [
          "on_bump_tile",
          14,
          4,
          16,
          30018,
          28781,
          0
        ]
      ],
      "commands": [
        [
          "set_tile",
          14,
          4,
          1,
          17,
          25441,
          0
        ],
        [
          "redraw_tile",
          14,
          4,
          0,
          0,
          0,
          0
        ],
        [
          "play_sound",
          18,
          0,
          0,
          0,
          0,
          0
        ],
        [
          "render_changes",
          0,
          0,
          12284,
          110,
          0,
          0
        ],
        [
          "spawn_item",
          65535,
          14,
          4,
          0,
          0,
          0
        ]
      ]
    }
  ],
  "tilemap": [
    [
      [
        0,
        65535,
        65535
      ],
      [
        0,
        65535,
        65535
      ],
      [
        0,
        65535,
        65535
      ],
      [
        0,
        65535,
        65535
      ],
      [
        0,
        65535,
        65535
      ],
      [
        0,
        65535,
        65535
      ],
      [
        0,
        65535,
        65535
      ],
      [
        0,
        65535,
        65535
      ],
      [
        0,
        65535,
        65535
      ],
      [
        0,
        65535,
        65535
      ],
      [
        0,
        65535,
        65535
      ],
      [
        0,
        65535,
        65535
      ],
      [
        0,
        65535,
        65535
      ],
      [
        346,
        65535,
        65535
      ],
      [
        0,
        65535,
        65535
      ],
      [
        0,
        65535,
        65535
      ],
      [
        0,
        65535,
        65535
      ],
      [
        0,
        65535,
        65535
      ]
    ],
    [
      [
        2,
        65535,
        65535
      ],
      [
        0,
        23,
        65535
      ],
      [
        0,
        21,
        65535
      ],
      [
        0,
        30,
        65535
      ],
      [
        0,
        65535,
        65535
      ],
      [
        0,
        65535,
        65535
      ],
      [
        0,
        65535,
        124
      ],
      [
        0,
        65535,
        125
      ],
      [
        0,
        65535,
        126
      ],
      [
        0,
        65535,
        127
      ],
      [
        0,
        65535,
        65535
      ],
      [
        0,
        65535,
        65535
      ],
      [
        0,
        65535,
        65535
      ],
      [
        0,
        65535,
        65535
      ],
      [
        0,
        65535,
        65535
      ],
      [
        0,
        65535,
        65535
      ],
      [
        0,
        65535,
        65535
      ],
      [
        0,
        65535,
        65535
      ]
    ],
    [
      [
        0,
        65535,
        65535
      ],
      [
        0,
        22,
        65535
      ],
      [
        0,
        65535,
        65535
      ],
      [
        0,
        65535,
        65535
      ],
      [
        99,
        65535,
        65535
      ],
      [
        0,
        23,
        65535
      ],
      [
        0,
        117,
        65535
      ],
      [
        0,
        129,
        65535
      ],
      [
        3,
        130,
        65535
      ],
      [
        0,
        132,
        65535
      ],
      [
        0,
        21,
        65535
      ],
      [
        0,
        21,
        65535
      ],
      [
        0,
        30,
        124
      ],
      [
        0,
        65535,
        127
      ],
      [
        0,
        65535,
        65535
      ],
      [
        0,
        65535,
        65535
      ],
      [
        0,
        65535,
        65535
      ],
      [
        0,
        65535,
        65535
      ]
    ],
    [
      [
        0,
        65535,
        65535
      ],
      [
        0,
        22,
        65535
      ],
      [
        356,
        65535,
        65535
      ],
      [
        357,
        65535,
        65535
      ],
      [
        404,
        65535,
        65535
      ],
      [
        0,
        22,
        65535
      ],
      [
        0,
        156,
        65535
      ],
      [
        0,
        133,
        65535
      ],
      [
        0,
        134,
        65535
      ],
      [
        0,
        135,
        65535
      ],
      [
        0,
        65535,
        65535
      ],
      [
        0,
        65535,
        65535
      ],
      [
        0,
        128,
        65535
      ],
      [
        0,
        132,
        65535
      ],
      [
        4,
        21,
        65535
      ],
      [
        0,
        24,
        65535
      ],
      [
        2,
        65535,
        65535
      ],
      [
        0,
        65535,
        65535
      ]
    ],
    [
      [
        0,
        65535,
        65535
      ],
      [
        0,
        22,
        65535
      ],
      [
        402,
        65535,
        65535
      ],
      [
        395,
        26,
        65535
      ],
      [
        395,
        65535,
        65535
      ],
      [
        395,
        22,
        65535
      ],
      [
        401,
        136,
        65535
      ],
      [
        357,
        138,
        65535
      ],
      [
        357,
        115,
        65535
      ],
      [
        357,
        139,
        65535
      ],
      [
        357,
        65535,
        65535
      ],
      [
        356,
        65535,
        65535
      ],
      [
        0,
        156,
        65535
      ],
      [
        0,
        135,
        65535
      ],
      [
        0,
        16,
        65535
      ],
      [
        0,
        22,
        65535
      ],
      [
        0,
        65535,
        65535
      ],
      [
        0,
        65535,
        65535
      ]
    ],
    [
      [
        0,
        65535,
        65535
      ],
      [
        0,
        22,
        65535
      ],
      [
        398,
        65535,
        65535
      ],
      [
        1127,
        22,
        65535
      ],
      [
        1123,
        65535,
        65535
      ],
      [
        1123,
        22,
        65535
      ],
      [
        394,
        65535,
        65535
      ],
      [
        395,
        65535,
        65535
      ],
      [
        395,
        65535,
        65535
      ],
      [
        395,
        65535,
        65535
      ],
      [
        401,
        65535,
        65535
      ],
      [
        356,
        26,
        65535
      ],
      [
        0,
        136,
        65535
      ],
      [
        0,
        139,
        65535
      ],
      [
        357,
        65535,
        65535
      ],
      [
        0,
        22,
        65535
      ],
      [
        0,
        65535,
        65535
      ],
      [
        0,
        65535,
        65535
      ]
    ],
    [
      [
        0,
        65535,
        65535
      ],
      [
        358,
        22,
        65535
      ],
      [
        398,
        65535,
        65535
      ],
      [
        1125,
        22,
        65535
      ],
      [
        1146,
        65535,
        65535
      ],
      [
        1134,
        22,
        65535
      ],
      [
        1123,
        65535,
        65535
      ],
      [
        1123,
        65535,
        65535
      ],
      [
        1128,
        65535,
        65535
      ],
      [
        391,
        65535,
        65535
      ],
      [
        399,
        65535,
        65535
      ],
      [
        402,
        22,
        65535
      ],
      [
        395,
        65535,
        65535
      ],
      [
        395,
        65535,
        65535
      ],
      [
        395,
        65535,
        65535
      ],
      [
        395,
        22,
        65535
      ],
      [
        401,
        65535,
        65535
      ],
      [
        0,
        65535,
        65535
      ]
    ],
    [
      [
        0,
        65535,
        65535
      ],
      [
        0,
        22,
        65535
      ],
      [
        398,
        65535,
        65535
      ],
      [
        1129,
        22,
        65535
      ],
      [
        1132,
        65535,
        65535
      ],
      [
        1134,
        22,
        65535
      ],
      [
        1146,
        65535,
        65535
      ],
      [
        0,
        1144,
        65535
      ],
      [
        1126,
        65535,
        65535
      ],
      [
        397,
        26,
        65535
      ],
      [
        402,
        65535,
        65535
      ],
      [
        396,
        22,
        65535
      ],
      [
        1127,
        65535,
        65535
      ],
      [
        1123,
        65535,
        65535
      ],
      [
        1128,
        65535,
        65535
      ],
      [
        403,
        22,
        65535
      ],
      [
        397,
        65535,
        65535
      ],
      [
        406,
        65535,
        65535
      ]
    ],
    [
      [
        0,
        65535,
        65535
      ],
      [
        0,
        22,
        65535
      ],
      [
        400,
        65535,
        65535
      ],
      [
        393,
        22,
        65535
      ],
      [
        1129,
        65535,
        65535
      ],
      [
        1124,
        22,
        65535
      ],
      [
        1124,
        65535,
        65535
      ],
      [
        1124,
        65535,
        65535
      ],
      [
        1130,
        65535,
        65535
      ],
      [
        397,
        22,
        65535
      ],
      [
        400,
        65535,
        65535
      ],
      [
        393,
        22,
        65535
      ],
      [
        1125,
        65535,
        65535
      ],
      [
        1145,
        65535,
        65535
      ],
      [
        1126,
        65535,
        65535
      ],
      [
        403,
        22,
        65535
      ],
      [
        397,
        65535,
        65535
      ],
      [
        0,
        65535,
        65535
      ]
    ],
    [
      [
        0,
        65535,
        65535
      ],
      [
        0,
        10,
        65535
      ],
      [
        358,
        65535,
        65535
      ],
      [
        398,
        22,
        65535
      ],
      [
        403,
        65535,
        65535
      ],
      [
        403,
        22,
        65535
      ],
      [
        391,
        65535,
        65535
      ],
      [
        392,
        65535,
        65535
      ],
      [
        392,
        65535,
        65535
      ],
      [
        399,
        22,
        65535
      ],
      [
        406,
        65535,
        65535
      ],
      [
        398,
        22,
        65535
      ],
      [
        1125,
        65535,
        65535
      ],
      [
        0,
        1144,
        65535
      ],
      [
        1126,
        65535,
        65535
      ],
      [
        403,
        22,
        65535
      ],
      [
        397,
        65535,
        65535
      ],
      [
        0,
        65535,
        65535
      ]
    ],
    [
      [
        0,
        65535,
        65535
      ],
      [
        0,
        65535,
        65535
      ],
      [
        0,
        65535,
        65535
      ],
      [
        400,
        22,
        65535
      ],
      [
        392,
        65535,
        65535
      ],
      [
        392,
        22,
        65535
      ],
      [
        399,
        65535,
        65535
      ],
      [
        0,
        26,
        65535
      ],
      [
        356,
        65535,
        65535
      ],
      [
        0,
        22,
        65535
      ],
      [
        0,
        65535,
        65535
      ],
      [
        398,
        10,
        65535
      ],
      [
        1125,
        65535,
        65535
      ],
      [
        1145,
        65535,
        65535
      ],
      [
        1126,
        65535,
        65535
      ],
      [
        403,
        22,
        65535
      ],
      [
        397,
        65535,
        65535
      ],
      [
        0,
        65535,
        65535
      ]
    ],
    [
      [
        345,
        65535,
        65535
      ],
      [
        0,
        26,
        65535
      ],
      [
        0,
        65535,
        65535
      ],
      [
        0,
        22,
        65535
      ],
      [
        356,
        65535,
        65535
      ],
      [
        0,
        22,
        65535
      ],
      [
        407,
        65535,
        65535
      ],
      [
        0,
        22,
        65535
      ],
      [
        0,
        65535,
        65535
      ],
      [
        0,
        22,
        65535
      ],
      [
        0,
        65535,
        65535
      ],
      [
        398,
        65535,
        65535
      ],
      [
        1129,
        65535,
        65535
      ],
      [
        1124,
        65535,
        65535
      ],
      [
        1130,
        65535,
        65535
      ],
      [
        391,
        22,
        65535
      ],
      [
        399,
        65535,
        65535
      ],
      [
        0,
        65535,
        65535
      ]
    ],
    [
      [
        0,
        65535,
        65535
      ],
      [
        0,
        22,
        65535
      ],
      [
        0,
        65535,
        65535
      ],
      [
        0,
        22,
        65535
      ],
      [
        0,
        65535,
        65535
      ],
      [
        0,
        10,
        65535
      ],
      [
        0,
        65535,
        65535
      ],
      [
        0,
        22,
        65535
      ],
      [
        0,
        65535,
        65535
      ],
      [
        0,
        22,
        65535
      ],
      [
        0,
        65535,
        65535
      ],
      [
        400,
        65535,
        65535
      ],
      [
        392,
        65535,
        65535
      ],
      [
        392,
        26,
        65535
      ],
      [
        392,
        65535,
        65535
      ],
      [
        399,
        22,
        65535
      ],
      [
        358,
        65535,
        65535
      ],
      [
        0,
        65535,
        65535
      ]
    ],
    [
      [
        0,
        65535,
        65535
      ],
      [
        0,
        22,
        65535
      ],
      [
        0,
        65535,
        65535
      ],
      [
        0,
        22,
        65535
      ],
      [
        0,
        65535,
        65535
      ],
      [
        0,
        65535,
        65535
      ],
      [
        2,
        65535,
        65535
      ],
      [
        0,
        22,
        65535
      ],
      [
        0,
        65535,
        65535
      ],
      [
        0,
        25,
        65535
      ],
      [
        0,
        21,
        65535
      ],
      [
        0,
        24,
        65535
      ],
      [
        0,
        65535,
        65535
      ],
      [
        0,
        22,
        65535
      ],
      [
        356,
        65535,
        65535
      ],
      [
        0,
        22,
        65535
      ],
      [
        0,
        65535,
        65535
      ],
      [
        0,
        65535,
        65535
      ]
    ],
    [
      [
        0,
        65535,
        65535
      ],
      [
        0,
        22,
        65535
      ],
      [
        0,
        65535,
        65535
      ],
      [
        0,
        25,
        65535
      ],
      [
        0,
        24,
        65535
      ],
      [
        0,
        65535,
        65535
      ],
      [
        0,
        65535,
        65535
      ],
      [
        0,
        22,
        65535
      ],
      [
        0,
        65535,
        65535
      ],
      [
        0,
        65535,
        65535
      ],
      [
        0,
        65535,
        65535
      ],
      [
        0,
        22,
        65535
      ],
      [
        0,
        65535,
        65535
      ],
      [
        0,
        22,
        65535
      ],
      [
        0,
        65535,
        65535
      ],
      [
        0,
        22,
        65535
      ],
      [
        0,
        65535,
        65535
      ],
      [
        0,
        65535,
        65535
      ]
    ],
    [
      [
        0,
        65535,
        65535
      ],
      [
        0,
        22,
        65535
      ],
      [
        0,
        65535,
        65535
      ],
      [
        0,
        65535,
        65535
      ],
      [
        0,
        25,
        65535
      ],
      [
        0,
        24,
        65535
      ],
      [
        0,
        65535,
        65535
      ],
      [
        0,
        22,
        65535
      ],
      [
        0,
        65535,
        65535
      ],
      [
        0,
        65535,
        65535
      ],
      [
        98,
        65535,
        65535
      ],
      [
        0,
        22,
        65535
      ],
      [
        0,
        65535,
        65535
      ],
      [
        0,
        22,
        65535
      ],
      [
        0,
        65535,
        65535
      ],
      [
        0,
        22,
        65535
      ],
      [
        0,
        65535,
        65535
      ],
      [
        0,
        65535,
        65535
      ]
    ],
    [
      [
        0,
        65535,
        65535
      ],
      [
        0,
        25,
        65535
      ],
      [
        0,
        30,
        65535
      ],
      [
        0,
        65535,
        65535
      ],
      [
        0,
        65535,
        65535
      ],
      [
        0,
        25,
        65535
      ],
      [
        0,
        21,
        65535
      ],
      [
        0,
        29,
        65535
      ],
      [
        0,
        65535,
        65535
      ],
      [
        0,
        65535,
        65535
      ],
      [
        0,
        65535,
        65535
      ],
      [
        0,
        25,
        65535
      ],
      [
        0,
        21,
        65535
      ],
      [
        0,
        37,
        65535
      ],
      [
        0,
        21,
        65535
      ],
      [
        0,
        29,
        65535
      ],
      [
        347,
        65535,
        65535
      ],
      [
        0,
        65535,
        65535
      ]
    ],
    [
      [
        0,
        65535,
        65535
      ],
      [
        0,
        65535,
        65535
      ],
      [
        0,
        65535,
        65535
      ],
      [
        0,
        65535,
        65535
      ],
      [
        0,
        65535,
        65535
      ],
      [
        0,
        65535,
        65535
      ],
      [
        0,
        65535,
        65535
      ],
      [
        0,
        65535,
        65535
      ],
      [
        0,
        65535,
        65535
      ],
      [
        0,
        65535,
        65535
      ],
      [
        0,
        65535,
        65535
      ],
      [
        0,
        65535,
        65535
      ],
      [
        0,
        65535,
        65535
      ],
      [
        0,
        65535,
        65535
      ],
      [
        0,
        65535,
        65535
      ],
      [
        0,
        65535,
        65535
      ],
      [
        0,
        65535,
        65535
      ],
      [
        0,
        65535,
        65535
      ]
    ],
    []
  ]
}