{
  "zoneId": 142,
  "zoneType": 1,
  "width": 18,
  "height": 18,
  "type": 6,
  "world": 1,
  "objects": [
    {
      "type": 3,
      "x": 9,
      "y": 13,
      "unknown": 1,
      "param": 143
    },
    {
      "type": 9,
      "x": 11,
      "y": 10,
      "unknown": 1,
      "param": 248
    },
    {
      "type": 6,
      "x": 5,
      "y": 11,
      "unknown": 1,
      "param": 1241
    },
    {
      "type": 9,
      "x": 10,
      "y": 10,
      "unknown": 1,
      "param": 144
    }
  ],
  "actions": [
    {
      "triggers": [
        [
          "on_first_enter",
          110,
          11,
          0,
          28494,
          26996,
          0
        ]
      ],
      "commands": [
        [
          "set_global_var",
          0,
          0,
          26707,
          30575,
          25940,
          0
        ]
      ]
    },
    {
      "triggers": [
        [
          "on_first_enter",
          110,
          11,
          0,
          28494,
          26996,
          0
        ],
        [
          "on_check_end_item",
          472,
          8,
          0,
          26707,
          30575,
          0
        ]
      ],
      "commands": [
        [
          "set_temp_var",
          1,
          0,
          25939,
          17268,
          30063,
          0
        ],
        [
          "set_global_var",
          1,
          0,
          25939,
          18292,
          28524,
          0
        ]
      ]
    },
    {
      "triggers": [
        [
          "on_first_enter",
          110,
          11,
          0,
          28494,
          26996,
          0
        ],
        [
          "on_check_end_item",
          477,
          8,
          0,
          26707,
          30575,
          0
        ]
      ],
      "commands": [
        [
          "set_temp_var",
          1,
          0,
          25939,
          17268,
          30063,
          0
        ],
        [
          "set_global_var",
          1,
          0,
          25939,
          18292,
          28524,
          0
        ]
      ]
    },
    {
      "triggers": [
        [
          "on_first_enter",
          110,
          11,
          0,
          28494,
          26996,
          0
        ],
        [
          "on_check_end_item",
          474,
          8,
          0,
          26707,
          30575,
          0
        ]
      ],
      "commands": [
        [
          "set_temp_var",
          1,
          0,
          25939,
          17268,
          30063,
          0
        ],
        [
          "set_global_var",
          1,
          0,
          25939,
          18292,
          28524,
          0
        ]
      ]
    },
    {
      "triggers": [
        [
          "on_first_enter",
          186,
          10,
          0,
          25939,
          18548,
          0
        ],
        [
          "on_temp_var_eq",
          1,
          8,
          0,
          28483,
          28277,
          0
        ]
      ],
      "commands": [
        [
          "set_tile",
          11,
          10,
          2,
          150,
          25441,
          0
        ],
        [
          "redraw_tile",
          11,
          10,
          25938,
          29284,
          30561,
          0
        ]
      ]
    },
    {
      "triggers": [
        [
          "on_bump_tile",
          8,
          14,
          1180,
          30018,
          28781,
          0
        ],
        [
          "on_temp_var_eq",
          0,
          8,
          0,
          28483,
          28277,
          0
        ]
      ],
      "commands": [
        [
          "say_text",
          8,
          0,
          26707,
          30575,
          25940,
          78
        ]
      ]
    },
    {
      "triggers": [
        [
          "on_bump_tile",
          8,
          14,
          1180,
          30018,
          28781,
          0
        ],
        [
          "on_temp_var_eq",
          1,
          8,
          0,
          28483,
          28277,
          0
        ]
      ],
      "commands": [
        [
          "say_text",
          8,
          0,
          26707,
          30575,
          25940,
          25
        ]
      ]
    },
    {
      "triggers": [
        [
          "on_drag_item",
          8,
          14,
          1,
          1180,
          65535,
          0
        ],
        [
          "on_temp_var_eq",
          0,
          8,
          0,
          28483,
          28277,
          0
        ]
      ],
      "commands": [
        [
          "play_sound",
          0,
          0,
          27728,
          31073,
          28499,
          0
        ],
        [
          "set_temp_var",
          2,
          0,
          25939,
          17268,
          30063,
          0
        ],
        [
          "remove_item_from_inv",
          65535,
          0,
          25938,
          28525,
          25974,
          0
        ],
        [
          "say_text",
          8,
          0,
          26707,
          30575,
          25940,
          12
        ]
      ]
    },
    {
      "triggers": [
        [
          "on_drag_item",
          8,
          14,
          1,
          1180,
          1241,
          0
        ],
        [
          "on_temp_var_eq",
          1,
          8,
          0,
          28483,
          28277,
          0
        ]
      ],
      "commands": [
        [
          "play_sound",
          0,
          0,
          27728,
          31073,
          28499,
          0
        ],
        [
          "set_temp_var",
          2,
          0,
          25939,
          17268,
          30063,
          0
        ],
        [
          "remove_item_from_inv",
          1241,
          0,
          25938,
          28525,
          25974,
          0
        ],
        [
          "say_text",
          8,
          0,
          26707,
          30575,
          25940,
          14
        ]
      ]
    },
    {
      "triggers": [
        [
          "on_temp_var_eq",
          2,
          3016,
          0,
          61376,
          162,
          0
        ],
        [
          "on_walk",
          8,
          15,
          1370,
          28493,
          25974,
          0
        ]
      ],
      "commands": [
        [
          "open",
          25,
          0,
          25938,
          29284,
          30561,
          0
        ],
        [
          "set_player_pos",
          8,
          15,
          58888,
          162,
          0,
          0
        ],
        [
          "release_camera",
          10,
          0,
          25938,
          28525,
          25974,
          0
        ],
        [
          "render_changes",
          0,
          0,
          28493,
          25974,
          26964,
          0
        ],
        [
          "set_temp_var",
          3,
          0,
          0,
          0,
          0,
          0
        ]
      ]
    },
    {
      "triggers": [
        [
          "on_temp_var_eq",
          3,
          0,
          0,
          0,
          0,
          0
        ]
      ],
      "commands": [
        [
          "play_sound",
          58,
          0,
          25938,
          29284,
          30561,
          0
        ],
        [
          "wait_ticks",
          2,
          0,
          0,
          0,
          46420,
          0
        ],
        [
          "flag_once",
          0,
          0,
          48420,
          320,
          0,
          0
        ]
      ]
    },
    {
      "triggers": [
        [
          "on_temp_var_eq",
          3,
          8,
          0,
          28483,
          28277,
          0
        ]
      ],
      "commands": [
        [
          "wait_ticks",
          8,
          0,
          24919,
          29801,
          28486,
          0
        ],
        [
          "set_tile",
          8,
          15,
          1,
          1182,
          25441,
          0
        ],
        [
          "set_tile",
          8,
          15,
          2,
          1178,
          25441,
          0
        ],
        [
          "set_tile",
          8,
          15,
          0,
          1304,
          25441,
          0
        ],
        [
          "move_map_tile",
          8,
          14,
          2,
          7,
          13,
          0
        ],
        [
          "move_map_tile",
          8,
          15,
          2,
          7,
          14,
          0
        ],
        [
          "move_map_tile",
          9,
          14,
          2,
          8,
          13,
          0
        ],
        [
          "move_map_tile",
          9,
          15,
          2,
          8,
          14,
          0
        ],
        [
          "move_map_tile",
          8,
          14,
          1,
          7,
          14,
          0
        ],
        [
          "move_map_tile",
          8,
          15,
          1,
          7,
          15,
          0
        ],
        [
          "move_map_tile",
          9,
          14,
          1,
          8,
          14,
          0
        ],
        [
          "move_map_tile",
          9,
          15,
          1,
          8,
          15,
          0
        ],
        [
          "redraw_tiles",
          7,
          13,
          9,
          15,
          30561,
          0
        ],
        [
          "play_sound",
          39,
          0,
          64180,
          109,
          25740,
          0
        ],
        [
          "render_changes",
          0,
          0,
          28940,
          174,
          0,
          0
        ],
        [
          "wait_ticks",
          2,
          0,
          24919,
          29801,
          28486,
          0
        ],
        [
          "move_map_tile",
          7,
          13,
          2,
          6,
          12,
          0
        ],
        [
          "move_map_tile",
          7,
          14,
          2,
          6,
          13,
          0
        ],
        [
          "move_map_tile",
          8,
          13,
          2,
          7,
          12,
          0
        ],
        [
          "move_map_tile",
          8,
          14,
          2,
          7,
          13,
          0
        ],
        [
          "move_map_tile",
          7,
          14,
          1,
          6,
          14,
          0
        ],
        [
          "move_map_tile",
          7,
          15,
          1,
          6,
          15,
          0
        ],
        [
          "move_map_tile",
          8,
          14,
          1,
          7,
          14,
          0
        ],
        [
          "move_map_tile",
          8,
          15,
          1,
          7,
          15,
          0
        ],
        [
          "redraw_tiles",
          6,
          12,
          8,
          15,
          30561,
          0
        ],
        [
          "render_changes",
          18700,
          110,
          29320,
          173,
          0,
          0
        ],
        [
          "wait_ticks",
          1,
          0,
          24919,
          29801,
          28486,
          0
        ],
        [
          "move_map_tile",
          6,
          12,
          2,
          5,
          12,
          0
        ],
        [
          "move_map_tile",
          6,
          13,
          2,
          5,
          13,
          0
        ],
        [
          "move_map_tile",
          7,
          12,
          2,
          6,
          12,
          0
        ],
        [
          "move_map_tile",
          7,
          13,
          2,
          6,
          13,
          0
        ],
        [
          "move_map_tile",
          6,
          14,
          1,
          5,
          14,
          0
        ],
        [
          "move_map_tile",
          6,
          15,
          1,
          5,
          15,
          0
        ],
        [
          "move_map_tile",
          7,
          14,
          1,
          6,
          14,
          0
        ],
        [
          "move_map_tile",
          7,
          15,
          1,
          6,
          15,
          0
        ],
        [
          "redraw_tiles",
          5,
          12,
          7,
          15,
          30561,
          0
        ],
        [
          "render_changes",
          0,
          0,
          14072,
          110,
          0,
          0
        ],
        [
          "wait_ticks",
          1,
          0,
          24919,
          29801,
          28486,
          0
        ],
        [
          "move_map_tile",
          5,
          12,
          2,
          4,
          12,
          0
        ],
        [
          "move_map_tile",
          5,
          13,
          2,
          4,
          13,
          0
        ],
        [
          "move_map_tile",
          6,
          12,
          2,
          5,
          12,
          0
        ],
        [
          "move_map_tile",
          6,
          13,
          2,
          5,
          13,
          0
        ],
        [
          "move_map_tile",
          5,
          14,
          1,
          4,
          14,
          0
        ],
        [
          "move_map_tile",
          5,
          15,
          1,
          4,
          15,
          0
        ],
        [
          "move_map_tile",
          6,
          14,
          1,
          5,
          14,
          0
        ],
        [
          "move_map_tile",
          6,
          15,
          1,
          5,
          15,
          0
        ],
        [
          "redraw_tiles",
          4,
          12,
          6,
          15,
          30561,
          0
        ],
        [
          "render_changes",
          0,
          0,
          14072,
          110,
          0,
          0
        ],
        [
          "wait_ticks",
          1,
          0,
          24919,
          29801,
          28486,
          0
        ],
        [
          "move_map_tile",
          5,
          12,
          2,
          4,
          12,
          0
        ],
        [
          "move_map_tile",
          5,
          13,
          2,
          4,
          13,
          0
        ],
        [
          "move_map_tile",
          5,
          14,
          1,
          4,
          14,
          0
        ],
        [
          "move_map_tile",
          5,
          15,
          1,
          4,
          15,
          0
        ],
        [
          "redraw_tiles",
          4,
          12,
          5,
          15,
          30561,
          0
        ],
        [
          "render_changes",
          0,
          0,
          31232,
          174,
          0,
          0
        ],
        [
          "wait_ticks",
          1,
          0,
          24919,
          29801,
          28486,
          0
        ],
        [
          "clear_tile",
          4,
          12,
          2,
          28525,
          25974,
          0
        ],
        [
          "clear_tile",
          4,
          13,
          2,
          28525,
          25974,
          0
        ],
        [
          "clear_tile",
          4,
          14,
          1,
          28525,
          25974,
          0
        ],
        [
          "clear_tile",
          4,
          15,
          1,
          28525,
          25974,
          0
        ],
        [
          "redraw_tiles",
          4,
          12,
          4,
          15,
          30561,
          0
        ],
        [
          "render_changes",
          0,
          0,
          14072,
          110,
          0,
          0
        ],
        [
          "wait_ticks",
          5,
          0,
          24919,
          29801,
          28486,
          0
        ],
        [
          "set_temp_var",
          4,
          0,
          25939,
          17268,
          30063,
          0
        ],
        [
          "warp_to_map",
          144,
          0,
          0,
          1,
          26723,
          0
        ]
      ]
    },
    {
      "triggers": [
        [
          "on_temp_var_eq",
          4,
          8,
          0,
          28483,
          28277,
          0
        ],
        [
          "on_enter_vehicle",
          110,
          10,
          0,
          25939,
          17268,
          0
        ]
      ],
      "commands": [
        [
          "release_camera",
          5,
          0,
          28229,
          25972,
          114,
          0
        ],
        [
          "set_player_pos",
          8,
          15,
          25939,
          18548,
          29285,
          0
        ],
        [
          "set_tile",
          12,
          12,
          2,
          1176,
          25441,
          0
        ],
        [
          "set_tile",
          12,
          13,
          2,
          1178,
          25441,
          0
        ],
        [
          "set_tile",
          12,
          14,
          1,
          1180,
          25441,
          0
        ],
        [
          "set_tile",
          12,
          15,
          1,
          1182,
          25441,
          0
        ],
        [
          "redraw_tiles",
          12,
          12,
          12,
          15,
          30561,
          0
        ],
        [
          "render_changes",
          0,
          0,
          0,
          0,
          0,
          0
        ],
        [
          "wait_ticks",
          2,
          0,
          24919,
          29801,
          28486,
          0
        ],
        [
          "play_sound",
          38,
          0,
          25938,
          27760,
          25441,
          0
        ],
        [
          "move_map_tile",
          12,
          12,
          2,
          11,
          12,
          0
        ],
        [
          "set_tile",
          12,
          12,
          2,
          1177,
          25441,
          0
        ],
        [
          "move_map_tile",
          12,
          13,
          2,
          11,
          13,
          0
        ],
        [
          "set_tile",
          12,
          13,
          2,
          1179,
          25441,
          0
        ],
        [
          "move_map_tile",
          12,
          14,
          1,
          11,
          14,
          0
        ],
        [
          "move_map_tile",
          12,
          15,
          1,
          11,
          15,
          0
        ],
        [
          "set_tile",
          12,
          14,
          1,
          1181,
          25441,
          0
        ],
        [
          "set_tile",
          12,
          15,
          1,
          1183,
          25441,
          0
        ],
        [
          "redraw_tiles",
          11,
          12,
          12,
          15,
          30561,
          0
        ],
        [
          "render_changes",
          0,
          0,
          53552,
          174,
          0,
          0
        ],
        [
          "wait_ticks",
          1,
          0,
          24919,
          29801,
          28486,
          0
        ],
        [
          "move_map_tile",
          11,
          12,
          2,
          10,
          12,
          0
        ],
        [
          "move_map_tile",
          12,
          12,
          2,
          11,
          12,
          0
        ],
        [
          "move_map_tile",
          11,
          13,
          2,
          10,
          13,
          0
        ],
        [
          "move_map_tile",
          12,
          13,
          2,
          11,
          13,
          0
        ],
        [
          "move_map_tile",
          11,
          14,
          1,
          10,
          14,
          0
        ],
        [
          "move_map_tile",
          12,
          14,
          1,
          11,
          14,
          0
        ],
        [
          "move_map_tile",
          11,
          15,
          1,
          10,
          15,
          0
        ],
        [
          "move_map_tile",
          12,
          15,
          1,
          11,
          15,
          0
        ],
        [
          "redraw_tiles",
          10,
          12,
          12,
          15,
          30561,
          0
        ],
        [
          "render_changes",
          0,
          0,
          18524,
          110,
          0,
          0
        ],
        [
          "wait_ticks",
          1,
          0,
          24919,
          29801,
          28486,
          0
        ],
        [
          "move_map_tile",
          10,
          12,
          2,
          9,
          13,
          0
        ],
        [
          "move_map_tile",
          10,
          13,
          2,
          9,
          14,
          0
        ],
        [
          "move_map_tile",
          11,
          12,
          2,
          10,
          13,
          0
        ],
        [
          "move_map_tile",
          11,
          13,
          2,
          10,
          14,
          0
        ],
        [
          "move_map_tile",
          10,
          14,
          1,
          9,
          14,
          0
        ],
        [
          "move_map_tile",
          11,
          14,
          1,
          10,
          14,
          0
        ],
        [
          "move_map_tile",
          10,
          15,
          1,
          9,
          15,
          0
        ],
        [
          "move_map_tile",
          11,
          15,
          1,
          10,
          15,
          0
        ],
        [
          "redraw_tiles",
          9,
          12,
          11,
          15,
          30561,
          0
        ],
        [
          "render_changes",
          0,
          0,
          18524,
          110,
          0,
          0
        ],
        [
          "wait_ticks",
          2,
          0,
          24919,
          29801,
          28486,
          0
        ],
        [
          "move_map_tile",
          9,
          13,
          2,
          8,
          14,
          0
        ],
        [
          "move_map_tile",
          9,
          14,
          2,
          8,
          15,
          0
        ],
        [
          "move_map_tile",
          10,
          13,
          2,
          9,
          14,
          0
        ],
        [
          "move_map_tile",
          10,
          14,
          2,
          9,
          15,
          0
        ],
        [
          "move_map_tile",
          9,
          14,
          1,
          8,
          14,
          0
        ],
        [
          "move_map_tile",
          10,
          14,
          1,
          9,
          14,
          0
        ],
        [
          "move_map_tile",
          9,
          15,
          1,
          8,
          15,
          0
        ],
        [
          "move_map_tile",
          10,
          15,
          1,
          9,
          15,
          0
        ],
        [
          "clear_tile",
          8,
          15,
          1,
          0,
          0,
          0
        ],
        [
          "clear_tile",
          8,
          15,
          2,
          28525,
          25974,
          0
        ],
        [
          "set_tile",
          8,
          15,
          0,
          1370,
          25441,
          0
        ],
        [
          "redraw_tiles",
          8,
          13,
          10,
          15,
          30561,
          0
        ],
        [
          "render_changes",
          0,
          0,
          18524,
          110,
          0,
          0
        ],
        [
          "wait_ticks",
          5,
          0,
          24919,
          29801,
          28486,
          0
        ],
        [
          "draw_overlay_tile",
          8,
          15,
          799,
          30561,
          26964,
          0
        ],
        [
          "render_changes",
          0,
          0,
          18524,
          110,
          0,
          0
        ],
        [
          "wait_ticks",
          2,
          0,
          24919,
          29801,
          28486,
          0
        ],
        [
          "set_player_pos",
          8,
          16,
          25939,
          18548,
          29285,
          0
        ],
        [
          "redraw_tile",
          8,
          15,
          0,
          0,
          0,
          0
        ],
        [
          "set_tile",
          8,
          16,
          1,
          799,
          25441,
          0
        ],
        [
          "redraw_tile",
          8,
          16,
          25938,
          29284,
          30561,
          0
        ],
        [
          "render_changes",
          14649,
          0,
          0,
          0,
          63632,
          0
        ],
        [
          "wait_ticks",
          2,
          110,
          14080,
          110,
          12,
          0
        ],
        [
          "clear_tile",
          8,
          16,
          1,
          28525,
          25974,
          0
        ],
        [
          "lock_camera",
          0,
          0,
          34456,
          174,
          0,
          0
        ],
        [
          "set_temp_var",
          2,
          0,
          25939,
          17268,
          30063,
          0
        ]
      ]
    },
    {
      "triggers": [
        [
          "on_bump_tile",
          11,
          10,
          145,
          30018,
          28781,
          0
        ],
        [
          "on_global_var_eq",
          0,
          10,
          0,
          27719,
          25199,
          0
        ]
      ],
      "commands": [
        [
          "play_sound",
          16,
          0,
          27728,
          31073,
          28499,
          0
        ],
        [
          "clear_tile",
          11,
          10,
          1,
          28525,
          25974,
          0
        ],
        [
          "redraw_tile",
          11,
          10,
          25938,
          29284,
          30561,
          0
        ],
        [
          "render_changes",
          0,
          0,
          59004,
          186,
          0,
          0
        ]
      ]
    },
    {
      "triggers": [
        [
          "on_bump_tile",
          11,
          10,
          145,
          30018,
          28781,
          0
        ],
        [
          "on_temp_var_eq",
          1,
          8,
          0,
          28483,
          28277,
          0
        ]
      ],
      "commands": [
        [
          "say_text",
          8,
          0,
          26707,
          30575,
          25940,
          20
        ]
      ]
    },
    {
      "triggers": [
        [
          "on_temp_var_eq",
          1,
          8,
          0,
          28483,
          28277,
          0
        ],
        [
          "on_drag_item",
          11,
          10,
          1,
          145,
          65535,
          0
        ]
      ],
      "commands": [
        [
          "play_sound",
          16,
          0,
          27728,
          31073,
          28499,
          0
        ],
        [
          "clear_tile",
          11,
          10,
          1,
          28525,
          25974,
          0
        ],
        [
          "redraw_tile",
          11,
          10,
          25938,
          29284,
          30561,
          0
        ],
        [
          "render_changes",
          0,
          0,
          59004,
          186,
          0,
          0
        ]
      ]
    }
  ],
  "tilemap": [
    [
      [
        0,
        65535,
        65535
      ],
      [
        0,
        65535,
        65535
      ],
      [
        0,
        65535,
        65535
      ],
      [
        0,
        65535,
        65535
      ],
      [
        0,
        65535,
        65535
      ],
      [
        0,
        65535,
        65535
      ],
      [
        0,
        65535,
        65535
      ],
      [
        0,
        65535,
        65535
      ],
      [
        0,
        65535,
        65535
      ],
      [
        0,
        65535,
        65535
      ],
      [
        0,
        65535,
        65535
      ],
      [
        0,
        65535,
        65535
      ],
      [
        0,
        65535,
        65535
      ],
      [
        0,
        65535,
        65535
      ],
      [
        0,
        65535,
        65535
      ],
      [
        0,
        65535,
        65535
      ],
      [
        0,
        65535,
        65535
      ],
      [
        0,
        65535,
        65535
      ]
    ],
    [
      [
        4,
        65535,
        65535
      ],
      [
        0,
        65535,
        118
      ],
      [
        0,
        65535,
        119
      ],
      [
        0,
        65535,
        120
      ],
      [
        0,
        65535,
        65535
      ],
      [
        0,
        65535,
        65535
      ],
      [
        0,
        65535,
        65535
      ],
      [
        2,
        65535,
        65535
      ],
      [
        0,
        65535,
        65535
      ],
      [
        0,
        65535,
        124
      ],
      [
        0,
        65535,
        125
      ],
      [
        0,
        65535,
        127
      ],
      [
        0,
        65535,
        65535
      ],
      [
        0,
        65535,
        65535
      ],
      [
        0,
        65535,
        65535
      ],
      [
        3,
        65535,
        65535
      ],
      [
        0,
        65535,
        65535
      ],
      [
        0,
        65535,
        65535
      ]
    ],
    [
      [
        0,
        65535,
        65535
      ],
      [
        0,
        121,
        65535
      ],
      [
        0,
        122,
        65535
      ],
      [
        0,
        123,
        65535
      ],
      [
        0,
        65535,
        65535
      ],
      [
        0,
        65535,
        65535
      ],
      [
        0,
        65535,
        65535
      ],
      [
        0,
        33,
        65535
      ],
      [
        0,
        21,
        65535
      ],
      [
        0,
        117,
        65535
      ],
      [
        0,
        129,
        65535
      ],
      [
        0,
        131,
        65535
      ],
      [
        0,
        65535,
        65535
      ],
      [
        0,
        65535,
        65535
      ],
      [
        0,
        65535,
        65535
      ],
      [
        0,
        65535,
        65535
      ],
      [
        0,
        65535,
        65535
      ],
      [
        0,
        65535,
        65535
      ]
    ],
    [
      [
        0,
        65535,
        65535
      ],
      [
        0,
        136,
        65535
      ],
      [
        0,
        116,
        65535
      ],
      [
        0,
        139,
        65535
      ],
      [
        0,
        65535,
        65535
      ],
      [
        0,
        65535,
        65535
      ],
      [
        0,
        65535,
        65535
      ],
      [
        0,
        65535,
        65535
      ],
      [
        0,
        65535,
        65535
      ],
      [
        0,
        156,
        65535
      ],
      [
        0,
        133,
        65535
      ],
      [
        0,
        135,
        65535
      ],
      [
        0,
        65535,
        65535
      ],
      [
        0,
        65535,
        65535
      ],
      [
        0,
        65535,
        65535
      ],
      [
        0,
        65535,
        65535
      ],
      [
        0,
        65535,
        65535
      ],
      [
        0,
        65535,
        65535
      ]
    ],
    [
      [
        0,
        65535,
        65535
      ],
      [
        0,
        65535,
        65535
      ],
      [
        0,
        10,
        65535
      ],
      [
        0,
        65535,
        65535
      ],
      [
        281,
        65535,
        65535
      ],
      [
        0,
        65535,
        65535
      ],
      [
        0,
        65535,
        65535
      ],
      [
        281,
        65535,
        65535
      ],
      [
        0,
        65535,
        65535
      ],
      [
        281,
        136,
        65535
      ],
      [
        0,
        138,
        113
      ],
      [
        281,
        139,
        65535
      ],
      [
        0,
        65535,
        65535
      ],
      [
        0,
        65535,
        65535
      ],
      [
        0,
        65535,
        65535
      ],
      [
        0,
        65535,
        65535
      ],
      [
        0,
        65535,
        65535
      ],
      [
        0,
        65535,
        65535
      ]
    ],
    [
      [
        0,
        65535,
        65535
      ],
      [
        0,
        65535,
        65535
      ],
      [
        281,
        65535,
        65535
      ],
      [
        281,
        65535,
        65535
      ],
      [
        0,
        65535,
        65535
      ],
      [
        281,
        65535,
        65535
      ],
      [
        0,
        65535,
        65535
      ],
      [
        281,
        65535,
        65535
      ],
      [
        281,
        65535,
        65535
      ],
      [
        281,
        65535,
        65535
      ],
      [
        281,
        65535,
        65535
      ],
      [
        282,
        65535,
        65535
      ],
      [
        0,
        65535,
        65535
      ],
      [
        0,
        65535,
        65535
      ],
      [
        0,
        65535,
        65535
      ],
      [
        0,
        65535,
        65535
      ],
      [
        0,
        65535,
        65535
      ],
      [
        0,
        65535,
        65535
      ]
    ],
    [
      [
        0,
        65535,
        65535
      ],
      [
        281,
        65535,
        65535
      ],
      [
        282,
        26,
        65535
      ],
      [
        0,
        65535,
        65535
      ],
      [
        282,
        65535,
        124
      ],
      [
        282,
        65535,
        125
      ],
      [
        282,
        65535,
        127
      ],
      [
        282,
        65535,
        65535
      ],
      [
        0,
        65535,
        65535
      ],
      [
        282,
        65535,
        65535
      ],
      [
        282,
        65535,
        65535
      ],
      [
        281,
        65535,
        65535
      ],
      [
        282,
        65535,
        65535
      ],
      [
        0,
        65535,
        65535
      ],
      [
        281,
        65535,
        65535
      ],
      [
        0,
        65535,
        65535
      ],
      [
        0,
        65535,
        65535
      ],
      [
        0,
        65535,
        65535
      ]
    ],
    [
      [
        0,
        65535,
        65535
      ],
      [
        2,
        65535,
        65535
      ],
      [
        0,
        25,
        65535
      ],
      [
        0,
        21,
        65535
      ],
      [
        282,
        117,
        65535
      ],
      [
        0,
        129,
        815
      ],
      [
        0,
        131,
        65535
      ],
      [
        281,
        65535,
        65535
      ],
      [
        281,
        65535,
        65535
      ],
      [
        0,
        65535,
        124
      ],
      [
        0,
        65535,
        125
      ],
      [
        0,
        65535,
        126
      ],
      [
        0,
        65535,
        127
      ],
      [
        0,
        65535,
        65535
      ],
      [
        281,
        65535,
        65535
      ],
      [
        281,
        65535,
        65535
      ],
      [
        0,
        65535,
        65535
      ],
      [
        0,
        65535,
        65535
      ]
    ],
    [
      [
        0,
        65535,
        65535
      ],
      [
        0,
        65535,
        65535
      ],
      [
        0,
        65535,
        65535
      ],
      [
        0,
        65535,
        124
      ],
      [
        0,
        128,
        125
      ],
      [
        0,
        129,
        814
      ],
      [
        0,
        132,
        127
      ],
      [
        281,
        21,
        65535
      ],
      [
        0,
        21,
        180
      ],
      [
        0,
        117,
        65535
      ],
      [
        0,
        129,
        163
      ],
      [
        0,
        130,
        65535
      ],
      [
        0,
        131,
        65535
      ],
      [
        1,
        65535,
        65535
      ],
      [
        1,
        65535,
        65535
      ],
      [
        282,
        65535,
        65535
      ],
      [
        281,
        65535,
        65535
      ],
      [
        0,
        65535,
        65535
      ]
    ],
    [
      [
        1,
        65535,
        65535
      ],
      [
        1,
        65535,
        65535
      ],
      [
        1,
        65535,
        65535
      ],
      [
        0,
        128,
        158
      ],
      [
        0,
        129,
        65535
      ],
      [
        0,
        129,
        65535
      ],
      [
        0,
        131,
        65535
      ],
      [
        281,
        65535,
        65535
      ],
      [
        282,
        181,
        1421
      ],
      [
        281,
        1422,
        156
      ],
      [
        0,
        133,
        65535
      ],
      [
        0,
        143,
        65535
      ],
      [
        0,
        135,
        65535
      ],
      [
        0,
        65535,
        65535
      ],
      [
        1,
        65535,
        65535
      ],
      [
        1,
        65535,
        65535
      ],
      [
        1,
        65535,
        65535
      ],
      [
        1,
        65535,
        65535
      ]
    ],
    [
      [
        0,
        65535,
        65535
      ],
      [
        0,
        65535,
        65535
      ],
      [
        281,
        65535,
        65535
      ],
      [
        0,
        156,
        65535
      ],
      [
        0,
        283,
        65535
      ],
      [
        0,
        133,
        65535
      ],
      [
        0,
        135,
        65535
      ],
      [
        281,
        65535,
        65535
      ],
      [
        0,
        65535,
        65535
      ],
      [
        0,
        136,
        65535
      ],
      [
        0,
        115,
        65535
      ],
      [
        144,
        145,
        65535
      ],
      [
        0,
        139,
        65535
      ],
      [
        0,
        65535,
        65535
      ],
      [
        0,
        65535,
        65535
      ],
      [
        0,
        65535,
        65535
      ],
      [
        2,
        65535,
        65535
      ],
      [
        0,
        65535,
        65535
      ]
    ],
    [
      [
        0,
        65535,
        65535
      ],
      [
        0,
        65535,
        65535
      ],
      [
        282,
        65535,
        65535
      ],
      [
        0,
        136,
        352
      ],
      [
        0,
        284,
        65535
      ],
      [
        0,
        138,
        114
      ],
      [
        281,
        139,
        65535
      ],
      [
        281,
        65535,
        65535
      ],
      [
        0,
        65535,
        65535
      ],
      [
        0,
        172,
        65535
      ],
      [
        358,
        65535,
        65535
      ],
      [
        0,
        65535,
        65535
      ],
      [
        0,
        65535,
        65535
      ],
      [
        0,
        172,
        65535
      ],
      [
        281,
        65535,
        65535
      ],
      [
        281,
        65535,
        65535
      ],
      [
        0,
        65535,
        65535
      ],
      [
        0,
        65535,
        65535
      ]
    ],
    [
      [
        0,
        65535,
        65535
      ],
      [
        281,
        65535,
        65535
      ],
      [
        0,
        65535,
        65535
      ],
      [
        0,
        351,
        65535
      ],
      [
        0,
        65535,
        65535
      ],
      [
        357,
        65535,
        65535
      ],
      [
        282,
        65535,
        65535
      ],
      [
        281,
        65535,
        65535
      ],
      [
        282,
        65535,
        65535
      ],
      [
        0,
        65535,
        65535
      ],
      [
        0,
        65535,
        65535
      ],
      [
        0,
        65535,
        65535
      ],
      [
        353,
        65535,
        65535
      ],
      [
        0,
        65535,
        65535
      ],
      [
        282,
        65535,
        65535
      ],
      [
        0,
        65535,
        65535
      ],
      [
        0,
        65535,
        65535
      ],
      [
        0,
        65535,
        65535
      ]
    ],
    [
      [
        0,
        65535,
        65535
      ],
      [
        0,
        65535,
        65535
      ],
      [
        281,
        65535,
        65535
      ],
      [
        0,
        65535,
        65535
      ],
      [
        0,
        184,
        65535
      ],
      [
        356,
        65535,
        65535
      ],
      [
        281,
        65535,
        65535
      ],
      [
        282,
        184,
        65535
      ],
      [
        281,
        65535,
        65535
      ],
      [
        0,
        359,
        65535
      ],
      [
        0,
        184,
        65535
      ],
      [
        0,
        185,
        65535
      ],
      [
        282,
        65535,
        65535
      ],
      [
        282,
        184,
        65535
      ],
      [
        281,
        65535,
        65535
      ],
      [
        0,
        65535,
        65535
      ],
      [
        0,
        65535,
        65535
      ],
      [
        0,
        65535,
        65535
      ]
    ],
    [
      [
        0,
        65535,
        65535
      ],
      [
        281,
        65535,
        65535
      ],
      [
        282,
        65535,
        65535
      ],
      [
        1297,
        65535,
        65535
      ],
      [
        1298,
        65535,
        65535
      ],
      [
        1298,
        65535,
        65535
      ],
      [
        1298,
        65535,
        65535
      ],
      [
        1298,
        65535,
        65535
      ],
      [
        1298,
        1180,
        1176
      ],
      [
        1298,
        1181,
        1177
      ],
      [
        1298,
        65535,
        65535
      ],
      [
        1298,
        65535,
        65535
      ],
      [
        1298,
        65535,
        65535
      ],
      [
        1298,
        65535,
        65535
      ],
      [
        1299,
        65535,
        65535
      ],
      [
        281,
        65535,
        65535
      ],
      [
        0,
        65535,
        65535
      ],
      [
        0,
        65535,
        65535
      ]
    ],
    [
      [
        0,
        65535,
        65535
      ],
      [
        281,
        65535,
        65535
      ],
      [
        281,
        65535,
        65535
      ],
      [
        1303,
        65535,
        65535
      ],
      [
        1304,
        65535,
        65535
      ],
      [
        1304,
        65535,
        65535
      ],
      [
        1304,
        65535,
        65535
      ],
      [
        1304,
        65535,
        65535
      ],
      [
        1370,
        65535,
        65535
      ],
      [
        1304,
        1183,
        1179
      ],
      [
        1304,
        65535,
        65535
      ],
      [
        1304,
        65535,
        65535
      ],
      [
        1304,
        65535,
        65535
      ],
      [
        1304,
        65535,
        65535
      ],
      [
        1305,
        65535,
        65535
      ],
      [
        282,
        65535,
        65535
      ],
      [
        0,
        65535,
        65535
      ],
      [
        0,
        65535,
        65535
      ]
    ],
    [
      [
        0,
        65535,
        65535
      ],
      [
        0,
        65535,
        65535
      ],
      [
        0,
        65535,
        65535
      ],
      [
        0,
        65535,
        65535
      ],
      [
        282,
        184,
        65535
      ],
      [
        281,
        65535,
        65535
      ],
      [
        281,
        65535,
        65535
      ],
      [
        282,
        184,
        65535
      ],
      [
        281,
        65535,
        65535
      ],
      [
        0,
        65535,
        65535
      ],
      [
        0,
        184,
        65535
      ],
      [
        0,
        65535,
        65535
      ],
      [
        281,
        65535,
        65535
      ],
      [
        281,
        184,
        65535
      ],
      [
        0,
        65535,
        65535
      ],
      [
        0,
        65535,
        65535
      ],
      [
        0,
        65535,
        65535
      ],
      [
        0,
        65535,
        65535
      ]
    ],
    [
      [
        0,
        65535,
        65535
      ],
      [
        0,
        65535,
        65535
      ],
      [
        0,
        65535,
        65535
      ],
      [
        0,
        65535,
        65535
      ],
      [
        0,
        65535,
        65535
      ],
      [
        281,
        65535,
        65535
      ],
      [
        282,
        65535,
        65535
      ],
      [
        0,
        65535,
        65535
      ],
      [
        0,
        65535,
        65535
      ],
      [
        0,
        65535,
        65535
      ],
      [
        0,
        65535,
        65535
      ],
      [
        0,
        65535,
        65535
      ],
      [
        0,
        65535,
        65535
      ],
      [
        0,
        65535,
        65535
      ],
      [
        0,
        65535,
        65535
      ],
      [
        0,
        65535,
        65535
      ],
      [
        0,
        65535,
        65535
      ],
      [
        0,
        65535,
        65535
      ]
    ],
    []
  ]
}