{
  "zoneId": 146,
  "zoneType": 2,
  "width": 18,
  "height": 18,
  "type": 17,
  "world": 2,
  "objects": [
    {
      "type": 0,
      "x": 9,
      "y": 5,
      "unknown": 1,
      "param": 65535
    },
    {
      "type": 0,
      "x": 6,
      "y": 7,
      "unknown": 1,
      "param": 65535
    },
    {
      "type": 0,
      "x": 5,
      "y": 11,
      "unknown": 1,
      "param": 65535
    },
    {
      "type": 0,
      "x": 5,
      "y": 5,
      "unknown": 1,
      "param": 65535
    }
  ],
  "actions": [
    {
      "triggers": [
        [
          "on_first_enter",
          168,
          0,
          0,
          0,
          0,
          0
        ]
      ],
      "commands": [
        [
          "set_rand_var",
          0,
          168,
          8480,
          168,
          8512,
          0
        ]
      ]
    },
    {
      "triggers": [
        [
          "on_first_enter",
          110,
          58388,
          179,
          0,
          0,
          0
        ],
        [
          "on_unknown3",
          9,
          5,
          0,
          27719,
          25199,
          0
        ]
      ],
      "commands": [
        [
          "set_temp_var",
          1,
          0,
          25939,
          17268,
          30063,
          0
        ]
      ]
    },
    {
      "triggers": [
        [
          "on_first_enter",
          110,
          58388,
          179,
          0,
          0,
          0
        ],
        [
          "on_unknown3",
          6,
          7,
          0,
          27719,
          25199,
          0
        ]
      ],
      "commands": [
        [
          "set_temp_var",
          2,
          0,
          25939,
          17268,
          30063,
          0
        ]
      ]
    },
    {
      "triggers": [
        [
          "on_first_enter",
          110,
          58388,
          179,
          0,
          0,
          0
        ],
        [
          "on_unknown3",
          5,
          11,
          0,
          27719,
          25199,
          0
        ]
      ],
      "commands": [
        [
          "set_temp_var",
          3,
          0,
          25939,
          17268,
          30063,
          0
        ]
      ]
    },
    {
      "triggers": [
        [
          "on_first_enter",
          110,
          58388,
          179,
          0,
          0,
          0
        ],
        [
          "on_unknown3",
          5,
          5,
          0,
          27719,
          25199,
          0
        ]
      ],
      "commands": [
        [
          "set_temp_var",
          4,
          0,
          25939,
          17268,
          30063,
          0
        ]
      ]
    },
    {
      "triggers": [
        [
          "on_first_enter",
          0,
          0,
          0,
          0,
          0,
          0
        ],
        [
          "on_temp_var_eq",
          3,
          63308,
          189,
          0,
          0,
          0
        ]
      ],
      "commands": [
        [
          "clear_tile",
          7,
          6,
          1,
          0,
          0,
          0
        ],
        [
          "clear_tile",
          7,
          5,
          2,
          0,
          0,
          0
        ],
        [
          "redraw_tiles",
          7,
          5,
          7,
          6,
          62332,
          0
        ],
        [
          "set_tile",
          4,
          3,
          1,
          1817,
          0,
          0
        ],
        [
          "set_tile",
          4,
          2,
          2,
          1816,
          0,
          0
        ],
        [
          "redraw_tiles",
          4,
          2,
          4,
          3,
          0,
          0
        ]
      ]
    },
    {
      "triggers": [
        [
          "on_first_enter",
          0,
          0,
          0,
          0,
          0,
          0
        ],
        [
          "on_temp_var_eq",
          4,
          63308,
          189,
          0,
          0,
          0
        ]
      ],
      "commands": [
        [
          "clear_tile",
          7,
          6,
          1,
          0,
          0,
          0
        ],
        [
          "clear_tile",
          7,
          5,
          2,
          0,
          0,
          0
        ],
        [
          "redraw_tiles",
          7,
          5,
          7,
          6,
          62332,
          0
        ],
        [
          "set_tile",
          7,
          13,
          1,
          1817,
          0,
          0
        ],
        [
          "set_tile",
          7,
          12,
          2,
          1816,
          0,
          0
        ],
        [
          "redraw_tiles",
          7,
          12,
          7,
          13,
          0,
          0
        ]
      ]
    },
    {
      "triggers": [
        [
          "on_drag_item",
          9,
          5,
          1,
          65535,
          511,
          0
        ]
      ],
      "commands": [
        [
          "hide_object",
          0,
          0,
          28488,
          21364,
          28528,
          0
        ],
        [
          "clear_tile",
          9,
          5,
          1,
          28525,
          25974,
          0
        ],
        [
          "spawn_item",
          65535,
          9,
          5,
          28783,
          29769,
          0
        ],
        [
          "set_rand_var",
          10,
          0,
          0,
          0,
          0,
          0
        ],
        [
          "open",
          0,
          0,
          0,
          0,
          0,
          0
        ],
        [
          "flag_once",
          0,
          0,
          0,
          0,
          0,
          0
        ]
      ]
    },
    {
      "triggers": [
        [
          "on_drag_item",
          6,
          7,
          1,
          65535,
          511,
          0
        ]
      ],
      "commands": [
        [
          "set_rand_var",
          10,
          0,
          14288,
          168,
          14508,
          0
        ],
        [
          "hide_object",
          1,
          0,
          28488,
          21364,
          28528,
          0
        ],
        [
          "clear_tile",
          6,
          7,
          1,
          28525,
          25974,
          0
        ],
        [
          "spawn_item",
          65535,
          6,
          7,
          28783,
          29769,
          0
        ],
        [
          "open",
          13,
          0,
          25939,
          21108,
          28257,
          0
        ],
        [
          "flag_once",
          0,
          0,
          0,
          0,
          0,
          0
        ]
      ]
    },
    {
      "triggers": [
        [
          "on_drag_item",
          5,
          11,
          1,
          65535,
          511,
          0
        ]
      ],
      "commands": [
        [
          "set_rand_var",
          10,
          0,
          15856,
          168,
          16172,
          0
        ],
        [
          "hide_object",
          2,
          0,
          28488,
          21364,
          28528,
          0
        ],
        [
          "clear_tile",
          5,
          11,
          1,
          28525,
          25974,
          0
        ],
        [
          "spawn_item",
          65535,
          5,
          11,
          28783,
          29769,
          0
        ],
        [
          "open",
          10,
          0,
          25938,
          28525,
          25974,
          0
        ],
        [
          "flag_once",
          0,
          0,
          0,
          0,
          0,
          0
        ]
      ]
    },
    {
      "triggers": [
        [
          "on_drag_item",
          5,
          6,
          1,
          650,
          511,
          0
        ]
      ],
      "commands": [
        [
          "set_rand_var",
          10,
          0,
          15344,
          168,
          0,
          0
        ],
        [
          "hide_object",
          3,
          0,
          28488,
          21364,
          28528,
          0
        ],
        [
          "clear_tile",
          5,
          5,
          1,
          28525,
          25974,
          0
        ],
        [
          "spawn_item",
          65535,
          5,
          5,
          28783,
          29769,
          0
        ],
        [
          "open",
          11318,
          10551,
          8224,
          49,
          0,
          0
        ],
        [
          "flag_once",
          0,
          0,
          0,
          0,
          0,
          0
        ]
      ]
    },
    {
      "triggers": [
        [
          "on_temp_var_eq",
          1,
          8,
          0,
          28483,
          28277,
          0
        ],
        [
          "on_bump_tile",
          10,
          5,
          664,
          30018,
          28781,
          0
        ],
        [
          "on_rand_var_eq",
          0,
          8,
          0,
          30018,
          28781,
          0
        ]
      ],
      "commands": [
        [
          "set_rand_var",
          1,
          0,
          25939,
          21108,
          28257,
          0
        ]
      ]
    },
    {
      "triggers": [
        [
          "on_temp_var_eq",
          1,
          8,
          0,
          28483,
          28277,
          0
        ],
        [
          "on_bump_tile",
          9,
          6,
          670,
          30018,
          28781,
          0
        ],
        [
          "on_rand_var_eq",
          0,
          0,
          0,
          0,
          0,
          0
        ]
      ],
      "commands": [
        [
          "set_rand_var",
          1,
          0,
          25939,
          21108,
          28257,
          0
        ]
      ]
    },
    {
      "triggers": [
        [
          "on_temp_var_eq",
          2,
          8,
          0,
          28483,
          28277,
          0
        ],
        [
          "on_bump_tile",
          6,
          8,
          670,
          30018,
          28781,
          0
        ],
        [
          "on_rand_var_eq",
          0,
          0,
          0,
          0,
          0,
          0
        ]
      ],
      "commands": [
        [
          "set_rand_var",
          1,
          0,
          25939,
          21108,
          28257,
          0
        ]
      ]
    },
    {
      "triggers": [
        [
          "on_temp_var_eq",
          3,
          8,
          0,
          28483,
          28277,
          0
        ],
        [
          "on_bump_tile",
          5,
          10,
          650,
          30018,
          28781,
          0
        ],
        [
          "on_rand_var_eq",
          0,
          0,
          0,
          0,
          0,
          0
        ]
      ],
      "commands": [
        [
          "set_rand_var",
          1,
          0,
          25939,
          21108,
          28257,
          0
        ]
      ]
    },
    {
      "triggers": [
        [
          "on_temp_var_eq",
          4,
          8,
          0,
          28483,
          28277,
          0
        ],
        [
          "on_bump_tile",
          5,
          8,
          670,
          30018,
          28781,
          0
        ],
        [
          "on_rand_var_eq",
          0,
          2706,
          0,
          15504,
          168,
          0
        ]
      ],
      "commands": [
        [
          "set_rand_var",
          1,
          0,
          25939,
          21108,
          28257,
          0
        ]
      ]
    },
    {
      "triggers": [
        [
          "on_rand_var_eq",
          1,
          8,
          0,
          24914,
          25710,
          0
        ],
        [
          "on_check_map_tile_var",
          1,
          3,
          3,
          0,
          30575,
          0
        ]
      ],
      "commands": [
        [
          "say_text",
          8,
          0,
          26707,
          30575,
          25940,
          80
        ],
        [
          "set_rand_var",
          0,
          0,
          25939,
          21108,
          28257,
          0
        ]
      ]
    },
    {
      "triggers": [
        [
          "on_rand_var_eq",
          1,
          8,
          0,
          24914,
          25710,
          0
        ],
        [
          "on_check_map_tile_var",
          0,
          3,
          3,
          0,
          30575,
          0
        ]
      ],
      "commands": [
        [
          "say_text",
          8,
          0,
          26707,
          30575,
          25940,
          19
        ],
        [
          "set_rand_var",
          0,
          0,
          25939,
          21108,
          28257,
          0
        ],
        [
          "set_map_tile_var",
          3,
          3,
          0,
          1,
          45404,
          0
        ]
      ]
    }
  ],
  "tilemap": [
    [
      [
        648,
        65535,
        65535
      ],
      [
        648,
        65535,
        65535
      ],
      [
        648,
        65535,
        65535
      ],
      [
        648,
        65535,
        65535
      ],
      [
        648,
        65535,
        65535
      ],
      [
        648,
        65535,
        65535
      ],
      [
        648,
        65535,
        65535
      ],
      [
        648,
        65535,
        65535
      ],
      [
        648,
        65535,
        65535
      ],
      [
        648,
        65535,
        65535
      ],
      [
        648,
        65535,
        65535
      ],
      [
        648,
        65535,
        65535
      ],
      [
        648,
        65535,
        65535
      ],
      [
        648,
        65535,
        65535
      ],
      [
        648,
        65535,
        65535
      ],
      [
        648,
        65535,
        65535
      ],
      [
        648,
        65535,
        65535
      ],
      [
        648,
        65535,
        65535
      ]
    ],
    [
      [
        648,
        65535,
        65535
      ],
      [
        997,
        65535,
        65535
      ],
      [
        648,
        65535,
        65535
      ],
      [
        648,
        65535,
        65535
      ],
      [
        648,
        658,
        65535
      ],
      [
        648,
        670,
        65535
      ],
      [
        648,
        670,
        65535
      ],
      [
        648,
        670,
        65535
      ],
      [
        648,
        670,
        65535
      ],
      [
        648,
        670,
        65535
      ],
      [
        648,
        670,
        65535
      ],
      [
        648,
        670,
        65535
      ],
      [
        648,
        659,
        65535
      ],
      [
        1319,
        65535,
        65535
      ],
      [
        648,
        65535,
        65535
      ],
      [
        1000,
        65535,
        65535
      ],
      [
        648,
        65535,
        65535
      ],
      [
        648,
        65535,
        65535
      ]
    ],
    [
      [
        648,
        65535,
        65535
      ],
      [
        648,
        65535,
        65535
      ],
      [
        648,
        65535,
        65535
      ],
      [
        648,
        658,
        65535
      ],
      [
        648,
        662,
        65535
      ],
      [
        648,
        65535,
        65535
      ],
      [
        648,
        661,
        65535
      ],
      [
        648,
        650,
        65535
      ],
      [
        648,
        650,
        65535
      ],
      [
        648,
        660,
        65535
      ],
      [
        648,
        65535,
        65535
      ],
      [
        648,
        65535,
        65535
      ],
      [
        648,
        663,
        65535
      ],
      [
        648,
        670,
        65535
      ],
      [
        648,
        659,
        65535
      ],
      [
        648,
        65535,
        65535
      ],
      [
        648,
        65535,
        65535
      ],
      [
        648,
        65535,
        65535
      ]
    ],
    [
      [
        648,
        65535,
        65535
      ],
      [
        648,
        65535,
        65535
      ],
      [
        1319,
        65535,
        65535
      ],
      [
        0,
        664,
        65535
      ],
      [
        648,
        65535,
        1787
      ],
      [
        648,
        65535,
        65535
      ],
      [
        648,
        663,
        65535
      ],
      [
        648,
        659,
        65535
      ],
      [
        1318,
        65535,
        65535
      ],
      [
        648,
        656,
        65535
      ],
      [
        648,
        650,
        65535
      ],
      [
        648,
        660,
        65535
      ],
      [
        648,
        65535,
        65535
      ],
      [
        648,
        65535,
        65535
      ],
      [
        648,
        667,
        65535
      ],
      [
        648,
        65535,
        65535
      ],
      [
        648,
        65535,
        65535
      ],
      [
        997,
        65535,
        65535
      ]
    ],
    [
      [
        648,
        65535,
        65535
      ],
      [
        648,
        65535,
        65535
      ],
      [
        648,
        658,
        65535
      ],
      [
        648,
        662,
        65535
      ],
      [
        648,
        65535,
        1787
      ],
      [
        648,
        65535,
        65535
      ],
      [
        648,
        65535,
        65535
      ],
      [
        648,
        663,
        65535
      ],
      [
        648,
        659,
        65535
      ],
      [
        648,
        65535,
        65535
      ],
      [
        648,
        658,
        65535
      ],
      [
        648,
        662,
        65535
      ],
      [
        648,
        65535,
        65535
      ],
      [
        648,
        661,
        65535
      ],
      [
        648,
        657,
        65535
      ],
      [
        648,
        65535,
        65535
      ],
      [
        648,
        65535,
        65535
      ],
      [
        648,
        65535,
        65535
      ]
    ],
    [
      [
        648,
        65535,
        65535
      ],
      [
        648,
        658,
        65535
      ],
      [
        648,
        662,
        65535
      ],
      [
        648,
        661,
        65535
      ],
      [
        648,
        660,
        65535
      ],
      [
        648,
        65535,
        65535
      ],
      [
        648,
        661,
        65535
      ],
      [
        648,
        650,
        1816
      ],
      [
        648,
        657,
        65535
      ],
      [
        1317,
        65535,
        65535
      ],
      [
        648,
        664,
        65535
      ],
      [
        648,
        65535,
        65535
      ],
      [
        648,
        661,
        65535
      ],
      [
        648,
        657,
        65535
      ],
      [
        1319,
        65535,
        65535
      ],
      [
        648,
        65535,
        65535
      ],
      [
        648,
        65535,
        65535
      ],
      [
        648,
        65535,
        65535
      ]
    ],
    [
      [
        648,
        65535,
        65535
      ],
      [
        648,
        656,
        65535
      ],
      [
        648,
        660,
        65535
      ],
      [
        648,
        667,
        65535
      ],
      [
        648,
        656,
        65535
      ],
      [
        648,
        650,
        65535
      ],
      [
        648,
        657,
        65535
      ],
      [
        648,
        1817,
        1787
      ],
      [
        648,
        658,
        65535
      ],
      [
        648,
        670,
        65535
      ],
      [
        648,
        662,
        65535
      ],
      [
        1000,
        65535,
        65535
      ],
      [
        648,
        667,
        65535
      ],
      [
        1317,
        65535,
        65535
      ],
      [
        648,
        658,
        65535
      ],
      [
        648,
        670,
        65535
      ],
      [
        648,
        659,
        65535
      ],
      [
        648,
        65535,
        65535
      ]
    ],
    [
      [
        648,
        65535,
        65535
      ],
      [
        1317,
        65535,
        65535
      ],
      [
        648,
        664,
        65535
      ],
      [
        648,
        667,
        65535
      ],
      [
        1318,
        65535,
        65535
      ],
      [
        648,
        65535,
        65535
      ],
      [
        648,
        65535,
        65535
      ],
      [
        648,
        658,
        65535
      ],
      [
        673,
        662,
        65535
      ],
      [
        648,
        65535,
        65535
      ],
      [
        648,
        65535,
        65535
      ],
      [
        648,
        65535,
        65535
      ],
      [
        648,
        667,
        65535
      ],
      [
        1318,
        65535,
        65535
      ],
      [
        648,
        664,
        65535
      ],
      [
        648,
        65535,
        65535
      ],
      [
        648,
        669,
        65535
      ],
      [
        648,
        65535,
        65535
      ]
    ],
    [
      [
        648,
        65535,
        65535
      ],
      [
        648,
        65535,
        65535
      ],
      [
        648,
        664,
        65535
      ],
      [
        648,
        663,
        65535
      ],
      [
        648,
        670,
        65535
      ],
      [
        648,
        670,
        65535
      ],
      [
        648,
        670,
        65535
      ],
      [
        648,
        662,
        65535
      ],
      [
        648,
        65535,
        65535
      ],
      [
        648,
        661,
        65535
      ],
      [
        653,
        65535,
        65535
      ],
      [
        648,
        660,
        65535
      ],
      [
        648,
        667,
        65535
      ],
      [
        648,
        65535,
        65535
      ],
      [
        648,
        664,
        65535
      ],
      [
        648,
        65535,
        65535
      ],
      [
        674,
        65535,
        65535
      ],
      [
        648,
        65535,
        65535
      ]
    ],
    [
      [
        648,
        65535,
        65535
      ],
      [
        648,
        658,
        65535
      ],
      [
        648,
        662,
        65535
      ],
      [
        648,
        65535,
        65535
      ],
      [
        648,
        65535,
        65535
      ],
      [
        648,
        65535,
        65535
      ],
      [
        1000,
        65535,
        65535
      ],
      [
        648,
        65535,
        65535
      ],
      [
        648,
        65535,
        65535
      ],
      [
        648,
        667,
        65535
      ],
      [
        1319,
        65535,
        65535
      ],
      [
        648,
        656,
        65535
      ],
      [
        648,
        657,
        65535
      ],
      [
        648,
        65535,
        65535
      ],
      [
        648,
        656,
        65535
      ],
      [
        648,
        660,
        65535
      ],
      [
        648,
        668,
        65535
      ],
      [
        648,
        65535,
        65535
      ]
    ],
    [
      [
        648,
        65535,
        65535
      ],
      [
        648,
        666,
        65535
      ],
      [
        648,
        661,
        65535
      ],
      [
        648,
        650,
        65535
      ],
      [
        648,
        650,
        65535
      ],
      [
        648,
        650,
        65535
      ],
      [
        648,
        660,
        65535
      ],
      [
        648,
        65535,
        65535
      ],
      [
        648,
        65535,
        65535
      ],
      [
        648,
        663,
        65535
      ],
      [
        648,
        659,
        65535
      ],
      [
        648,
        65535,
        65535
      ],
      [
        648,
        65535,
        65535
      ],
      [
        648,
        65535,
        65535
      ],
      [
        1317,
        65535,
        65535
      ],
      [
        648,
        656,
        65535
      ],
      [
        648,
        657,
        65535
      ],
      [
        648,
        65535,
        65535
      ]
    ],
    [
      [
        648,
        65535,
        65535
      ],
      [
        648,
        665,
        65535
      ],
      [
        648,
        667,
        65535
      ],
      [
        1319,
        65535,
        65535
      ],
      [
        648,
        65535,
        65535
      ],
      [
        648,
        65535,
        65535
      ],
      [
        648,
        656,
        65535
      ],
      [
        648,
        660,
        65535
      ],
      [
        648,
        65535,
        65535
      ],
      [
        648,
        65535,
        65535
      ],
      [
        648,
        663,
        65535
      ],
      [
        648,
        670,
        65535
      ],
      [
        648,
        670,
        65535
      ],
      [
        648,
        670,
        65535
      ],
      [
        648,
        659,
        65535
      ],
      [
        1319,
        65535,
        65535
      ],
      [
        648,
        65535,
        65535
      ],
      [
        648,
        65535,
        65535
      ]
    ],
    [
      [
        648,
        65535,
        65535
      ],
      [
        648,
        664,
        65535
      ],
      [
        648,
        663,
        65535
      ],
      [
        648,
        670,
        65535
      ],
      [
        648,
        670,
        65535
      ],
      [
        648,
        659,
        65535
      ],
      [
        648,
        65535,
        65535
      ],
      [
        648,
        656,
        65535
      ],
      [
        648,
        650,
        65535
      ],
      [
        648,
        650,
        65535
      ],
      [
        648,
        650,
        65535
      ],
      [
        648,
        650,
        65535
      ],
      [
        648,
        660,
        65535
      ],
      [
        997,
        65535,
        65535
      ],
      [
        648,
        663,
        65535
      ],
      [
        648,
        659,
        65535
      ],
      [
        648,
        65535,
        65535
      ],
      [
        648,
        65535,
        65535
      ]
    ],
    [
      [
        648,
        65535,
        65535
      ],
      [
        648,
        664,
        65535
      ],
      [
        1317,
        65535,
        65535
      ],
      [
        648,
        65535,
        65535
      ],
      [
        648,
        65535,
        65535
      ],
      [
        648,
        663,
        65535
      ],
      [
        648,
        659,
        65535
      ],
      [
        648,
        65535,
        1787
      ],
      [
        648,
        65535,
        65535
      ],
      [
        1317,
        65535,
        65535
      ],
      [
        648,
        65535,
        65535
      ],
      [
        648,
        658,
        65535
      ],
      [
        648,
        662,
        65535
      ],
      [
        648,
        65535,
        65535
      ],
      [
        648,
        65535,
        65535
      ],
      [
        648,
        667,
        65535
      ],
      [
        648,
        65535,
        65535
      ],
      [
        997,
        65535,
        65535
      ]
    ],
    [
      [
        648,
        65535,
        65535
      ],
      [
        648,
        656,
        65535
      ],
      [
        648,
        660,
        65535
      ],
      [
        648,
        65535,
        65535
      ],
      [
        648,
        661,
        65535
      ],
      [
        648,
        660,
        65535
      ],
      [
        648,
        667,
        65535
      ],
      [
        1318,
        65535,
        65535
      ],
      [
        648,
        658,
        65535
      ],
      [
        648,
        670,
        65535
      ],
      [
        648,
        670,
        65535
      ],
      [
        648,
        662,
        65535
      ],
      [
        648,
        65535,
        65535
      ],
      [
        648,
        65535,
        65535
      ],
      [
        648,
        661,
        65535
      ],
      [
        648,
        657,
        65535
      ],
      [
        648,
        65535,
        65535
      ],
      [
        648,
        65535,
        65535
      ]
    ],
    [
      [
        648,
        65535,
        65535
      ],
      [
        648,
        65535,
        65535
      ],
      [
        648,
        656,
        65535
      ],
      [
        648,
        650,
        65535
      ],
      [
        648,
        657,
        65535
      ],
      [
        648,
        664,
        65535
      ],
      [
        648,
        663,
        65535
      ],
      [
        648,
        670,
        65535
      ],
      [
        648,
        662,
        65535
      ],
      [
        648,
        65535,
        65535
      ],
      [
        648,
        65535,
        65535
      ],
      [
        648,
        65535,
        65535
      ],
      [
        648,
        661,
        65535
      ],
      [
        648,
        650,
        65535
      ],
      [
        648,
        657,
        65535
      ],
      [
        648,
        65535,
        65535
      ],
      [
        648,
        65535,
        65535
      ],
      [
        648,
        65535,
        65535
      ]
    ],
    [
      [
        648,
        65535,
        65535
      ],
      [
        648,
        65535,
        65535
      ],
      [
        648,
        65535,
        65535
      ],
      [
        648,
        65535,
        65535
      ],
      [
        1317,
        65535,
        65535
      ],
      [
        648,
        656,
        65535
      ],
      [
        648,
        650,
        65535
      ],
      [
        648,
        650,
        65535
      ],
      [
        648,
        655,
        65535
      ],
      [
        1318,
        65535,
        65535
      ],
      [
        648,
        654,
        65535
      ],
      [
        648,
        650,
        65535
      ],
      [
        648,
        657,
        65535
      ],
      [
        1318,
        65535,
        65535
      ],
      [
        648,
        65535,
        65535
      ],
      [
        648,
        65535,
        65535
      ],
      [
        648,
        65535,
        65535
      ],
      [
        648,
        65535,
        65535
      ]
    ],
    [
      [
        648,
        65535,
        65535
      ],
      [
        997,
        65535,
        65535
      ],
      [
        648,
        65535,
        65535
      ],
      [
        648,
        65535,
        65535
      ],
      [
        648,
        65535,
        65535
      ],
      [
        648,
        65535,
        65535
      ],
      [
        648,
        65535,
        65535
      ],
      [
        648,
        65535,
        65535
      ],
      [
        648,
        65535,
        65535
      ],
      [
        1319,
        65535,
        65535
      ],
      [
        648,
        65535,
        65535
      ],
      [
        1317,
        65535,
        65535
      ],
      [
        648,
        65535,
        65535
      ],
      [
        648,
        65535,
        65535
      ],
      [
        648,
        65535,
        65535
      ],
      [
        648,
        65535,
        65535
      ],
      [
        648,
        65535,
        65535
      ],
      [
        648,
        65535,
        65535
      ]
    ],
    []
  ]
}