{
  "zoneId": 167,
  "zoneType": 2,
  "width": 9,
  "height": 9,
  "type": 8,
  "world": 2,
  "objects": [
    {
      "type": 10,
      "x": 4,
      "y": 8,
      "unknown": 1,
      "param": 65535
    },
    {
      "type": 0,
      "x": 3,
      "y": 1,
      "unknown": 1,
      "param": 65535
    },
    {
      "type": 0,
      "x": 7,
      "y": 1,
      "unknown": 1,
      "param": 65535
    },
    {
      "type": 0,
      "x": 1,
      "y": 7,
      "unknown": 1,
      "param": 65535
    }
  ],
  "actions": [],
  "tilemap": [
    [
      [
        598,
        542,
        616
      ],
      [
        598,
        569,
        618
      ],
      [
        598,
        630,
        616
      ],
      [
        598,
        630,
        617
      ],
      [
        598,
        543,
        618
      ],
      [
        598,
        552,
        65535
      ],
      [
        598,
        553,
        65535
      ],
      [
        598,
        631,
        65535
      ],
      [
        598,
        539,
        65535
      ]
    ],
    [
      [
        598,
        545,
        613
      ],
      [
        598,
        355,
        615
      ],
      [
        598,
        186,
        65535
      ],
      [
        598,
        186,
        65535
      ],
      [
        598,
        544,
        65535
      ],
      [
        598,
        622,
        65535
      ],
      [
        598,
        622,
        65535
      ],
      [
        598,
        622,
        65535
      ],
      [
        598,
        544,
        65535
      ]
    ],
    [
      [
        598,
        545,
        65535
      ],
      [
        598,
        186,
        65535
      ],
      [
        598,
        65535,
        65535
      ],
      [
        598,
        65535,
        65535
      ],
      [
        598,
        544,
        65535
      ],
      [
        598,
        65535,
        65535
      ],
      [
        598,
        622,
        65535
      ],
      [
        598,
        65535,
        65535
      ],
      [
        598,
        544,
        65535
      ]
    ],
    [
      [
        598,
        545,
        65535
      ],
      [
        598,
        65535,
        65535
      ],
      [
        598,
        65535,
        65535
      ],
      [
        598,
        65535,
        65535
      ],
      [
        598,
        544,
        65535
      ],
      [
        598,
        65535,
        65535
      ],
      [
        598,
        65535,
        65535
      ],
      [
        598,
        65535,
        65535
      ],
      [
        598,
        544,
        65535
      ]
    ],
    [
      [
        598,
        545,
        65535
      ],
      [
        598,
        65535,
        65535
      ],
      [
        598,
        65535,
        65535
      ],
      [
        598,
        65535,
        65535
      ],
      [
        598,
        544,
        65535
      ],
      [
        598,
        65535,
        65535
      ],
      [
        598,
        65535,
        65535
      ],
      [
        598,
        65535,
        65535
      ],
      [
        598,
        544,
        65535
      ]
    ],
    [
      [
        598,
        542,
        65535
      ],
      [
        598,
        570,
        65535
      ],
      [
        599,
        65535,
        585
      ],
      [
        598,
        630,
        65535
      ],
      [
        598,
        1336,
        65535
      ],
      [
        598,
        65535,
        65535
      ],
      [
        598,
        65535,
        65535
      ],
      [
        598,
        65535,
        65535
      ],
      [
        598,
        544,
        65535
      ]
    ],
    [
      [
        598,
        545,
        65535
      ],
      [
        598,
        65535,
        65535
      ],
      [
        598,
        65535,
        65535
      ],
      [
        598,
        65535,
        65535
      ],
      [
        598,
        65535,
        65535
      ],
      [
        598,
        65535,
        65535
      ],
      [
        598,
        65535,
        65535
      ],
      [
        598,
        65535,
        65535
      ],
      [
        598,
        544,
        65535
      ]
    ],
    [
      [
        598,
        545,
        65535
      ],
      [
        598,
        622,
        65535
      ],
      [
        598,
        65535,
        65535
      ],
      [
        598,
        65535,
        65535
      ],
      [
        598,
        65535,
        65535
      ],
      [
        598,
        65535,
        65535
      ],
      [
        598,
        65535,
        65535
      ],
      [
        598,
        622,
        65535
      ],
      [
        598,
        544,
        65535
      ]
    ],
    [
      [
        598,
        567,
        65535
      ],
      [
        598,
        567,
        65535
      ],
      [
        598,
        567,
        65535
      ],
      [
        598,
        567,
        65535
      ],
      [
        599,
        65535,
        583
      ],
      [
        598,
        567,
        65535
      ],
      [
        598,
        567,
        65535
      ],
      [
        598,
        567,
        65535
      ],
      [
        598,
        567,
        65535
      ]
    ],
    []
  ]
}