{
  "zoneId": 182,
  "zoneType": 2,
  "width": 18,
  "height": 18,
  "type": 1,
  "world": 2,
  "objects": [],
  "actions": [],
  "tilemap": [
    [
      [
        648,
        65535,
        65535
      ],
      [
        648,
        65535,
        65535
      ],
      [
        648,
        65535,
        65535
      ],
      [
        648,
        65535,
        65535
      ],
      [
        648,
        65535,
        65535
      ],
      [
        648,
        65535,
        65535
      ],
      [
        648,
        65535,
        65535
      ],
      [
        648,
        65535,
        65535
      ],
      [
        648,
        65535,
        65535
      ],
      [
        648,
        65535,
        65535
      ],
      [
        648,
        65535,
        65535
      ],
      [
        648,
        65535,
        65535
      ],
      [
        648,
        65535,
        65535
      ],
      [
        648,
        65535,
        65535
      ],
      [
        648,
        65535,
        65535
      ],
      [
        1000,
        65535,
        65535
      ],
      [
        648,
        65535,
        65535
      ],
      [
        648,
        65535,
        65535
      ]
    ],
    [
      [
        648,
        65535,
        65535
      ],
      [
        648,
        65535,
        65535
      ],
      [
        648,
        65535,
        65535
      ],
      [
        648,
        65535,
        65535
      ],
      [
        648,
        658,
        65535
      ],
      [
        648,
        659,
        65535
      ],
      [
        1319,
        65535,
        65535
      ],
      [
        648,
        65535,
        65535
      ],
      [
        648,
        658,
        65535
      ],
      [
        648,
        659,
        65535
      ],
      [
        648,
        65535,
        65535
      ],
      [
        648,
        658,
        65535
      ],
      [
        648,
        671,
        65535
      ],
      [
        648,
        672,
        65535
      ],
      [
        648,
        659,
        65535
      ],
      [
        648,
        65535,
        65535
      ],
      [
        648,
        65535,
        65535
      ],
      [
        648,
        65535,
        65535
      ]
    ],
    [
      [
        997,
        65535,
        65535
      ],
      [
        648,
        65535,
        65535
      ],
      [
        648,
        65535,
        65535
      ],
      [
        648,
        658,
        65535
      ],
      [
        648,
        662,
        65535
      ],
      [
        648,
        663,
        65535
      ],
      [
        648,
        659,
        65535
      ],
      [
        648,
        65535,
        65535
      ],
      [
        648,
        656,
        65535
      ],
      [
        648,
        657,
        65535
      ],
      [
        648,
        65535,
        65535
      ],
      [
        648,
        656,
        65535
      ],
      [
        648,
        660,
        65535
      ],
      [
        648,
        65535,
        65535
      ],
      [
        648,
        663,
        65535
      ],
      [
        648,
        659,
        65535
      ],
      [
        648,
        65535,
        65535
      ],
      [
        648,
        65535,
        65535
      ]
    ],
    [
      [
        648,
        65535,
        65535
      ],
      [
        1318,
        65535,
        65535
      ],
      [
        648,
        658,
        65535
      ],
      [
        648,
        662,
        65535
      ],
      [
        648,
        65535,
        65535
      ],
      [
        648,
        661,
        65535
      ],
      [
        648,
        657,
        65535
      ],
      [
        648,
        65535,
        65535
      ],
      [
        648,
        65535,
        65535
      ],
      [
        648,
        65535,
        65535
      ],
      [
        648,
        65535,
        65535
      ],
      [
        997,
        65535,
        65535
      ],
      [
        648,
        656,
        65535
      ],
      [
        648,
        660,
        65535
      ],
      [
        648,
        65535,
        65535
      ],
      [
        648,
        663,
        65535
      ],
      [
        648,
        671,
        65535
      ],
      [
        648,
        65535,
        65535
      ]
    ],
    [
      [
        648,
        65535,
        65535
      ],
      [
        648,
        658,
        65535
      ],
      [
        648,
        662,
        65535
      ],
      [
        648,
        65535,
        65535
      ],
      [
        648,
        65535,
        65535
      ],
      [
        648,
        669,
        65535
      ],
      [
        997,
        65535,
        65535
      ],
      [
        648,
        658,
        65535
      ],
      [
        648,
        671,
        65535
      ],
      [
        648,
        65535,
        65535
      ],
      [
        648,
        672,
        65535
      ],
      [
        648,
        659,
        65535
      ],
      [
        648,
        65535,
        65535
      ],
      [
        648,
        656,
        65535
      ],
      [
        648,
        660,
        65535
      ],
      [
        648,
        65535,
        65535
      ],
      [
        648,
        65535,
        65535
      ],
      [
        1318,
        65535,
        65535
      ]
    ],
    [
      [
        648,
        65535,
        65535
      ],
      [
        648,
        664,
        65535
      ],
      [
        648,
        65535,
        65535
      ],
      [
        648,
        65535,
        65535
      ],
      [
        648,
        65535,
        1787
      ],
      [
        648,
        65535,
        1787
      ],
      [
        648,
        658,
        65535
      ],
      [
        648,
        662,
        65535
      ],
      [
        648,
        65535,
        65535
      ],
      [
        648,
        65535,
        65535
      ],
      [
        648,
        65535,
        65535
      ],
      [
        648,
        663,
        65535
      ],
      [
        648,
        659,
        65535
      ],
      [
        1317,
        65535,
        65535
      ],
      [
        648,
        656,
        65535
      ],
      [
        648,
        660,
        65535
      ],
      [
        648,
        668,
        65535
      ],
      [
        648,
        65535,
        65535
      ]
    ],
    [
      [
        648,
        65535,
        65535
      ],
      [
        648,
        664,
        65535
      ],
      [
        648,
        661,
        65535
      ],
      [
        648,
        655,
        65535
      ],
      [
        648,
        65535,
        1787
      ],
      [
        648,
        65535,
        1787
      ],
      [
        648,
        666,
        65535
      ],
      [
        648,
        65535,
        65535
      ],
      [
        648,
        65535,
        65535
      ],
      [
        648,
        65535,
        65535
      ],
      [
        648,
        65535,
        65535
      ],
      [
        648,
        65535,
        65535
      ],
      [
        648,
        663,
        65535
      ],
      [
        648,
        659,
        65535
      ],
      [
        648,
        65535,
        65535
      ],
      [
        648,
        656,
        65535
      ],
      [
        648,
        657,
        65535
      ],
      [
        648,
        65535,
        65535
      ]
    ],
    [
      [
        648,
        65535,
        65535
      ],
      [
        648,
        656,
        65535
      ],
      [
        648,
        657,
        65535
      ],
      [
        1319,
        65535,
        65535
      ],
      [
        648,
        665,
        65535
      ],
      [
        648,
        65535,
        65535
      ],
      [
        648,
        65535,
        65535
      ],
      [
        648,
        65535,
        65535
      ],
      [
        648,
        661,
        65535
      ],
      [
        648,
        650,
        65535
      ],
      [
        648,
        651,
        65535
      ],
      [
        648,
        660,
        65535
      ],
      [
        648,
        65535,
        65535
      ],
      [
        648,
        663,
        65535
      ],
      [
        648,
        659,
        65535
      ],
      [
        648,
        65535,
        65535
      ],
      [
        648,
        65535,
        65535
      ],
      [
        997,
        65535,
        65535
      ]
    ],
    [
      [
        648,
        65535,
        65535
      ],
      [
        1000,
        65535,
        65535
      ],
      [
        648,
        65535,
        65535
      ],
      [
        648,
        658,
        65535
      ],
      [
        648,
        662,
        65535
      ],
      [
        648,
        65535,
        65535
      ],
      [
        648,
        65535,
        65535
      ],
      [
        648,
        661,
        65535
      ],
      [
        648,
        657,
        65535
      ],
      [
        1317,
        65535,
        65535
      ],
      [
        648,
        658,
        65535
      ],
      [
        648,
        662,
        65535
      ],
      [
        648,
        65535,
        65535
      ],
      [
        648,
        65535,
        65535
      ],
      [
        648,
        663,
        65535
      ],
      [
        648,
        659,
        65535
      ],
      [
        648,
        65535,
        65535
      ],
      [
        648,
        65535,
        65535
      ]
    ],
    [
      [
        648,
        65535,
        65535
      ],
      [
        648,
        65535,
        65535
      ],
      [
        648,
        65535,
        65535
      ],
      [
        648,
        664,
        65535
      ],
      [
        648,
        661,
        65535
      ],
      [
        648,
        660,
        65535
      ],
      [
        648,
        661,
        65535
      ],
      [
        648,
        657,
        65535
      ],
      [
        648,
        65535,
        65535
      ],
      [
        1319,
        65535,
        65535
      ],
      [
        648,
        664,
        65535
      ],
      [
        648,
        65535,
        65535
      ],
      [
        648,
        65535,
        65535
      ],
      [
        648,
        65535,
        65535
      ],
      [
        648,
        661,
        65535
      ],
      [
        648,
        657,
        65535
      ],
      [
        648,
        65535,
        65535
      ],
      [
        648,
        65535,
        65535
      ]
    ],
    [
      [
        648,
        65535,
        65535
      ],
      [
        648,
        65535,
        65535
      ],
      [
        648,
        65535,
        65535
      ],
      [
        648,
        656,
        65535
      ],
      [
        648,
        657,
        65535
      ],
      [
        648,
        656,
        65535
      ],
      [
        648,
        657,
        65535
      ],
      [
        648,
        65535,
        65535
      ],
      [
        1000,
        65535,
        65535
      ],
      [
        1000,
        65535,
        65535
      ],
      [
        648,
        664,
        65535
      ],
      [
        648,
        65535,
        65535
      ],
      [
        648,
        65535,
        65535
      ],
      [
        648,
        661,
        65535
      ],
      [
        648,
        657,
        65535
      ],
      [
        648,
        65535,
        65535
      ],
      [
        648,
        65535,
        65535
      ],
      [
        648,
        65535,
        65535
      ]
    ],
    [
      [
        648,
        65535,
        65535
      ],
      [
        1000,
        65535,
        65535
      ],
      [
        648,
        65535,
        65535
      ],
      [
        648,
        65535,
        65535
      ],
      [
        1318,
        65535,
        65535
      ],
      [
        648,
        65535,
        65535
      ],
      [
        648,
        65535,
        65535
      ],
      [
        648,
        65535,
        65535
      ],
      [
        648,
        658,
        65535
      ],
      [
        648,
        670,
        65535
      ],
      [
        648,
        662,
        65535
      ],
      [
        648,
        65535,
        65535
      ],
      [
        648,
        661,
        65535
      ],
      [
        648,
        657,
        65535
      ],
      [
        1000,
        65535,
        65535
      ],
      [
        648,
        65535,
        65535
      ],
      [
        648,
        65535,
        65535
      ],
      [
        648,
        65535,
        65535
      ]
    ],
    [
      [
        648,
        65535,
        65535
      ],
      [
        648,
        65535,
        65535
      ],
      [
        648,
        658,
        65535
      ],
      [
        648,
        670,
        65535
      ],
      [
        648,
        659,
        65535
      ],
      [
        648,
        65535,
        65535
      ],
      [
        648,
        65535,
        65535
      ],
      [
        648,
        658,
        65535
      ],
      [
        648,
        662,
        65535
      ],
      [
        648,
        65535,
        65535
      ],
      [
        648,
        65535,
        65535
      ],
      [
        648,
        661,
        65535
      ],
      [
        648,
        657,
        65535
      ],
      [
        648,
        65535,
        65535
      ],
      [
        648,
        65535,
        65535
      ],
      [
        648,
        658,
        65535
      ],
      [
        648,
        659,
        65535
      ],
      [
        648,
        65535,
        65535
      ]
    ],
    [
      [
        648,
        65535,
        65535
      ],
      [
        648,
        658,
        65535
      ],
      [
        648,
        662,
        65535
      ],
      [
        648,
        65535,
        65535
      ],
      [
        648,
        663,
        65535
      ],
      [
        648,
        659,
        65535
      ],
      [
        648,
        65535,
        65535
      ],
      [
        648,
        664,
        65535
      ],
      [
        648,
        65535,
        65535
      ],
      [
        648,
        65535,
        65535
      ],
      [
        648,
        65535,
        65535
      ],
      [
        648,
        667,
        65535
      ],
      [
        1317,
        65535,
        65535
      ],
      [
        648,
        65535,
        65535
      ],
      [
        648,
        658,
        65535
      ],
      [
        648,
        662,
        65535
      ],
      [
        648,
        667,
        65535
      ],
      [
        648,
        65535,
        65535
      ]
    ],
    [
      [
        648,
        65535,
        65535
      ],
      [
        648,
        664,
        65535
      ],
      [
        648,
        65535,
        65535
      ],
      [
        648,
        65535,
        65535
      ],
      [
        648,
        65535,
        65535
      ],
      [
        648,
        667,
        65535
      ],
      [
        648,
        65535,
        65535
      ],
      [
        648,
        656,
        65535
      ],
      [
        648,
        655,
        65535
      ],
      [
        648,
        65535,
        65535
      ],
      [
        648,
        665,
        65535
      ],
      [
        648,
        663,
        65535
      ],
      [
        648,
        659,
        65535
      ],
      [
        648,
        65535,
        65535
      ],
      [
        648,
        664,
        65535
      ],
      [
        648,
        65535,
        65535
      ],
      [
        648,
        667,
        65535
      ],
      [
        648,
        65535,
        65535
      ]
    ],
    [
      [
        1318,
        65535,
        65535
      ],
      [
        648,
        664,
        65535
      ],
      [
        648,
        65535,
        65535
      ],
      [
        648,
        65535,
        65535
      ],
      [
        648,
        661,
        65535
      ],
      [
        648,
        657,
        65535
      ],
      [
        648,
        65535,
        65535
      ],
      [
        1317,
        65535,
        65535
      ],
      [
        648,
        65535,
        65535
      ],
      [
        1000,
        65535,
        65535
      ],
      [
        648,
        656,
        65535
      ],
      [
        648,
        650,
        65535
      ],
      [
        648,
        657,
        65535
      ],
      [
        648,
        65535,
        65535
      ],
      [
        648,
        656,
        65535
      ],
      [
        648,
        650,
        65535
      ],
      [
        648,
        657,
        65535
      ],
      [
        648,
        65535,
        65535
      ]
    ],
    [
      [
        648,
        65535,
        65535
      ],
      [
        648,
        656,
        65535
      ],
      [
        648,
        650,
        65535
      ],
      [
        648,
        650,
        65535
      ],
      [
        648,
        657,
        65535
      ],
      [
        648,
        65535,
        65535
      ],
      [
        997,
        65535,
        65535
      ],
      [
        648,
        65535,
        65535
      ],
      [
        648,
        65535,
        65535
      ],
      [
        648,
        65535,
        65535
      ],
      [
        648,
        65535,
        65535
      ],
      [
        1319,
        65535,
        65535
      ],
      [
        648,
        65535,
        65535
      ],
      [
        648,
        65535,
        65535
      ],
      [
        997,
        65535,
        65535
      ],
      [
        648,
        65535,
        65535
      ],
      [
        1318,
        65535,
        65535
      ],
      [
        648,
        65535,
        65535
      ]
    ],
    [
      [
        648,
        65535,
        65535
      ],
      [
        648,
        65535,
        65535
      ],
      [
        648,
        65535,
        65535
      ],
      [
        648,
        65535,
        65535
      ],
      [
        648,
        65535,
        65535
      ],
      [
        648,
        65535,
        65535
      ],
      [
        648,
        65535,
        65535
      ],
      [
        648,
        65535,
        65535
      ],
      [
        648,
        65535,
        65535
      ],
      [
        648,
        65535,
        65535
      ],
      [
        648,
        65535,
        65535
      ],
      [
        648,
        65535,
        65535
      ],
      [
        648,
        65535,
        65535
      ],
      [
        648,
        65535,
        65535
      ],
      [
        648,
        65535,
        65535
      ],
      [
        648,
        65535,
        65535
      ],
      [
        648,
        65535,
        65535
      ],
      [
        648,
        65535,
        65535
      ]
    ],
    []
  ]
}