{
  "zoneId": 185,
  "zoneType": 2,
  "width": 9,
  "height": 9,
  "type": 8,
  "world": 2,
  "objects": [
    {
      "type": 10,
      "x": 4,
      "y": 8,
      "unknown": 1,
      "param": 65535
    },
    {
      "type": 1,
      "x": 2,
      "y": 1,
      "unknown": 1,
      "param": 65535
    },
    {
      "type": 1,
      "x": 7,
      "y": 5,
      "unknown": 1,
      "param": 65535
    }
  ],
  "actions": [],
  "tilemap": [
    [
      [
        594,
        538,
        65535
      ],
      [
        594,
        569,
        1424
      ],
      [
        594,
        569,
        65535
      ],
      [
        594,
        569,
        65535
      ],
      [
        594,
        554,
        65535
      ],
      [
        594,
        569,
        65535
      ],
      [
        594,
        569,
        65535
      ],
      [
        594,
        569,
        1424
      ],
      [
        594,
        539,
        65535
      ]
    ],
    [
      [
        594,
        545,
        65535
      ],
      [
        594,
        1403,
        1426
      ],
      [
        594,
        65535,
        65535
      ],
      [
        602,
        65535,
        65535
      ],
      [
        602,
        65535,
        65535
      ],
      [
        602,
        65535,
        65535
      ],
      [
        594,
        65535,
        65535
      ],
      [
        594,
        1403,
        1426
      ],
      [
        594,
        544,
        65535
      ]
    ],
    [
      [
        594,
        545,
        65535
      ],
      [
        594,
        65535,
        65535
      ],
      [
        594,
        65535,
        65535
      ],
      [
        594,
        65535,
        65535
      ],
      [
        594,
        65535,
        65535
      ],
      [
        594,
        65535,
        65535
      ],
      [
        594,
        65535,
        65535
      ],
      [
        594,
        65535,
        65535
      ],
      [
        594,
        544,
        65535
      ]
    ],
    [
      [
        594,
        540,
        65535
      ],
      [
        594,
        629,
        812
      ],
      [
        595,
        65535,
        583
      ],
      [
        594,
        541,
        65535
      ],
      [
        594,
        65535,
        65535
      ],
      [
        594,
        65535,
        65535
      ],
      [
        594,
        65535,
        65535
      ],
      [
        594,
        260,
        262
      ],
      [
        594,
        544,
        65535
      ]
    ],
    [
      [
        594,
        545,
        613
      ],
      [
        595,
        813,
        65535
      ],
      [
        594,
        65535,
        65535
      ],
      [
        594,
        544,
        65535
      ],
      [
        594,
        65535,
        65535
      ],
      [
        594,
        540,
        65535
      ],
      [
        595,
        65535,
        583
      ],
      [
        594,
        629,
        65535
      ],
      [
        594,
        541,
        65535
      ]
    ],
    [
      [
        594,
        545,
        65535
      ],
      [
        594,
        65535,
        65535
      ],
      [
        594,
        65535,
        65535
      ],
      [
        594,
        544,
        65535
      ],
      [
        594,
        65535,
        65535
      ],
      [
        594,
        545,
        65535
      ],
      [
        594,
        65535,
        65535
      ],
      [
        594,
        65535,
        65535
      ],
      [
        595,
        544,
        614
      ]
    ],
    [
      [
        594,
        545,
        65535
      ],
      [
        594,
        65535,
        65535
      ],
      [
        594,
        65535,
        65535
      ],
      [
        595,
        544,
        614
      ],
      [
        594,
        65535,
        65535
      ],
      [
        594,
        545,
        65535
      ],
      [
        594,
        65535,
        65535
      ],
      [
        594,
        65535,
        65535
      ],
      [
        594,
        544,
        65535
      ]
    ],
    [
      [
        594,
        545,
        65535
      ],
      [
        594,
        65535,
        65535
      ],
      [
        594,
        65535,
        65535
      ],
      [
        595,
        544,
        614
      ],
      [
        594,
        65535,
        65535
      ],
      [
        594,
        545,
        65535
      ],
      [
        594,
        65535,
        65535
      ],
      [
        594,
        261,
        263
      ],
      [
        594,
        544,
        65535
      ]
    ],
    [
      [
        594,
        629,
        65535
      ],
      [
        594,
        629,
        65535
      ],
      [
        594,
        629,
        65535
      ],
      [
        594,
        629,
        65535
      ],
      [
        595,
        65535,
        1086
      ],
      [
        594,
        629,
        65535
      ],
      [
        594,
        629,
        65535
      ],
      [
        594,
        629,
        65535
      ],
      [
        594,
        629,
        65535
      ]
    ],
    []
  ]
}