{
  "zoneId": 198,
  "zoneType": 2,
  "width": 18,
  "height": 18,
  "type": 15,
  "world": 2,
  "objects": [
    {
      "type": 9,
      "x": 3,
      "y": 14,
      "unknown": 1,
      "param": 199
    },
    {
      "type": 12,
      "x": 3,
      "y": 14,
      "unknown": 1,
      "param": 65535
    }
  ],
  "actions": [
    {
      "triggers": [
        [
          "on_bump_tile",
          3,
          14,
          1112,
          30018,
          28781,
          0
        ]
      ],
      "commands": [
        [
          "say_text",
          8,
          0,
          26707,
          30575,
          25940,
          22
        ]
      ]
    },
    {
      "triggers": [
        [
          "on_drag_item",
          3,
          14,
          1,
          1112,
          65535,
          0
        ]
      ],
      "commands": [
        [
          "remove_item_from_inv",
          65535,
          0,
          59012,
          139,
          0,
          0
        ],
        [
          "clear_tile",
          3,
          14,
          1,
          28525,
          25974,
          0
        ],
        [
          "redraw_tile",
          3,
          14,
          25938,
          29284,
          30561,
          0
        ],
        [
          "play_sound",
          15,
          0,
          12576,
          12593,
          50,
          0
        ],
        [
          "render_changes",
          0,
          0,
          36440,
          171,
          0,
          0
        ],
        [
          "hide_object",
          1,
          0,
          28488,
          21364,
          28528,
          0
        ],
        [
          "show_object",
          0,
          0,
          28488,
          21364,
          28528,
          0
        ]
      ]
    }
  ],
  "tilemap": [
    [
      [
        648,
        65535,
        65535
      ],
      [
        648,
        65535,
        65535
      ],
      [
        648,
        65535,
        65535
      ],
      [
        648,
        65535,
        65535
      ],
      [
        648,
        65535,
        65535
      ],
      [
        648,
        65535,
        65535
      ],
      [
        648,
        65535,
        65535
      ],
      [
        648,
        65535,
        65535
      ],
      [
        648,
        65535,
        65535
      ],
      [
        648,
        65535,
        65535
      ],
      [
        648,
        65535,
        65535
      ],
      [
        648,
        65535,
        65535
      ],
      [
        648,
        65535,
        65535
      ],
      [
        648,
        65535,
        65535
      ],
      [
        648,
        65535,
        65535
      ],
      [
        648,
        65535,
        65535
      ],
      [
        648,
        65535,
        65535
      ],
      [
        648,
        65535,
        65535
      ]
    ],
    [
      [
        648,
        65535,
        65535
      ],
      [
        1013,
        65535,
        65535
      ],
      [
        1009,
        65535,
        65535
      ],
      [
        1009,
        65535,
        65535
      ],
      [
        1014,
        65535,
        65535
      ],
      [
        648,
        65535,
        65535
      ],
      [
        648,
        65535,
        65535
      ],
      [
        648,
        65535,
        65535
      ],
      [
        648,
        65535,
        65535
      ],
      [
        648,
        65535,
        65535
      ],
      [
        648,
        65535,
        65535
      ],
      [
        997,
        65535,
        65535
      ],
      [
        648,
        65535,
        65535
      ],
      [
        648,
        65535,
        65535
      ],
      [
        648,
        65535,
        65535
      ],
      [
        648,
        65535,
        65535
      ],
      [
        648,
        65535,
        65535
      ],
      [
        648,
        65535,
        65535
      ]
    ],
    [
      [
        648,
        65535,
        65535
      ],
      [
        1015,
        65535,
        65535
      ],
      [
        1012,
        65535,
        65535
      ],
      [
        1019,
        65535,
        65535
      ],
      [
        1018,
        65535,
        65535
      ],
      [
        1009,
        65535,
        65535
      ],
      [
        1014,
        65535,
        65535
      ],
      [
        648,
        65535,
        65535
      ],
      [
        648,
        65535,
        65535
      ],
      [
        648,
        65535,
        65535
      ],
      [
        648,
        65535,
        65535
      ],
      [
        648,
        65535,
        65535
      ],
      [
        648,
        65535,
        65535
      ],
      [
        648,
        65535,
        991
      ],
      [
        648,
        65535,
        992
      ],
      [
        648,
        65535,
        993
      ],
      [
        648,
        65535,
        65535
      ],
      [
        648,
        65535,
        65535
      ]
    ],
    [
      [
        648,
        65535,
        65535
      ],
      [
        1000,
        65535,
        65535
      ],
      [
        648,
        65535,
        65535
      ],
      [
        1010,
        65535,
        65535
      ],
      [
        648,
        1021,
        65535
      ],
      [
        1020,
        65535,
        65535
      ],
      [
        1016,
        65535,
        65535
      ],
      [
        648,
        65535,
        65535
      ],
      [
        648,
        65535,
        65535
      ],
      [
        648,
        65535,
        65535
      ],
      [
        648,
        65535,
        65535
      ],
      [
        648,
        65535,
        65535
      ],
      [
        648,
        65535,
        65535
      ],
      [
        648,
        988,
        65535
      ],
      [
        648,
        989,
        65535
      ],
      [
        648,
        990,
        65535
      ],
      [
        648,
        65535,
        65535
      ],
      [
        648,
        65535,
        65535
      ]
    ],
    [
      [
        648,
        65535,
        65535
      ],
      [
        648,
        65535,
        65535
      ],
      [
        648,
        65535,
        65535
      ],
      [
        1015,
        65535,
        65535
      ],
      [
        1012,
        65535,
        65535
      ],
      [
        1016,
        65535,
        65535
      ],
      [
        648,
        65535,
        65535
      ],
      [
        648,
        65535,
        65535
      ],
      [
        648,
        65535,
        65535
      ],
      [
        648,
        65535,
        65535
      ],
      [
        648,
        65535,
        65535
      ],
      [
        648,
        65535,
        65535
      ],
      [
        648,
        65535,
        65535
      ],
      [
        648,
        985,
        65535
      ],
      [
        986,
        1049,
        65535
      ],
      [
        648,
        987,
        65535
      ],
      [
        648,
        65535,
        65535
      ],
      [
        648,
        65535,
        65535
      ]
    ],
    [
      [
        648,
        65535,
        65535
      ],
      [
        648,
        65535,
        65535
      ],
      [
        648,
        658,
        65535
      ],
      [
        648,
        670,
        65535
      ],
      [
        1000,
        659,
        65535
      ],
      [
        648,
        65535,
        65535
      ],
      [
        648,
        65535,
        65535
      ],
      [
        648,
        65535,
        65535
      ],
      [
        648,
        658,
        65535
      ],
      [
        648,
        671,
        65535
      ],
      [
        648,
        65535,
        65535
      ],
      [
        648,
        65535,
        65535
      ],
      [
        648,
        661,
        65535
      ],
      [
        648,
        655,
        65535
      ],
      [
        674,
        65535,
        65535
      ],
      [
        648,
        65535,
        65535
      ],
      [
        648,
        65535,
        65535
      ],
      [
        648,
        65535,
        65535
      ]
    ],
    [
      [
        648,
        65535,
        65535
      ],
      [
        648,
        658,
        65535
      ],
      [
        648,
        662,
        65535
      ],
      [
        648,
        661,
        65535
      ],
      [
        997,
        657,
        65535
      ],
      [
        674,
        65535,
        65535
      ],
      [
        648,
        658,
        65535
      ],
      [
        648,
        670,
        65535
      ],
      [
        648,
        662,
        65535
      ],
      [
        1000,
        65535,
        65535
      ],
      [
        648,
        65535,
        65535
      ],
      [
        648,
        661,
        65535
      ],
      [
        648,
        657,
        65535
      ],
      [
        1317,
        65535,
        65535
      ],
      [
        648,
        65535,
        65535
      ],
      [
        648,
        65535,
        65535
      ],
      [
        648,
        65535,
        65535
      ],
      [
        648,
        65535,
        65535
      ]
    ],
    [
      [
        648,
        65535,
        65535
      ],
      [
        648,
        664,
        65535
      ],
      [
        648,
        65535,
        65535
      ],
      [
        648,
        667,
        65535
      ],
      [
        1318,
        65535,
        65535
      ],
      [
        648,
        658,
        65535
      ],
      [
        648,
        662,
        65535
      ],
      [
        648,
        965,
        65535
      ],
      [
        648,
        966,
        65535
      ],
      [
        648,
        65535,
        65535
      ],
      [
        648,
        661,
        65535
      ],
      [
        648,
        657,
        65535
      ],
      [
        1318,
        65535,
        65535
      ],
      [
        648,
        65535,
        65535
      ],
      [
        648,
        65535,
        65535
      ],
      [
        648,
        65535,
        65535
      ],
      [
        648,
        65535,
        65535
      ],
      [
        648,
        65535,
        65535
      ]
    ],
    [
      [
        648,
        65535,
        65535
      ],
      [
        648,
        664,
        65535
      ],
      [
        648,
        65535,
        65535
      ],
      [
        648,
        667,
        65535
      ],
      [
        648,
        65535,
        65535
      ],
      [
        648,
        664,
        65535
      ],
      [
        648,
        65535,
        65535
      ],
      [
        648,
        967,
        65535
      ],
      [
        648,
        968,
        65535
      ],
      [
        648,
        661,
        65535
      ],
      [
        648,
        657,
        65535
      ],
      [
        648,
        65535,
        65535
      ],
      [
        648,
        65535,
        65535
      ],
      [
        648,
        65535,
        65535
      ],
      [
        648,
        65535,
        65535
      ],
      [
        648,
        65535,
        65535
      ],
      [
        648,
        65535,
        65535
      ],
      [
        648,
        65535,
        65535
      ]
    ],
    [
      [
        648,
        65535,
        65535
      ],
      [
        648,
        656,
        65535
      ],
      [
        648,
        660,
        65535
      ],
      [
        648,
        667,
        65535
      ],
      [
        648,
        65535,
        65535
      ],
      [
        648,
        656,
        65535
      ],
      [
        648,
        650,
        65535
      ],
      [
        648,
        650,
        65535
      ],
      [
        648,
        650,
        65535
      ],
      [
        648,
        657,
        65535
      ],
      [
        648,
        65535,
        65535
      ],
      [
        1319,
        65535,
        65535
      ],
      [
        648,
        658,
        65535
      ],
      [
        648,
        670,
        65535
      ],
      [
        648,
        659,
        65535
      ],
      [
        648,
        65535,
        65535
      ],
      [
        998,
        65535,
        65535
      ],
      [
        648,
        65535,
        65535
      ]
    ],
    [
      [
        648,
        65535,
        65535
      ],
      [
        648,
        658,
        65535
      ],
      [
        648,
        662,
        65535
      ],
      [
        648,
        663,
        65535
      ],
      [
        648,
        659,
        65535
      ],
      [
        648,
        65535,
        65535
      ],
      [
        1318,
        65535,
        65535
      ],
      [
        1317,
        65535,
        65535
      ],
      [
        648,
        65535,
        65535
      ],
      [
        648,
        65535,
        65535
      ],
      [
        648,
        658,
        65535
      ],
      [
        648,
        670,
        65535
      ],
      [
        648,
        662,
        65535
      ],
      [
        648,
        65535,
        65535
      ],
      [
        648,
        663,
        65535
      ],
      [
        648,
        659,
        65535
      ],
      [
        648,
        65535,
        65535
      ],
      [
        648,
        65535,
        65535
      ]
    ],
    [
      [
        648,
        65535,
        65535
      ],
      [
        648,
        664,
        65535
      ],
      [
        648,
        65535,
        1103
      ],
      [
        648,
        1107,
        65535
      ],
      [
        648,
        663,
        1105
      ],
      [
        648,
        670,
        65535
      ],
      [
        648,
        659,
        65535
      ],
      [
        648,
        65535,
        65535
      ],
      [
        648,
        658,
        65535
      ],
      [
        648,
        670,
        65535
      ],
      [
        648,
        662,
        65535
      ],
      [
        648,
        65535,
        65535
      ],
      [
        648,
        65535,
        65535
      ],
      [
        648,
        65535,
        65535
      ],
      [
        648,
        65535,
        65535
      ],
      [
        648,
        667,
        65535
      ],
      [
        648,
        65535,
        65535
      ],
      [
        648,
        65535,
        65535
      ]
    ],
    [
      [
        648,
        65535,
        65535
      ],
      [
        648,
        666,
        65535
      ],
      [
        648,
        1106,
        1103
      ],
      [
        648,
        1107,
        1104
      ],
      [
        648,
        1108,
        1105
      ],
      [
        648,
        65535,
        65535
      ],
      [
        648,
        667,
        65535
      ],
      [
        648,
        65535,
        65535
      ],
      [
        648,
        656,
        65535
      ],
      [
        648,
        655,
        65535
      ],
      [
        674,
        65535,
        65535
      ],
      [
        648,
        65535,
        65535
      ],
      [
        648,
        654,
        65535
      ],
      [
        648,
        650,
        65535
      ],
      [
        648,
        650,
        65535
      ],
      [
        648,
        657,
        65535
      ],
      [
        648,
        65535,
        65535
      ],
      [
        648,
        65535,
        65535
      ]
    ],
    [
      [
        648,
        65535,
        65535
      ],
      [
        1318,
        65535,
        65535
      ],
      [
        648,
        1106,
        65535
      ],
      [
        648,
        1107,
        65535
      ],
      [
        648,
        1108,
        65535
      ],
      [
        648,
        65535,
        65535
      ],
      [
        648,
        663,
        65535
      ],
      [
        648,
        659,
        65535
      ],
      [
        648,
        65535,
        65535
      ],
      [
        648,
        65535,
        65535
      ],
      [
        648,
        65535,
        65535
      ],
      [
        1317,
        65535,
        65535
      ],
      [
        1013,
        65535,
        65535
      ],
      [
        1009,
        65535,
        65535
      ],
      [
        1014,
        65535,
        65535
      ],
      [
        648,
        65535,
        65535
      ],
      [
        648,
        65535,
        65535
      ],
      [
        648,
        65535,
        65535
      ]
    ],
    [
      [
        648,
        65535,
        65535
      ],
      [
        648,
        65535,
        65535
      ],
      [
        648,
        1109,
        65535
      ],
      [
        1110,
        1112,
        65535
      ],
      [
        648,
        1111,
        65535
      ],
      [
        648,
        65535,
        65535
      ],
      [
        648,
        65535,
        65535
      ],
      [
        648,
        667,
        65535
      ],
      [
        648,
        65535,
        65535
      ],
      [
        1013,
        65535,
        65535
      ],
      [
        1009,
        65535,
        65535
      ],
      [
        1009,
        65535,
        65535
      ],
      [
        1017,
        65535,
        65535
      ],
      [
        1008,
        65535,
        65535
      ],
      [
        1011,
        65535,
        65535
      ],
      [
        648,
        65535,
        65535
      ],
      [
        648,
        65535,
        65535
      ],
      [
        648,
        65535,
        65535
      ]
    ],
    [
      [
        648,
        65535,
        65535
      ],
      [
        648,
        65535,
        65535
      ],
      [
        648,
        65535,
        65535
      ],
      [
        648,
        65535,
        65535
      ],
      [
        648,
        65535,
        65535
      ],
      [
        648,
        661,
        65535
      ],
      [
        648,
        652,
        65535
      ],
      [
        648,
        657,
        65535
      ],
      [
        648,
        65535,
        65535
      ],
      [
        1015,
        65535,
        65535
      ],
      [
        1019,
        65535,
        65535
      ],
      [
        1020,
        65535,
        65535
      ],
      [
        1012,
        65535,
        65535
      ],
      [
        1012,
        65535,
        65535
      ],
      [
        1016,
        65535,
        65535
      ],
      [
        648,
        65535,
        65535
      ],
      [
        648,
        65535,
        65535
      ],
      [
        648,
        65535,
        65535
      ]
    ],
    [
      [
        648,
        65535,
        65535
      ],
      [
        1000,
        65535,
        65535
      ],
      [
        648,
        65535,
        65535
      ],
      [
        648,
        65535,
        65535
      ],
      [
        648,
        65535,
        65535
      ],
      [
        648,
        669,
        65535
      ],
      [
        648,
        65535,
        65535
      ],
      [
        648,
        65535,
        65535
      ],
      [
        648,
        65535,
        65535
      ],
      [
        648,
        65535,
        65535
      ],
      [
        1015,
        65535,
        65535
      ],
      [
        1016,
        65535,
        65535
      ],
      [
        648,
        65535,
        65535
      ],
      [
        648,
        65535,
        65535
      ],
      [
        648,
        65535,
        65535
      ],
      [
        648,
        65535,
        65535
      ],
      [
        997,
        65535,
        65535
      ],
      [
        648,
        65535,
        65535
      ]
    ],
    [
      [
        648,
        65535,
        65535
      ],
      [
        648,
        65535,
        65535
      ],
      [
        648,
        65535,
        65535
      ],
      [
        648,
        65535,
        65535
      ],
      [
        648,
        65535,
        65535
      ],
      [
        648,
        65535,
        65535
      ],
      [
        648,
        65535,
        65535
      ],
      [
        648,
        65535,
        65535
      ],
      [
        648,
        65535,
        65535
      ],
      [
        648,
        65535,
        65535
      ],
      [
        648,
        65535,
        65535
      ],
      [
        648,
        65535,
        65535
      ],
      [
        648,
        65535,
        65535
      ],
      [
        648,
        65535,
        65535
      ],
      [
        648,
        65535,
        65535
      ],
      [
        648,
        65535,
        65535
      ],
      [
        648,
        65535,
        65535
      ],
      [
        648,
        65535,
        65535
      ]
    ],
    []
  ]
}