{
  "zoneId": 202,
  "zoneType": 2,
  "width": 18,
  "height": 18,
  "type": 8,
  "world": 2,
  "objects": [
    {
      "type": 9,
      "x": 14,
      "y": 0,
      "unknown": 1,
      "param": 203
    },
    {
      "type": 10,
      "x": 8,
      "y": 6,
      "unknown": 1,
      "param": 65535
    }
  ],
  "actions": [
    {
      "triggers": [
        [
          "on_first_enter",
          110,
          3,
          0,
          272,
          0,
          0
        ]
      ],
      "commands": [
        [
          "random",
          2,
          0,
          26708,
          28530,
          21111,
          0
        ]
      ]
    },
    {
      "triggers": [
        [
          "on_bump_tile",
          4,
          10,
          983,
          30018,
          28781,
          0
        ],
        [
          "on_rand_var_eq",
          1,
          8,
          0,
          24914,
          25710,
          0
        ]
      ],
      "commands": [
        [
          "say_text",
          8,
          0,
          26707,
          30575,
          25940,
          15
        ]
      ]
    },
    {
      "triggers": [
        [
          "on_bump_tile",
          4,
          10,
          983,
          30018,
          28781,
          0
        ],
        [
          "on_rand_var_eq",
          2,
          8,
          0,
          24914,
          25710,
          0
        ]
      ],
      "commands": [
        [
          "play_sound",
          16,
          0,
          27728,
          31073,
          28499,
          0
        ],
        [
          "clear_tile",
          4,
          10,
          1,
          28525,
          25974,
          0
        ],
        [
          "clear_tile",
          4,
          9,
          1,
          28525,
          25974,
          0
        ],
        [
          "redraw_tiles",
          4,
          9,
          4,
          10,
          30561,
          0
        ],
        [
          "render_changes",
          0,
          0,
          54224,
          221,
          0,
          0
        ]
      ]
    },
    {
      "triggers": [
        [
          "on_bump_tile",
          16,
          6,
          983,
          30018,
          28781,
          0
        ],
        [
          "on_rand_var_eq",
          1,
          8,
          0,
          24914,
          25710,
          0
        ]
      ],
      "commands": [
        [
          "play_sound",
          16,
          0,
          27728,
          31073,
          28499,
          0
        ],
        [
          "clear_tile",
          16,
          6,
          1,
          28525,
          25974,
          0
        ],
        [
          "clear_tile",
          16,
          5,
          1,
          28525,
          25974,
          0
        ],
        [
          "redraw_tiles",
          16,
          5,
          16,
          6,
          30561,
          0
        ],
        [
          "render_changes",
          0,
          0,
          54224,
          221,
          0,
          0
        ]
      ]
    },
    {
      "triggers": [
        [
          "on_bump_tile",
          16,
          6,
          983,
          30018,
          28781,
          0
        ],
        [
          "on_rand_var_eq",
          2,
          8,
          0,
          24914,
          25710,
          0
        ]
      ],
      "commands": [
        [
          "say_text",
          8,
          0,
          26707,
          30575,
          25940,
          15
        ]
      ]
    },
    {
      "triggers": [
        [
          "on_bump_tile",
          14,
          0,
          685,
          30018,
          28781,
          0
        ]
      ],
      "commands": [
        [
          "play_sound",
          0,
          0,
          27728,
          31073,
          28499,
          0
        ],
        [
          "clear_tile",
          14,
          0,
          1,
          28525,
          25974,
          0
        ],
        [
          "redraw_tile",
          14,
          0,
          25938,
          29284,
          30561,
          0
        ],
        [
          "render_changes",
          0,
          0,
          58044,
          221,
          0,
          0
        ]
      ]
    }
  ],
  "tilemap": [
    [
      [
        678,
        682,
        65535
      ],
      [
        683,
        65535,
        65535
      ],
      [
        683,
        65535,
        65535
      ],
      [
        683,
        65535,
        65535
      ],
      [
        683,
        65535,
        65535
      ],
      [
        683,
        65535,
        65535
      ],
      [
        683,
        65535,
        65535
      ],
      [
        683,
        65535,
        65535
      ],
      [
        683,
        65535,
        65535
      ],
      [
        683,
        65535,
        65535
      ],
      [
        683,
        65535,
        65535
      ],
      [
        683,
        65535,
        65535
      ],
      [
        683,
        65535,
        65535
      ],
      [
        683,
        65535,
        65535
      ],
      [
        1102,
        685,
        65535
      ],
      [
        683,
        65535,
        65535
      ],
      [
        683,
        65535,
        65535
      ],
      [
        678,
        684,
        65535
      ]
    ],
    [
      [
        678,
        688,
        65535
      ],
      [
        678,
        622,
        65535
      ],
      [
        678,
        622,
        65535
      ],
      [
        678,
        65535,
        65535
      ],
      [
        678,
        65535,
        65535
      ],
      [
        678,
        65535,
        65535
      ],
      [
        678,
        65535,
        65535
      ],
      [
        678,
        65535,
        65535
      ],
      [
        678,
        65535,
        65535
      ],
      [
        678,
        65535,
        65535
      ],
      [
        678,
        65535,
        65535
      ],
      [
        678,
        65535,
        65535
      ],
      [
        678,
        65535,
        65535
      ],
      [
        678,
        65535,
        65535
      ],
      [
        678,
        65535,
        65535
      ],
      [
        678,
        65535,
        65535
      ],
      [
        678,
        65535,
        65535
      ],
      [
        678,
        687,
        65535
      ]
    ],
    [
      [
        678,
        688,
        65535
      ],
      [
        678,
        65535,
        65535
      ],
      [
        678,
        65535,
        65535
      ],
      [
        678,
        65535,
        65535
      ],
      [
        678,
        65535,
        65535
      ],
      [
        678,
        691,
        65535
      ],
      [
        678,
        686,
        65535
      ],
      [
        678,
        686,
        65535
      ],
      [
        678,
        686,
        65535
      ],
      [
        678,
        686,
        65535
      ],
      [
        678,
        686,
        65535
      ],
      [
        678,
        686,
        65535
      ],
      [
        678,
        692,
        65535
      ],
      [
        678,
        65535,
        65535
      ],
      [
        678,
        65535,
        65535
      ],
      [
        678,
        266,
        65535
      ],
      [
        678,
        65535,
        65535
      ],
      [
        678,
        687,
        65535
      ]
    ],
    [
      [
        678,
        688,
        65535
      ],
      [
        678,
        65535,
        65535
      ],
      [
        678,
        691,
        65535
      ],
      [
        678,
        692,
        65535
      ],
      [
        678,
        65535,
        65535
      ],
      [
        769,
        698,
        65535
      ],
      [
        683,
        65535,
        65535
      ],
      [
        683,
        65535,
        65535
      ],
      [
        683,
        65535,
        65535
      ],
      [
        683,
        65535,
        65535
      ],
      [
        683,
        65535,
        65535
      ],
      [
        683,
        65535,
        65535
      ],
      [
        689,
        65535,
        65535
      ],
      [
        678,
        65535,
        65535
      ],
      [
        678,
        65535,
        65535
      ],
      [
        678,
        65535,
        65535
      ],
      [
        678,
        344,
        65535
      ],
      [
        678,
        687,
        65535
      ]
    ],
    [
      [
        678,
        688,
        65535
      ],
      [
        678,
        65535,
        65535
      ],
      [
        678,
        687,
        65535
      ],
      [
        678,
        688,
        65535
      ],
      [
        678,
        266,
        65535
      ],
      [
        678,
        694,
        65535
      ],
      [
        678,
        344,
        65535
      ],
      [
        678,
        65535,
        65535
      ],
      [
        678,
        65535,
        65535
      ],
      [
        678,
        65535,
        65535
      ],
      [
        678,
        65535,
        65535
      ],
      [
        678,
        65535,
        65535
      ],
      [
        678,
        65535,
        65535
      ],
      [
        678,
        65535,
        65535
      ],
      [
        678,
        65535,
        65535
      ],
      [
        678,
        65535,
        65535
      ],
      [
        678,
        65535,
        65535
      ],
      [
        678,
        687,
        65535
      ]
    ],
    [
      [
        678,
        688,
        65535
      ],
      [
        678,
        65535,
        65535
      ],
      [
        678,
        687,
        65535
      ],
      [
        678,
        688,
        65535
      ],
      [
        678,
        265,
        65535
      ],
      [
        678,
        687,
        65535
      ],
      [
        678,
        686,
        65535
      ],
      [
        678,
        686,
        65535
      ],
      [
        678,
        686,
        65535
      ],
      [
        678,
        686,
        65535
      ],
      [
        678,
        686,
        65535
      ],
      [
        678,
        686,
        65535
      ],
      [
        678,
        692,
        65535
      ],
      [
        678,
        65535,
        65535
      ],
      [
        678,
        691,
        65535
      ],
      [
        678,
        686,
        65535
      ],
      [
        678,
        355,
        1249
      ],
      [
        678,
        681,
        65535
      ]
    ],
    [
      [
        678,
        688,
        65535
      ],
      [
        678,
        65535,
        65535
      ],
      [
        678,
        687,
        65535
      ],
      [
        678,
        688,
        65535
      ],
      [
        678,
        65535,
        65535
      ],
      [
        678,
        687,
        65535
      ],
      [
        678,
        540,
        65535
      ],
      [
        763,
        629,
        65535
      ],
      [
        1339,
        65535,
        65535
      ],
      [
        763,
        629,
        65535
      ],
      [
        763,
        541,
        65535
      ],
      [
        969,
        681,
        65535
      ],
      [
        768,
        688,
        65535
      ],
      [
        678,
        65535,
        65535
      ],
      [
        678,
        687,
        65535
      ],
      [
        678,
        762,
        65535
      ],
      [
        982,
        983,
        65535
      ],
      [
        678,
        764,
        65535
      ]
    ],
    [
      [
        678,
        688,
        65535
      ],
      [
        678,
        65535,
        65535
      ],
      [
        690,
        265,
        65535
      ],
      [
        689,
        65535,
        65535
      ],
      [
        678,
        65535,
        65535
      ],
      [
        769,
        687,
        65535
      ],
      [
        602,
        545,
        632
      ],
      [
        602,
        65535,
        65535
      ],
      [
        602,
        65535,
        65535
      ],
      [
        602,
        65535,
        65535
      ],
      [
        602,
        544,
        614
      ],
      [
        969,
        762,
        65535
      ],
      [
        689,
        65535,
        65535
      ],
      [
        678,
        65535,
        65535
      ],
      [
        678,
        687,
        65535
      ],
      [
        678,
        767,
        65535
      ],
      [
        678,
        622,
        65535
      ],
      [
        678,
        766,
        65535
      ]
    ],
    [
      [
        678,
        688,
        65535
      ],
      [
        678,
        622,
        65535
      ],
      [
        678,
        622,
        65535
      ],
      [
        678,
        65535,
        65535
      ],
      [
        678,
        65535,
        65535
      ],
      [
        678,
        687,
        65535
      ],
      [
        602,
        545,
        613
      ],
      [
        602,
        65535,
        65535
      ],
      [
        602,
        65535,
        65535
      ],
      [
        602,
        65535,
        65535
      ],
      [
        602,
        544,
        614
      ],
      [
        678,
        688,
        65535
      ],
      [
        678,
        65535,
        65535
      ],
      [
        678,
        65535,
        65535
      ],
      [
        678,
        687,
        65535
      ],
      [
        678,
        767,
        65535
      ],
      [
        678,
        622,
        65535
      ],
      [
        678,
        766,
        65535
      ]
    ],
    [
      [
        678,
        681,
        65535
      ],
      [
        678,
        686,
        65535
      ],
      [
        678,
        686,
        65535
      ],
      [
        678,
        686,
        65535
      ],
      [
        678,
        355,
        1249
      ],
      [
        678,
        681,
        65535
      ],
      [
        678,
        681,
        1086
      ],
      [
        678,
        65535,
        710
      ],
      [
        678,
        681,
        1086
      ],
      [
        678,
        65535,
        710
      ],
      [
        678,
        681,
        1086
      ],
      [
        678,
        681,
        65535
      ],
      [
        678,
        686,
        65535
      ],
      [
        678,
        686,
        65535
      ],
      [
        678,
        681,
        65535
      ],
      [
        678,
        767,
        65535
      ],
      [
        678,
        65535,
        65535
      ],
      [
        678,
        766,
        65535
      ]
    ],
    [
      [
        678,
        762,
        65535
      ],
      [
        975,
        65535,
        65535
      ],
      [
        978,
        65535,
        65535
      ],
      [
        977,
        65535,
        65535
      ],
      [
        982,
        983,
        65535
      ],
      [
        678,
        764,
        65535
      ],
      [
        678,
        762,
        65535
      ],
      [
        982,
        65535,
        65535
      ],
      [
        678,
        772,
        65535
      ],
      [
        982,
        65535,
        65535
      ],
      [
        763,
        772,
        65535
      ],
      [
        969,
        65535,
        65535
      ],
      [
        763,
        65535,
        65535
      ],
      [
        763,
        65535,
        65535
      ],
      [
        969,
        65535,
        65535
      ],
      [
        768,
        65535,
        65535
      ],
      [
        678,
        65535,
        65535
      ],
      [
        678,
        766,
        65535
      ]
    ],
    [
      [
        678,
        767,
        65535
      ],
      [
        678,
        65535,
        65535
      ],
      [
        969,
        770,
        65535
      ],
      [
        763,
        765,
        65535
      ],
      [
        763,
        765,
        65535
      ],
      [
        969,
        681,
        65535
      ],
      [
        768,
        767,
        65535
      ],
      [
        678,
        65535,
        65535
      ],
      [
        678,
        773,
        65535
      ],
      [
        678,
        65535,
        65535
      ],
      [
        774,
        65535,
        65535
      ],
      [
        678,
        65535,
        65535
      ],
      [
        678,
        65535,
        65535
      ],
      [
        678,
        65535,
        65535
      ],
      [
        678,
        344,
        65535
      ],
      [
        678,
        65535,
        65535
      ],
      [
        678,
        65535,
        65535
      ],
      [
        678,
        766,
        65535
      ]
    ],
    [
      [
        678,
        767,
        65535
      ],
      [
        678,
        65535,
        65535
      ],
      [
        979,
        777,
        65535
      ],
      [
        975,
        65535,
        65535
      ],
      [
        978,
        65535,
        65535
      ],
      [
        977,
        65535,
        65535
      ],
      [
        980,
        65535,
        65535
      ],
      [
        678,
        65535,
        65535
      ],
      [
        774,
        773,
        65535
      ],
      [
        678,
        65535,
        65535
      ],
      [
        678,
        770,
        65535
      ],
      [
        678,
        765,
        65535
      ],
      [
        678,
        765,
        65535
      ],
      [
        678,
        765,
        65535
      ],
      [
        678,
        765,
        65535
      ],
      [
        678,
        765,
        65535
      ],
      [
        678,
        765,
        65535
      ],
      [
        678,
        681,
        65535
      ]
    ],
    [
      [
        678,
        767,
        65535
      ],
      [
        678,
        65535,
        65535
      ],
      [
        763,
        766,
        65535
      ],
      [
        763,
        765,
        65535
      ],
      [
        763,
        765,
        65535
      ],
      [
        763,
        765,
        65535
      ],
      [
        763,
        771,
        65535
      ],
      [
        678,
        65535,
        65535
      ],
      [
        678,
        773,
        65535
      ],
      [
        678,
        65535,
        65535
      ],
      [
        769,
        65535,
        65535
      ],
      [
        763,
        65535,
        65535
      ],
      [
        969,
        65535,
        65535
      ],
      [
        763,
        65535,
        65535
      ],
      [
        763,
        65535,
        65535
      ],
      [
        969,
        65535,
        65535
      ],
      [
        763,
        65535,
        65535
      ],
      [
        678,
        764,
        65535
      ]
    ],
    [
      [
        678,
        767,
        65535
      ],
      [
        678,
        65535,
        65535
      ],
      [
        769,
        65535,
        65535
      ],
      [
        763,
        65535,
        65535
      ],
      [
        969,
        65535,
        65535
      ],
      [
        763,
        65535,
        65535
      ],
      [
        763,
        776,
        65535
      ],
      [
        678,
        65535,
        65535
      ],
      [
        678,
        766,
        65535
      ],
      [
        763,
        765,
        65535
      ],
      [
        763,
        765,
        65535
      ],
      [
        763,
        765,
        65535
      ],
      [
        763,
        765,
        65535
      ],
      [
        763,
        765,
        65535
      ],
      [
        763,
        765,
        65535
      ],
      [
        678,
        771,
        65535
      ],
      [
        678,
        65535,
        65535
      ],
      [
        678,
        766,
        65535
      ]
    ],
    [
      [
        678,
        767,
        65535
      ],
      [
        678,
        65535,
        65535
      ],
      [
        769,
        770,
        65535
      ],
      [
        678,
        765,
        65535
      ],
      [
        678,
        765,
        65535
      ],
      [
        678,
        765,
        65535
      ],
      [
        678,
        767,
        65535
      ],
      [
        678,
        65535,
        65535
      ],
      [
        979,
        65535,
        65535
      ],
      [
        976,
        65535,
        65535
      ],
      [
        978,
        65535,
        65535
      ],
      [
        976,
        65535,
        65535
      ],
      [
        976,
        65535,
        65535
      ],
      [
        978,
        65535,
        65535
      ],
      [
        977,
        65535,
        65535
      ],
      [
        768,
        65535,
        65535
      ],
      [
        678,
        65535,
        65535
      ],
      [
        678,
        766,
        65535
      ]
    ],
    [
      [
        678,
        767,
        65535
      ],
      [
        678,
        65535,
        65535
      ],
      [
        769,
        65535,
        65535
      ],
      [
        969,
        65535,
        65535
      ],
      [
        763,
        65535,
        65535
      ],
      [
        969,
        65535,
        65535
      ],
      [
        768,
        65535,
        65535
      ],
      [
        678,
        65535,
        65535
      ],
      [
        678,
        65535,
        65535
      ],
      [
        678,
        65535,
        65535
      ],
      [
        678,
        65535,
        65535
      ],
      [
        678,
        65535,
        65535
      ],
      [
        678,
        65535,
        65535
      ],
      [
        678,
        65535,
        65535
      ],
      [
        678,
        65535,
        65535
      ],
      [
        678,
        65535,
        65535
      ],
      [
        678,
        65535,
        65535
      ],
      [
        678,
        766,
        65535
      ]
    ],
    [
      [
        678,
        681,
        65535
      ],
      [
        678,
        765,
        65535
      ],
      [
        678,
        765,
        65535
      ],
      [
        678,
        765,
        65535
      ],
      [
        678,
        765,
        65535
      ],
      [
        678,
        765,
        65535
      ],
      [
        678,
        765,
        65535
      ],
      [
        678,
        765,
        65535
      ],
      [
        678,
        765,
        65535
      ],
      [
        679,
        765,
        65535
      ],
      [
        678,
        765,
        65535
      ],
      [
        678,
        765,
        65535
      ],
      [
        678,
        765,
        65535
      ],
      [
        678,
        765,
        65535
      ],
      [
        678,
        765,
        65535
      ],
      [
        678,
        765,
        65535
      ],
      [
        678,
        765,
        65535
      ],
      [
        678,
        681,
        65535
      ]
    ],
    []
  ]
}