{
  "zoneId": 206,
  "zoneType": 2,
  "width": 9,
  "height": 9,
  "type": 8,
  "world": 2,
  "objects": [
    {
      "type": 6,
      "x": 4,
      "y": 4,
      "unknown": 1,
      "param": 480
    },
    {
      "type": 10,
      "x": 4,
      "y": 8,
      "unknown": 1,
      "param": 65535
    }
  ],
  "actions": [
    {
      "triggers": [
        [
          "on_bump_tile",
          4,
          4,
          355,
          0,
          0,
          0
        ]
      ],
      "commands": [
        [
          "clear_tile",
          4,
          4,
          1,
          12346,
          19164,
          0
        ],
        [
          "play_sound",
          0,
          0,
          25971,
          25964,
          0,
          0
        ],
        [
          "flag_once",
          32,
          0,
          21325,
          21280,
          28257,
          0
        ]
      ]
    }
  ],
  "tilemap": [
    [
      [
        678,
        681,
        65535
      ],
      [
        65535,
        681,
        65535
      ],
      [
        65535,
        681,
        65535
      ],
      [
        65535,
        681,
        65535
      ],
      [
        65535,
        681,
        65535
      ],
      [
        65535,
        681,
        65535
      ],
      [
        65535,
        681,
        65535
      ],
      [
        65535,
        681,
        65535
      ],
      [
        65535,
        681,
        65535
      ]
    ],
    [
      [
        678,
        681,
        65535
      ],
      [
        65535,
        681,
        65535
      ],
      [
        65535,
        681,
        65535
      ],
      [
        65535,
        681,
        65535
      ],
      [
        65535,
        681,
        65535
      ],
      [
        65535,
        681,
        65535
      ],
      [
        65535,
        681,
        65535
      ],
      [
        65535,
        681,
        65535
      ],
      [
        65535,
        681,
        65535
      ]
    ],
    [
      [
        678,
        681,
        65535
      ],
      [
        65535,
        681,
        65535
      ],
      [
        65535,
        681,
        65535
      ],
      [
        65535,
        681,
        65535
      ],
      [
        65535,
        681,
        65535
      ],
      [
        65535,
        681,
        65535
      ],
      [
        65535,
        681,
        65535
      ],
      [
        65535,
        681,
        65535
      ],
      [
        65535,
        681,
        65535
      ]
    ],
    [
      [
        678,
        681,
        65535
      ],
      [
        65535,
        681,
        65535
      ],
      [
        65535,
        681,
        65535
      ],
      [
        65535,
        682,
        65535
      ],
      [
        683,
        355,
        65535
      ],
      [
        65535,
        684,
        65535
      ],
      [
        65535,
        681,
        65535
      ],
      [
        65535,
        681,
        65535
      ],
      [
        65535,
        681,
        65535
      ]
    ],
    [
      [
        678,
        681,
        65535
      ],
      [
        65535,
        681,
        65535
      ],
      [
        65535,
        681,
        65535
      ],
      [
        65535,
        688,
        65535
      ],
      [
        1201,
        355,
        65535
      ],
      [
        65535,
        687,
        65535
      ],
      [
        65535,
        681,
        65535
      ],
      [
        65535,
        681,
        65535
      ],
      [
        65535,
        681,
        65535
      ]
    ],
    [
      [
        678,
        681,
        65535
      ],
      [
        65535,
        681,
        65535
      ],
      [
        65535,
        681,
        65535
      ],
      [
        678,
        688,
        65535
      ],
      [
        678,
        65535,
        65535
      ],
      [
        65535,
        687,
        65535
      ],
      [
        65535,
        681,
        65535
      ],
      [
        65535,
        681,
        65535
      ],
      [
        65535,
        681,
        65535
      ]
    ],
    [
      [
        678,
        681,
        65535
      ],
      [
        65535,
        681,
        65535
      ],
      [
        65535,
        681,
        65535
      ],
      [
        65535,
        688,
        65535
      ],
      [
        679,
        65535,
        65535
      ],
      [
        65535,
        687,
        65535
      ],
      [
        65535,
        681,
        65535
      ],
      [
        65535,
        681,
        65535
      ],
      [
        65535,
        681,
        65535
      ]
    ],
    [
      [
        678,
        681,
        65535
      ],
      [
        65535,
        681,
        65535
      ],
      [
        65535,
        681,
        65535
      ],
      [
        65535,
        681,
        65535
      ],
      [
        678,
        65535,
        1247
      ],
      [
        65535,
        681,
        65535
      ],
      [
        65535,
        681,
        65535
      ],
      [
        65535,
        681,
        65535
      ],
      [
        65535,
        681,
        65535
      ]
    ],
    [
      [
        678,
        681,
        65535
      ],
      [
        65535,
        681,
        65535
      ],
      [
        65535,
        681,
        65535
      ],
      [
        65535,
        681,
        65535
      ],
      [
        648,
        65535,
        1248
      ],
      [
        65535,
        681,
        65535
      ],
      [
        65535,
        681,
        65535
      ],
      [
        65535,
        681,
        65535
      ],
      [
        65535,
        681,
        65535
      ]
    ],
    []
  ]
}