{
  "zoneId": 220,
  "zoneType": 2,
  "width": 18,
  "height": 18,
  "type": 8,
  "world": 2,
  "objects": [
    {
      "type": 10,
      "x": 8,
      "y": 17,
      "unknown": 1,
      "param": 65535
    },
    {
      "type": 9,
      "x": 15,
      "y": 0,
      "unknown": 1,
      "param": 221
    }
  ],
  "actions": [
    {
      "triggers": [
        [
          "on_bump_tile",
          15,
          0,
          1112,
          30018,
          28781,
          0
        ]
      ],
      "commands": [
        [
          "play_sound",
          16,
          0,
          27728,
          31073,
          28499,
          0
        ],
        [
          "clear_tile",
          15,
          0,
          1,
          28525,
          25974,
          0
        ],
        [
          "redraw_tile",
          15,
          0,
          25938,
          29284,
          30561,
          0
        ],
        [
          "render_changes",
          0,
          0,
          47324,
          195,
          0,
          0
        ]
      ]
    }
  ],
  "tilemap": [
    [
      [
        65535,
        1254,
        65535
      ],
      [
        65535,
        1253,
        65535
      ],
      [
        65535,
        1253,
        65535
      ],
      [
        65535,
        1253,
        65535
      ],
      [
        65535,
        1253,
        65535
      ],
      [
        65535,
        1253,
        65535
      ],
      [
        65535,
        1253,
        65535
      ],
      [
        65535,
        1253,
        65535
      ],
      [
        65535,
        1253,
        65535
      ],
      [
        65535,
        1253,
        65535
      ],
      [
        65535,
        1253,
        65535
      ],
      [
        65535,
        1253,
        65535
      ],
      [
        65535,
        1253,
        178
      ],
      [
        65535,
        1253,
        65535
      ],
      [
        65535,
        1253,
        65535
      ],
      [
        605,
        1112,
        1090
      ],
      [
        65535,
        1253,
        65535
      ],
      [
        65535,
        1255,
        65535
      ]
    ],
    [
      [
        403,
        545,
        65535
      ],
      [
        403,
        65535,
        65535
      ],
      [
        403,
        65535,
        65535
      ],
      [
        403,
        65535,
        1137
      ],
      [
        403,
        65535,
        65535
      ],
      [
        403,
        65535,
        65535
      ],
      [
        403,
        65535,
        65535
      ],
      [
        403,
        186,
        65535
      ],
      [
        403,
        186,
        65535
      ],
      [
        403,
        186,
        65535
      ],
      [
        403,
        842,
        65535
      ],
      [
        403,
        853,
        65535
      ],
      [
        403,
        65535,
        1518
      ],
      [
        403,
        381,
        65535
      ],
      [
        403,
        65535,
        65535
      ],
      [
        403,
        65535,
        65535
      ],
      [
        403,
        65535,
        65535
      ],
      [
        403,
        544,
        65535
      ]
    ],
    [
      [
        403,
        545,
        65535
      ],
      [
        403,
        65535,
        1135
      ],
      [
        403,
        65535,
        65535
      ],
      [
        403,
        1140,
        65535
      ],
      [
        403,
        842,
        65535
      ],
      [
        403,
        848,
        65535
      ],
      [
        403,
        848,
        65535
      ],
      [
        403,
        848,
        65535
      ],
      [
        403,
        848,
        65535
      ],
      [
        403,
        848,
        65535
      ],
      [
        403,
        841,
        1139
      ],
      [
        377,
        65535,
        65535
      ],
      [
        378,
        65535,
        65535
      ],
      [
        379,
        65535,
        65535
      ],
      [
        403,
        65535,
        65535
      ],
      [
        403,
        65535,
        65535
      ],
      [
        403,
        65535,
        65535
      ],
      [
        403,
        544,
        65535
      ]
    ],
    [
      [
        403,
        545,
        65535
      ],
      [
        403,
        1136,
        65535
      ],
      [
        403,
        65535,
        65535
      ],
      [
        403,
        842,
        65535
      ],
      [
        403,
        841,
        65535
      ],
      [
        403,
        65535,
        1135
      ],
      [
        403,
        65535,
        65535
      ],
      [
        403,
        65535,
        65535
      ],
      [
        403,
        65535,
        1137
      ],
      [
        403,
        65535,
        65535
      ],
      [
        403,
        1140,
        65535
      ],
      [
        1127,
        65535,
        65535
      ],
      [
        1123,
        65535,
        65535
      ],
      [
        1123,
        65535,
        65535
      ],
      [
        1123,
        65535,
        65535
      ],
      [
        1123,
        65535,
        65535
      ],
      [
        1128,
        65535,
        65535
      ],
      [
        403,
        544,
        65535
      ]
    ],
    [
      [
        403,
        545,
        65535
      ],
      [
        403,
        65535,
        65535
      ],
      [
        403,
        65535,
        65535
      ],
      [
        403,
        847,
        65535
      ],
      [
        403,
        65535,
        65535
      ],
      [
        403,
        1136,
        65535
      ],
      [
        403,
        65535,
        65535
      ],
      [
        403,
        65535,
        65535
      ],
      [
        403,
        1140,
        65535
      ],
      [
        403,
        65535,
        65535
      ],
      [
        403,
        65535,
        65535
      ],
      [
        1125,
        65535,
        65535
      ],
      [
        403,
        1145,
        65535
      ],
      [
        403,
        1141,
        65535
      ],
      [
        403,
        1146,
        65535
      ],
      [
        403,
        1146,
        65535
      ],
      [
        1126,
        65535,
        65535
      ],
      [
        403,
        544,
        65535
      ]
    ],
    [
      [
        403,
        545,
        65535
      ],
      [
        403,
        65535,
        65535
      ],
      [
        403,
        65535,
        65535
      ],
      [
        403,
        847,
        65535
      ],
      [
        65535,
        838,
        65535
      ],
      [
        65535,
        849,
        65535
      ],
      [
        65535,
        849,
        65535
      ],
      [
        65535,
        839,
        65535
      ],
      [
        403,
        65535,
        65535
      ],
      [
        403,
        65535,
        65535
      ],
      [
        403,
        65535,
        65535
      ],
      [
        1125,
        65535,
        65535
      ],
      [
        403,
        1141,
        65535
      ],
      [
        403,
        1142,
        65535
      ],
      [
        403,
        1145,
        65535
      ],
      [
        403,
        1145,
        65535
      ],
      [
        1126,
        65535,
        65535
      ],
      [
        403,
        544,
        65535
      ]
    ],
    [
      [
        403,
        545,
        65535
      ],
      [
        403,
        65535,
        65535
      ],
      [
        403,
        65535,
        65535
      ],
      [
        403,
        844,
        65535
      ],
      [
        403,
        845,
        65535
      ],
      [
        403,
        65535,
        1135
      ],
      [
        403,
        65535,
        65535
      ],
      [
        65535,
        844,
        65535
      ],
      [
        65535,
        839,
        65535
      ],
      [
        403,
        65535,
        65535
      ],
      [
        403,
        65535,
        65535
      ],
      [
        1125,
        65535,
        65535
      ],
      [
        403,
        1142,
        65535
      ],
      [
        403,
        1142,
        65535
      ],
      [
        403,
        1144,
        65535
      ],
      [
        403,
        1144,
        65535
      ],
      [
        1126,
        65535,
        65535
      ],
      [
        403,
        544,
        65535
      ]
    ],
    [
      [
        403,
        545,
        65535
      ],
      [
        403,
        65535,
        65535
      ],
      [
        403,
        65535,
        65535
      ],
      [
        403,
        65535,
        65535
      ],
      [
        403,
        65535,
        65535
      ],
      [
        403,
        1136,
        65535
      ],
      [
        403,
        65535,
        65535
      ],
      [
        65535,
        374,
        65535
      ],
      [
        65535,
        850,
        65535
      ],
      [
        65535,
        376,
        65535
      ],
      [
        403,
        65535,
        65535
      ],
      [
        1125,
        65535,
        65535
      ],
      [
        403,
        1143,
        65535
      ],
      [
        403,
        1143,
        65535
      ],
      [
        403,
        1144,
        65535
      ],
      [
        403,
        1144,
        65535
      ],
      [
        1126,
        65535,
        65535
      ],
      [
        403,
        544,
        65535
      ]
    ],
    [
      [
        403,
        545,
        65535
      ],
      [
        403,
        65535,
        65535
      ],
      [
        403,
        65535,
        65535
      ],
      [
        403,
        65535,
        1137
      ],
      [
        403,
        65535,
        1139
      ],
      [
        403,
        65535,
        65535
      ],
      [
        65535,
        374,
        65535
      ],
      [
        65535,
        382,
        65535
      ],
      [
        65535,
        387,
        65535
      ],
      [
        65535,
        383,
        65535
      ],
      [
        65535,
        376,
        65535
      ],
      [
        1129,
        65535,
        65535
      ],
      [
        1124,
        65535,
        1135
      ],
      [
        1124,
        65535,
        65535
      ],
      [
        1124,
        65535,
        65535
      ],
      [
        1124,
        65535,
        65535
      ],
      [
        1130,
        65535,
        65535
      ],
      [
        403,
        544,
        65535
      ]
    ],
    [
      [
        403,
        545,
        65535
      ],
      [
        403,
        65535,
        65535
      ],
      [
        403,
        65535,
        1139
      ],
      [
        403,
        1140,
        65535
      ],
      [
        403,
        1140,
        65535
      ],
      [
        403,
        65535,
        65535
      ],
      [
        65535,
        380,
        65535
      ],
      [
        65535,
        386,
        65535
      ],
      [
        65535,
        387,
        65535
      ],
      [
        65535,
        386,
        65535
      ],
      [
        65535,
        381,
        65535
      ],
      [
        403,
        65535,
        65535
      ],
      [
        403,
        1136,
        65535
      ],
      [
        403,
        65535,
        65535
      ],
      [
        403,
        65535,
        65535
      ],
      [
        403,
        65535,
        65535
      ],
      [
        403,
        65535,
        1137
      ],
      [
        403,
        544,
        65535
      ]
    ],
    [
      [
        403,
        545,
        65535
      ],
      [
        403,
        65535,
        65535
      ],
      [
        403,
        1140,
        65535
      ],
      [
        403,
        374,
        65535
      ],
      [
        403,
        375,
        65535
      ],
      [
        403,
        375,
        65535
      ],
      [
        403,
        382,
        65535
      ],
      [
        65535,
        387,
        65535
      ],
      [
        65535,
        386,
        65535
      ],
      [
        65535,
        387,
        65535
      ],
      [
        65535,
        383,
        65535
      ],
      [
        65535,
        376,
        65535
      ],
      [
        403,
        65535,
        65535
      ],
      [
        403,
        65535,
        1139
      ],
      [
        403,
        65535,
        65535
      ],
      [
        403,
        65535,
        1135
      ],
      [
        403,
        1140,
        65535
      ],
      [
        403,
        544,
        65535
      ]
    ],
    [
      [
        403,
        545,
        65535
      ],
      [
        403,
        65535,
        1137
      ],
      [
        403,
        65535,
        65535
      ],
      [
        403,
        380,
        65535
      ],
      [
        403,
        386,
        65535
      ],
      [
        403,
        387,
        65535
      ],
      [
        403,
        386,
        65535
      ],
      [
        65535,
        386,
        65535
      ],
      [
        65535,
        387,
        65535
      ],
      [
        65535,
        386,
        65535
      ],
      [
        65535,
        387,
        65535
      ],
      [
        65535,
        383,
        65535
      ],
      [
        65535,
        376,
        65535
      ],
      [
        403,
        1140,
        65535
      ],
      [
        403,
        65535,
        65535
      ],
      [
        403,
        1136,
        65535
      ],
      [
        403,
        65535,
        65535
      ],
      [
        403,
        544,
        65535
      ]
    ],
    [
      [
        403,
        545,
        65535
      ],
      [
        403,
        1140,
        65535
      ],
      [
        403,
        65535,
        65535
      ],
      [
        403,
        380,
        65535
      ],
      [
        403,
        387,
        65535
      ],
      [
        403,
        386,
        65535
      ],
      [
        403,
        387,
        65535
      ],
      [
        65535,
        387,
        65535
      ],
      [
        65535,
        386,
        65535
      ],
      [
        65535,
        387,
        65535
      ],
      [
        65535,
        386,
        65535
      ],
      [
        65535,
        387,
        65535
      ],
      [
        65535,
        381,
        65535
      ],
      [
        403,
        65535,
        65535
      ],
      [
        403,
        65535,
        65535
      ],
      [
        403,
        65535,
        65535
      ],
      [
        403,
        65535,
        65535
      ],
      [
        403,
        544,
        65535
      ]
    ],
    [
      [
        403,
        545,
        65535
      ],
      [
        403,
        65535,
        65535
      ],
      [
        403,
        65535,
        1135
      ],
      [
        377,
        65535,
        65535
      ],
      [
        403,
        384,
        65535
      ],
      [
        403,
        386,
        65535
      ],
      [
        403,
        387,
        65535
      ],
      [
        65535,
        385,
        65535
      ],
      [
        65535,
        384,
        1135
      ],
      [
        65535,
        386,
        65535
      ],
      [
        65535,
        387,
        65535
      ],
      [
        65535,
        385,
        65535
      ],
      [
        379,
        65535,
        65535
      ],
      [
        403,
        65535,
        65535
      ],
      [
        403,
        65535,
        65535
      ],
      [
        403,
        65535,
        1137
      ],
      [
        403,
        65535,
        65535
      ],
      [
        403,
        544,
        65535
      ]
    ],
    [
      [
        403,
        545,
        65535
      ],
      [
        403,
        65535,
        65535
      ],
      [
        403,
        1136,
        65535
      ],
      [
        403,
        65535,
        65535
      ],
      [
        377,
        65535,
        65535
      ],
      [
        403,
        384,
        65535
      ],
      [
        403,
        386,
        65535
      ],
      [
        65535,
        381,
        65535
      ],
      [
        377,
        1136,
        65535
      ],
      [
        378,
        65535,
        65535
      ],
      [
        378,
        65535,
        65535
      ],
      [
        379,
        65535,
        65535
      ],
      [
        403,
        65535,
        1137
      ],
      [
        403,
        65535,
        65535
      ],
      [
        403,
        65535,
        1139
      ],
      [
        403,
        1140,
        65535
      ],
      [
        403,
        65535,
        65535
      ],
      [
        403,
        544,
        65535
      ]
    ],
    [
      [
        403,
        545,
        65535
      ],
      [
        403,
        186,
        65535
      ],
      [
        403,
        186,
        65535
      ],
      [
        403,
        65535,
        65535
      ],
      [
        403,
        65535,
        65535
      ],
      [
        377,
        65535,
        65535
      ],
      [
        378,
        65535,
        65535
      ],
      [
        379,
        65535,
        65535
      ],
      [
        403,
        65535,
        65535
      ],
      [
        403,
        65535,
        65535
      ],
      [
        403,
        65535,
        65535
      ],
      [
        403,
        65535,
        65535
      ],
      [
        403,
        1140,
        65535
      ],
      [
        403,
        65535,
        65535
      ],
      [
        403,
        1140,
        65535
      ],
      [
        403,
        65535,
        65535
      ],
      [
        403,
        1403,
        65535
      ],
      [
        403,
        544,
        618
      ]
    ],
    [
      [
        403,
        545,
        65535
      ],
      [
        403,
        186,
        65535
      ],
      [
        403,
        186,
        65535
      ],
      [
        403,
        186,
        65535
      ],
      [
        403,
        186,
        65535
      ],
      [
        403,
        65535,
        65535
      ],
      [
        403,
        65535,
        65535
      ],
      [
        403,
        65535,
        65535
      ],
      [
        403,
        65535,
        65535
      ],
      [
        403,
        65535,
        65535
      ],
      [
        403,
        65535,
        65535
      ],
      [
        403,
        65535,
        65535
      ],
      [
        403,
        65535,
        65535
      ],
      [
        403,
        65535,
        65535
      ],
      [
        403,
        65535,
        65535
      ],
      [
        403,
        65535,
        65535
      ],
      [
        403,
        65535,
        65535
      ],
      [
        403,
        544,
        65535
      ]
    ],
    [
      [
        65535,
        629,
        65535
      ],
      [
        65535,
        629,
        65535
      ],
      [
        65535,
        629,
        65535
      ],
      [
        65535,
        629,
        65535
      ],
      [
        65535,
        629,
        65535
      ],
      [
        65535,
        629,
        65535
      ],
      [
        65535,
        629,
        65535
      ],
      [
        65535,
        629,
        65535
      ],
      [
        860,
        65535,
        1090
      ],
      [
        65535,
        629,
        65535
      ],
      [
        65535,
        629,
        65535
      ],
      [
        65535,
        629,
        65535
      ],
      [
        65535,
        629,
        65535
      ],
      [
        65535,
        629,
        65535
      ],
      [
        65535,
        629,
        65535
      ],
      [
        65535,
        629,
        65535
      ],
      [
        65535,
        629,
        65535
      ],
      [
        65535,
        629,
        65535
      ]
    ],
    []
  ]
}