{
  "zoneId": 222,
  "zoneType": 2,
  "width": 18,
  "height": 18,
  "type": 1,
  "world": 2,
  "objects": [],
  "actions": [
    {
      "triggers": [
        [
          "on_first_enter",
          110,
          0,
          0,
          14812,
          232,
          0
        ]
      ],
      "commands": [
        [
          "random",
          6,
          0,
          26708,
          28530,
          21111,
          0
        ],
        [
          "hide_all_entities",
          0,
          0,
          0,
          0,
          0,
          0
        ]
      ]
    },
    {
      "triggers": [
        [
          "on_bump_tile",
          8,
          13,
          1898,
          30018,
          28781,
          0
        ],
        [
          "on_check_map_tile_var",
          649,
          6,
          12,
          0,
          0,
          0
        ]
      ],
      "commands": [
        [
          "play_sound",
          6,
          0,
          0,
          0,
          0,
          0
        ]
      ]
    },
    {
      "triggers": [
        [
          "on_bump_tile",
          8,
          13,
          1898,
          30018,
          28781,
          0
        ],
        [
          "on_rand_var_eq",
          1,
          8,
          0,
          24914,
          25710,
          0
        ],
        [
          "on_check_map_tile_var",
          648,
          6,
          12,
          0,
          0,
          0
        ]
      ],
      "commands": [
        [
          "say_text",
          8,
          0,
          26707,
          30575,
          25940,
          12
        ],
        [
          "spawn_item",
          512,
          8,
          13,
          28783,
          29769,
          0
        ],
        [
          "set_map_tile_var",
          6,
          12,
          0,
          649,
          30030,
          0
        ],
        [
          "flag_once",
          0,
          0,
          15584,
          232,
          0,
          0
        ]
      ]
    },
    {
      "triggers": [
        [
          "on_bump_tile",
          8,
          13,
          1898,
          30018,
          28781,
          0
        ],
        [
          "on_rand_var_eq",
          2,
          8,
          0,
          24914,
          25710,
          0
        ],
        [
          "on_check_map_tile_var",
          648,
          6,
          12,
          0,
          0,
          0
        ]
      ],
      "commands": [
        [
          "say_text",
          8,
          0,
          26707,
          30575,
          25940,
          12
        ],
        [
          "spawn_item",
          513,
          8,
          13,
          28783,
          29769,
          0
        ],
        [
          "set_map_tile_var",
          6,
          12,
          0,
          649,
          0,
          0
        ],
        [
          "flag_once",
          0,
          0,
          15584,
          232,
          0,
          0
        ]
      ]
    },
    {
      "triggers": [
        [
          "on_bump_tile",
          8,
          13,
          1898,
          30018,
          28781,
          0
        ],
        [
          "on_rand_var_eq",
          3,
          8,
          0,
          24914,
          25710,
          0
        ],
        [
          "on_check_map_tile_var",
          648,
          6,
          12,
          0,
          0,
          0
        ]
      ],
      "commands": [
        [
          "say_text",
          8,
          0,
          26707,
          30575,
          25940,
          12
        ],
        [
          "spawn_item",
          514,
          8,
          13,
          28783,
          29769,
          0
        ],
        [
          "set_map_tile_var",
          6,
          12,
          0,
          649,
          0,
          0
        ],
        [
          "flag_once",
          0,
          0,
          15584,
          232,
          0,
          0
        ]
      ]
    },
    {
      "triggers": [
        [
          "on_bump_tile",
          8,
          13,
          1898,
          30018,
          28781,
          0
        ],
        [
          "on_rand_var_gt",
          3,
          0,
          0,
          0,
          0,
          0
        ]
      ],
      "commands": [
        [
          "play_sound",
          6,
          0,
          744,
          0,
          2112,
          0
        ]
      ]
    },
    {
      "triggers": [
        [
          "on_bump_tile",
          14,
          0,
          355,
          0,
          0,
          0
        ]
      ],
      "commands": [
        [
          "play_sound",
          54,
          0,
          0,
          0,
          0,
          0
        ],
        [
          "show_entity",
          0,
          0,
          0,
          0,
          0,
          0
        ]
      ]
    },
    {
      "triggers": [
        [
          "on_bump_tile",
          3,
          2,
          355,
          0,
          0,
          0
        ]
      ],
      "commands": [
        [
          "play_sound",
          54,
          0,
          0,
          0,
          0,
          0
        ],
        [
          "show_entity",
          1,
          0,
          0,
          0,
          0,
          0
        ]
      ]
    },
    {
      "triggers": [
        [
          "on_bump_tile",
          9,
          6,
          355,
          0,
          0,
          0
        ]
      ],
      "commands": [
        [
          "play_sound",
          54,
          0,
          0,
          0,
          0,
          0
        ],
        [
          "show_entity",
          2,
          0,
          0,
          0,
          0,
          0
        ]
      ]
    },
    {
      "triggers": [
        [
          "on_bump_tile",
          5,
          9,
          355,
          0,
          0,
          0
        ]
      ],
      "commands": [
        [
          "play_sound",
          54,
          0,
          0,
          0,
          0,
          0
        ],
        [
          "show_entity",
          3,
          0,
          0,
          0,
          0,
          0
        ]
      ]
    },
    {
      "triggers": [
        [
          "on_bump_tile",
          13,
          13,
          355,
          0,
          0,
          0
        ]
      ],
      "commands": [
        [
          "play_sound",
          54,
          0,
          0,
          0,
          0,
          0
        ],
        [
          "show_entity",
          4,
          0,
          0,
          0,
          0,
          0
        ]
      ]
    },
    {
      "triggers": [
        [
          "on_bump_tile",
          7,
          16,
          355,
          0,
          0,
          0
        ]
      ],
      "commands": [
        [
          "play_sound",
          54,
          0,
          0,
          0,
          0,
          0
        ],
        [
          "show_entity",
          5,
          0,
          0,
          0,
          0,
          0
        ]
      ]
    }
  ],
  "tilemap": [
    [
      [
        648,
        65535,
        65535
      ],
      [
        648,
        65535,
        65535
      ],
      [
        648,
        65535,
        65535
      ],
      [
        648,
        65535,
        65535
      ],
      [
        648,
        65535,
        65535
      ],
      [
        648,
        65535,
        65535
      ],
      [
        648,
        65535,
        65535
      ],
      [
        648,
        65535,
        65535
      ],
      [
        648,
        65535,
        65535
      ],
      [
        648,
        65535,
        65535
      ],
      [
        648,
        65535,
        65535
      ],
      [
        648,
        65535,
        65535
      ],
      [
        648,
        65535,
        65535
      ],
      [
        648,
        65535,
        65535
      ],
      [
        999,
        355,
        65535
      ],
      [
        1000,
        65535,
        65535
      ],
      [
        648,
        65535,
        65535
      ],
      [
        648,
        65535,
        65535
      ]
    ],
    [
      [
        648,
        65535,
        65535
      ],
      [
        648,
        65535,
        65535
      ],
      [
        648,
        65535,
        65535
      ],
      [
        648,
        65535,
        65535
      ],
      [
        648,
        65535,
        65535
      ],
      [
        648,
        65535,
        65535
      ],
      [
        648,
        65535,
        65535
      ],
      [
        997,
        65535,
        65535
      ],
      [
        648,
        65535,
        65535
      ],
      [
        648,
        65535,
        65535
      ],
      [
        648,
        65535,
        65535
      ],
      [
        648,
        65535,
        65535
      ],
      [
        648,
        65535,
        65535
      ],
      [
        648,
        65535,
        65535
      ],
      [
        648,
        65535,
        65535
      ],
      [
        648,
        65535,
        65535
      ],
      [
        648,
        65535,
        65535
      ],
      [
        648,
        65535,
        65535
      ]
    ],
    [
      [
        648,
        65535,
        65535
      ],
      [
        648,
        65535,
        65535
      ],
      [
        648,
        65535,
        65535
      ],
      [
        999,
        355,
        65535
      ],
      [
        648,
        65535,
        65535
      ],
      [
        648,
        65535,
        65535
      ],
      [
        648,
        65535,
        65535
      ],
      [
        648,
        65535,
        65535
      ],
      [
        648,
        65535,
        65535
      ],
      [
        648,
        65535,
        65535
      ],
      [
        648,
        739,
        65535
      ],
      [
        648,
        740,
        65535
      ],
      [
        648,
        65535,
        65535
      ],
      [
        648,
        65535,
        65535
      ],
      [
        648,
        65535,
        65535
      ],
      [
        648,
        65535,
        65535
      ],
      [
        648,
        65535,
        65535
      ],
      [
        648,
        65535,
        65535
      ]
    ],
    [
      [
        648,
        65535,
        65535
      ],
      [
        648,
        65535,
        65535
      ],
      [
        648,
        65535,
        65535
      ],
      [
        648,
        65535,
        65535
      ],
      [
        648,
        65535,
        65535
      ],
      [
        648,
        65535,
        65535
      ],
      [
        648,
        65535,
        65535
      ],
      [
        648,
        65535,
        65535
      ],
      [
        648,
        65535,
        65535
      ],
      [
        648,
        65535,
        65535
      ],
      [
        648,
        745,
        65535
      ],
      [
        648,
        744,
        65535
      ],
      [
        648,
        750,
        65535
      ],
      [
        1000,
        750,
        65535
      ],
      [
        648,
        750,
        65535
      ],
      [
        648,
        740,
        65535
      ],
      [
        648,
        65535,
        65535
      ],
      [
        648,
        65535,
        65535
      ]
    ],
    [
      [
        648,
        65535,
        65535
      ],
      [
        648,
        65535,
        65535
      ],
      [
        648,
        65535,
        65535
      ],
      [
        648,
        65535,
        65535
      ],
      [
        1000,
        65535,
        65535
      ],
      [
        1000,
        65535,
        65535
      ],
      [
        648,
        65535,
        65535
      ],
      [
        648,
        65535,
        65535
      ],
      [
        648,
        65535,
        65535
      ],
      [
        648,
        65535,
        65535
      ],
      [
        648,
        737,
        65535
      ],
      [
        648,
        741,
        65535
      ],
      [
        648,
        65535,
        65535
      ],
      [
        1000,
        65535,
        65535
      ],
      [
        648,
        742,
        65535
      ],
      [
        648,
        738,
        65535
      ],
      [
        648,
        65535,
        65535
      ],
      [
        648,
        65535,
        65535
      ]
    ],
    [
      [
        648,
        65535,
        65535
      ],
      [
        648,
        65535,
        65535
      ],
      [
        648,
        65535,
        65535
      ],
      [
        648,
        65535,
        65535
      ],
      [
        648,
        65535,
        65535
      ],
      [
        648,
        65535,
        65535
      ],
      [
        648,
        65535,
        65535
      ],
      [
        648,
        65535,
        65535
      ],
      [
        648,
        65535,
        65535
      ],
      [
        648,
        65535,
        65535
      ],
      [
        648,
        65535,
        65535
      ],
      [
        648,
        737,
        65535
      ],
      [
        648,
        731,
        65535
      ],
      [
        648,
        731,
        65535
      ],
      [
        648,
        738,
        65535
      ],
      [
        648,
        65535,
        65535
      ],
      [
        648,
        65535,
        65535
      ],
      [
        648,
        65535,
        65535
      ]
    ],
    [
      [
        648,
        65535,
        65535
      ],
      [
        648,
        65535,
        65535
      ],
      [
        648,
        65535,
        65535
      ],
      [
        648,
        65535,
        65535
      ],
      [
        648,
        65535,
        65535
      ],
      [
        648,
        65535,
        65535
      ],
      [
        648,
        65535,
        65535
      ],
      [
        648,
        65535,
        65535
      ],
      [
        648,
        65535,
        65535
      ],
      [
        999,
        355,
        65535
      ],
      [
        648,
        65535,
        65535
      ],
      [
        648,
        65535,
        65535
      ],
      [
        648,
        65535,
        65535
      ],
      [
        648,
        65535,
        65535
      ],
      [
        648,
        65535,
        65535
      ],
      [
        648,
        65535,
        65535
      ],
      [
        648,
        65535,
        65535
      ],
      [
        648,
        65535,
        65535
      ]
    ],
    [
      [
        648,
        65535,
        65535
      ],
      [
        648,
        65535,
        65535
      ],
      [
        648,
        65535,
        65535
      ],
      [
        648,
        65535,
        65535
      ],
      [
        648,
        65535,
        65535
      ],
      [
        648,
        65535,
        65535
      ],
      [
        648,
        65535,
        65535
      ],
      [
        648,
        65535,
        65535
      ],
      [
        648,
        65535,
        65535
      ],
      [
        648,
        65535,
        65535
      ],
      [
        648,
        65535,
        65535
      ],
      [
        648,
        65535,
        65535
      ],
      [
        648,
        65535,
        65535
      ],
      [
        648,
        65535,
        65535
      ],
      [
        648,
        65535,
        65535
      ],
      [
        648,
        65535,
        65535
      ],
      [
        648,
        65535,
        65535
      ],
      [
        648,
        65535,
        65535
      ]
    ],
    [
      [
        648,
        65535,
        65535
      ],
      [
        648,
        65535,
        65535
      ],
      [
        648,
        65535,
        65535
      ],
      [
        648,
        65535,
        65535
      ],
      [
        648,
        65535,
        65535
      ],
      [
        648,
        65535,
        65535
      ],
      [
        648,
        65535,
        65535
      ],
      [
        648,
        65535,
        65535
      ],
      [
        1000,
        65535,
        65535
      ],
      [
        648,
        65535,
        65535
      ],
      [
        648,
        65535,
        65535
      ],
      [
        648,
        65535,
        65535
      ],
      [
        648,
        65535,
        65535
      ],
      [
        1000,
        65535,
        65535
      ],
      [
        648,
        65535,
        65535
      ],
      [
        648,
        65535,
        65535
      ],
      [
        648,
        65535,
        65535
      ],
      [
        648,
        65535,
        65535
      ]
    ],
    [
      [
        648,
        65535,
        65535
      ],
      [
        648,
        65535,
        65535
      ],
      [
        648,
        65535,
        65535
      ],
      [
        648,
        65535,
        65535
      ],
      [
        648,
        65535,
        65535
      ],
      [
        999,
        355,
        65535
      ],
      [
        648,
        65535,
        65535
      ],
      [
        648,
        65535,
        65535
      ],
      [
        648,
        65535,
        65535
      ],
      [
        648,
        65535,
        65535
      ],
      [
        648,
        65535,
        65535
      ],
      [
        648,
        65535,
        65535
      ],
      [
        648,
        65535,
        65535
      ],
      [
        648,
        65535,
        65535
      ],
      [
        648,
        65535,
        65535
      ],
      [
        648,
        65535,
        65535
      ],
      [
        648,
        65535,
        65535
      ],
      [
        648,
        65535,
        65535
      ]
    ],
    [
      [
        648,
        65535,
        65535
      ],
      [
        648,
        65535,
        65535
      ],
      [
        648,
        739,
        65535
      ],
      [
        648,
        740,
        65535
      ],
      [
        648,
        65535,
        65535
      ],
      [
        648,
        65535,
        65535
      ],
      [
        648,
        65535,
        65535
      ],
      [
        648,
        65535,
        65535
      ],
      [
        648,
        65535,
        65535
      ],
      [
        648,
        65535,
        65535
      ],
      [
        998,
        65535,
        65535
      ],
      [
        648,
        65535,
        65535
      ],
      [
        648,
        65535,
        65535
      ],
      [
        648,
        65535,
        65535
      ],
      [
        648,
        65535,
        65535
      ],
      [
        648,
        65535,
        65535
      ],
      [
        648,
        65535,
        65535
      ],
      [
        648,
        65535,
        65535
      ]
    ],
    [
      [
        648,
        65535,
        65535
      ],
      [
        648,
        65535,
        65535
      ],
      [
        648,
        745,
        65535
      ],
      [
        1000,
        744,
        65535
      ],
      [
        648,
        750,
        65535
      ],
      [
        648,
        750,
        65535
      ],
      [
        648,
        740,
        65535
      ],
      [
        648,
        65535,
        65535
      ],
      [
        648,
        65535,
        65535
      ],
      [
        648,
        65535,
        65535
      ],
      [
        648,
        65535,
        65535
      ],
      [
        648,
        65535,
        65535
      ],
      [
        648,
        65535,
        65535
      ],
      [
        648,
        739,
        65535
      ],
      [
        648,
        750,
        65535
      ],
      [
        648,
        740,
        65535
      ],
      [
        648,
        65535,
        65535
      ],
      [
        648,
        65535,
        65535
      ]
    ],
    [
      [
        648,
        65535,
        65535
      ],
      [
        648,
        65535,
        65535
      ],
      [
        648,
        737,
        65535
      ],
      [
        1000,
        732,
        65535
      ],
      [
        648,
        732,
        65535
      ],
      [
        648,
        732,
        65535
      ],
      [
        648,
        738,
        65535
      ],
      [
        648,
        65535,
        65535
      ],
      [
        648,
        65535,
        65535
      ],
      [
        648,
        65535,
        65535
      ],
      [
        648,
        65535,
        65535
      ],
      [
        648,
        65535,
        65535
      ],
      [
        648,
        65535,
        65535
      ],
      [
        648,
        737,
        65535
      ],
      [
        648,
        741,
        65535
      ],
      [
        648,
        724,
        65535
      ],
      [
        648,
        65535,
        65535
      ],
      [
        648,
        65535,
        65535
      ]
    ],
    [
      [
        648,
        65535,
        65535
      ],
      [
        648,
        65535,
        65535
      ],
      [
        648,
        65535,
        65535
      ],
      [
        648,
        65535,
        65535
      ],
      [
        648,
        65535,
        65535
      ],
      [
        648,
        65535,
        65535
      ],
      [
        648,
        65535,
        65535
      ],
      [
        648,
        65535,
        65535
      ],
      [
        648,
        1898,
        65535
      ],
      [
        648,
        1899,
        65535
      ],
      [
        1903,
        65535,
        65535
      ],
      [
        648,
        65535,
        65535
      ],
      [
        648,
        65535,
        65535
      ],
      [
        999,
        355,
        65535
      ],
      [
        648,
        745,
        65535
      ],
      [
        648,
        724,
        65535
      ],
      [
        648,
        65535,
        65535
      ],
      [
        648,
        65535,
        65535
      ]
    ],
    [
      [
        648,
        65535,
        65535
      ],
      [
        648,
        65535,
        65535
      ],
      [
        648,
        65535,
        65535
      ],
      [
        648,
        65535,
        65535
      ],
      [
        648,
        65535,
        65535
      ],
      [
        648,
        65535,
        65535
      ],
      [
        648,
        65535,
        65535
      ],
      [
        648,
        1900,
        65535
      ],
      [
        1901,
        65535,
        65535
      ],
      [
        648,
        1902,
        65535
      ],
      [
        648,
        65535,
        65535
      ],
      [
        648,
        65535,
        65535
      ],
      [
        648,
        65535,
        65535
      ],
      [
        1000,
        65535,
        65535
      ],
      [
        648,
        737,
        65535
      ],
      [
        648,
        738,
        65535
      ],
      [
        648,
        65535,
        65535
      ],
      [
        648,
        65535,
        65535
      ]
    ],
    [
      [
        648,
        65535,
        65535
      ],
      [
        648,
        65535,
        65535
      ],
      [
        648,
        65535,
        65535
      ],
      [
        648,
        65535,
        65535
      ],
      [
        648,
        65535,
        65535
      ],
      [
        648,
        65535,
        65535
      ],
      [
        1903,
        65535,
        65535
      ],
      [
        648,
        65535,
        65535
      ],
      [
        1904,
        65535,
        65535
      ],
      [
        648,
        65535,
        65535
      ],
      [
        648,
        65535,
        65535
      ],
      [
        648,
        65535,
        65535
      ],
      [
        648,
        65535,
        65535
      ],
      [
        648,
        65535,
        65535
      ],
      [
        648,
        65535,
        65535
      ],
      [
        648,
        65535,
        65535
      ],
      [
        648,
        65535,
        65535
      ],
      [
        648,
        65535,
        65535
      ]
    ],
    [
      [
        648,
        65535,
        65535
      ],
      [
        648,
        65535,
        65535
      ],
      [
        648,
        65535,
        65535
      ],
      [
        648,
        65535,
        65535
      ],
      [
        648,
        65535,
        65535
      ],
      [
        648,
        65535,
        65535
      ],
      [
        648,
        65535,
        65535
      ],
      [
        999,
        355,
        65535
      ],
      [
        648,
        65535,
        65535
      ],
      [
        648,
        65535,
        65535
      ],
      [
        648,
        65535,
        65535
      ],
      [
        648,
        65535,
        65535
      ],
      [
        648,
        65535,
        65535
      ],
      [
        648,
        65535,
        65535
      ],
      [
        648,
        65535,
        65535
      ],
      [
        648,
        65535,
        65535
      ],
      [
        648,
        65535,
        65535
      ],
      [
        648,
        65535,
        65535
      ]
    ],
    [
      [
        648,
        65535,
        65535
      ],
      [
        648,
        65535,
        65535
      ],
      [
        648,
        65535,
        65535
      ],
      [
        648,
        65535,
        65535
      ],
      [
        648,
        65535,
        65535
      ],
      [
        648,
        65535,
        65535
      ],
      [
        997,
        65535,
        65535
      ],
      [
        648,
        65535,
        65535
      ],
      [
        648,
        65535,
        65535
      ],
      [
        648,
        65535,
        65535
      ],
      [
        648,
        65535,
        65535
      ],
      [
        648,
        65535,
        65535
      ],
      [
        648,
        65535,
        65535
      ],
      [
        648,
        65535,
        65535
      ],
      [
        648,
        65535,
        65535
      ],
      [
        648,
        65535,
        65535
      ],
      [
        648,
        65535,
        65535
      ],
      [
        648,
        65535,
        65535
      ]
    ],
    []
  ]
}