{
  "zoneId": 245,
  "zoneType": 1,
  "width": 18,
  "height": 18,
  "type": 1,
  "world": 1,
  "objects": [],
  "actions": [
    {
      "triggers": [
        [
          "on_first_enter",
          0,
          0,
          0,
          7608,
          130,
          0
        ]
      ],
      "commands": [
        [
          "random",
          3,
          130,
          0,
          0,
          0,
          0
        ],
        [
          "set_global_var",
          0,
          0,
          0,
          0,
          0,
          0
        ]
      ]
    },
    {
      "triggers": [
        [
          "on_rand_var_eq",
          3,
          0,
          0,
          0,
          0,
          0
        ],
        [
          "on_first_enter",
          0,
          808,
          0,
          8064,
          130,
          0
        ]
      ],
      "commands": [
        [
          "set_global_var",
          1,
          0,
          24914,
          25710,
          0,
          0
        ]
      ]
    },
    {
      "triggers": [
        [
          "on_first_enter",
          0,
          4596,
          130,
          0,
          0,
          0
        ]
      ],
      "commands": [
        [
          "set_rand_var",
          0,
          0,
          0,
          0,
          0,
          0
        ]
      ]
    },
    {
      "triggers": [
        [
          "on_bump_tile",
          15,
          5,
          1356,
          4632,
          130,
          0
        ],
        [
          "on_global_var_eq",
          1,
          5684,
          130,
          0,
          0,
          0
        ]
      ],
      "commands": [
        [
          "play_sound",
          6,
          0,
          0,
          0,
          0,
          0
        ]
      ]
    },
    {
      "triggers": [
        [
          "on_bump_tile",
          15,
          5,
          1356,
          4632,
          130,
          0
        ],
        [
          "on_global_var_neq",
          1,
          936,
          0,
          8064,
          130,
          0
        ]
      ],
      "commands": [
        [
          "play_sound",
          0,
          0,
          0,
          0,
          0,
          0
        ],
        [
          "random",
          4,
          0,
          0,
          0,
          0,
          0
        ]
      ]
    },
    {
      "triggers": [
        [
          "on_rand_var_eq",
          1,
          0,
          0,
          0,
          0,
          0
        ]
      ],
      "commands": [
        [
          "spawn_item",
          512,
          15,
          5,
          0,
          0,
          0
        ],
        [
          "set_global_var",
          1,
          130,
          24914,
          25710,
          30030,
          0
        ],
        [
          "set_rand_var",
          0,
          0,
          0,
          0,
          0,
          0
        ]
      ]
    },
    {
      "triggers": [
        [
          "on_rand_var_eq",
          2,
          0,
          0,
          0,
          0,
          0
        ]
      ],
      "commands": [
        [
          "spawn_item",
          513,
          15,
          5,
          0,
          0,
          0
        ],
        [
          "set_global_var",
          1,
          130,
          24914,
          25710,
          30030,
          0
        ],
        [
          "set_rand_var",
          0,
          0,
          0,
          0,
          0,
          0
        ]
      ]
    },
    {
      "triggers": [
        [
          "on_rand_var_eq",
          3,
          0,
          0,
          0,
          0,
          0
        ]
      ],
      "commands": [
        [
          "spawn_item",
          514,
          15,
          5,
          0,
          0,
          0
        ],
        [
          "set_global_var",
          1,
          130,
          24914,
          25710,
          30030,
          0
        ],
        [
          "set_rand_var",
          0,
          0,
          0,
          0,
          0,
          0
        ]
      ]
    },
    {
      "triggers": [
        [
          "on_rand_var_eq",
          3,
          0,
          0,
          0,
          0,
          0
        ]
      ],
      "commands": [
        [
          "spawn_item",
          1198,
          15,
          5,
          0,
          0,
          0
        ],
        [
          "set_global_var",
          1,
          130,
          24914,
          25710,
          30030,
          0
        ],
        [
          "set_rand_var",
          0,
          0,
          0,
          0,
          0,
          0
        ]
      ]
    }
  ],
  "tilemap": [
    [
      [
        0,
        65535,
        65535
      ],
      [
        0,
        65535,
        65535
      ],
      [
        0,
        65535,
        65535
      ],
      [
        0,
        65535,
        65535
      ],
      [
        0,
        65535,
        65535
      ],
      [
        0,
        65535,
        65535
      ],
      [
        0,
        65535,
        65535
      ],
      [
        0,
        65535,
        65535
      ],
      [
        0,
        65535,
        65535
      ],
      [
        0,
        65535,
        65535
      ],
      [
        0,
        65535,
        65535
      ],
      [
        0,
        65535,
        65535
      ],
      [
        0,
        65535,
        65535
      ],
      [
        0,
        65535,
        65535
      ],
      [
        0,
        65535,
        65535
      ],
      [
        0,
        65535,
        65535
      ],
      [
        0,
        65535,
        65535
      ],
      [
        0,
        65535,
        65535
      ]
    ],
    [
      [
        0,
        65535,
        65535
      ],
      [
        0,
        65535,
        65535
      ],
      [
        0,
        65535,
        65535
      ],
      [
        0,
        65535,
        65535
      ],
      [
        2,
        65535,
        65535
      ],
      [
        0,
        65535,
        65535
      ],
      [
        0,
        65535,
        645
      ],
      [
        0,
        65535,
        65535
      ],
      [
        0,
        57,
        65535
      ],
      [
        0,
        46,
        65535
      ],
      [
        0,
        65535,
        65535
      ],
      [
        0,
        45,
        65535
      ],
      [
        0,
        59,
        65535
      ],
      [
        0,
        65535,
        65535
      ],
      [
        0,
        65535,
        65535
      ],
      [
        0,
        65535,
        65535
      ],
      [
        0,
        65535,
        65535
      ],
      [
        0,
        65535,
        65535
      ]
    ],
    [
      [
        0,
        65535,
        65535
      ],
      [
        4,
        65535,
        65535
      ],
      [
        0,
        65535,
        65535
      ],
      [
        0,
        65535,
        65535
      ],
      [
        0,
        65535,
        65535
      ],
      [
        0,
        65535,
        65535
      ],
      [
        0,
        643,
        65535
      ],
      [
        0,
        57,
        65535
      ],
      [
        0,
        62,
        65535
      ],
      [
        365,
        65535,
        65535
      ],
      [
        0,
        65535,
        65535
      ],
      [
        365,
        65535,
        65535
      ],
      [
        0,
        56,
        65535
      ],
      [
        0,
        65535,
        65535
      ],
      [
        0,
        65535,
        65535
      ],
      [
        0,
        65535,
        65535
      ],
      [
        4,
        65535,
        65535
      ],
      [
        0,
        65535,
        65535
      ]
    ],
    [
      [
        0,
        65535,
        65535
      ],
      [
        0,
        65535,
        65535
      ],
      [
        0,
        65535,
        65535
      ],
      [
        0,
        65535,
        65535
      ],
      [
        0,
        65535,
        65535
      ],
      [
        0,
        1059,
        65535
      ],
      [
        0,
        65535,
        65535
      ],
      [
        0,
        55,
        65535
      ],
      [
        367,
        65535,
        65535
      ],
      [
        368,
        65535,
        65535
      ],
      [
        369,
        65535,
        65535
      ],
      [
        370,
        65535,
        65535
      ],
      [
        0,
        63,
        65535
      ],
      [
        0,
        59,
        65535
      ],
      [
        0,
        65535,
        65535
      ],
      [
        0,
        65535,
        65535
      ],
      [
        0,
        65535,
        65535
      ],
      [
        0,
        65535,
        65535
      ]
    ],
    [
      [
        0,
        65535,
        65535
      ],
      [
        0,
        65535,
        65535
      ],
      [
        0,
        57,
        65535
      ],
      [
        0,
        46,
        65535
      ],
      [
        0,
        65535,
        65535
      ],
      [
        0,
        45,
        65535
      ],
      [
        0,
        59,
        65535
      ],
      [
        0,
        60,
        65535
      ],
      [
        0,
        64,
        65535
      ],
      [
        371,
        65535,
        65535
      ],
      [
        367,
        65535,
        65535
      ],
      [
        369,
        65535,
        65535
      ],
      [
        0,
        65535,
        65535
      ],
      [
        0,
        56,
        65535
      ],
      [
        0,
        65535,
        65535
      ],
      [
        2,
        65535,
        65535
      ],
      [
        0,
        65535,
        65535
      ],
      [
        0,
        65535,
        65535
      ]
    ],
    [
      [
        0,
        65535,
        65535
      ],
      [
        0,
        65535,
        65535
      ],
      [
        0,
        60,
        65535
      ],
      [
        0,
        64,
        65535
      ],
      [
        0,
        65535,
        65535
      ],
      [
        365,
        65535,
        65535
      ],
      [
        0,
        63,
        65535
      ],
      [
        0,
        59,
        65535
      ],
      [
        0,
        60,
        65535
      ],
      [
        0,
        40,
        65535
      ],
      [
        0,
        65535,
        65535
      ],
      [
        0,
        39,
        65535
      ],
      [
        0,
        53,
        65535
      ],
      [
        0,
        61,
        65535
      ],
      [
        0,
        1355,
        65535
      ],
      [
        0,
        1356,
        65535
      ],
      [
        0,
        65535,
        65535
      ],
      [
        0,
        65535,
        65535
      ]
    ],
    [
      [
        0,
        65535,
        65535
      ],
      [
        0,
        57,
        65535
      ],
      [
        0,
        54,
        65535
      ],
      [
        0,
        62,
        65535
      ],
      [
        367,
        65535,
        65535
      ],
      [
        368,
        65535,
        65535
      ],
      [
        369,
        65535,
        65535
      ],
      [
        365,
        63,
        65535
      ],
      [
        0,
        59,
        65535
      ],
      [
        0,
        65535,
        65535
      ],
      [
        0,
        65535,
        65535
      ],
      [
        0,
        65535,
        65535
      ],
      [
        0,
        103,
        65535
      ],
      [
        0,
        104,
        65535
      ],
      [
        0,
        105,
        65535
      ],
      [
        0,
        65535,
        65535
      ],
      [
        0,
        65535,
        65535
      ],
      [
        0,
        65535,
        65535
      ]
    ],
    [
      [
        0,
        65535,
        65535
      ],
      [
        0,
        44,
        65535
      ],
      [
        365,
        65535,
        65535
      ],
      [
        0,
        65535,
        65535
      ],
      [
        365,
        65535,
        65535
      ],
      [
        370,
        65535,
        65535
      ],
      [
        366,
        65535,
        65535
      ],
      [
        365,
        65535,
        65535
      ],
      [
        0,
        56,
        65535
      ],
      [
        0,
        646,
        65535
      ],
      [
        0,
        65535,
        65535
      ],
      [
        0,
        65535,
        65535
      ],
      [
        102,
        65535,
        65535
      ],
      [
        0,
        65535,
        65535
      ],
      [
        106,
        65535,
        65535
      ],
      [
        0,
        107,
        65535
      ],
      [
        0,
        65535,
        65535
      ],
      [
        0,
        65535,
        65535
      ]
    ],
    [
      [
        0,
        65535,
        65535
      ],
      [
        367,
        65535,
        65535
      ],
      [
        368,
        65535,
        65535
      ],
      [
        367,
        65535,
        65535
      ],
      [
        368,
        65535,
        65535
      ],
      [
        369,
        65535,
        65535
      ],
      [
        371,
        65535,
        65535
      ],
      [
        371,
        65535,
        65535
      ],
      [
        0,
        56,
        65535
      ],
      [
        0,
        65535,
        65535
      ],
      [
        0,
        65535,
        65535
      ],
      [
        0,
        65535,
        65535
      ],
      [
        0,
        65535,
        65535
      ],
      [
        0,
        1059,
        65535
      ],
      [
        0,
        65535,
        65535
      ],
      [
        0,
        65535,
        65535
      ],
      [
        0,
        65535,
        65535
      ],
      [
        0,
        65535,
        65535
      ]
    ],
    [
      [
        3,
        65535,
        65535
      ],
      [
        0,
        43,
        65535
      ],
      [
        371,
        65535,
        65535
      ],
      [
        0,
        65535,
        65535
      ],
      [
        371,
        65535,
        65535
      ],
      [
        0,
        65535,
        65535
      ],
      [
        0,
        65535,
        65535
      ],
      [
        0,
        65,
        65535
      ],
      [
        0,
        61,
        65535
      ],
      [
        0,
        65535,
        65535
      ],
      [
        0,
        57,
        65535
      ],
      [
        0,
        46,
        65535
      ],
      [
        0,
        65535,
        65535
      ],
      [
        0,
        45,
        65535
      ],
      [
        0,
        59,
        65535
      ],
      [
        0,
        65535,
        65535
      ],
      [
        0,
        65535,
        65535
      ],
      [
        0,
        65535,
        65535
      ]
    ],
    [
      [
        0,
        65535,
        65535
      ],
      [
        0,
        55,
        65535
      ],
      [
        367,
        65535,
        65535
      ],
      [
        369,
        65535,
        65535
      ],
      [
        0,
        65535,
        65535
      ],
      [
        0,
        65535,
        65535
      ],
      [
        0,
        39,
        65535
      ],
      [
        0,
        61,
        65535
      ],
      [
        0,
        65535,
        65535
      ],
      [
        0,
        57,
        65535
      ],
      [
        0,
        62,
        65535
      ],
      [
        364,
        65535,
        65535
      ],
      [
        369,
        65535,
        65535
      ],
      [
        365,
        65535,
        65535
      ],
      [
        0,
        63,
        65535
      ],
      [
        0,
        59,
        65535
      ],
      [
        0,
        65535,
        65535
      ],
      [
        0,
        65535,
        65535
      ]
    ],
    [
      [
        0,
        65535,
        65535
      ],
      [
        0,
        60,
        65535
      ],
      [
        0,
        53,
        65535
      ],
      [
        0,
        53,
        65535
      ],
      [
        0,
        40,
        65535
      ],
      [
        0,
        65535,
        65535
      ],
      [
        0,
        65535,
        65535
      ],
      [
        0,
        65535,
        65535
      ],
      [
        0,
        65535,
        65535
      ],
      [
        0,
        44,
        65535
      ],
      [
        367,
        65535,
        65535
      ],
      [
        368,
        65535,
        65535
      ],
      [
        365,
        65535,
        65535
      ],
      [
        368,
        65535,
        65535
      ],
      [
        366,
        65535,
        65535
      ],
      [
        0,
        56,
        65535
      ],
      [
        0,
        65535,
        65535
      ],
      [
        0,
        65535,
        65535
      ]
    ],
    [
      [
        0,
        65535,
        65535
      ],
      [
        0,
        65535,
        65535
      ],
      [
        0,
        65535,
        65535
      ],
      [
        0,
        647,
        65535
      ],
      [
        0,
        65535,
        65535
      ],
      [
        0,
        65535,
        65535
      ],
      [
        0,
        65535,
        65535
      ],
      [
        0,
        65535,
        65535
      ],
      [
        0,
        65535,
        65535
      ],
      [
        0,
        65535,
        65535
      ],
      [
        365,
        65535,
        65535
      ],
      [
        370,
        65535,
        65535
      ],
      [
        368,
        65535,
        65535
      ],
      [
        372,
        65535,
        65535
      ],
      [
        371,
        65535,
        65535
      ],
      [
        0,
        56,
        65535
      ],
      [
        0,
        65535,
        65535
      ],
      [
        0,
        65535,
        65535
      ]
    ],
    [
      [
        0,
        65535,
        65535
      ],
      [
        0,
        65535,
        65535
      ],
      [
        0,
        65535,
        65535
      ],
      [
        0,
        65535,
        65535
      ],
      [
        0,
        65535,
        65535
      ],
      [
        0,
        1059,
        65535
      ],
      [
        0,
        65535,
        65535
      ],
      [
        0,
        65535,
        645
      ],
      [
        0,
        65535,
        65535
      ],
      [
        0,
        43,
        65535
      ],
      [
        371,
        65535,
        65535
      ],
      [
        0,
        65535,
        65535
      ],
      [
        371,
        65535,
        65535
      ],
      [
        0,
        39,
        65535
      ],
      [
        0,
        53,
        65535
      ],
      [
        0,
        61,
        65535
      ],
      [
        0,
        65535,
        65535
      ],
      [
        0,
        65535,
        65535
      ]
    ],
    [
      [
        4,
        65535,
        65535
      ],
      [
        0,
        65535,
        65535
      ],
      [
        0,
        65535,
        644
      ],
      [
        0,
        65535,
        65535
      ],
      [
        0,
        65535,
        65535
      ],
      [
        2,
        65535,
        65535
      ],
      [
        0,
        65535,
        65535
      ],
      [
        0,
        643,
        65535
      ],
      [
        0,
        65535,
        65535
      ],
      [
        0,
        60,
        65535
      ],
      [
        0,
        53,
        65535
      ],
      [
        0,
        40,
        65535
      ],
      [
        0,
        65535,
        65535
      ],
      [
        0,
        65535,
        65535
      ],
      [
        0,
        65535,
        65535
      ],
      [
        0,
        65535,
        65535
      ],
      [
        0,
        65535,
        65535
      ],
      [
        0,
        65535,
        65535
      ]
    ],
    [
      [
        0,
        65535,
        65535
      ],
      [
        0,
        65535,
        65535
      ],
      [
        0,
        642,
        65535
      ],
      [
        0,
        65535,
        65535
      ],
      [
        0,
        65535,
        65535
      ],
      [
        0,
        65535,
        65535
      ],
      [
        0,
        65535,
        65535
      ],
      [
        0,
        65535,
        65535
      ],
      [
        0,
        65535,
        65535
      ],
      [
        0,
        65535,
        65535
      ],
      [
        0,
        65535,
        65535
      ],
      [
        0,
        65535,
        65535
      ],
      [
        0,
        65535,
        65535
      ],
      [
        0,
        65535,
        65535
      ],
      [
        0,
        65535,
        65535
      ],
      [
        3,
        65535,
        65535
      ],
      [
        0,
        65535,
        65535
      ],
      [
        0,
        65535,
        65535
      ]
    ],
    [
      [
        0,
        65535,
        65535
      ],
      [
        2,
        65535,
        65535
      ],
      [
        0,
        65535,
        65535
      ],
      [
        0,
        65535,
        65535
      ],
      [
        0,
        65535,
        65535
      ],
      [
        0,
        65535,
        65535
      ],
      [
        0,
        65535,
        65535
      ],
      [
        0,
        65535,
        65535
      ],
      [
        0,
        65535,
        65535
      ],
      [
        0,
        65535,
        65535
      ],
      [
        0,
        65535,
        65535
      ],
      [
        0,
        65535,
        65535
      ],
      [
        4,
        65535,
        65535
      ],
      [
        0,
        65535,
        65535
      ],
      [
        0,
        65535,
        65535
      ],
      [
        0,
        65535,
        65535
      ],
      [
        0,
        65535,
        65535
      ],
      [
        0,
        65535,
        65535
      ]
    ],
    [
      [
        0,
        65535,
        65535
      ],
      [
        0,
        65535,
        65535
      ],
      [
        0,
        65535,
        65535
      ],
      [
        0,
        65535,
        65535
      ],
      [
        0,
        65535,
        65535
      ],
      [
        0,
        65535,
        65535
      ],
      [
        0,
        65535,
        65535
      ],
      [
        0,
        65535,
        65535
      ],
      [
        0,
        65535,
        65535
      ],
      [
        0,
        65535,
        65535
      ],
      [
        0,
        65535,
        65535
      ],
      [
        0,
        65535,
        65535
      ],
      [
        0,
        65535,
        65535
      ],
      [
        0,
        65535,
        65535
      ],
      [
        0,
        65535,
        65535
      ],
      [
        0,
        65535,
        65535
      ],
      [
        0,
        65535,
        65535
      ],
      [
        0,
        65535,
        65535
      ]
    ],
    []
  ]
}