{
  "zoneId": 259,
  "zoneType": 2,
  "width": 18,
  "height": 18,
  "type": 16,
  "world": 2,
  "objects": [
    {
      "type": 1,
      "x": 7,
      "y": 13,
      "unknown": 1,
      "param": 65535
    }
  ],
  "actions": [
    {
      "triggers": [
        [
          "on_first_enter",
          110,
          0,
          0,
          0,
          0,
          0
        ]
      ],
      "commands": [
        [
          "set_rand_var",
          0,
          0,
          25939,
          21108,
          28257,
          0
        ]
      ]
    },
    {
      "triggers": [
        [
          "on_bump_tile",
          9,
          13,
          1279,
          30018,
          28781,
          0
        ],
        [
          "on_temp_var_eq",
          3,
          8,
          0,
          28483,
          28277,
          0
        ]
      ],
      "commands": [
        [
          "show_text",
          9,
          13,
          26707,
          30575,
          25940,
          72
        ]
      ]
    },
    {
      "triggers": [
        [
          "on_bump_tile",
          9,
          13,
          1279,
          30018,
          28781,
          0
        ],
        [
          "on_temp_var_eq",
          1,
          8,
          0,
          28483,
          28277,
          0
        ]
      ],
      "commands": [
        [
          "show_text",
          9,
          13,
          26707,
          30575,
          25940,
          87
        ]
      ]
    },
    {
      "triggers": [
        [
          "on_bump_tile",
          9,
          13,
          1279,
          30018,
          28781,
          0
        ],
        [
          "on_temp_var_eq",
          0,
          8,
          0,
          28483,
          28277,
          0
        ]
      ],
      "commands": [
        [
          "show_text",
          9,
          13,
          26707,
          30575,
          25940,
          105
        ],
        [
          "set_temp_var",
          1,
          0,
          25939,
          17268,
          30063,
          0
        ]
      ]
    },
    {
      "triggers": [
        [
          "on_drag_item",
          9,
          13,
          1,
          1279,
          65535,
          0
        ]
      ],
      "commands": [
        [
          "play_sound",
          0,
          0,
          27728,
          31073,
          28499,
          0
        ],
        [
          "remove_item_from_inv",
          65535,
          0,
          25938,
          28525,
          25974,
          0
        ],
        [
          "show_text",
          9,
          13,
          26707,
          30575,
          25940,
          37
        ],
        [
          "spawn_item",
          65535,
          9,
          13,
          28783,
          29769,
          0
        ],
        [
          "set_temp_var",
          3,
          0,
          25939,
          17268,
          30063,
          0
        ],
        [
          "set_rand_var",
          99,
          0,
          25939,
          21108,
          28257,
          0
        ],
        [
          "open",
          25939,
          21108,
          28257,
          20068,
          28021,
          0
        ]
      ]
    },
    {
      "triggers": [
        [
          "on_drag_item",
          9,
          13,
          1,
          1279,
          174,
          0
        ]
      ],
      "commands": [
        [
          "play_sound",
          0,
          0,
          27728,
          31073,
          28499,
          0
        ],
        [
          "remove_item_from_inv",
          174,
          0,
          25938,
          28525,
          25974,
          0
        ],
        [
          "set_rand_var",
          1,
          0,
          25939,
          21108,
          28257,
          0
        ]
      ]
    },
    {
      "triggers": [
        [
          "on_drag_item",
          9,
          13,
          1,
          1279,
          175,
          0
        ]
      ],
      "commands": [
        [
          "play_sound",
          0,
          0,
          27728,
          31073,
          28499,
          0
        ],
        [
          "remove_item_from_inv",
          175,
          0,
          25938,
          28525,
          25974,
          0
        ],
        [
          "set_rand_var",
          1,
          0,
          25939,
          21108,
          28257,
          0
        ]
      ]
    },
    {
      "triggers": [
        [
          "on_drag_item",
          9,
          13,
          1,
          1279,
          418,
          0
        ]
      ],
      "commands": [
        [
          "play_sound",
          0,
          0,
          27728,
          31073,
          28499,
          0
        ],
        [
          "remove_item_from_inv",
          418,
          0,
          25938,
          28525,
          25974,
          0
        ],
        [
          "set_rand_var",
          1,
          0,
          25939,
          21108,
          28257,
          0
        ]
      ]
    },
    {
      "triggers": [
        [
          "on_drag_item",
          9,
          13,
          1,
          1279,
          425,
          0
        ]
      ],
      "commands": [
        [
          "play_sound",
          0,
          0,
          27728,
          31073,
          28499,
          0
        ],
        [
          "remove_item_from_inv",
          425,
          0,
          25938,
          28525,
          25974,
          0
        ],
        [
          "set_rand_var",
          1,
          0,
          25939,
          21108,
          28257,
          0
        ]
      ]
    },
    {
      "triggers": [
        [
          "on_drag_wrong_item",
          9,
          13,
          1,
          1279,
          442,
          0
        ],
        [
          "on_drag_wrong_item",
          9,
          13,
          1,
          1279,
          174,
          0
        ],
        [
          "on_rand_var_eq",
          0,
          8,
          0,
          24914,
          25710,
          0
        ]
      ],
      "commands": [
        [
          "play_sound",
          6,
          0,
          0,
          0,
          0,
          0
        ],
        [
          "show_text",
          9,
          13,
          26707,
          30575,
          25940,
          37
        ]
      ]
    },
    {
      "triggers": [
        [
          "on_rand_var_eq",
          1,
          8,
          0,
          24914,
          25710,
          0
        ]
      ],
      "commands": [
        [
          "show_text",
          9,
          13,
          26707,
          30575,
          25940,
          24
        ],
        [
          "random",
          10,
          20068,
          28021,
          12576,
          13312,
          0
        ]
      ]
    },
    {
      "triggers": [
        [
          "on_drag_item",
          9,
          13,
          1,
          1279,
          442,
          0
        ]
      ],
      "commands": [
        [
          "play_sound",
          0,
          0,
          27728,
          31073,
          28499,
          0
        ],
        [
          "show_text",
          9,
          13,
          24898,
          27491,
          29287,
          41
        ],
        [
          "remove_item_from_inv",
          442,
          0,
          25938,
          28525,
          25974,
          0
        ],
        [
          "set_rand_var",
          1,
          0,
          25939,
          21108,
          28257,
          0
        ]
      ]
    },
    {
      "triggers": [
        [
          "on_rand_var_eq",
          1,
          8,
          0,
          24914,
          25710,
          0
        ]
      ],
      "commands": [
        [
          "spawn_item",
          514,
          9,
          13,
          28783,
          29769,
          0
        ],
        [
          "set_rand_var",
          0,
          0,
          25939,
          21108,
          28257,
          0
        ]
      ]
    },
    {
      "triggers": [
        [
          "on_rand_var_lt",
          4,
          8,
          0,
          24914,
          25710,
          0
        ],
        [
          "on_rand_var_gt",
          1,
          8,
          0,
          24914,
          25710,
          0
        ]
      ],
      "commands": [
        [
          "spawn_item",
          1196,
          9,
          13,
          28783,
          29769,
          0
        ],
        [
          "set_rand_var",
          0,
          0,
          25939,
          21108,
          28257,
          0
        ]
      ]
    },
    {
      "triggers": [
        [
          "on_rand_var_eq",
          4,
          8,
          0,
          24914,
          25710,
          0
        ]
      ],
      "commands": [
        [
          "spawn_item",
          513,
          9,
          13,
          28783,
          29769,
          0
        ],
        [
          "set_rand_var",
          0,
          0,
          25939,
          21108,
          28257,
          0
        ]
      ]
    },
    {
      "triggers": [
        [
          "on_rand_var_gt",
          4,
          8,
          0,
          24914,
          25710,
          0
        ],
        [
          "on_rand_var_lt",
          7,
          8,
          0,
          24914,
          25710,
          0
        ]
      ],
      "commands": [
        [
          "spawn_item",
          512,
          9,
          13,
          28783,
          29769,
          0
        ],
        [
          "set_rand_var",
          0,
          0,
          25939,
          21108,
          28257,
          0
        ]
      ]
    },
    {
      "triggers": [
        [
          "on_rand_var_eq",
          7,
          8,
          0,
          24914,
          25710,
          0
        ]
      ],
      "commands": [
        [
          "spawn_item",
          507,
          9,
          13,
          28783,
          29769,
          0
        ],
        [
          "set_rand_var",
          0,
          0,
          25939,
          21108,
          28257,
          0
        ]
      ]
    },
    {
      "triggers": [
        [
          "on_rand_var_eq",
          8,
          8,
          0,
          24914,
          25710,
          0
        ]
      ],
      "commands": [
        [
          "spawn_item",
          505,
          9,
          13,
          28783,
          29769,
          0
        ],
        [
          "set_rand_var",
          0,
          0,
          25939,
          21108,
          28257,
          0
        ]
      ]
    },
    {
      "triggers": [
        [
          "on_rand_var_gt",
          8,
          8,
          0,
          24914,
          25710,
          0
        ],
        [
          "on_rand_var_lt",
          11,
          8,
          0,
          24914,
          25710,
          0
        ]
      ],
      "commands": [
        [
          "spawn_item",
          480,
          9,
          13,
          28783,
          29769,
          0
        ],
        [
          "set_rand_var",
          0,
          0,
          25939,
          21108,
          28257,
          0
        ]
      ]
    },
    {
      "triggers": [
        [
          "on_rand_var_eq",
          99,
          8,
          0,
          24914,
          25710,
          0
        ]
      ],
      "commands": [
        [
          "set_rand_var",
          0,
          0,
          25939,
          21108,
          28257,
          0
        ]
      ]
    }
  ],
  "tilemap": [
    [
      [
        648,
        65535,
        65535
      ],
      [
        648,
        65535,
        65535
      ],
      [
        648,
        65535,
        65535
      ],
      [
        648,
        65535,
        65535
      ],
      [
        648,
        65535,
        65535
      ],
      [
        648,
        65535,
        65535
      ],
      [
        648,
        65535,
        65535
      ],
      [
        648,
        65535,
        65535
      ],
      [
        648,
        65535,
        65535
      ],
      [
        648,
        65535,
        65535
      ],
      [
        648,
        65535,
        65535
      ],
      [
        648,
        65535,
        65535
      ],
      [
        648,
        65535,
        65535
      ],
      [
        648,
        65535,
        65535
      ],
      [
        648,
        65535,
        65535
      ],
      [
        648,
        65535,
        65535
      ],
      [
        648,
        65535,
        65535
      ],
      [
        648,
        65535,
        65535
      ]
    ],
    [
      [
        648,
        65535,
        65535
      ],
      [
        648,
        658,
        65535
      ],
      [
        648,
        659,
        65535
      ],
      [
        648,
        65535,
        65535
      ],
      [
        1317,
        65535,
        65535
      ],
      [
        648,
        65535,
        65535
      ],
      [
        648,
        65535,
        65535
      ],
      [
        648,
        65535,
        65535
      ],
      [
        674,
        65535,
        65535
      ],
      [
        648,
        654,
        65535
      ],
      [
        648,
        660,
        65535
      ],
      [
        648,
        661,
        65535
      ],
      [
        648,
        655,
        65535
      ],
      [
        1318,
        65535,
        65535
      ],
      [
        648,
        65535,
        65535
      ],
      [
        648,
        65535,
        65535
      ],
      [
        648,
        65535,
        65535
      ],
      [
        648,
        65535,
        65535
      ]
    ],
    [
      [
        648,
        65535,
        65535
      ],
      [
        648,
        656,
        65535
      ],
      [
        648,
        657,
        65535
      ],
      [
        648,
        65535,
        65535
      ],
      [
        648,
        658,
        65535
      ],
      [
        648,
        670,
        65535
      ],
      [
        648,
        659,
        65535
      ],
      [
        1318,
        65535,
        65535
      ],
      [
        648,
        65535,
        65535
      ],
      [
        1318,
        65535,
        65535
      ],
      [
        648,
        656,
        65535
      ],
      [
        648,
        657,
        65535
      ],
      [
        648,
        65535,
        65535
      ],
      [
        648,
        65535,
        65535
      ],
      [
        648,
        658,
        65535
      ],
      [
        648,
        659,
        65535
      ],
      [
        648,
        65535,
        65535
      ],
      [
        648,
        65535,
        65535
      ]
    ],
    [
      [
        648,
        65535,
        65535
      ],
      [
        648,
        65535,
        65535
      ],
      [
        648,
        65535,
        65535
      ],
      [
        648,
        658,
        65535
      ],
      [
        648,
        662,
        65535
      ],
      [
        648,
        65535,
        65535
      ],
      [
        648,
        663,
        65535
      ],
      [
        673,
        65535,
        65535
      ],
      [
        648,
        670,
        65535
      ],
      [
        648,
        670,
        65535
      ],
      [
        648,
        659,
        65535
      ],
      [
        648,
        65535,
        65535
      ],
      [
        648,
        65535,
        65535
      ],
      [
        648,
        658,
        65535
      ],
      [
        648,
        662,
        65535
      ],
      [
        648,
        663,
        65535
      ],
      [
        648,
        659,
        65535
      ],
      [
        648,
        65535,
        65535
      ]
    ],
    [
      [
        648,
        65535,
        65535
      ],
      [
        648,
        65535,
        65535
      ],
      [
        648,
        658,
        65535
      ],
      [
        648,
        662,
        65535
      ],
      [
        648,
        65535,
        65535
      ],
      [
        648,
        65535,
        65535
      ],
      [
        648,
        65535,
        65535
      ],
      [
        1317,
        65535,
        65535
      ],
      [
        648,
        65535,
        65535
      ],
      [
        648,
        65535,
        65535
      ],
      [
        648,
        663,
        65535
      ],
      [
        648,
        659,
        65535
      ],
      [
        648,
        65535,
        65535
      ],
      [
        648,
        656,
        65535
      ],
      [
        648,
        660,
        65535
      ],
      [
        648,
        65535,
        65535
      ],
      [
        648,
        667,
        65535
      ],
      [
        648,
        65535,
        65535
      ]
    ],
    [
      [
        648,
        65535,
        65535
      ],
      [
        648,
        65535,
        65535
      ],
      [
        648,
        664,
        65535
      ],
      [
        648,
        65535,
        65535
      ],
      [
        648,
        658,
        65535
      ],
      [
        648,
        670,
        65535
      ],
      [
        648,
        670,
        65535
      ],
      [
        648,
        670,
        65535
      ],
      [
        648,
        670,
        65535
      ],
      [
        648,
        659,
        65535
      ],
      [
        648,
        65535,
        65535
      ],
      [
        648,
        663,
        65535
      ],
      [
        648,
        659,
        65535
      ],
      [
        648,
        65535,
        65535
      ],
      [
        648,
        656,
        65535
      ],
      [
        648,
        660,
        65535
      ],
      [
        648,
        667,
        65535
      ],
      [
        649,
        65535,
        65535
      ]
    ],
    [
      [
        648,
        65535,
        65535
      ],
      [
        648,
        65535,
        65535
      ],
      [
        648,
        664,
        65535
      ],
      [
        648,
        65535,
        65535
      ],
      [
        648,
        656,
        65535
      ],
      [
        648,
        660,
        65535
      ],
      [
        648,
        1168,
        65535
      ],
      [
        648,
        65535,
        65535
      ],
      [
        648,
        675,
        65535
      ],
      [
        648,
        667,
        65535
      ],
      [
        648,
        65535,
        65535
      ],
      [
        648,
        65535,
        65535
      ],
      [
        648,
        667,
        65535
      ],
      [
        648,
        65535,
        65535
      ],
      [
        648,
        65535,
        65535
      ],
      [
        648,
        656,
        65535
      ],
      [
        648,
        657,
        65535
      ],
      [
        648,
        65535,
        65535
      ]
    ],
    [
      [
        648,
        65535,
        65535
      ],
      [
        648,
        65535,
        65535
      ],
      [
        648,
        664,
        65535
      ],
      [
        648,
        65535,
        65535
      ],
      [
        648,
        65535,
        65535
      ],
      [
        648,
        664,
        65535
      ],
      [
        648,
        65535,
        65535
      ],
      [
        648,
        65535,
        65535
      ],
      [
        648,
        661,
        65535
      ],
      [
        648,
        657,
        65535
      ],
      [
        648,
        65535,
        65535
      ],
      [
        648,
        65535,
        65535
      ],
      [
        648,
        663,
        65535
      ],
      [
        648,
        659,
        65535
      ],
      [
        649,
        65535,
        65535
      ],
      [
        649,
        65535,
        65535
      ],
      [
        648,
        65535,
        65535
      ],
      [
        648,
        65535,
        65535
      ]
    ],
    [
      [
        649,
        65535,
        65535
      ],
      [
        649,
        65535,
        65535
      ],
      [
        648,
        664,
        65535
      ],
      [
        648,
        65535,
        65535
      ],
      [
        648,
        65535,
        65535
      ],
      [
        648,
        664,
        65535
      ],
      [
        648,
        65535,
        65535
      ],
      [
        648,
        65535,
        65535
      ],
      [
        648,
        669,
        65535
      ],
      [
        648,
        65535,
        65535
      ],
      [
        648,
        658,
        65535
      ],
      [
        648,
        659,
        65535
      ],
      [
        648,
        65535,
        65535
      ],
      [
        648,
        667,
        65535
      ],
      [
        648,
        65535,
        65535
      ],
      [
        648,
        65535,
        65535
      ],
      [
        648,
        65535,
        65535
      ],
      [
        648,
        65535,
        65535
      ]
    ],
    [
      [
        648,
        65535,
        65535
      ],
      [
        1317,
        65535,
        65535
      ],
      [
        648,
        656,
        65535
      ],
      [
        648,
        655,
        65535
      ],
      [
        648,
        65535,
        65535
      ],
      [
        648,
        664,
        65535
      ],
      [
        648,
        65535,
        65535
      ],
      [
        648,
        65535,
        65535
      ],
      [
        1317,
        65535,
        65535
      ],
      [
        648,
        65535,
        65535
      ],
      [
        648,
        656,
        65535
      ],
      [
        648,
        657,
        65535
      ],
      [
        648,
        65535,
        65535
      ],
      [
        648,
        667,
        65535
      ],
      [
        648,
        65535,
        65535
      ],
      [
        648,
        65535,
        65535
      ],
      [
        648,
        65535,
        65535
      ],
      [
        648,
        65535,
        65535
      ]
    ],
    [
      [
        648,
        65535,
        65535
      ],
      [
        648,
        65535,
        65535
      ],
      [
        648,
        65535,
        65535
      ],
      [
        648,
        65535,
        65535
      ],
      [
        648,
        65535,
        65535
      ],
      [
        648,
        664,
        65535
      ],
      [
        648,
        661,
        65535
      ],
      [
        648,
        655,
        65535
      ],
      [
        674,
        65535,
        65535
      ],
      [
        648,
        665,
        65535
      ],
      [
        648,
        65535,
        65535
      ],
      [
        648,
        65535,
        65535
      ],
      [
        648,
        661,
        65535
      ],
      [
        648,
        657,
        65535
      ],
      [
        648,
        65535,
        65535
      ],
      [
        648,
        65535,
        65535
      ],
      [
        648,
        65535,
        65535
      ],
      [
        648,
        65535,
        65535
      ]
    ],
    [
      [
        648,
        65535,
        65535
      ],
      [
        648,
        65535,
        65535
      ],
      [
        648,
        65535,
        65535
      ],
      [
        648,
        65535,
        65535
      ],
      [
        648,
        65535,
        65535
      ],
      [
        648,
        656,
        65535
      ],
      [
        648,
        657,
        65535
      ],
      [
        648,
        65535,
        1219
      ],
      [
        648,
        65535,
        1220
      ],
      [
        648,
        656,
        1221
      ],
      [
        648,
        650,
        1222
      ],
      [
        0,
        650,
        65535
      ],
      [
        648,
        657,
        65535
      ],
      [
        648,
        65535,
        65535
      ],
      [
        1318,
        65535,
        65535
      ],
      [
        648,
        65535,
        65535
      ],
      [
        648,
        65535,
        65535
      ],
      [
        648,
        65535,
        65535
      ]
    ],
    [
      [
        648,
        65535,
        65535
      ],
      [
        648,
        65535,
        65535
      ],
      [
        648,
        65535,
        65535
      ],
      [
        648,
        65535,
        65535
      ],
      [
        648,
        65535,
        65535
      ],
      [
        648,
        65535,
        65535
      ],
      [
        648,
        65535,
        65535
      ],
      [
        648,
        1223,
        65535
      ],
      [
        648,
        1224,
        65535
      ],
      [
        648,
        1225,
        65535
      ],
      [
        648,
        1226,
        65535
      ],
      [
        1000,
        65535,
        65535
      ],
      [
        1000,
        65535,
        65535
      ],
      [
        1000,
        65535,
        65535
      ],
      [
        1000,
        65535,
        65535
      ],
      [
        1000,
        65535,
        65535
      ],
      [
        1000,
        65535,
        65535
      ],
      [
        1000,
        65535,
        65535
      ]
    ],
    [
      [
        648,
        65535,
        65535
      ],
      [
        648,
        65535,
        65535
      ],
      [
        648,
        65535,
        65535
      ],
      [
        648,
        65535,
        65535
      ],
      [
        648,
        65535,
        65535
      ],
      [
        648,
        65535,
        65535
      ],
      [
        648,
        65535,
        65535
      ],
      [
        648,
        1227,
        65535
      ],
      [
        648,
        1228,
        65535
      ],
      [
        1229,
        1279,
        65535
      ],
      [
        648,
        1230,
        65535
      ],
      [
        997,
        65535,
        65535
      ],
      [
        997,
        65535,
        65535
      ],
      [
        1000,
        65535,
        65535
      ],
      [
        1000,
        65535,
        65535
      ],
      [
        1000,
        65535,
        65535
      ],
      [
        1000,
        65535,
        65535
      ],
      [
        1000,
        65535,
        65535
      ]
    ],
    [
      [
        648,
        65535,
        65535
      ],
      [
        648,
        658,
        65535
      ],
      [
        648,
        659,
        65535
      ],
      [
        648,
        65535,
        65535
      ],
      [
        648,
        65535,
        65535
      ],
      [
        648,
        65535,
        65535
      ],
      [
        648,
        65535,
        65535
      ],
      [
        648,
        65535,
        65535
      ],
      [
        648,
        65535,
        65535
      ],
      [
        648,
        65535,
        65535
      ],
      [
        648,
        65535,
        65535
      ],
      [
        648,
        65535,
        65535
      ],
      [
        648,
        65535,
        65535
      ],
      [
        648,
        65535,
        65535
      ],
      [
        648,
        65535,
        65535
      ],
      [
        648,
        658,
        65535
      ],
      [
        648,
        659,
        65535
      ],
      [
        648,
        65535,
        65535
      ]
    ],
    [
      [
        648,
        65535,
        65535
      ],
      [
        648,
        664,
        65535
      ],
      [
        648,
        667,
        65535
      ],
      [
        648,
        65535,
        65535
      ],
      [
        648,
        65535,
        65535
      ],
      [
        648,
        65535,
        65535
      ],
      [
        648,
        65535,
        65535
      ],
      [
        1318,
        65535,
        65535
      ],
      [
        648,
        65535,
        65535
      ],
      [
        648,
        65535,
        65535
      ],
      [
        648,
        65535,
        65535
      ],
      [
        648,
        65535,
        65535
      ],
      [
        648,
        65535,
        65535
      ],
      [
        1000,
        658,
        65535
      ],
      [
        1000,
        671,
        65535
      ],
      [
        1000,
        666,
        65535
      ],
      [
        1000,
        667,
        65535
      ],
      [
        648,
        65535,
        65535
      ]
    ],
    [
      [
        648,
        65535,
        65535
      ],
      [
        648,
        656,
        65535
      ],
      [
        648,
        657,
        65535
      ],
      [
        648,
        65535,
        65535
      ],
      [
        648,
        65535,
        65535
      ],
      [
        648,
        65535,
        65535
      ],
      [
        648,
        65535,
        65535
      ],
      [
        648,
        65535,
        65535
      ],
      [
        648,
        65535,
        65535
      ],
      [
        648,
        65535,
        65535
      ],
      [
        648,
        65535,
        65535
      ],
      [
        648,
        65535,
        65535
      ],
      [
        648,
        65535,
        65535
      ],
      [
        1000,
        656,
        65535
      ],
      [
        1000,
        650,
        65535
      ],
      [
        1000,
        650,
        65535
      ],
      [
        1000,
        657,
        65535
      ],
      [
        648,
        65535,
        65535
      ]
    ],
    [
      [
        648,
        65535,
        65535
      ],
      [
        648,
        65535,
        65535
      ],
      [
        648,
        65535,
        65535
      ],
      [
        648,
        65535,
        65535
      ],
      [
        648,
        65535,
        65535
      ],
      [
        1318,
        65535,
        65535
      ],
      [
        648,
        65535,
        65535
      ],
      [
        648,
        65535,
        65535
      ],
      [
        648,
        65535,
        65535
      ],
      [
        648,
        65535,
        65535
      ],
      [
        648,
        65535,
        65535
      ],
      [
        648,
        65535,
        65535
      ],
      [
        648,
        65535,
        65535
      ],
      [
        648,
        65535,
        65535
      ],
      [
        648,
        65535,
        65535
      ],
      [
        648,
        65535,
        65535
      ],
      [
        648,
        65535,
        65535
      ],
      [
        648,
        65535,
        65535
      ]
    ],
    []
  ]
}