{
  "zoneId": 273,
  "zoneType": 3,
  "width": 9,
  "height": 9,
  "type": 8,
  "world": 3,
  "objects": [
    {
      "type": 10,
      "x": 4,
      "y": 8,
      "unknown": 1,
      "param": 65535
    },
    {
      "type": 2,
      "x": 0,
      "y": 0,
      "unknown": 1,
      "param": 65535
    }
  ],
  "actions": [
    {
      "triggers": [
        [
          "on_bump_tile",
          4,
          2,
          355,
          30018,
          28781,
          0
        ]
      ],
      "commands": [
        [
          "set_map_tile_var",
          0,
          0,
          0,
          0,
          18004,
          0
        ],
        [
          "set_rand_var",
          99,
          0,
          25939,
          21108,
          28257,
          0
        ]
      ]
    },
    {
      "triggers": [
        [
          "on_bump_tile",
          4,
          2,
          355,
          30018,
          28781,
          0
        ],
        [
          "on_has_item",
          511,
          21,
          0,
          25938,
          25697,
          0
        ]
      ],
      "commands": [
        [
          "set_map_tile_var",
          0,
          0,
          0,
          1,
          18004,
          0
        ]
      ]
    },
    {
      "triggers": [
        [
          "on_rand_var_eq",
          99,
          8,
          0,
          24914,
          25710,
          0
        ]
      ],
      "commands": [
        [
          "open",
          11,
          0,
          24919,
          29801,
          28486,
          0
        ],
        [
          "clear_tile",
          4,
          2,
          1,
          28525,
          25974,
          0
        ],
        [
          "set_tile",
          4,
          2,
          2,
          1429,
          25441,
          0
        ],
        [
          "redraw_tile",
          4,
          2,
          25938,
          29284,
          30561,
          0
        ],
        [
          "render_changes",
          0,
          0,
          15024,
          110,
          0,
          0
        ],
        [
          "play_sound",
          31,
          0,
          27728,
          31073,
          28499,
          0
        ],
        [
          "wait_ticks",
          2,
          0,
          24919,
          29801,
          28486,
          0
        ],
        [
          "set_tile",
          4,
          2,
          2,
          1430,
          25441,
          0
        ],
        [
          "redraw_tile",
          4,
          2,
          25938,
          29284,
          30561,
          0
        ],
        [
          "render_changes",
          19,
          0,
          27728,
          31073,
          28499,
          0
        ],
        [
          "wait_ticks",
          2,
          0,
          24919,
          29801,
          28486,
          0
        ],
        [
          "set_tile",
          4,
          2,
          2,
          1431,
          25441,
          0
        ],
        [
          "redraw_tile",
          4,
          2,
          25938,
          29284,
          30561,
          0
        ],
        [
          "render_changes",
          0,
          0,
          35064,
          179,
          0,
          0
        ],
        [
          "wait_ticks",
          2,
          0,
          24919,
          29801,
          28486,
          0
        ],
        [
          "clear_tile",
          4,
          2,
          2,
          28525,
          25974,
          0
        ],
        [
          "set_tile",
          4,
          2,
          1,
          1095,
          25441,
          0
        ],
        [
          "redraw_tile",
          4,
          2,
          25938,
          29284,
          30561,
          0
        ],
        [
          "render_changes",
          0,
          0,
          35712,
          179,
          0,
          0
        ],
        [
          "wait_ticks",
          1,
          0,
          24919,
          29801,
          28486,
          0
        ],
        [
          "set_tile",
          4,
          2,
          1,
          1096,
          25441,
          0
        ],
        [
          "redraw_tile",
          4,
          2,
          25938,
          29284,
          30561,
          0
        ],
        [
          "render_changes",
          0,
          0,
          36068,
          179,
          0,
          0
        ],
        [
          "wait_ticks",
          1,
          0,
          24919,
          29801,
          28486,
          0
        ],
        [
          "set_tile",
          4,
          2,
          1,
          1097,
          25441,
          0
        ],
        [
          "redraw_tile",
          4,
          2,
          25938,
          29284,
          30561,
          0
        ],
        [
          "render_changes",
          0,
          0,
          36464,
          179,
          0,
          0
        ],
        [
          "wait_ticks",
          1,
          0,
          24919,
          29801,
          28486,
          0
        ],
        [
          "set_tile",
          4,
          2,
          1,
          791,
          25441,
          0
        ],
        [
          "redraw_tile",
          4,
          2,
          25938,
          29284,
          30561,
          0
        ],
        [
          "render_changes",
          0,
          0,
          0,
          0,
          0,
          0
        ],
        [
          "wait_ticks",
          1,
          0,
          24919,
          29801,
          28486,
          0
        ],
        [
          "set_tile",
          4,
          2,
          2,
          1429,
          25441,
          0
        ],
        [
          "redraw_tile",
          4,
          2,
          25938,
          29284,
          30561,
          0
        ],
        [
          "render_changes",
          0,
          0,
          48412,
          179,
          0,
          0
        ],
        [
          "wait_ticks",
          1,
          0,
          24919,
          29801,
          28486,
          0
        ],
        [
          "set_tile",
          4,
          2,
          2,
          1430,
          25441,
          0
        ],
        [
          "redraw_tile",
          4,
          2,
          25938,
          29284,
          30561,
          0
        ],
        [
          "render_changes",
          0,
          0,
          48412,
          179,
          0,
          0
        ],
        [
          "wait_ticks",
          1,
          0,
          24919,
          29801,
          28486,
          0
        ],
        [
          "set_tile",
          4,
          2,
          2,
          1431,
          25441,
          0
        ],
        [
          "redraw_tile",
          4,
          2,
          25938,
          29284,
          30561,
          0
        ],
        [
          "render_changes",
          0,
          0,
          48412,
          179,
          0,
          0
        ],
        [
          "wait_ticks",
          1,
          0,
          24919,
          29801,
          28486,
          0
        ],
        [
          "clear_tile",
          4,
          2,
          2,
          28525,
          25974,
          0
        ],
        [
          "redraw_tile",
          4,
          2,
          25938,
          29284,
          30561,
          0
        ],
        [
          "render_changes",
          0,
          0,
          48412,
          179,
          0,
          0
        ],
        [
          "wait_ticks",
          5,
          0,
          24919,
          29801,
          28486,
          0
        ]
      ]
    },
    {
      "triggers": [
        [
          "on_rand_var_eq",
          99,
          8,
          0,
          24914,
          25710,
          0
        ]
      ],
      "commands": [
        [
          "say_text",
          8,
          0,
          26707,
          30575,
          25940,
          8
        ],
        [
          "render_changes",
          0,
          0,
          36720,
          179,
          0,
          0
        ],
        [
          "wait_ticks",
          5,
          0,
          24919,
          29801,
          28486,
          0
        ],
        [
          "flag_once",
          0,
          0,
          36720,
          179,
          0,
          0
        ]
      ]
    },
    {
      "triggers": [
        [
          "on_rand_var_eq",
          99,
          0,
          0,
          0,
          0,
          0
        ],
        [
          "on_check_map_tile_var",
          1,
          0,
          0,
          0,
          25697,
          0
        ]
      ],
      "commands": [
        [
          "show_text",
          4,
          2,
          26707,
          30575,
          25940,
          73
        ],
        [
          "render_changes",
          0,
          0,
          0,
          0,
          0,
          0
        ],
        [
          "wait_ticks",
          2,
          0,
          24919,
          29801,
          28486,
          0
        ],
        [
          "set_rand_var",
          100,
          0,
          25939,
          21108,
          28257,
          0
        ]
      ]
    },
    {
      "triggers": [
        [
          "on_rand_var_eq",
          99,
          15,
          0,
          25928,
          28530,
          0
        ],
        [
          "on_check_map_tile_var",
          0,
          0,
          0,
          0,
          25697,
          0
        ],
        [
          "on_check_map_tile_var",
          1,
          1,
          0,
          0,
          25697,
          0
        ],
        [
          "on_health_gt",
          199,
          11,
          0,
          25928,
          28530,
          0
        ]
      ],
      "commands": [
        [
          "set_map_tile_var",
          0,
          0,
          0,
          1,
          18004,
          0
        ],
        [
          "show_text",
          4,
          2,
          26707,
          30575,
          25940,
          42
        ],
        [
          "render_changes",
          0,
          0,
          0,
          0,
          0,
          0
        ],
        [
          "wait_ticks",
          2,
          0,
          24919,
          29801,
          28486,
          0
        ],
        [
          "spawn_item",
          511,
          4,
          2,
          28783,
          29769,
          0
        ],
        [
          "play_sound",
          0,
          0,
          27728,
          31073,
          28499,
          0
        ],
        [
          "set_rand_var",
          100,
          21108,
          28160,
          20068,
          28021,
          0
        ]
      ]
    },
    {
      "triggers": [
        [
          "on_rand_var_eq",
          99,
          0,
          0,
          0,
          0,
          0
        ],
        [
          "on_check_map_tile_var",
          0,
          0,
          0,
          0,
          25697,
          0
        ],
        [
          "on_check_map_tile_var",
          0,
          1,
          0,
          0,
          25697,
          0
        ],
        [
          "on_health_gt",
          199,
          11,
          0,
          25928,
          28530,
          0
        ]
      ],
      "commands": [
        [
          "set_map_tile_var",
          0,
          0,
          0,
          1,
          18004,
          0
        ],
        [
          "set_map_tile_var",
          1,
          0,
          0,
          1,
          18004,
          0
        ],
        [
          "show_text",
          4,
          2,
          26707,
          30575,
          25940,
          82
        ],
        [
          "render_changes",
          0,
          0,
          0,
          0,
          0,
          0
        ],
        [
          "wait_ticks",
          2,
          0,
          24919,
          29801,
          28486,
          0
        ],
        [
          "spawn_item",
          511,
          4,
          2,
          28783,
          29769,
          0
        ],
        [
          "play_sound",
          0,
          0,
          27728,
          31073,
          28499,
          0
        ],
        [
          "set_rand_var",
          100,
          21108,
          28160,
          20068,
          28021,
          0
        ]
      ]
    },
    {
      "triggers": [
        [
          "on_rand_var_eq",
          99,
          2984,
          0,
          352,
          182,
          0
        ],
        [
          "on_check_map_tile_var",
          0,
          0,
          0,
          0,
          25697,
          0
        ],
        [
          "on_health_lt",
          200,
          11,
          0,
          25928,
          28530,
          0
        ]
      ],
      "commands": [
        [
          "show_text",
          4,
          2,
          26707,
          30575,
          25940,
          90
        ],
        [
          "render_changes",
          0,
          0,
          0,
          0,
          0,
          0
        ],
        [
          "wait_ticks",
          2,
          0,
          24919,
          29801,
          28486,
          0
        ],
        [
          "set_rand_var",
          100,
          0,
          25939,
          21108,
          28257,
          0
        ]
      ]
    },
    {
      "triggers": [
        [
          "on_rand_var_eq",
          100,
          8,
          0,
          24914,
          25710,
          0
        ]
      ],
      "commands": [
        [
          "set_tile",
          4,
          2,
          1,
          1097,
          25441,
          0
        ],
        [
          "redraw_tile",
          4,
          2,
          25938,
          29284,
          30561,
          0
        ],
        [
          "render_changes",
          0,
          0,
          0,
          0,
          0,
          0
        ],
        [
          "play_sound",
          31,
          0,
          27728,
          31073,
          28499,
          0
        ],
        [
          "wait_ticks",
          1,
          0,
          24919,
          29801,
          28486,
          0
        ],
        [
          "set_tile",
          4,
          2,
          1,
          1096,
          25441,
          0
        ],
        [
          "redraw_tile",
          4,
          2,
          25938,
          29284,
          30561,
          0
        ],
        [
          "render_changes",
          0,
          0,
          14292,
          110,
          0,
          0
        ],
        [
          "wait_ticks",
          1,
          0,
          24919,
          29801,
          28486,
          0
        ],
        [
          "set_tile",
          4,
          2,
          1,
          1095,
          25441,
          0
        ],
        [
          "redraw_tile",
          4,
          2,
          25938,
          29284,
          30561,
          0
        ],
        [
          "render_changes",
          0,
          0,
          14292,
          110,
          0,
          0
        ],
        [
          "wait_ticks",
          1,
          0,
          24919,
          29801,
          28486,
          0
        ],
        [
          "set_tile",
          4,
          2,
          1,
          355,
          25441,
          0
        ],
        [
          "redraw_tile",
          4,
          2,
          25938,
          29284,
          30561,
          0
        ],
        [
          "render_changes",
          0,
          0,
          39672,
          179,
          0,
          0
        ],
        [
          "set_rand_var",
          0,
          0,
          25939,
          21108,
          28257,
          0
        ]
      ]
    }
  ],
  "tilemap": [
    [
      [
        0,
        195,
        65535
      ],
      [
        0,
        195,
        65535
      ],
      [
        0,
        195,
        65535
      ],
      [
        0,
        195,
        65535
      ],
      [
        0,
        195,
        65535
      ],
      [
        0,
        195,
        65535
      ],
      [
        0,
        195,
        65535
      ],
      [
        0,
        195,
        65535
      ],
      [
        0,
        195,
        65535
      ]
    ],
    [
      [
        678,
        195,
        65535
      ],
      [
        678,
        195,
        65535
      ],
      [
        678,
        195,
        65535
      ],
      [
        678,
        196,
        65535
      ],
      [
        197,
        65535,
        65535
      ],
      [
        678,
        198,
        65535
      ],
      [
        678,
        195,
        65535
      ],
      [
        678,
        195,
        65535
      ],
      [
        678,
        195,
        65535
      ]
    ],
    [
      [
        678,
        195,
        65535
      ],
      [
        678,
        195,
        65535
      ],
      [
        678,
        196,
        65535
      ],
      [
        203,
        355,
        65535
      ],
      [
        192,
        355,
        65535
      ],
      [
        204,
        355,
        65535
      ],
      [
        678,
        198,
        65535
      ],
      [
        678,
        195,
        65535
      ],
      [
        678,
        195,
        65535
      ]
    ],
    [
      [
        678,
        195,
        65535
      ],
      [
        678,
        195,
        65535
      ],
      [
        678,
        202,
        65535
      ],
      [
        192,
        65535,
        65535
      ],
      [
        192,
        65535,
        65535
      ],
      [
        192,
        65535,
        65535
      ],
      [
        683,
        201,
        65535
      ],
      [
        678,
        195,
        65535
      ],
      [
        678,
        195,
        65535
      ]
    ],
    [
      [
        678,
        195,
        65535
      ],
      [
        678,
        195,
        65535
      ],
      [
        678,
        202,
        65535
      ],
      [
        192,
        65535,
        65535
      ],
      [
        192,
        65535,
        65535
      ],
      [
        192,
        65535,
        65535
      ],
      [
        678,
        201,
        65535
      ],
      [
        678,
        195,
        65535
      ],
      [
        678,
        195,
        65535
      ]
    ],
    [
      [
        678,
        195,
        65535
      ],
      [
        678,
        195,
        65535
      ],
      [
        678,
        195,
        65535
      ],
      [
        678,
        206,
        65535
      ],
      [
        192,
        65535,
        65535
      ],
      [
        678,
        205,
        65535
      ],
      [
        678,
        195,
        65535
      ],
      [
        678,
        195,
        65535
      ],
      [
        678,
        195,
        65535
      ]
    ],
    [
      [
        678,
        195,
        65535
      ],
      [
        678,
        195,
        65535
      ],
      [
        678,
        195,
        65535
      ],
      [
        678,
        195,
        65535
      ],
      [
        192,
        65535,
        225
      ],
      [
        678,
        195,
        65535
      ],
      [
        678,
        195,
        65535
      ],
      [
        678,
        195,
        65535
      ],
      [
        678,
        195,
        65535
      ]
    ],
    [
      [
        678,
        195,
        65535
      ],
      [
        678,
        195,
        65535
      ],
      [
        678,
        195,
        65535
      ],
      [
        678,
        196,
        65535
      ],
      [
        222,
        65535,
        65535
      ],
      [
        678,
        198,
        65535
      ],
      [
        678,
        195,
        65535
      ],
      [
        678,
        195,
        65535
      ],
      [
        678,
        195,
        65535
      ]
    ],
    [
      [
        678,
        195,
        65535
      ],
      [
        678,
        195,
        65535
      ],
      [
        678,
        195,
        65535
      ],
      [
        678,
        202,
        65535
      ],
      [
        194,
        65535,
        65535
      ],
      [
        678,
        201,
        65535
      ],
      [
        678,
        195,
        65535
      ],
      [
        678,
        195,
        65535
      ],
      [
        678,
        195,
        65535
      ]
    ],
    []
  ]
}