{
  "zoneId": 279,
  "zoneType": 1,
  "width": 9,
  "height": 9,
  "type": 8,
  "world": 1,
  "objects": [
    {
      "type": 10,
      "x": 4,
      "y": 8,
      "unknown": 1,
      "param": 65535
    },
    {
      "type": 6,
      "x": 1,
      "y": 2,
      "unknown": 1,
      "param": 1233
    },
    {
      "type": 6,
      "x": 7,
      "y": 1,
      "unknown": 1,
      "param": 1233
    },
    {
      "type": 6,
      "x": 6,
      "y": 7,
      "unknown": 1,
      "param": 1233
    },
    {
      "type": 6,
      "x": 1,
      "y": 7,
      "unknown": 1,
      "param": 1233
    }
  ],
  "actions": [
    {
      "triggers": [
        [
          "on_first_enter",
          156,
          15156,
          110,
          42752,
          156,
          0
        ]
      ],
      "commands": [
        [
          "hide_object",
          1,
          0,
          33,
          40960,
          15156,
          0
        ],
        [
          "hide_object",
          2,
          0,
          28488,
          21364,
          28528,
          0
        ],
        [
          "hide_object",
          3,
          0,
          0,
          0,
          0,
          0
        ],
        [
          "hide_object",
          4,
          0,
          28488,
          21364,
          28528,
          0
        ],
        [
          "set_temp_var",
          0,
          0,
          25939,
          17268,
          30063,
          0
        ]
      ]
    },
    {
      "triggers": [
        [
          "on_enter",
          157,
          0,
          0,
          37856,
          157,
          0
        ],
        [
          "on_global_var_eq",
          1,
          10,
          0,
          27719,
          25199,
          0
        ]
      ],
      "commands": [
        [
          "set_temp_var",
          1,
          0,
          25939,
          17268,
          30063,
          0
        ]
      ]
    },
    {
      "triggers": [
        [
          "on_enter",
          110,
          0,
          0,
          53632,
          157,
          0
        ],
        [
          "on_has_item",
          1233,
          7,
          0,
          24904,
          18803,
          0
        ]
      ],
      "commands": [
        [
          "set_temp_var",
          2,
          0,
          25939,
          17268,
          30063,
          0
        ]
      ]
    },
    {
      "triggers": [
        [
          "on_enter",
          110,
          0,
          0,
          53632,
          157,
          0
        ],
        [
          "on_has_item",
          418,
          7,
          0,
          24904,
          18803,
          0
        ]
      ],
      "commands": [
        [
          "set_temp_var",
          2,
          0,
          25939,
          17268,
          30063,
          0
        ]
      ]
    },
    {
      "triggers": [
        [
          "on_enter",
          110,
          0,
          0,
          53632,
          157,
          0
        ],
        [
          "on_has_item",
          418,
          7,
          0,
          24904,
          18803,
          0
        ],
        [
          "on_check_map_tile",
          418,
          7,
          3,
          1,
          25964,
          0
        ]
      ],
      "commands": [
        [
          "clear_tile",
          7,
          3,
          1,
          28525,
          25974,
          0
        ],
        [
          "set_temp_var",
          2,
          0,
          25939,
          17268,
          30063,
          0
        ]
      ]
    },
    {
      "triggers": [
        [
          "on_first_enter",
          110,
          0,
          0,
          0,
          0,
          0
        ],
        [
          "on_global_var_eq",
          2,
          0,
          0,
          0,
          0,
          0
        ]
      ],
      "commands": [
        [
          "random",
          4,
          0,
          26708,
          28530,
          21111,
          0
        ]
      ]
    },
    {
      "triggers": [
        [
          "on_first_enter",
          110,
          0,
          0,
          3484,
          126,
          0
        ],
        [
          "on_global_var_eq",
          2,
          10,
          0,
          27719,
          25199,
          0
        ],
        [
          "on_rand_var_eq",
          1,
          8,
          0,
          24914,
          25710,
          0
        ]
      ],
      "commands": [
        [
          "show_object",
          1,
          0,
          28488,
          21364,
          28528,
          0
        ]
      ]
    },
    {
      "triggers": [
        [
          "on_first_enter",
          110,
          0,
          0,
          3484,
          126,
          0
        ],
        [
          "on_global_var_eq",
          2,
          10,
          0,
          27719,
          25199,
          0
        ],
        [
          "on_rand_var_eq",
          2,
          8,
          0,
          24914,
          25710,
          0
        ]
      ],
      "commands": [
        [
          "show_object",
          2,
          0,
          28488,
          21364,
          28528,
          0
        ]
      ]
    },
    {
      "triggers": [
        [
          "on_first_enter",
          110,
          0,
          0,
          3484,
          126,
          0
        ],
        [
          "on_global_var_eq",
          2,
          10,
          0,
          27719,
          25199,
          0
        ],
        [
          "on_rand_var_eq",
          3,
          8,
          0,
          24914,
          25710,
          0
        ]
      ],
      "commands": [
        [
          "show_object",
          3,
          0,
          28488,
          21364,
          28528,
          0
        ]
      ]
    },
    {
      "triggers": [
        [
          "on_first_enter",
          110,
          0,
          0,
          3484,
          126,
          0
        ],
        [
          "on_global_var_eq",
          2,
          10,
          0,
          27719,
          25199,
          0
        ],
        [
          "on_rand_var_eq",
          4,
          8,
          0,
          24914,
          25710,
          0
        ]
      ],
      "commands": [
        [
          "show_object",
          4,
          0,
          28488,
          21364,
          28528,
          0
        ]
      ]
    },
    {
      "triggers": [
        [
          "on_check_map_tile",
          65535,
          7,
          3,
          1,
          25964,
          0
        ],
        [
          "on_global_var_eq",
          1,
          10,
          0,
          27719,
          25199,
          0
        ],
        [
          "on_temp_var_eq",
          1,
          8,
          0,
          28483,
          28277,
          0
        ]
      ],
      "commands": [
        [
          "set_tile",
          7,
          3,
          1,
          418,
          25441,
          0
        ],
        [
          "redraw_tile",
          7,
          3,
          25938,
          29284,
          30561,
          0
        ],
        [
          "set_temp_var",
          2,
          0,
          25939,
          17268,
          30063,
          0
        ]
      ]
    },
    {
      "triggers": [
        [
          "on_bump_tile",
          7,
          3,
          418,
          30018,
          28781,
          0
        ]
      ],
      "commands": [
        [
          "clear_tile",
          7,
          3,
          1,
          28525,
          25974,
          0
        ],
        [
          "redraw_tile",
          7,
          3,
          25938,
          29284,
          30561,
          0
        ],
        [
          "spawn_item",
          418,
          7,
          3,
          28783,
          29769,
          0
        ],
        [
          "set_temp_var",
          2,
          0,
          25939,
          17268,
          30063,
          0
        ]
      ]
    }
  ],
  "tilemap": [
    [
      [
        306,
        235,
        65535
      ],
      [
        306,
        236,
        65535
      ],
      [
        306,
        236,
        65535
      ],
      [
        306,
        236,
        65535
      ],
      [
        306,
        236,
        65535
      ],
      [
        306,
        236,
        65535
      ],
      [
        306,
        236,
        65535
      ],
      [
        306,
        236,
        65535
      ],
      [
        306,
        238,
        65535
      ]
    ],
    [
      [
        306,
        239,
        65535
      ],
      [
        306,
        622,
        65535
      ],
      [
        306,
        622,
        65535
      ],
      [
        306,
        65535,
        65535
      ],
      [
        306,
        65535,
        65535
      ],
      [
        306,
        65535,
        65535
      ],
      [
        306,
        266,
        65535
      ],
      [
        306,
        266,
        65535
      ],
      [
        306,
        240,
        65535
      ]
    ],
    [
      [
        306,
        239,
        65535
      ],
      [
        306,
        622,
        65535
      ],
      [
        306,
        622,
        65535
      ],
      [
        306,
        65535,
        65535
      ],
      [
        306,
        65535,
        65535
      ],
      [
        306,
        65535,
        65535
      ],
      [
        306,
        65535,
        65535
      ],
      [
        306,
        65535,
        65535
      ],
      [
        306,
        240,
        65535
      ]
    ],
    [
      [
        306,
        239,
        65535
      ],
      [
        306,
        65535,
        65535
      ],
      [
        306,
        65535,
        65535
      ],
      [
        306,
        65535,
        65535
      ],
      [
        306,
        65535,
        65535
      ],
      [
        306,
        265,
        65535
      ],
      [
        306,
        65535,
        65535
      ],
      [
        306,
        344,
        65535
      ],
      [
        306,
        240,
        65535
      ]
    ],
    [
      [
        306,
        235,
        65535
      ],
      [
        306,
        236,
        65535
      ],
      [
        306,
        236,
        65535
      ],
      [
        306,
        236,
        65535
      ],
      [
        307,
        65535,
        230
      ],
      [
        306,
        236,
        65535
      ],
      [
        306,
        236,
        65535
      ],
      [
        306,
        236,
        65535
      ],
      [
        306,
        238,
        65535
      ]
    ],
    [
      [
        306,
        239,
        65535
      ],
      [
        306,
        65535,
        65535
      ],
      [
        306,
        65535,
        65535
      ],
      [
        306,
        65535,
        65535
      ],
      [
        306,
        65535,
        65535
      ],
      [
        306,
        65535,
        65535
      ],
      [
        306,
        65535,
        65535
      ],
      [
        306,
        65535,
        65535
      ],
      [
        306,
        240,
        65535
      ]
    ],
    [
      [
        306,
        239,
        65535
      ],
      [
        306,
        266,
        65535
      ],
      [
        306,
        266,
        65535
      ],
      [
        306,
        65535,
        65535
      ],
      [
        306,
        65535,
        65535
      ],
      [
        306,
        65535,
        65535
      ],
      [
        306,
        622,
        65535
      ],
      [
        306,
        622,
        65535
      ],
      [
        306,
        240,
        65535
      ]
    ],
    [
      [
        306,
        239,
        65535
      ],
      [
        306,
        266,
        65535
      ],
      [
        306,
        266,
        65535
      ],
      [
        306,
        65535,
        65535
      ],
      [
        306,
        65535,
        65535
      ],
      [
        306,
        65535,
        65535
      ],
      [
        306,
        622,
        65535
      ],
      [
        306,
        622,
        65535
      ],
      [
        306,
        240,
        65535
      ]
    ],
    [
      [
        306,
        241,
        65535
      ],
      [
        306,
        236,
        65535
      ],
      [
        306,
        236,
        65535
      ],
      [
        306,
        236,
        65535
      ],
      [
        308,
        65535,
        234
      ],
      [
        306,
        236,
        65535
      ],
      [
        306,
        236,
        65535
      ],
      [
        306,
        236,
        65535
      ],
      [
        306,
        242,
        65535
      ]
    ],
    []
  ]
}