{
  "zoneId": 289,
  "zoneType": 2,
  "width": 18,
  "height": 18,
  "type": 17,
  "world": 2,
  "objects": [
    {
      "type": 0,
      "x": 8,
      "y": 11,
      "unknown": 1,
      "param": 65535
    }
  ],
  "actions": [
    {
      "triggers": [
        [
          "on_first_enter",
          167,
          37652,
          167,
          37676,
          167,
          0
        ]
      ],
      "commands": [
        [
          "hide_entity",
          0,
          0,
          39224,
          167,
          0,
          0
        ],
        [
          "hide_entity",
          1,
          0,
          0,
          0,
          0,
          0
        ],
        [
          "hide_entity",
          2,
          0,
          28229,
          28005,
          20345,
          0
        ],
        [
          "hide_entity",
          3,
          0,
          0,
          0,
          0,
          0
        ],
        [
          "random",
          4,
          0,
          0,
          0,
          0,
          0
        ]
      ]
    },
    {
      "triggers": [
        [
          "on_first_enter",
          0,
          23,
          0,
          37480,
          167,
          0
        ],
        [
          "on_rand_var_eq",
          1,
          0,
          0,
          0,
          0,
          0
        ]
      ],
      "commands": [
        [
          "show_entity",
          0,
          0,
          0,
          0,
          0,
          0
        ]
      ]
    },
    {
      "triggers": [
        [
          "on_first_enter",
          0,
          23,
          0,
          37480,
          167,
          0
        ],
        [
          "on_rand_var_eq",
          2,
          0,
          0,
          0,
          0,
          0
        ]
      ],
      "commands": [
        [
          "show_entity",
          1,
          0,
          0,
          0,
          0,
          0
        ]
      ]
    },
    {
      "triggers": [
        [
          "on_first_enter",
          0,
          23,
          0,
          37480,
          167,
          0
        ],
        [
          "on_rand_var_eq",
          3,
          0,
          0,
          0,
          0,
          0
        ]
      ],
      "commands": [
        [
          "show_entity",
          2,
          0,
          0,
          0,
          0,
          0
        ]
      ]
    },
    {
      "triggers": [
        [
          "on_first_enter",
          0,
          23,
          0,
          37480,
          167,
          0
        ],
        [
          "on_rand_var_eq",
          4,
          0,
          0,
          0,
          0,
          0
        ]
      ],
      "commands": [
        [
          "show_entity",
          3,
          0,
          0,
          0,
          0,
          0
        ]
      ]
    }
  ],
  "tilemap": [
    [
      [
        648,
        65535,
        65535
      ],
      [
        648,
        65535,
        65535
      ],
      [
        648,
        65535,
        65535
      ],
      [
        648,
        65535,
        65535
      ],
      [
        648,
        65535,
        65535
      ],
      [
        648,
        65535,
        65535
      ],
      [
        648,
        65535,
        65535
      ],
      [
        648,
        65535,
        65535
      ],
      [
        648,
        65535,
        65535
      ],
      [
        648,
        65535,
        65535
      ],
      [
        648,
        65535,
        65535
      ],
      [
        648,
        65535,
        65535
      ],
      [
        648,
        65535,
        65535
      ],
      [
        648,
        65535,
        65535
      ],
      [
        648,
        65535,
        65535
      ],
      [
        648,
        65535,
        65535
      ],
      [
        648,
        65535,
        65535
      ],
      [
        648,
        65535,
        65535
      ]
    ],
    [
      [
        997,
        65535,
        65535
      ],
      [
        648,
        65535,
        65535
      ],
      [
        648,
        739,
        65535
      ],
      [
        1000,
        751,
        65535
      ],
      [
        648,
        65535,
        65535
      ],
      [
        648,
        65535,
        995
      ],
      [
        648,
        65535,
        65535
      ],
      [
        1000,
        65535,
        65535
      ],
      [
        648,
        65535,
        65535
      ],
      [
        648,
        739,
        65535
      ],
      [
        753,
        65535,
        65535
      ],
      [
        648,
        740,
        65535
      ],
      [
        648,
        65535,
        65535
      ],
      [
        648,
        65535,
        65535
      ],
      [
        648,
        65535,
        65535
      ],
      [
        648,
        65535,
        65535
      ],
      [
        648,
        65535,
        65535
      ],
      [
        648,
        65535,
        65535
      ]
    ],
    [
      [
        648,
        65535,
        65535
      ],
      [
        648,
        739,
        65535
      ],
      [
        648,
        743,
        65535
      ],
      [
        648,
        65535,
        65535
      ],
      [
        648,
        65535,
        65535
      ],
      [
        648,
        994,
        65535
      ],
      [
        648,
        65535,
        65535
      ],
      [
        648,
        65535,
        65535
      ],
      [
        753,
        752,
        65535
      ],
      [
        648,
        743,
        65535
      ],
      [
        648,
        65535,
        65535
      ],
      [
        648,
        724,
        65535
      ],
      [
        648,
        996,
        65535
      ],
      [
        648,
        65535,
        65535
      ],
      [
        648,
        65535,
        65535
      ],
      [
        648,
        65535,
        65535
      ],
      [
        648,
        65535,
        65535
      ],
      [
        648,
        65535,
        65535
      ]
    ],
    [
      [
        648,
        65535,
        65535
      ],
      [
        648,
        737,
        65535
      ],
      [
        648,
        730,
        65535
      ],
      [
        648,
        1599,
        65535
      ],
      [
        648,
        802,
        65535
      ],
      [
        648,
        1598,
        65535
      ],
      [
        648,
        729,
        65535
      ],
      [
        648,
        741,
        65535
      ],
      [
        648,
        65535,
        65535
      ],
      [
        648,
        748,
        65535
      ],
      [
        997,
        65535,
        65535
      ],
      [
        648,
        749,
        65535
      ],
      [
        648,
        65535,
        65535
      ],
      [
        648,
        65535,
        65535
      ],
      [
        997,
        65535,
        65535
      ],
      [
        648,
        65535,
        65535
      ],
      [
        648,
        65535,
        65535
      ],
      [
        648,
        65535,
        65535
      ]
    ],
    [
      [
        648,
        65535,
        65535
      ],
      [
        648,
        65535,
        65535
      ],
      [
        648,
        65535,
        65535
      ],
      [
        1318,
        65535,
        65535
      ],
      [
        1317,
        65535,
        65535
      ],
      [
        674,
        65535,
        65535
      ],
      [
        648,
        65535,
        65535
      ],
      [
        648,
        737,
        65535
      ],
      [
        734,
        65535,
        65535
      ],
      [
        648,
        738,
        65535
      ],
      [
        998,
        65535,
        65535
      ],
      [
        648,
        65535,
        65535
      ],
      [
        1000,
        65535,
        65535
      ],
      [
        648,
        65535,
        65535
      ],
      [
        648,
        65535,
        995
      ],
      [
        648,
        996,
        65535
      ],
      [
        648,
        65535,
        65535
      ],
      [
        648,
        65535,
        65535
      ]
    ],
    [
      [
        648,
        65535,
        65535
      ],
      [
        648,
        739,
        65535
      ],
      [
        753,
        65535,
        65535
      ],
      [
        648,
        751,
        65535
      ],
      [
        1000,
        65535,
        65535
      ],
      [
        648,
        65535,
        65535
      ],
      [
        648,
        65535,
        65535
      ],
      [
        648,
        65535,
        65535
      ],
      [
        648,
        65535,
        65535
      ],
      [
        648,
        65535,
        65535
      ],
      [
        648,
        739,
        65535
      ],
      [
        648,
        751,
        65535
      ],
      [
        648,
        752,
        65535
      ],
      [
        648,
        740,
        65535
      ],
      [
        648,
        994,
        65535
      ],
      [
        648,
        65535,
        65535
      ],
      [
        648,
        65535,
        65535
      ],
      [
        648,
        65535,
        65535
      ]
    ],
    [
      [
        648,
        65535,
        65535
      ],
      [
        648,
        745,
        65535
      ],
      [
        648,
        65535,
        65535
      ],
      [
        648,
        742,
        65535
      ],
      [
        648,
        731,
        65535
      ],
      [
        648,
        741,
        65535
      ],
      [
        648,
        65535,
        65535
      ],
      [
        648,
        748,
        65535
      ],
      [
        648,
        65535,
        65535
      ],
      [
        648,
        739,
        65535
      ],
      [
        648,
        743,
        65535
      ],
      [
        648,
        65535,
        65535
      ],
      [
        648,
        65535,
        65535
      ],
      [
        648,
        744,
        65535
      ],
      [
        648,
        750,
        65535
      ],
      [
        648,
        740,
        65535
      ],
      [
        648,
        65535,
        65535
      ],
      [
        648,
        65535,
        65535
      ]
    ],
    [
      [
        648,
        65535,
        65535
      ],
      [
        648,
        737,
        65535
      ],
      [
        734,
        65535,
        65535
      ],
      [
        648,
        738,
        65535
      ],
      [
        648,
        739,
        65535
      ],
      [
        1000,
        743,
        65535
      ],
      [
        648,
        742,
        65535
      ],
      [
        648,
        738,
        65535
      ],
      [
        648,
        65535,
        65535
      ],
      [
        648,
        737,
        65535
      ],
      [
        648,
        731,
        65535
      ],
      [
        648,
        731,
        65535
      ],
      [
        648,
        741,
        65535
      ],
      [
        648,
        65535,
        65535
      ],
      [
        648,
        65535,
        65535
      ],
      [
        648,
        724,
        65535
      ],
      [
        648,
        65535,
        65535
      ],
      [
        1000,
        65535,
        65535
      ]
    ],
    [
      [
        648,
        65535,
        65535
      ],
      [
        648,
        65535,
        65535
      ],
      [
        648,
        65535,
        65535
      ],
      [
        648,
        65535,
        65535
      ],
      [
        648,
        745,
        65535
      ],
      [
        648,
        742,
        65535
      ],
      [
        648,
        738,
        65535
      ],
      [
        648,
        65535,
        65535
      ],
      [
        997,
        65535,
        65535
      ],
      [
        648,
        65535,
        65535
      ],
      [
        648,
        65535,
        65535
      ],
      [
        998,
        739,
        65535
      ],
      [
        648,
        743,
        65535
      ],
      [
        648,
        65535,
        65535
      ],
      [
        648,
        735,
        65535
      ],
      [
        648,
        738,
        65535
      ],
      [
        648,
        65535,
        65535
      ],
      [
        648,
        65535,
        65535
      ]
    ],
    [
      [
        648,
        65535,
        65535
      ],
      [
        1000,
        65535,
        65535
      ],
      [
        648,
        752,
        65535
      ],
      [
        648,
        750,
        65535
      ],
      [
        648,
        743,
        65535
      ],
      [
        648,
        749,
        65535
      ],
      [
        648,
        65535,
        65535
      ],
      [
        648,
        739,
        65535
      ],
      [
        648,
        750,
        65535
      ],
      [
        648,
        751,
        65535
      ],
      [
        648,
        752,
        65535
      ],
      [
        648,
        743,
        65535
      ],
      [
        648,
        65535,
        65535
      ],
      [
        648,
        748,
        65535
      ],
      [
        1000,
        65535,
        65535
      ],
      [
        648,
        65535,
        65535
      ],
      [
        648,
        65535,
        65535
      ],
      [
        648,
        65535,
        65535
      ]
    ],
    [
      [
        648,
        65535,
        65535
      ],
      [
        648,
        746,
        65535
      ],
      [
        648,
        65535,
        65535
      ],
      [
        648,
        65535,
        65535
      ],
      [
        648,
        65535,
        65535
      ],
      [
        648,
        65535,
        65535
      ],
      [
        648,
        65535,
        65535
      ],
      [
        648,
        747,
        65535
      ],
      [
        1000,
        65535,
        65535
      ],
      [
        648,
        742,
        65535
      ],
      [
        648,
        736,
        65535
      ],
      [
        648,
        735,
        65535
      ],
      [
        648,
        741,
        65535
      ],
      [
        648,
        744,
        65535
      ],
      [
        753,
        65535,
        65535
      ],
      [
        648,
        750,
        65535
      ],
      [
        648,
        740,
        65535
      ],
      [
        648,
        65535,
        65535
      ]
    ],
    [
      [
        648,
        65535,
        65535
      ],
      [
        648,
        745,
        65535
      ],
      [
        648,
        65535,
        65535
      ],
      [
        648,
        65535,
        65535
      ],
      [
        648,
        65535,
        65535
      ],
      [
        648,
        746,
        65535
      ],
      [
        648,
        65535,
        65535
      ],
      [
        648,
        65535,
        65535
      ],
      [
        648,
        742,
        65535
      ],
      [
        648,
        738,
        65535
      ],
      [
        648,
        65535,
        65535
      ],
      [
        1000,
        65535,
        65535
      ],
      [
        648,
        737,
        65535
      ],
      [
        648,
        741,
        65535
      ],
      [
        648,
        65535,
        65535
      ],
      [
        648,
        65535,
        65535
      ],
      [
        648,
        724,
        65535
      ],
      [
        648,
        65535,
        65535
      ]
    ],
    [
      [
        648,
        65535,
        65535
      ],
      [
        648,
        745,
        65535
      ],
      [
        648,
        65535,
        65535
      ],
      [
        648,
        748,
        65535
      ],
      [
        997,
        65535,
        65535
      ],
      [
        648,
        745,
        65535
      ],
      [
        648,
        742,
        65535
      ],
      [
        734,
        65535,
        65535
      ],
      [
        648,
        738,
        65535
      ],
      [
        648,
        65535,
        65535
      ],
      [
        648,
        739,
        65535
      ],
      [
        648,
        740,
        65535
      ],
      [
        648,
        65535,
        65535
      ],
      [
        648,
        737,
        65535
      ],
      [
        648,
        731,
        65535
      ],
      [
        734,
        65535,
        65535
      ],
      [
        648,
        738,
        65535
      ],
      [
        648,
        65535,
        65535
      ]
    ],
    [
      [
        648,
        65535,
        65535
      ],
      [
        648,
        737,
        65535
      ],
      [
        648,
        731,
        65535
      ],
      [
        648,
        738,
        65535
      ],
      [
        648,
        65535,
        65535
      ],
      [
        648,
        737,
        65535
      ],
      [
        648,
        738,
        65535
      ],
      [
        998,
        65535,
        65535
      ],
      [
        648,
        65535,
        65535
      ],
      [
        648,
        739,
        65535
      ],
      [
        648,
        743,
        65535
      ],
      [
        648,
        744,
        65535
      ],
      [
        648,
        740,
        65535
      ],
      [
        648,
        65535,
        65535
      ],
      [
        648,
        65535,
        65535
      ],
      [
        997,
        65535,
        65535
      ],
      [
        648,
        65535,
        65535
      ],
      [
        648,
        65535,
        65535
      ]
    ],
    [
      [
        648,
        65535,
        65535
      ],
      [
        648,
        65535,
        65535
      ],
      [
        648,
        65535,
        65535
      ],
      [
        648,
        65535,
        65535
      ],
      [
        648,
        65535,
        65535
      ],
      [
        648,
        65535,
        65535
      ],
      [
        648,
        65535,
        65535
      ],
      [
        997,
        65535,
        65535
      ],
      [
        648,
        739,
        65535
      ],
      [
        648,
        743,
        65535
      ],
      [
        648,
        65535,
        65535
      ],
      [
        648,
        742,
        65535
      ],
      [
        648,
        738,
        65535
      ],
      [
        648,
        65535,
        65535
      ],
      [
        648,
        65535,
        65535
      ],
      [
        648,
        65535,
        65535
      ],
      [
        648,
        65535,
        65535
      ],
      [
        648,
        65535,
        65535
      ]
    ],
    [
      [
        648,
        65535,
        65535
      ],
      [
        648,
        65535,
        65535
      ],
      [
        648,
        739,
        65535
      ],
      [
        648,
        750,
        65535
      ],
      [
        648,
        751,
        65535
      ],
      [
        1000,
        65535,
        65535
      ],
      [
        648,
        65535,
        65535
      ],
      [
        648,
        752,
        65535
      ],
      [
        648,
        743,
        65535
      ],
      [
        648,
        65535,
        65535
      ],
      [
        648,
        65535,
        65535
      ],
      [
        648,
        749,
        65535
      ],
      [
        648,
        65535,
        65535
      ],
      [
        648,
        65535,
        65535
      ],
      [
        648,
        65535,
        65535
      ],
      [
        1000,
        65535,
        65535
      ],
      [
        648,
        65535,
        65535
      ],
      [
        648,
        65535,
        65535
      ]
    ],
    [
      [
        648,
        65535,
        65535
      ],
      [
        998,
        65535,
        65535
      ],
      [
        648,
        737,
        65535
      ],
      [
        648,
        731,
        65535
      ],
      [
        648,
        731,
        65535
      ],
      [
        648,
        736,
        65535
      ],
      [
        648,
        65535,
        65535
      ],
      [
        648,
        65535,
        65535
      ],
      [
        648,
        735,
        65535
      ],
      [
        648,
        731,
        65535
      ],
      [
        648,
        736,
        65535
      ],
      [
        997,
        65535,
        65535
      ],
      [
        648,
        65535,
        65535
      ],
      [
        648,
        65535,
        65535
      ],
      [
        648,
        65535,
        65535
      ],
      [
        648,
        65535,
        65535
      ],
      [
        648,
        65535,
        65535
      ],
      [
        648,
        65535,
        65535
      ]
    ],
    [
      [
        648,
        65535,
        65535
      ],
      [
        648,
        65535,
        65535
      ],
      [
        648,
        65535,
        65535
      ],
      [
        648,
        65535,
        65535
      ],
      [
        648,
        65535,
        65535
      ],
      [
        648,
        65535,
        65535
      ],
      [
        648,
        65535,
        65535
      ],
      [
        1000,
        65535,
        65535
      ],
      [
        648,
        65535,
        65535
      ],
      [
        648,
        65535,
        65535
      ],
      [
        648,
        65535,
        65535
      ],
      [
        648,
        65535,
        65535
      ],
      [
        648,
        65535,
        65535
      ],
      [
        648,
        65535,
        65535
      ],
      [
        648,
        65535,
        65535
      ],
      [
        648,
        65535,
        65535
      ],
      [
        648,
        65535,
        65535
      ],
      [
        648,
        65535,
        65535
      ]
    ],
    []
  ]
}