{
  "zoneId": 296,
  "zoneType": 2,
  "width": 18,
  "height": 18,
  "type": 10,
  "world": 2,
  "objects": [
    {
      "type": 9,
      "x": 9,
      "y": 7,
      "unknown": 1,
      "param": 297
    },
    {
      "type": 6,
      "x": 8,
      "y": 7,
      "unknown": 1,
      "param": 1233
    },
    {
      "type": 6,
      "x": 8,
      "y": 7,
      "unknown": 1,
      "param": 1239
    },
    {
      "type": 9,
      "x": 8,
      "y": 9,
      "unknown": 1,
      "param": 313
    },
    {
      "type": 6,
      "x": 8,
      "y": 7,
      "unknown": 1,
      "param": 1239
    },
    {
      "type": 0,
      "x": 8,
      "y": 8,
      "unknown": 1,
      "param": 65535
    },
    {
      "type": 0,
      "x": 9,
      "y": 8,
      "unknown": 1,
      "param": 65535
    },
    {
      "type": 9,
      "x": 5,
      "y": 5,
      "unknown": 1,
      "param": 315
    }
  ],
  "actions": [
    {
      "triggers": [
        [
          "on_first_enter",
          110,
          0,
          0,
          14248,
          110,
          0
        ]
      ],
      "commands": [
        [
          "hide_all_entities",
          3636,
          126,
          29,
          40960,
          28,
          0
        ],
        [
          "show_entity",
          10,
          0,
          28229,
          28005,
          20345,
          0
        ],
        [
          "show_entity",
          11,
          40960,
          11484,
          167,
          19592,
          0
        ],
        [
          "set_global_var",
          0,
          0,
          25939,
          18292,
          28524,
          0
        ]
      ]
    },
    {
      "triggers": [
        [
          "on_first_enter",
          110,
          41152,
          167,
          41336,
          167,
          0
        ],
        [
          "on_check_end_item",
          437,
          13,
          0,
          25938,
          30065,
          0
        ]
      ],
      "commands": [
        [
          "set_map_tile_var",
          9,
          9,
          0,
          1,
          18004,
          0
        ]
      ]
    },
    {
      "triggers": [
        [
          "on_first_enter",
          110,
          6640,
          167,
          0,
          0,
          0
        ],
        [
          "on_check_end_item",
          474,
          13,
          0,
          25938,
          30065,
          0
        ],
        [
          "on_check_end_item",
          433,
          13,
          0,
          25938,
          30065,
          0
        ]
      ],
      "commands": [
        [
          "set_map_tile_var",
          7,
          9,
          0,
          1,
          18004,
          0
        ]
      ]
    },
    {
      "triggers": [
        [
          "on_first_enter",
          110,
          6640,
          167,
          0,
          0,
          0
        ],
        [
          "on_check_end_item",
          474,
          13,
          0,
          25938,
          30065,
          0
        ],
        [
          "on_check_end_item",
          437,
          13,
          0,
          25938,
          30065,
          0
        ]
      ],
      "commands": [
        [
          "set_map_tile_var",
          7,
          9,
          0,
          2,
          18004,
          0
        ]
      ]
    },
    {
      "triggers": [
        [
          "on_first_enter",
          110,
          6640,
          167,
          0,
          0,
          0
        ],
        [
          "on_check_end_item",
          477,
          13,
          0,
          25938,
          30065,
          0
        ],
        [
          "on_check_end_item",
          433,
          13,
          0,
          25938,
          30065,
          0
        ]
      ],
      "commands": [
        [
          "set_map_tile_var",
          7,
          9,
          0,
          3,
          18004,
          0
        ]
      ]
    },
    {
      "triggers": [
        [
          "on_first_enter",
          110,
          6640,
          167,
          0,
          0,
          0
        ],
        [
          "on_check_end_item",
          477,
          13,
          0,
          25938,
          30065,
          0
        ],
        [
          "on_check_end_item",
          437,
          13,
          0,
          25938,
          30065,
          0
        ]
      ],
      "commands": [
        [
          "set_map_tile_var",
          7,
          9,
          0,
          4,
          18004,
          0
        ]
      ]
    },
    {
      "triggers": [
        [
          "on_first_enter",
          110,
          0,
          0,
          0,
          0,
          0
        ]
      ],
      "commands": [
        [
          "random",
          2,
          0,
          3,
          0,
          1624,
          0
        ]
      ]
    },
    {
      "triggers": [
        [
          "on_first_enter",
          110,
          12688,
          110,
          17,
          40960,
          0
        ],
        [
          "on_rand_var_eq",
          1,
          8,
          0,
          24914,
          25710,
          0
        ]
      ],
      "commands": [
        [
          "show_entity",
          0,
          0,
          28229,
          28005,
          20345,
          0
        ],
        [
          "show_entity",
          3,
          0,
          28229,
          28005,
          20345,
          0
        ],
        [
          "show_entity",
          5,
          0,
          28229,
          28005,
          20345,
          0
        ],
        [
          "show_entity",
          6,
          0,
          28229,
          28005,
          20345,
          0
        ]
      ]
    },
    {
      "triggers": [
        [
          "on_first_enter",
          110,
          12688,
          110,
          17,
          40960,
          0
        ],
        [
          "on_rand_var_eq",
          2,
          8,
          0,
          24914,
          25710,
          0
        ]
      ],
      "commands": [
        [
          "show_entity",
          2,
          0,
          28229,
          28005,
          20345,
          0
        ],
        [
          "show_entity",
          1,
          0,
          28229,
          28005,
          20345,
          0
        ],
        [
          "show_entity",
          4,
          19488,
          30309,
          27749,
          8250,
          0
        ],
        [
          "show_entity",
          7,
          0,
          22618,
          12346,
          8243,
          0
        ]
      ]
    },
    {
      "triggers": [
        [
          "on_first_enter",
          110,
          20048,
          110,
          12024,
          167,
          0
        ]
      ],
      "commands": [
        [
          "set_rand_var",
          0,
          0,
          25939,
          21108,
          28257,
          0
        ]
      ]
    },
    {
      "triggers": [
        [
          "on_first_enter",
          110,
          0,
          0,
          0,
          0,
          0
        ],
        [
          "on_check_map_tile",
          1,
          7,
          9,
          0,
          25964,
          0
        ]
      ],
      "commands": [
        [
          "random",
          2,
          0,
          26708,
          28530,
          21111,
          0
        ]
      ]
    },
    {
      "triggers": [
        [
          "on_first_enter",
          110,
          0,
          0,
          0,
          0,
          0
        ],
        [
          "on_check_map_tile",
          3,
          7,
          9,
          0,
          25964,
          0
        ]
      ],
      "commands": [
        [
          "random",
          2,
          0,
          26708,
          28530,
          21111,
          0
        ]
      ]
    },
    {
      "triggers": [
        [
          "on_first_enter",
          110,
          11,
          0,
          11589,
          29252,
          0
        ],
        [
          "on_rand_var_eq",
          1,
          8,
          0,
          24914,
          25710,
          0
        ]
      ],
      "commands": [
        [
          "show_entity",
          8,
          0,
          21325,
          21280,
          28257,
          0
        ]
      ]
    },
    {
      "triggers": [
        [
          "on_first_enter",
          110,
          11,
          0,
          11589,
          29252,
          0
        ],
        [
          "on_rand_var_eq",
          2,
          8,
          0,
          24914,
          25710,
          0
        ]
      ],
      "commands": [
        [
          "show_entity",
          9,
          0,
          21325,
          21280,
          28257,
          0
        ]
      ]
    },
    {
      "triggers": [
        [
          "on_enter_vehicle",
          110,
          0,
          0,
          0,
          0,
          0
        ],
        [
          "on_player_at_pos",
          3,
          3,
          0,
          25928,
          28530,
          0
        ]
      ],
      "commands": [
        [
          "set_tile",
          3,
          3,
          1,
          355,
          25441,
          0
        ],
        [
          "lock_camera",
          0,
          0,
          2734,
          0,
          64160,
          0
        ]
      ]
    },
    {
      "triggers": [
        [
          "on_enter_vehicle",
          110,
          0,
          0,
          0,
          0,
          0
        ],
        [
          "on_player_at_pos",
          14,
          3,
          0,
          25928,
          28530,
          0
        ]
      ],
      "commands": [
        [
          "set_tile",
          14,
          3,
          1,
          355,
          25441,
          0
        ],
        [
          "lock_camera",
          0,
          0,
          2734,
          0,
          64160,
          0
        ]
      ]
    },
    {
      "triggers": [
        [
          "on_enter_vehicle",
          110,
          0,
          0,
          0,
          0,
          0
        ],
        [
          "on_player_at_pos",
          14,
          15,
          0,
          25928,
          28530,
          0
        ]
      ],
      "commands": [
        [
          "set_tile",
          14,
          15,
          1,
          355,
          25441,
          0
        ],
        [
          "lock_camera",
          0,
          0,
          2734,
          0,
          64160,
          0
        ]
      ]
    },
    {
      "triggers": [
        [
          "on_enter_vehicle",
          110,
          0,
          0,
          0,
          0,
          0
        ],
        [
          "on_player_at_pos",
          3,
          15,
          0,
          25928,
          28530,
          0
        ]
      ],
      "commands": [
        [
          "set_tile",
          3,
          15,
          1,
          355,
          25441,
          0
        ],
        [
          "lock_camera",
          0,
          0,
          2734,
          0,
          64160,
          0
        ]
      ]
    },
    {
      "triggers": [
        [
          "on_enter_vehicle",
          110,
          0,
          0,
          0,
          0,
          0
        ],
        [
          "on_player_at_pos",
          6,
          13,
          0,
          25928,
          28530,
          0
        ],
        [
          "on_check_map_tile",
          1338,
          6,
          13,
          1,
          25964,
          0
        ]
      ],
      "commands": [
        [
          "play_sound",
          1,
          0,
          27728,
          31073,
          28499,
          0
        ],
        [
          "set_tile",
          6,
          13,
          1,
          355,
          25441,
          0
        ],
        [
          "set_tile",
          5,
          13,
          1,
          1338,
          25441,
          0
        ],
        [
          "redraw_tiles",
          5,
          13,
          6,
          13,
          30561,
          0
        ],
        [
          "lock_camera",
          0,
          0,
          2734,
          0,
          64160,
          0
        ]
      ]
    },
    {
      "triggers": [
        [
          "on_enter_vehicle",
          110,
          0,
          0,
          0,
          0,
          0
        ],
        [
          "on_player_at_pos",
          6,
          13,
          0,
          25928,
          28530,
          0
        ],
        [
          "on_check_map_tile",
          1338,
          5,
          13,
          1,
          25964,
          0
        ]
      ],
      "commands": [
        [
          "transition_in",
          12,
          0,
          28229,
          25972,
          18034,
          0
        ],
        [
          "set_tile",
          6,
          13,
          1,
          355,
          61760,
          0
        ],
        [
          "lock_camera",
          0,
          0,
          63056,
          181,
          0,
          0
        ]
      ]
    },
    {
      "triggers": [
        [
          "on_enter",
          110,
          12,
          0,
          25939,
          30068,
          0
        ],
        [
          "on_has_item",
          484,
          0,
          0,
          0,
          0,
          0
        ]
      ],
      "commands": [
        [
          "set_tile",
          5,
          12,
          1,
          1601,
          25441,
          0
        ],
        [
          "redraw_tile",
          5,
          12,
          25938,
          29284,
          30561,
          0
        ]
      ]
    },
    {
      "triggers": [
        [
          "on_first_enter",
          110,
          856,
          0,
          696,
          0,
          0
        ]
      ],
      "commands": [
        [
          "random",
          4,
          0,
          26708,
          28530,
          21111,
          0
        ]
      ]
    },
    {
      "triggers": [
        [
          "on_bump_tile",
          3,
          3,
          1120,
          30018,
          28781,
          0
        ]
      ],
      "commands": [
        [
          "play_sound",
          6,
          0,
          27728,
          31073,
          28499,
          0
        ],
        [
          "say_text",
          8,
          0,
          26707,
          30575,
          25940,
          12
        ]
      ]
    },
    {
      "triggers": [
        [
          "on_bump_tile",
          14,
          3,
          1120,
          30018,
          28781,
          0
        ]
      ],
      "commands": [
        [
          "play_sound",
          6,
          0,
          27728,
          31073,
          28499,
          0
        ],
        [
          "say_text",
          8,
          0,
          26707,
          30575,
          25940,
          12
        ]
      ]
    },
    {
      "triggers": [
        [
          "on_bump_tile",
          14,
          15,
          1120,
          30018,
          28781,
          0
        ]
      ],
      "commands": [
        [
          "play_sound",
          6,
          0,
          27728,
          31073,
          28499,
          0
        ],
        [
          "say_text",
          8,
          0,
          26707,
          30575,
          25940,
          12
        ]
      ]
    },
    {
      "triggers": [
        [
          "on_bump_tile",
          3,
          15,
          1120,
          30018,
          28781,
          0
        ]
      ],
      "commands": [
        [
          "play_sound",
          6,
          0,
          27728,
          31073,
          28499,
          0
        ],
        [
          "say_text",
          8,
          0,
          26707,
          30575,
          25940,
          12
        ]
      ]
    },
    {
      "triggers": [
        [
          "on_drag_item",
          3,
          3,
          1,
          1120,
          474,
          0
        ],
        [
          "on_rand_var_eq",
          1,
          8,
          0,
          24914,
          25710,
          0
        ],
        [
          "on_check_end_item",
          474,
          18564,
          110,
          12,
          110,
          0
        ]
      ],
      "commands": [
        [
          "set_tile",
          3,
          2,
          1,
          1116,
          25441,
          0
        ],
        [
          "set_tile",
          3,
          3,
          1,
          355,
          25441,
          0
        ],
        [
          "redraw_tiles",
          3,
          2,
          3,
          3,
          30561,
          0
        ],
        [
          "render_changes",
          0,
          0,
          2140,
          163,
          0,
          0
        ],
        [
          "play_sound",
          15,
          0,
          27728,
          31073,
          28499,
          0
        ]
      ]
    },
    {
      "triggers": [
        [
          "on_drag_item",
          3,
          3,
          1,
          1120,
          477,
          0
        ],
        [
          "on_rand_var_eq",
          1,
          8,
          0,
          24914,
          25710,
          0
        ],
        [
          "on_check_end_item",
          477,
          13,
          0,
          25938,
          30065,
          0
        ]
      ],
      "commands": [
        [
          "set_tile",
          3,
          2,
          1,
          1116,
          25441,
          0
        ],
        [
          "set_tile",
          3,
          3,
          1,
          355,
          25441,
          0
        ],
        [
          "redraw_tiles",
          3,
          2,
          3,
          3,
          30561,
          0
        ],
        [
          "render_changes",
          0,
          0,
          2140,
          163,
          0,
          0
        ],
        [
          "play_sound",
          15,
          0,
          27728,
          31073,
          28499,
          0
        ]
      ]
    },
    {
      "triggers": [
        [
          "on_drag_item",
          14,
          3,
          1,
          1120,
          474,
          0
        ],
        [
          "on_rand_var_eq",
          2,
          8,
          0,
          24914,
          25710,
          0
        ],
        [
          "on_check_end_item",
          474,
          13,
          0,
          25938,
          30065,
          0
        ]
      ],
      "commands": [
        [
          "set_tile",
          14,
          2,
          1,
          1116,
          25441,
          0
        ],
        [
          "set_tile",
          14,
          3,
          1,
          355,
          25441,
          0
        ],
        [
          "redraw_tiles",
          14,
          2,
          14,
          3,
          30561,
          0
        ],
        [
          "render_changes",
          0,
          0,
          2140,
          163,
          0,
          0
        ],
        [
          "play_sound",
          15,
          0,
          27728,
          31073,
          28499,
          0
        ]
      ]
    },
    {
      "triggers": [
        [
          "on_drag_item",
          14,
          3,
          1,
          1120,
          477,
          0
        ],
        [
          "on_rand_var_eq",
          2,
          8,
          0,
          24914,
          25710,
          0
        ],
        [
          "on_check_end_item",
          477,
          13,
          0,
          25938,
          30065,
          0
        ]
      ],
      "commands": [
        [
          "set_tile",
          14,
          2,
          1,
          1116,
          25441,
          0
        ],
        [
          "set_tile",
          14,
          3,
          1,
          355,
          25441,
          0
        ],
        [
          "redraw_tiles",
          14,
          2,
          14,
          3,
          30561,
          0
        ],
        [
          "render_changes",
          0,
          0,
          2140,
          163,
          0,
          0
        ],
        [
          "play_sound",
          15,
          0,
          27728,
          31073,
          28499,
          0
        ]
      ]
    },
    {
      "triggers": [
        [
          "on_drag_item",
          14,
          15,
          1,
          1120,
          474,
          0
        ],
        [
          "on_rand_var_eq",
          3,
          8,
          0,
          24914,
          25710,
          0
        ],
        [
          "on_check_end_item",
          474,
          13,
          0,
          25938,
          30065,
          0
        ]
      ],
      "commands": [
        [
          "set_tile",
          14,
          14,
          1,
          1116,
          25441,
          0
        ],
        [
          "set_tile",
          14,
          15,
          1,
          355,
          25441,
          0
        ],
        [
          "redraw_tiles",
          14,
          14,
          14,
          15,
          30561,
          0
        ],
        [
          "render_changes",
          0,
          0,
          2140,
          163,
          0,
          0
        ],
        [
          "play_sound",
          15,
          0,
          27728,
          31073,
          28499,
          0
        ]
      ]
    },
    {
      "triggers": [
        [
          "on_drag_item",
          14,
          15,
          1,
          1120,
          477,
          0
        ],
        [
          "on_rand_var_eq",
          3,
          8,
          0,
          24914,
          25710,
          0
        ],
        [
          "on_check_end_item",
          477,
          13,
          0,
          25938,
          30065,
          0
        ]
      ],
      "commands": [
        [
          "set_tile",
          14,
          14,
          1,
          1116,
          25441,
          0
        ],
        [
          "set_tile",
          14,
          15,
          1,
          355,
          25441,
          0
        ],
        [
          "redraw_tiles",
          14,
          14,
          14,
          15,
          30561,
          0
        ],
        [
          "render_changes",
          0,
          0,
          2140,
          163,
          0,
          0
        ],
        [
          "play_sound",
          15,
          0,
          27728,
          31073,
          28499,
          0
        ]
      ]
    },
    {
      "triggers": [
        [
          "on_drag_item",
          3,
          15,
          1,
          1120,
          474,
          0
        ],
        [
          "on_rand_var_eq",
          4,
          8,
          0,
          24914,
          25710,
          0
        ],
        [
          "on_check_end_item",
          474,
          10,
          0,
          28751,
          28261,
          0
        ]
      ],
      "commands": [
        [
          "set_tile",
          3,
          14,
          1,
          1116,
          25441,
          0
        ],
        [
          "set_tile",
          3,
          15,
          1,
          355,
          25441,
          0
        ],
        [
          "redraw_tiles",
          3,
          14,
          3,
          15,
          30561,
          0
        ],
        [
          "render_changes",
          0,
          0,
          2140,
          163,
          0,
          0
        ],
        [
          "play_sound",
          15,
          0,
          27728,
          31073,
          28499,
          0
        ]
      ]
    },
    {
      "triggers": [
        [
          "on_drag_item",
          3,
          15,
          1,
          1120,
          477,
          0
        ],
        [
          "on_rand_var_eq",
          4,
          8,
          0,
          24914,
          25710,
          0
        ],
        [
          "on_check_end_item",
          477,
          0,
          0,
          24428,
          154,
          0
        ]
      ],
      "commands": [
        [
          "set_tile",
          3,
          14,
          1,
          1116,
          25441,
          0
        ],
        [
          "set_tile",
          3,
          15,
          1,
          355,
          0,
          0
        ],
        [
          "redraw_tiles",
          3,
          14,
          3,
          15,
          30561,
          0
        ],
        [
          "render_changes",
          0,
          0,
          2140,
          163,
          0,
          0
        ],
        [
          "play_sound",
          15,
          0,
          27728,
          31073,
          28499,
          0
        ]
      ]
    },
    {
      "triggers": [
        [
          "on_bump_tile",
          3,
          3,
          355,
          30018,
          28781,
          0
        ],
        [
          "on_rand_var_eq",
          1,
          8,
          0,
          24914,
          25710,
          0
        ],
        [
          "on_check_map_tile",
          0,
          9,
          9,
          0,
          25964,
          0
        ]
      ],
      "commands": [
        [
          "clear_tile",
          3,
          3,
          1,
          28525,
          25974,
          0
        ],
        [
          "set_player_pos",
          3,
          3,
          25939,
          18548,
          29285,
          0
        ],
        [
          "render_changes",
          0,
          0,
          9816,
          167,
          0,
          0
        ],
        [
          "wait_ticks",
          2,
          0,
          24919,
          29801,
          28486,
          0
        ],
        [
          "release_camera",
          0,
          0,
          0,
          0,
          0,
          0
        ],
        [
          "warp_to_map",
          297,
          1,
          0,
          0,
          26723,
          0
        ]
      ]
    },
    {
      "triggers": [
        [
          "on_bump_tile",
          3,
          3,
          355,
          30018,
          28781,
          0
        ],
        [
          "on_rand_var_eq",
          1,
          8,
          0,
          24914,
          25710,
          0
        ],
        [
          "on_check_map_tile",
          1,
          9,
          9,
          0,
          25964,
          0
        ]
      ],
      "commands": [
        [
          "clear_tile",
          3,
          3,
          1,
          28525,
          25974,
          0
        ],
        [
          "set_player_pos",
          3,
          3,
          25939,
          18548,
          29285,
          0
        ],
        [
          "render_changes",
          0,
          0,
          9816,
          167,
          0,
          0
        ],
        [
          "wait_ticks",
          2,
          0,
          24919,
          29801,
          28486,
          0
        ],
        [
          "release_camera",
          0,
          0,
          0,
          0,
          0,
          0
        ],
        [
          "warp_to_map",
          297,
          0,
          0,
          0,
          26723,
          0
        ]
      ]
    },
    {
      "triggers": [
        [
          "on_bump_tile",
          14,
          3,
          355,
          30018,
          28781,
          0
        ],
        [
          "on_rand_var_eq",
          2,
          8,
          0,
          24914,
          25710,
          0
        ],
        [
          "on_check_map_tile",
          0,
          9,
          9,
          0,
          25964,
          0
        ]
      ],
      "commands": [
        [
          "set_player_pos",
          14,
          3,
          25939,
          18548,
          29285,
          0
        ],
        [
          "render_changes",
          0,
          0,
          9816,
          167,
          0,
          0
        ],
        [
          "wait_ticks",
          2,
          0,
          24919,
          29801,
          28486,
          0
        ],
        [
          "release_camera",
          9,
          0,
          28229,
          25972,
          21618,
          0
        ],
        [
          "warp_to_map",
          297,
          16,
          0,
          0,
          26723,
          0
        ]
      ]
    },
    {
      "triggers": [
        [
          "on_bump_tile",
          14,
          3,
          355,
          30018,
          28781,
          0
        ],
        [
          "on_rand_var_eq",
          2,
          8,
          0,
          24914,
          25710,
          0
        ],
        [
          "on_check_map_tile",
          1,
          9,
          9,
          0,
          25964,
          0
        ]
      ],
      "commands": [
        [
          "clear_tile",
          14,
          3,
          1,
          28525,
          25974,
          0
        ],
        [
          "set_player_pos",
          14,
          3,
          25939,
          18548,
          29285,
          0
        ],
        [
          "render_changes",
          0,
          0,
          9816,
          167,
          0,
          0
        ],
        [
          "wait_ticks",
          2,
          0,
          24919,
          29801,
          28486,
          0
        ],
        [
          "release_camera",
          0,
          0,
          0,
          0,
          0,
          0
        ],
        [
          "warp_to_map",
          297,
          17,
          0,
          0,
          26723,
          0
        ]
      ]
    },
    {
      "triggers": [
        [
          "on_bump_tile",
          14,
          15,
          355,
          30018,
          28781,
          0
        ],
        [
          "on_rand_var_eq",
          3,
          8,
          0,
          24914,
          25710,
          0
        ],
        [
          "on_check_map_tile",
          0,
          9,
          9,
          0,
          25964,
          0
        ]
      ],
      "commands": [
        [
          "clear_tile",
          14,
          15,
          1,
          28525,
          25974,
          0
        ],
        [
          "set_player_pos",
          14,
          15,
          25939,
          18548,
          29285,
          0
        ],
        [
          "render_changes",
          0,
          0,
          9816,
          167,
          0,
          0
        ],
        [
          "wait_ticks",
          2,
          0,
          24919,
          29801,
          28486,
          0
        ],
        [
          "release_camera",
          0,
          0,
          0,
          0,
          0,
          0
        ],
        [
          "warp_to_map",
          297,
          16,
          17,
          0,
          26723,
          0
        ]
      ]
    },
    {
      "triggers": [
        [
          "on_bump_tile",
          14,
          15,
          355,
          30018,
          28781,
          0
        ],
        [
          "on_rand_var_eq",
          3,
          8,
          0,
          24914,
          25710,
          0
        ],
        [
          "on_check_map_tile",
          1,
          9,
          9,
          0,
          25964,
          0
        ]
      ],
      "commands": [
        [
          "clear_tile",
          14,
          15,
          1,
          28525,
          25974,
          0
        ],
        [
          "set_player_pos",
          14,
          15,
          25939,
          18548,
          29285,
          0
        ],
        [
          "render_changes",
          0,
          0,
          9816,
          167,
          0,
          0
        ],
        [
          "wait_ticks",
          2,
          0,
          24919,
          29801,
          28486,
          0
        ],
        [
          "release_camera",
          9,
          0,
          28229,
          25972,
          21618,
          0
        ],
        [
          "warp_to_map",
          297,
          17,
          17,
          0,
          26723,
          0
        ]
      ]
    },
    {
      "triggers": [
        [
          "on_bump_tile",
          3,
          15,
          355,
          30018,
          28781,
          0
        ],
        [
          "on_rand_var_eq",
          4,
          8,
          0,
          24914,
          25710,
          0
        ],
        [
          "on_check_map_tile",
          0,
          9,
          9,
          0,
          25964,
          0
        ]
      ],
      "commands": [
        [
          "clear_tile",
          3,
          15,
          1,
          28525,
          25974,
          0
        ],
        [
          "set_player_pos",
          3,
          15,
          25939,
          18548,
          29285,
          0
        ],
        [
          "render_changes",
          0,
          0,
          9816,
          167,
          0,
          0
        ],
        [
          "wait_ticks",
          2,
          0,
          24919,
          29801,
          28486,
          0
        ],
        [
          "release_camera",
          0,
          0,
          0,
          0,
          0,
          0
        ],
        [
          "warp_to_map",
          297,
          1,
          17,
          0,
          26723,
          0
        ]
      ]
    },
    {
      "triggers": [
        [
          "on_bump_tile",
          3,
          15,
          355,
          30018,
          28781,
          0
        ],
        [
          "on_rand_var_eq",
          4,
          8,
          0,
          24914,
          25710,
          0
        ],
        [
          "on_check_map_tile",
          1,
          9,
          9,
          0,
          25964,
          0
        ]
      ],
      "commands": [
        [
          "clear_tile",
          3,
          15,
          1,
          28525,
          25974,
          0
        ],
        [
          "set_player_pos",
          3,
          15,
          25939,
          18548,
          29285,
          0
        ],
        [
          "render_changes",
          0,
          0,
          9816,
          167,
          0,
          0
        ],
        [
          "wait_ticks",
          2,
          0,
          24919,
          29801,
          28486,
          0
        ],
        [
          "release_camera",
          0,
          0,
          0,
          0,
          0,
          0
        ],
        [
          "warp_to_map",
          297,
          0,
          17,
          0,
          26723,
          0
        ]
      ]
    },
    {
      "triggers": [
        [
          "on_bump_tile",
          6,
          13,
          355,
          30018,
          28781,
          0
        ]
      ],
      "commands": [
        [
          "clear_tile",
          6,
          13,
          1,
          28525,
          25974,
          0
        ],
        [
          "set_player_pos",
          6,
          13,
          25939,
          18548,
          29285,
          0
        ],
        [
          "render_changes",
          0,
          0,
          9816,
          167,
          0,
          0
        ],
        [
          "wait_ticks",
          2,
          0,
          24919,
          29801,
          28486,
          0
        ],
        [
          "release_camera",
          0,
          0,
          0,
          0,
          0,
          0
        ],
        [
          "warp_to_map",
          297,
          8,
          8,
          0,
          26723,
          0
        ]
      ]
    },
    {
      "triggers": [
        [
          "on_bump_tile",
          5,
          12,
          1601,
          30018,
          28781,
          0
        ],
        [
          "on_global_var_eq",
          1,
          7464,
          322,
          7428,
          322,
          0
        ]
      ],
      "commands": [
        [
          "show_text",
          5,
          12,
          26707,
          30575,
          25940,
          127
        ]
      ]
    },
    {
      "triggers": [
        [
          "on_bump_tile",
          5,
          12,
          1601,
          30018,
          28781,
          0
        ],
        [
          "on_global_var_eq",
          2,
          10,
          0,
          27719,
          25199,
          0
        ]
      ],
      "commands": [
        [
          "show_text",
          5,
          12,
          26707,
          30575,
          25940,
          99
        ]
      ]
    },
    {
      "triggers": [
        [
          "on_bump_tile",
          8,
          9,
          1048,
          30018,
          28781,
          0
        ]
      ],
      "commands": [
        [
          "play_sound",
          6,
          0,
          0,
          0,
          20500,
          0
        ],
        [
          "say_text",
          8,
          0,
          26707,
          30575,
          25940,
          45
        ]
      ]
    },
    {
      "triggers": [
        [
          "on_drag_item",
          8,
          9,
          1,
          1048,
          474,
          0
        ]
      ],
      "commands": [
        [
          "clear_tile",
          8,
          9,
          1,
          28525,
          25974,
          0
        ],
        [
          "redraw_tile",
          8,
          9,
          25938,
          29284,
          30561,
          0
        ],
        [
          "render_changes",
          0,
          0,
          11712,
          167,
          0,
          0
        ],
        [
          "play_sound",
          16,
          0,
          27728,
          31073,
          28499,
          0
        ]
      ]
    },
    {
      "triggers": [
        [
          "on_drag_item",
          8,
          9,
          1,
          1048,
          477,
          0
        ]
      ],
      "commands": [
        [
          "clear_tile",
          8,
          9,
          1,
          28525,
          25974,
          0
        ],
        [
          "redraw_tile",
          8,
          9,
          25938,
          29284,
          30561,
          0
        ],
        [
          "render_changes",
          0,
          0,
          11712,
          167,
          0,
          0
        ],
        [
          "play_sound",
          16,
          0,
          27728,
          31073,
          28499,
          0
        ]
      ]
    },
    {
      "triggers": [
        [
          "on_bump_tile",
          8,
          11,
          1259,
          30018,
          28781,
          0
        ],
        [
          "on_check_map_tile",
          1,
          7,
          9,
          0,
          25964,
          0
        ]
      ],
      "commands": [
        [
          "play_sound",
          6,
          321,
          3124,
          0,
          62448,
          0
        ],
        [
          "say_text",
          8,
          0,
          26707,
          30575,
          25940,
          26
        ]
      ]
    },
    {
      "triggers": [
        [
          "on_bump_tile",
          8,
          11,
          1259,
          30018,
          28781,
          0
        ],
        [
          "on_check_map_tile",
          2,
          7,
          9,
          0,
          25964,
          0
        ]
      ],
      "commands": [
        [
          "play_sound",
          6,
          0,
          0,
          0,
          0,
          0
        ],
        [
          "say_text",
          8,
          0,
          26707,
          30575,
          25940,
          70
        ]
      ]
    },
    {
      "triggers": [
        [
          "on_bump_tile",
          8,
          11,
          1259,
          30018,
          28781,
          0
        ],
        [
          "on_check_map_tile",
          3,
          7,
          9,
          0,
          25964,
          0
        ]
      ],
      "commands": [
        [
          "play_sound",
          6,
          0,
          0,
          0,
          0,
          0
        ],
        [
          "say_text",
          8,
          0,
          26707,
          30575,
          25940,
          26
        ]
      ]
    },
    {
      "triggers": [
        [
          "on_bump_tile",
          8,
          11,
          1259,
          30018,
          28781,
          0
        ],
        [
          "on_check_map_tile",
          4,
          7,
          9,
          0,
          25964,
          0
        ]
      ],
      "commands": [
        [
          "play_sound",
          6,
          0,
          0,
          0,
          0,
          0
        ],
        [
          "say_text",
          8,
          0,
          26707,
          30575,
          25940,
          70
        ]
      ]
    },
    {
      "triggers": [
        [
          "on_drag_item",
          8,
          11,
          1,
          1259,
          1233,
          0
        ]
      ],
      "commands": [
        [
          "clear_tile",
          8,
          11,
          1,
          28525,
          25974,
          0
        ],
        [
          "redraw_tile",
          8,
          11,
          25938,
          29284,
          30561,
          0
        ],
        [
          "render_changes",
          20196,
          110,
          12212,
          167,
          0,
          0
        ],
        [
          "play_sound",
          17,
          0,
          27728,
          31073,
          28499,
          0
        ]
      ]
    },
    {
      "triggers": [
        [
          "on_drag_item",
          8,
          11,
          1,
          1259,
          1239,
          0
        ]
      ],
      "commands": [
        [
          "clear_tile",
          8,
          11,
          1,
          28525,
          25974,
          0
        ],
        [
          "redraw_tile",
          8,
          11,
          25938,
          29284,
          30561,
          0
        ],
        [
          "render_changes",
          20196,
          110,
          12212,
          167,
          0,
          0
        ],
        [
          "play_sound",
          17,
          0,
          27728,
          31073,
          28499,
          0
        ]
      ]
    },
    {
      "triggers": [
        [
          "on_drag_item",
          8,
          11,
          1,
          1259,
          433,
          0
        ]
      ],
      "commands": [
        [
          "clear_tile",
          8,
          11,
          1,
          28525,
          25974,
          0
        ],
        [
          "redraw_tile",
          8,
          11,
          25938,
          29284,
          30561,
          0
        ],
        [
          "render_changes",
          20196,
          110,
          12212,
          167,
          0,
          0
        ],
        [
          "play_sound",
          17,
          0,
          27728,
          31073,
          28499,
          0
        ]
      ]
    },
    {
      "triggers": [
        [
          "on_drag_item",
          6,
          13,
          1,
          1338,
          511,
          0
        ]
      ],
      "commands": [
        [
          "clear_tile",
          6,
          13,
          1,
          28525,
          25974,
          0
        ],
        [
          "set_tile",
          5,
          13,
          1,
          1338,
          25441,
          0
        ],
        [
          "redraw_tiles",
          5,
          13,
          6,
          13,
          30561,
          0
        ],
        [
          "render_changes",
          0,
          0,
          33208,
          167,
          74,
          0
        ],
        [
          "play_sound",
          1,
          0,
          27728,
          31073,
          28499,
          0
        ]
      ]
    },
    {
      "triggers": [
        [
          "on_enter",
          0,
          0,
          0,
          0,
          0,
          0
        ],
        [
          "on_has_item",
          1212,
          0,
          0,
          0,
          0,
          0
        ]
      ],
      "commands": [
        [
          "open",
          0,
          0,
          0,
          0,
          0,
          0
        ],
        [
          "flag_once",
          0,
          0,
          0,
          0,
          0,
          0
        ]
      ]
    }
  ],
  "tilemap": [
    [
      [
        648,
        65535,
        65535
      ],
      [
        648,
        65535,
        65535
      ],
      [
        648,
        65535,
        65535
      ],
      [
        648,
        65535,
        65535
      ],
      [
        648,
        65535,
        65535
      ],
      [
        648,
        65535,
        65535
      ],
      [
        648,
        65535,
        65535
      ],
      [
        648,
        65535,
        65535
      ],
      [
        648,
        65535,
        65535
      ],
      [
        648,
        65535,
        65535
      ],
      [
        648,
        65535,
        65535
      ],
      [
        648,
        65535,
        65535
      ],
      [
        648,
        65535,
        65535
      ],
      [
        648,
        65535,
        65535
      ],
      [
        648,
        65535,
        65535
      ],
      [
        648,
        65535,
        65535
      ],
      [
        648,
        65535,
        65535
      ],
      [
        648,
        65535,
        65535
      ]
    ],
    [
      [
        648,
        65535,
        65535
      ],
      [
        648,
        65535,
        65535
      ],
      [
        648,
        65535,
        1113
      ],
      [
        648,
        65535,
        1114
      ],
      [
        648,
        65535,
        1121
      ],
      [
        648,
        65535,
        1122
      ],
      [
        648,
        65535,
        65535
      ],
      [
        648,
        65535,
        65535
      ],
      [
        648,
        65535,
        65535
      ],
      [
        648,
        65535,
        65535
      ],
      [
        1000,
        65535,
        65535
      ],
      [
        648,
        65535,
        65535
      ],
      [
        648,
        65535,
        65535
      ],
      [
        648,
        65535,
        1113
      ],
      [
        648,
        65535,
        1114
      ],
      [
        648,
        65535,
        1121
      ],
      [
        648,
        65535,
        1122
      ],
      [
        648,
        65535,
        65535
      ]
    ],
    [
      [
        648,
        65535,
        65535
      ],
      [
        648,
        65535,
        65535
      ],
      [
        648,
        1115,
        65535
      ],
      [
        648,
        1117,
        65535
      ],
      [
        648,
        65535,
        65535
      ],
      [
        648,
        65535,
        65535
      ],
      [
        648,
        65535,
        65535
      ],
      [
        648,
        65535,
        65535
      ],
      [
        648,
        65535,
        65535
      ],
      [
        648,
        65535,
        65535
      ],
      [
        648,
        65535,
        65535
      ],
      [
        648,
        65535,
        65535
      ],
      [
        648,
        65535,
        65535
      ],
      [
        648,
        1115,
        65535
      ],
      [
        648,
        1117,
        65535
      ],
      [
        648,
        65535,
        65535
      ],
      [
        648,
        65535,
        65535
      ],
      [
        648,
        65535,
        65535
      ]
    ],
    [
      [
        648,
        65535,
        65535
      ],
      [
        648,
        65535,
        65535
      ],
      [
        1000,
        1118,
        65535
      ],
      [
        1119,
        1120,
        65535
      ],
      [
        648,
        287,
        275
      ],
      [
        648,
        288,
        275
      ],
      [
        648,
        288,
        65535
      ],
      [
        648,
        288,
        65535
      ],
      [
        648,
        288,
        65535
      ],
      [
        648,
        288,
        65535
      ],
      [
        648,
        288,
        65535
      ],
      [
        648,
        288,
        65535
      ],
      [
        648,
        289,
        275
      ],
      [
        1000,
        1118,
        65535
      ],
      [
        1119,
        1120,
        65535
      ],
      [
        997,
        65535,
        65535
      ],
      [
        648,
        65535,
        65535
      ],
      [
        648,
        65535,
        65535
      ]
    ],
    [
      [
        648,
        65535,
        65535
      ],
      [
        648,
        65535,
        65535
      ],
      [
        648,
        65535,
        65535
      ],
      [
        648,
        287,
        275
      ],
      [
        648,
        289,
        275
      ],
      [
        648,
        65535,
        65535
      ],
      [
        648,
        65535,
        65535
      ],
      [
        648,
        65535,
        65535
      ],
      [
        648,
        65535,
        65535
      ],
      [
        648,
        65535,
        65535
      ],
      [
        648,
        65535,
        65535
      ],
      [
        648,
        65535,
        65535
      ],
      [
        648,
        287,
        65535
      ],
      [
        648,
        289,
        275
      ],
      [
        648,
        65535,
        65535
      ],
      [
        648,
        65535,
        65535
      ],
      [
        648,
        65535,
        65535
      ],
      [
        648,
        65535,
        65535
      ]
    ],
    [
      [
        648,
        65535,
        65535
      ],
      [
        648,
        65535,
        65535
      ],
      [
        648,
        65535,
        65535
      ],
      [
        648,
        294,
        275
      ],
      [
        648,
        65535,
        65535
      ],
      [
        648,
        727,
        65535
      ],
      [
        648,
        704,
        65535
      ],
      [
        648,
        704,
        65535
      ],
      [
        648,
        704,
        65535
      ],
      [
        648,
        704,
        65535
      ],
      [
        648,
        704,
        65535
      ],
      [
        648,
        728,
        65535
      ],
      [
        648,
        65535,
        65535
      ],
      [
        648,
        294,
        275
      ],
      [
        648,
        65535,
        65535
      ],
      [
        648,
        65535,
        65535
      ],
      [
        648,
        65535,
        65535
      ],
      [
        648,
        65535,
        65535
      ]
    ],
    [
      [
        648,
        65535,
        65535
      ],
      [
        648,
        65535,
        65535
      ],
      [
        648,
        65535,
        65535
      ],
      [
        648,
        294,
        275
      ],
      [
        1000,
        65535,
        65535
      ],
      [
        648,
        712,
        65535
      ],
      [
        648,
        65535,
        995
      ],
      [
        648,
        65535,
        991
      ],
      [
        648,
        65535,
        992
      ],
      [
        648,
        65535,
        993
      ],
      [
        648,
        65535,
        65535
      ],
      [
        648,
        711,
        65535
      ],
      [
        648,
        65535,
        65535
      ],
      [
        648,
        294,
        275
      ],
      [
        648,
        65535,
        65535
      ],
      [
        648,
        65535,
        65535
      ],
      [
        648,
        65535,
        65535
      ],
      [
        648,
        65535,
        65535
      ]
    ],
    [
      [
        648,
        65535,
        65535
      ],
      [
        648,
        65535,
        65535
      ],
      [
        648,
        65535,
        65535
      ],
      [
        648,
        294,
        275
      ],
      [
        648,
        65535,
        65535
      ],
      [
        648,
        712,
        65535
      ],
      [
        648,
        994,
        65535
      ],
      [
        648,
        988,
        65535
      ],
      [
        648,
        989,
        992
      ],
      [
        648,
        990,
        807
      ],
      [
        648,
        65535,
        65535
      ],
      [
        648,
        711,
        65535
      ],
      [
        648,
        65535,
        65535
      ],
      [
        648,
        294,
        275
      ],
      [
        648,
        65535,
        65535
      ],
      [
        648,
        65535,
        65535
      ],
      [
        1000,
        65535,
        65535
      ],
      [
        648,
        65535,
        65535
      ]
    ],
    [
      [
        648,
        65535,
        65535
      ],
      [
        1000,
        65535,
        65535
      ],
      [
        648,
        65535,
        65535
      ],
      [
        648,
        294,
        275
      ],
      [
        648,
        65535,
        65535
      ],
      [
        648,
        712,
        65535
      ],
      [
        648,
        65535,
        65535
      ],
      [
        648,
        988,
        65535
      ],
      [
        648,
        989,
        992
      ],
      [
        648,
        990,
        65535
      ],
      [
        648,
        65535,
        65535
      ],
      [
        648,
        711,
        65535
      ],
      [
        648,
        65535,
        65535
      ],
      [
        648,
        294,
        275
      ],
      [
        648,
        65535,
        65535
      ],
      [
        648,
        65535,
        65535
      ],
      [
        648,
        65535,
        65535
      ],
      [
        648,
        65535,
        65535
      ]
    ],
    [
      [
        648,
        65535,
        65535
      ],
      [
        648,
        65535,
        65535
      ],
      [
        648,
        65535,
        65535
      ],
      [
        648,
        294,
        275
      ],
      [
        648,
        65535,
        65535
      ],
      [
        648,
        712,
        65535
      ],
      [
        648,
        65535,
        65535
      ],
      [
        0,
        985,
        65535
      ],
      [
        986,
        1048,
        65535
      ],
      [
        0,
        987,
        65535
      ],
      [
        648,
        65535,
        65535
      ],
      [
        648,
        711,
        65535
      ],
      [
        648,
        65535,
        65535
      ],
      [
        648,
        294,
        275
      ],
      [
        648,
        65535,
        65535
      ],
      [
        648,
        65535,
        65535
      ],
      [
        648,
        65535,
        65535
      ],
      [
        648,
        65535,
        65535
      ]
    ],
    [
      [
        648,
        65535,
        65535
      ],
      [
        648,
        65535,
        65535
      ],
      [
        648,
        65535,
        65535
      ],
      [
        648,
        294,
        275
      ],
      [
        648,
        65535,
        65535
      ],
      [
        648,
        712,
        65535
      ],
      [
        648,
        65535,
        65535
      ],
      [
        648,
        65535,
        65535
      ],
      [
        649,
        65535,
        65535
      ],
      [
        648,
        65535,
        65535
      ],
      [
        648,
        65535,
        65535
      ],
      [
        648,
        711,
        65535
      ],
      [
        648,
        65535,
        65535
      ],
      [
        648,
        294,
        275
      ],
      [
        648,
        65535,
        65535
      ],
      [
        648,
        65535,
        65535
      ],
      [
        648,
        65535,
        65535
      ],
      [
        648,
        65535,
        65535
      ]
    ],
    [
      [
        648,
        65535,
        65535
      ],
      [
        648,
        65535,
        65535
      ],
      [
        648,
        65535,
        65535
      ],
      [
        648,
        294,
        275
      ],
      [
        648,
        65535,
        65535
      ],
      [
        648,
        726,
        65535
      ],
      [
        648,
        704,
        65535
      ],
      [
        648,
        704,
        1091
      ],
      [
        1260,
        1259,
        1258
      ],
      [
        1083,
        704,
        1091
      ],
      [
        648,
        704,
        65535
      ],
      [
        648,
        725,
        65535
      ],
      [
        648,
        65535,
        65535
      ],
      [
        648,
        294,
        275
      ],
      [
        1000,
        65535,
        65535
      ],
      [
        648,
        65535,
        65535
      ],
      [
        648,
        65535,
        65535
      ],
      [
        648,
        65535,
        65535
      ]
    ],
    [
      [
        648,
        65535,
        65535
      ],
      [
        648,
        65535,
        65535
      ],
      [
        648,
        65535,
        65535
      ],
      [
        648,
        294,
        275
      ],
      [
        648,
        65535,
        65535
      ],
      [
        648,
        65535,
        65535
      ],
      [
        648,
        65535,
        65535
      ],
      [
        648,
        65535,
        65535
      ],
      [
        648,
        65535,
        65535
      ],
      [
        648,
        65535,
        65535
      ],
      [
        648,
        65535,
        65535
      ],
      [
        648,
        65535,
        65535
      ],
      [
        648,
        65535,
        65535
      ],
      [
        648,
        294,
        275
      ],
      [
        648,
        65535,
        65535
      ],
      [
        648,
        65535,
        65535
      ],
      [
        648,
        65535,
        65535
      ],
      [
        648,
        65535,
        65535
      ]
    ],
    [
      [
        648,
        65535,
        65535
      ],
      [
        648,
        65535,
        65535
      ],
      [
        648,
        65535,
        1113
      ],
      [
        648,
        294,
        1114
      ],
      [
        648,
        289,
        1121
      ],
      [
        649,
        65535,
        1122
      ],
      [
        1337,
        1338,
        65535
      ],
      [
        648,
        65535,
        65535
      ],
      [
        648,
        65535,
        65535
      ],
      [
        648,
        65535,
        65535
      ],
      [
        648,
        1174,
        65535
      ],
      [
        648,
        1175,
        65535
      ],
      [
        648,
        287,
        275
      ],
      [
        648,
        294,
        1113
      ],
      [
        648,
        65535,
        1114
      ],
      [
        648,
        65535,
        1121
      ],
      [
        648,
        65535,
        1122
      ],
      [
        648,
        65535,
        65535
      ]
    ],
    [
      [
        648,
        65535,
        65535
      ],
      [
        648,
        65535,
        65535
      ],
      [
        648,
        1115,
        65535
      ],
      [
        648,
        1117,
        65535
      ],
      [
        648,
        287,
        65535
      ],
      [
        648,
        288,
        65535
      ],
      [
        648,
        288,
        65535
      ],
      [
        648,
        288,
        65535
      ],
      [
        648,
        288,
        65535
      ],
      [
        648,
        288,
        65535
      ],
      [
        648,
        288,
        65535
      ],
      [
        648,
        288,
        65535
      ],
      [
        648,
        289,
        65535
      ],
      [
        648,
        1115,
        65535
      ],
      [
        648,
        1117,
        65535
      ],
      [
        648,
        65535,
        65535
      ],
      [
        648,
        65535,
        65535
      ],
      [
        648,
        65535,
        65535
      ]
    ],
    [
      [
        648,
        65535,
        65535
      ],
      [
        648,
        65535,
        65535
      ],
      [
        1000,
        1118,
        65535
      ],
      [
        1119,
        1120,
        65535
      ],
      [
        997,
        65535,
        65535
      ],
      [
        648,
        65535,
        65535
      ],
      [
        648,
        65535,
        65535
      ],
      [
        648,
        65535,
        65535
      ],
      [
        648,
        65535,
        65535
      ],
      [
        648,
        65535,
        65535
      ],
      [
        648,
        65535,
        65535
      ],
      [
        648,
        65535,
        65535
      ],
      [
        648,
        65535,
        65535
      ],
      [
        1000,
        1118,
        65535
      ],
      [
        1119,
        1120,
        65535
      ],
      [
        997,
        65535,
        65535
      ],
      [
        648,
        65535,
        65535
      ],
      [
        648,
        65535,
        65535
      ]
    ],
    [
      [
        648,
        65535,
        65535
      ],
      [
        648,
        65535,
        65535
      ],
      [
        648,
        65535,
        65535
      ],
      [
        648,
        65535,
        65535
      ],
      [
        648,
        65535,
        65535
      ],
      [
        648,
        65535,
        65535
      ],
      [
        648,
        65535,
        65535
      ],
      [
        1000,
        65535,
        65535
      ],
      [
        648,
        65535,
        65535
      ],
      [
        648,
        65535,
        65535
      ],
      [
        648,
        65535,
        65535
      ],
      [
        648,
        65535,
        65535
      ],
      [
        648,
        65535,
        65535
      ],
      [
        648,
        65535,
        65535
      ],
      [
        648,
        65535,
        65535
      ],
      [
        648,
        65535,
        65535
      ],
      [
        648,
        65535,
        65535
      ],
      [
        648,
        65535,
        65535
      ]
    ],
    [
      [
        648,
        65535,
        65535
      ],
      [
        648,
        65535,
        65535
      ],
      [
        648,
        65535,
        65535
      ],
      [
        648,
        65535,
        65535
      ],
      [
        648,
        65535,
        65535
      ],
      [
        648,
        65535,
        65535
      ],
      [
        648,
        65535,
        65535
      ],
      [
        648,
        65535,
        65535
      ],
      [
        648,
        65535,
        65535
      ],
      [
        648,
        65535,
        65535
      ],
      [
        648,
        65535,
        65535
      ],
      [
        648,
        65535,
        65535
      ],
      [
        1000,
        65535,
        65535
      ],
      [
        648,
        65535,
        65535
      ],
      [
        648,
        65535,
        65535
      ],
      [
        648,
        65535,
        65535
      ],
      [
        648,
        65535,
        65535
      ],
      [
        648,
        65535,
        65535
      ]
    ],
    []
  ]
}