{
  "zoneId": 337,
  "zoneType": 2,
  "width": 9,
  "height": 9,
  "type": 8,
  "world": 2,
  "objects": [
    {
      "type": 10,
      "x": 4,
      "y": 8,
      "unknown": 1,
      "param": 65535
    },
    {
      "type": 6,
      "x": 7,
      "y": 3,
      "unknown": 1,
      "param": 1241
    },
    {
      "type": 6,
      "x": 1,
      "y": 6,
      "unknown": 1,
      "param": 1241
    },
    {
      "type": 6,
      "x": 2,
      "y": 3,
      "unknown": 1,
      "param": 1241
    },
    {
      "type": 6,
      "x": 2,
      "y": 1,
      "unknown": 1,
      "param": 1241
    }
  ],
  "actions": [
    {
      "triggers": [
        [
          "on_first_enter",
          110,
          21528,
          175,
          0,
          0,
          0
        ]
      ],
      "commands": [
        [
          "hide_object",
          1,
          0,
          28488,
          21364,
          28528,
          0
        ],
        [
          "hide_object",
          2,
          0,
          28488,
          21364,
          28528,
          0
        ],
        [
          "hide_object",
          3,
          0,
          28488,
          21364,
          28528,
          0
        ],
        [
          "hide_object",
          4,
          0,
          28488,
          21364,
          28528,
          0
        ],
        [
          "clear_tile",
          7,
          3,
          1,
          28525,
          25974,
          0
        ],
        [
          "redraw_tile",
          7,
          3,
          25938,
          29284,
          30561,
          0
        ],
        [
          "clear_tile",
          1,
          6,
          1,
          28525,
          25974,
          0
        ],
        [
          "redraw_tile",
          1,
          6,
          25938,
          29284,
          30561,
          0
        ]
      ]
    },
    {
      "triggers": [
        [
          "on_first_enter",
          110,
          12,
          0,
          25939,
          11636,
          0
        ],
        [
          "on_global_var_eq",
          211,
          10,
          0,
          27719,
          25199,
          0
        ]
      ],
      "commands": [
        [
          "set_tile",
          4,
          0,
          1,
          581,
          25441,
          0
        ],
        [
          "set_tile",
          4,
          4,
          0,
          602,
          25441,
          0
        ]
      ]
    },
    {
      "triggers": [
        [
          "on_first_enter",
          110,
          12,
          0,
          25939,
          11636,
          0
        ],
        [
          "on_global_var_eq",
          212,
          10,
          0,
          27719,
          25199,
          0
        ]
      ],
      "commands": [
        [
          "set_tile",
          4,
          0,
          1,
          581,
          25441,
          0
        ],
        [
          "set_tile",
          4,
          4,
          0,
          602,
          25441,
          0
        ]
      ]
    },
    {
      "triggers": [
        [
          "on_bump_tile",
          4,
          0,
          581,
          30018,
          28781,
          0
        ]
      ],
      "commands": [
        [
          "set_tile",
          4,
          4,
          0,
          1390,
          25441,
          0
        ],
        [
          "redraw_tile",
          4,
          4,
          25938,
          29284,
          30561,
          0
        ],
        [
          "render_changes",
          0,
          0,
          58232,
          176,
          0,
          0
        ],
        [
          "play_sound",
          0,
          0,
          27728,
          31073,
          28499,
          0
        ],
        [
          "flag_once",
          14,
          0,
          25409,
          26996,
          24950,
          0
        ]
      ]
    },
    {
      "triggers": [
        [
          "on_walk",
          4,
          4,
          1390,
          24919,
          27500,
          0
        ]
      ],
      "commands": [
        [
          "set_tile",
          4,
          4,
          0,
          1391,
          25441,
          0
        ],
        [
          "redraw_tile",
          4,
          4,
          25938,
          29284,
          30561,
          0
        ],
        [
          "render_changes",
          0,
          0,
          17948,
          175,
          0,
          0
        ],
        [
          "play_sound",
          2,
          0,
          27728,
          31073,
          28499,
          0
        ],
        [
          "set_global_var",
          250,
          0,
          25939,
          18292,
          28524,
          0
        ]
      ]
    },
    {
      "triggers": [
        [
          "on_first_enter",
          110,
          0,
          0,
          0,
          0,
          0
        ],
        [
          "on_global_var_eq",
          111,
          10,
          0,
          27719,
          25199,
          0
        ]
      ],
      "commands": [
        [
          "random",
          4,
          0,
          26708,
          28530,
          21111,
          0
        ]
      ]
    },
    {
      "triggers": [
        [
          "on_first_enter",
          110,
          0,
          0,
          0,
          0,
          0
        ],
        [
          "on_global_var_eq",
          112,
          10,
          0,
          27719,
          25199,
          0
        ]
      ],
      "commands": [
        [
          "random",
          4,
          0,
          26708,
          28530,
          21111,
          0
        ]
      ]
    },
    {
      "triggers": [
        [
          "on_first_enter",
          110,
          0,
          0,
          0,
          0,
          0
        ],
        [
          "on_rand_var_eq",
          1,
          8,
          0,
          24914,
          25710,
          0
        ]
      ],
      "commands": [
        [
          "show_object",
          1,
          0,
          28488,
          21364,
          28528,
          0
        ]
      ]
    },
    {
      "triggers": [
        [
          "on_first_enter",
          110,
          0,
          0,
          0,
          0,
          0
        ],
        [
          "on_rand_var_eq",
          2,
          8,
          0,
          24914,
          25710,
          0
        ]
      ],
      "commands": [
        [
          "show_object",
          2,
          0,
          28488,
          21364,
          28528,
          0
        ]
      ]
    },
    {
      "triggers": [
        [
          "on_first_enter",
          110,
          0,
          0,
          0,
          0,
          0
        ],
        [
          "on_rand_var_eq",
          3,
          8,
          0,
          24914,
          25710,
          0
        ]
      ],
      "commands": [
        [
          "show_object",
          3,
          0,
          28488,
          21364,
          28528,
          0
        ]
      ]
    },
    {
      "triggers": [
        [
          "on_first_enter",
          110,
          0,
          0,
          0,
          0,
          0
        ],
        [
          "on_rand_var_eq",
          4,
          8,
          0,
          24914,
          25710,
          0
        ]
      ],
      "commands": [
        [
          "show_object",
          4,
          0,
          28488,
          21364,
          28528,
          0
        ]
      ]
    }
  ],
  "tilemap": [
    [
      [
        598,
        538,
        1328
      ],
      [
        598,
        561,
        1394
      ],
      [
        598,
        555,
        65535
      ],
      [
        598,
        550,
        65535
      ],
      [
        598,
        556,
        65535
      ],
      [
        598,
        550,
        65535
      ],
      [
        598,
        557,
        65535
      ],
      [
        598,
        561,
        1328
      ],
      [
        598,
        539,
        1394
      ]
    ],
    [
      [
        598,
        545,
        1327
      ],
      [
        598,
        65535,
        1393
      ],
      [
        598,
        265,
        65535
      ],
      [
        598,
        65535,
        65535
      ],
      [
        598,
        65535,
        65535
      ],
      [
        598,
        65535,
        65535
      ],
      [
        598,
        622,
        65535
      ],
      [
        598,
        65535,
        1327
      ],
      [
        598,
        544,
        1393
      ]
    ],
    [
      [
        598,
        545,
        1327
      ],
      [
        598,
        65535,
        1393
      ],
      [
        598,
        65535,
        65535
      ],
      [
        598,
        65535,
        65535
      ],
      [
        598,
        65535,
        65535
      ],
      [
        598,
        65535,
        65535
      ],
      [
        598,
        65535,
        65535
      ],
      [
        598,
        65535,
        1327
      ],
      [
        598,
        544,
        1393
      ]
    ],
    [
      [
        598,
        545,
        1327
      ],
      [
        598,
        65535,
        1393
      ],
      [
        598,
        622,
        65535
      ],
      [
        598,
        65535,
        65535
      ],
      [
        598,
        65535,
        65535
      ],
      [
        598,
        65535,
        65535
      ],
      [
        598,
        266,
        65535
      ],
      [
        598,
        65535,
        1327
      ],
      [
        598,
        544,
        1393
      ]
    ],
    [
      [
        598,
        538,
        1328
      ],
      [
        598,
        561,
        1394
      ],
      [
        598,
        65535,
        65535
      ],
      [
        598,
        65535,
        65535
      ],
      [
        600,
        65535,
        65535
      ],
      [
        598,
        65535,
        65535
      ],
      [
        598,
        266,
        65535
      ],
      [
        598,
        561,
        1328
      ],
      [
        598,
        539,
        1394
      ]
    ],
    [
      [
        598,
        545,
        1327
      ],
      [
        598,
        65535,
        1393
      ],
      [
        598,
        65535,
        65535
      ],
      [
        598,
        65535,
        65535
      ],
      [
        598,
        65535,
        65535
      ],
      [
        598,
        65535,
        65535
      ],
      [
        598,
        65535,
        65535
      ],
      [
        598,
        65535,
        1327
      ],
      [
        598,
        544,
        1393
      ]
    ],
    [
      [
        598,
        545,
        1327
      ],
      [
        598,
        65535,
        1393
      ],
      [
        598,
        265,
        65535
      ],
      [
        598,
        65535,
        65535
      ],
      [
        598,
        65535,
        65535
      ],
      [
        598,
        65535,
        65535
      ],
      [
        598,
        65535,
        65535
      ],
      [
        598,
        65535,
        1327
      ],
      [
        598,
        544,
        1393
      ]
    ],
    [
      [
        598,
        545,
        1327
      ],
      [
        598,
        65535,
        1393
      ],
      [
        598,
        65535,
        65535
      ],
      [
        598,
        65535,
        65535
      ],
      [
        598,
        65535,
        65535
      ],
      [
        598,
        65535,
        65535
      ],
      [
        598,
        65535,
        65535
      ],
      [
        598,
        65535,
        1327
      ],
      [
        598,
        544,
        1393
      ]
    ],
    [
      [
        598,
        1049,
        1086
      ],
      [
        598,
        1049,
        1086
      ],
      [
        598,
        1049,
        1086
      ],
      [
        598,
        1049,
        1086
      ],
      [
        986,
        65535,
        1086
      ],
      [
        598,
        1049,
        1086
      ],
      [
        598,
        1049,
        1086
      ],
      [
        598,
        1049,
        1086
      ],
      [
        598,
        1049,
        1086
      ]
    ],
    []
  ]
}