{
  "zoneId": 343,
  "zoneType": 2,
  "width": 18,
  "height": 18,
  "type": 8,
  "world": 2,
  "objects": [
    {
      "type": 10,
      "x": 2,
      "y": 16,
      "unknown": 1,
      "param": 65535
    },
    {
      "type": 9,
      "x": 15,
      "y": 1,
      "unknown": 1,
      "param": 344
    }
  ],
  "actions": [
    {
      "triggers": [
        [
          "on_first_enter",
          110,
          0,
          0,
          43540,
          197,
          0
        ]
      ],
      "commands": [
        [
          "random",
          3,
          0,
          26708,
          28530,
          21111,
          0
        ]
      ]
    },
    {
      "triggers": [
        [
          "on_bump_tile",
          1,
          10,
          983,
          22618,
          12346,
          0
        ],
        [
          "on_rand_var_eq",
          1,
          54144,
          180,
          54848,
          180,
          0
        ]
      ],
      "commands": [
        [
          "play_sound",
          15,
          0,
          0,
          0,
          20500,
          0
        ],
        [
          "clear_tile",
          1,
          10,
          1,
          19488,
          30309,
          0
        ],
        [
          "redraw_tile",
          1,
          10,
          0,
          0,
          0,
          0
        ],
        [
          "render_changes",
          0,
          0,
          0,
          0,
          0,
          0
        ]
      ]
    },
    {
      "triggers": [
        [
          "on_bump_tile",
          1,
          10,
          983,
          22618,
          12346,
          0
        ],
        [
          "on_rand_var_neq",
          1,
          0,
          0,
          0,
          0,
          0
        ]
      ],
      "commands": [
        [
          "play_sound",
          6,
          0,
          0,
          0,
          20500,
          0
        ]
      ]
    },
    {
      "triggers": [
        [
          "on_bump_tile",
          15,
          7,
          759,
          22618,
          12346,
          0
        ],
        [
          "on_rand_var_eq",
          1,
          54144,
          180,
          54848,
          180,
          0
        ]
      ],
      "commands": [
        [
          "play_sound",
          16,
          0,
          0,
          0,
          20500,
          0
        ],
        [
          "clear_tile",
          15,
          7,
          1,
          19488,
          30309,
          0
        ],
        [
          "redraw_tile",
          15,
          7,
          0,
          0,
          0,
          0
        ],
        [
          "render_changes",
          0,
          0,
          0,
          0,
          0,
          0
        ]
      ]
    },
    {
      "triggers": [
        [
          "on_bump_tile",
          15,
          7,
          759,
          22618,
          12346,
          0
        ],
        [
          "on_rand_var_neq",
          1,
          0,
          0,
          0,
          0,
          0
        ]
      ],
      "commands": [
        [
          "play_sound",
          6,
          0,
          0,
          0,
          20500,
          0
        ]
      ]
    },
    {
      "triggers": [
        [
          "on_bump_tile",
          15,
          4,
          983,
          22618,
          12346,
          0
        ]
      ],
      "commands": [
        [
          "play_sound",
          15,
          0,
          0,
          0,
          20500,
          0
        ],
        [
          "clear_tile",
          15,
          4,
          1,
          19488,
          30309,
          0
        ],
        [
          "redraw_tile",
          15,
          4,
          0,
          0,
          0,
          0
        ],
        [
          "render_changes",
          0,
          0,
          0,
          0,
          0,
          0
        ]
      ]
    },
    {
      "triggers": [
        [
          "on_bump_tile",
          14,
          10,
          983,
          22618,
          12346,
          0
        ],
        [
          "on_rand_var_eq",
          2,
          54144,
          180,
          54848,
          180,
          0
        ]
      ],
      "commands": [
        [
          "play_sound",
          15,
          0,
          0,
          0,
          20500,
          0
        ],
        [
          "clear_tile",
          14,
          10,
          1,
          19488,
          30309,
          0
        ],
        [
          "redraw_tile",
          14,
          10,
          0,
          0,
          0,
          0
        ],
        [
          "render_changes",
          0,
          0,
          0,
          0,
          0,
          0
        ]
      ]
    },
    {
      "triggers": [
        [
          "on_bump_tile",
          14,
          10,
          983,
          22618,
          12346,
          0
        ],
        [
          "on_rand_var_neq",
          2,
          0,
          0,
          0,
          0,
          0
        ]
      ],
      "commands": [
        [
          "play_sound",
          6,
          0,
          0,
          0,
          20500,
          0
        ]
      ]
    },
    {
      "triggers": [
        [
          "on_bump_tile",
          1,
          7,
          759,
          22618,
          12346,
          0
        ],
        [
          "on_rand_var_eq",
          2,
          54144,
          180,
          54848,
          180,
          0
        ]
      ],
      "commands": [
        [
          "play_sound",
          16,
          0,
          0,
          0,
          20500,
          0
        ],
        [
          "clear_tile",
          1,
          7,
          1,
          19488,
          30309,
          0
        ],
        [
          "redraw_tile",
          1,
          7,
          0,
          0,
          0,
          0
        ],
        [
          "render_changes",
          0,
          0,
          0,
          0,
          0,
          0
        ]
      ]
    },
    {
      "triggers": [
        [
          "on_bump_tile",
          1,
          7,
          759,
          22618,
          12346,
          0
        ],
        [
          "on_rand_var_neq",
          2,
          0,
          0,
          0,
          0,
          0
        ]
      ],
      "commands": [
        [
          "play_sound",
          6,
          0,
          0,
          0,
          20500,
          0
        ]
      ]
    },
    {
      "triggers": [
        [
          "on_bump_tile",
          1,
          4,
          983,
          22618,
          12346,
          0
        ]
      ],
      "commands": [
        [
          "play_sound",
          15,
          0,
          0,
          0,
          20500,
          0
        ],
        [
          "clear_tile",
          1,
          4,
          1,
          19488,
          30309,
          0
        ],
        [
          "redraw_tile",
          1,
          4,
          0,
          0,
          0,
          0
        ],
        [
          "render_changes",
          0,
          0,
          0,
          0,
          0,
          0
        ]
      ]
    },
    {
      "triggers": [
        [
          "on_bump_tile",
          6,
          4,
          983,
          22618,
          12346,
          0
        ]
      ],
      "commands": [
        [
          "play_sound",
          15,
          0,
          0,
          0,
          20500,
          0
        ],
        [
          "clear_tile",
          6,
          4,
          1,
          19488,
          30309,
          0
        ],
        [
          "redraw_tile",
          6,
          4,
          0,
          0,
          0,
          0
        ],
        [
          "render_changes",
          0,
          0,
          0,
          0,
          0,
          0
        ]
      ]
    },
    {
      "triggers": [
        [
          "on_bump_tile",
          12,
          7,
          983,
          22618,
          12346,
          0
        ]
      ],
      "commands": [
        [
          "play_sound",
          6,
          0,
          0,
          0,
          20500,
          0
        ]
      ]
    },
    {
      "triggers": [
        [
          "on_bump_tile",
          16,
          13,
          983,
          22618,
          12346,
          0
        ],
        [
          "on_rand_var_eq",
          3,
          54144,
          180,
          54848,
          180,
          0
        ]
      ],
      "commands": [
        [
          "play_sound",
          15,
          0,
          0,
          0,
          20500,
          0
        ],
        [
          "clear_tile",
          16,
          13,
          1,
          19488,
          30309,
          0
        ],
        [
          "redraw_tile",
          16,
          13,
          0,
          0,
          0,
          0
        ],
        [
          "render_changes",
          0,
          0,
          0,
          0,
          0,
          0
        ]
      ]
    },
    {
      "triggers": [
        [
          "on_bump_tile",
          16,
          13,
          983,
          22618,
          12346,
          0
        ],
        [
          "on_rand_var_neq",
          3,
          0,
          0,
          0,
          0,
          0
        ]
      ],
      "commands": [
        [
          "play_sound",
          6,
          0,
          0,
          0,
          20500,
          0
        ]
      ]
    },
    {
      "triggers": [
        [
          "on_bump_tile",
          16,
          10,
          759,
          22618,
          12346,
          0
        ],
        [
          "on_rand_var_eq",
          3,
          54144,
          180,
          54848,
          180,
          0
        ]
      ],
      "commands": [
        [
          "play_sound",
          16,
          0,
          0,
          0,
          20500,
          0
        ],
        [
          "clear_tile",
          16,
          10,
          1,
          19488,
          30309,
          0
        ],
        [
          "redraw_tile",
          16,
          10,
          0,
          0,
          0,
          0
        ],
        [
          "render_changes",
          0,
          0,
          0,
          0,
          0,
          0
        ]
      ]
    },
    {
      "triggers": [
        [
          "on_bump_tile",
          16,
          10,
          759,
          22618,
          12346,
          0
        ],
        [
          "on_rand_var_neq",
          3,
          0,
          0,
          0,
          0,
          0
        ]
      ],
      "commands": [
        [
          "play_sound",
          6,
          0,
          0,
          0,
          20500,
          0
        ]
      ]
    },
    {
      "triggers": [
        [
          "on_bump_tile",
          10,
          7,
          759,
          22618,
          12346,
          0
        ],
        [
          "on_rand_var_eq",
          3,
          54144,
          180,
          54848,
          180,
          0
        ]
      ],
      "commands": [
        [
          "play_sound",
          16,
          0,
          0,
          0,
          20500,
          0
        ],
        [
          "clear_tile",
          10,
          7,
          1,
          19488,
          30309,
          0
        ],
        [
          "redraw_tile",
          10,
          7,
          0,
          0,
          0,
          0
        ],
        [
          "render_changes",
          0,
          0,
          0,
          0,
          0,
          0
        ]
      ]
    },
    {
      "triggers": [
        [
          "on_bump_tile",
          10,
          7,
          759,
          22618,
          12346,
          0
        ],
        [
          "on_rand_var_neq",
          3,
          0,
          0,
          0,
          0,
          0
        ]
      ],
      "commands": [
        [
          "play_sound",
          6,
          0,
          0,
          0,
          20500,
          0
        ]
      ]
    }
  ],
  "tilemap": [
    [
      [
        0,
        681,
        65535
      ],
      [
        0,
        681,
        65535
      ],
      [
        0,
        681,
        65535
      ],
      [
        0,
        681,
        65535
      ],
      [
        0,
        681,
        65535
      ],
      [
        0,
        681,
        65535
      ],
      [
        0,
        681,
        65535
      ],
      [
        0,
        681,
        65535
      ],
      [
        0,
        681,
        65535
      ],
      [
        0,
        681,
        65535
      ],
      [
        0,
        681,
        65535
      ],
      [
        0,
        681,
        65535
      ],
      [
        0,
        681,
        65535
      ],
      [
        0,
        681,
        65535
      ],
      [
        0,
        681,
        65535
      ],
      [
        0,
        681,
        65535
      ],
      [
        0,
        681,
        65535
      ],
      [
        0,
        681,
        65535
      ]
    ],
    [
      [
        678,
        762,
        65535
      ],
      [
        763,
        65535,
        65535
      ],
      [
        969,
        65535,
        65535
      ],
      [
        763,
        764,
        65535
      ],
      [
        763,
        681,
        65535
      ],
      [
        969,
        762,
        65535
      ],
      [
        975,
        65535,
        65535
      ],
      [
        976,
        65535,
        65535
      ],
      [
        978,
        65535,
        65535
      ],
      [
        976,
        65535,
        65535
      ],
      [
        976,
        65535,
        65535
      ],
      [
        978,
        65535,
        65535
      ],
      [
        977,
        65535,
        65535
      ],
      [
        678,
        764,
        65535
      ],
      [
        598,
        538,
        65535
      ],
      [
        1339,
        65535,
        65535
      ],
      [
        598,
        539,
        65535
      ],
      [
        678,
        681,
        65535
      ]
    ],
    [
      [
        678,
        767,
        65535
      ],
      [
        678,
        65535,
        65535
      ],
      [
        678,
        65535,
        65535
      ],
      [
        769,
        65535,
        65535
      ],
      [
        763,
        65535,
        65535
      ],
      [
        768,
        65535,
        65535
      ],
      [
        678,
        65535,
        65535
      ],
      [
        678,
        65535,
        65535
      ],
      [
        678,
        770,
        65535
      ],
      [
        678,
        681,
        65535
      ],
      [
        678,
        771,
        65535
      ],
      [
        678,
        65535,
        65535
      ],
      [
        678,
        65535,
        65535
      ],
      [
        678,
        766,
        65535
      ],
      [
        598,
        545,
        65535
      ],
      [
        598,
        65535,
        65535
      ],
      [
        598,
        544,
        65535
      ],
      [
        678,
        681,
        65535
      ]
    ],
    [
      [
        678,
        681,
        65535
      ],
      [
        680,
        65535,
        1249
      ],
      [
        678,
        765,
        65535
      ],
      [
        678,
        765,
        65535
      ],
      [
        678,
        765,
        65535
      ],
      [
        678,
        765,
        65535
      ],
      [
        680,
        65535,
        1249
      ],
      [
        678,
        765,
        65535
      ],
      [
        678,
        681,
        65535
      ],
      [
        678,
        681,
        65535
      ],
      [
        678,
        681,
        65535
      ],
      [
        678,
        765,
        65535
      ],
      [
        680,
        65535,
        1249
      ],
      [
        678,
        681,
        65535
      ],
      [
        678,
        681,
        1086
      ],
      [
        598,
        65535,
        710
      ],
      [
        678,
        681,
        1086
      ],
      [
        678,
        681,
        65535
      ]
    ],
    [
      [
        678,
        762,
        65535
      ],
      [
        982,
        983,
        65535
      ],
      [
        975,
        981,
        65535
      ],
      [
        978,
        65535,
        65535
      ],
      [
        976,
        772,
        65535
      ],
      [
        975,
        981,
        65535
      ],
      [
        982,
        983,
        65535
      ],
      [
        976,
        981,
        65535
      ],
      [
        976,
        65535,
        65535
      ],
      [
        978,
        65535,
        65535
      ],
      [
        977,
        65535,
        65535
      ],
      [
        768,
        772,
        65535
      ],
      [
        758,
        65535,
        65535
      ],
      [
        678,
        772,
        65535
      ],
      [
        969,
        981,
        65535
      ],
      [
        982,
        983,
        65535
      ],
      [
        763,
        981,
        65535
      ],
      [
        678,
        764,
        65535
      ]
    ],
    [
      [
        678,
        767,
        65535
      ],
      [
        678,
        65535,
        65535
      ],
      [
        678,
        65535,
        65535
      ],
      [
        678,
        65535,
        65535
      ],
      [
        678,
        773,
        65535
      ],
      [
        678,
        65535,
        65535
      ],
      [
        678,
        65535,
        65535
      ],
      [
        678,
        65535,
        65535
      ],
      [
        678,
        65535,
        65535
      ],
      [
        678,
        65535,
        65535
      ],
      [
        678,
        65535,
        65535
      ],
      [
        678,
        773,
        65535
      ],
      [
        678,
        65535,
        65535
      ],
      [
        774,
        65535,
        65535
      ],
      [
        678,
        65535,
        65535
      ],
      [
        678,
        65535,
        65535
      ],
      [
        678,
        65535,
        65535
      ],
      [
        678,
        766,
        65535
      ]
    ],
    [
      [
        678,
        681,
        65535
      ],
      [
        680,
        65535,
        1249
      ],
      [
        678,
        765,
        65535
      ],
      [
        678,
        765,
        65535
      ],
      [
        678,
        681,
        65535
      ],
      [
        678,
        765,
        65535
      ],
      [
        678,
        765,
        65535
      ],
      [
        678,
        765,
        65535
      ],
      [
        678,
        765,
        65535
      ],
      [
        678,
        765,
        65535
      ],
      [
        680,
        65535,
        1249
      ],
      [
        678,
        681,
        65535
      ],
      [
        680,
        65535,
        1249
      ],
      [
        678,
        765,
        65535
      ],
      [
        678,
        765,
        65535
      ],
      [
        680,
        65535,
        1249
      ],
      [
        678,
        765,
        65535
      ],
      [
        678,
        681,
        65535
      ]
    ],
    [
      [
        678,
        762,
        65535
      ],
      [
        758,
        759,
        65535
      ],
      [
        975,
        981,
        65535
      ],
      [
        976,
        65535,
        65535
      ],
      [
        978,
        65535,
        65535
      ],
      [
        976,
        65535,
        65535
      ],
      [
        976,
        65535,
        65535
      ],
      [
        978,
        65535,
        65535
      ],
      [
        976,
        65535,
        65535
      ],
      [
        977,
        981,
        65535
      ],
      [
        758,
        759,
        65535
      ],
      [
        969,
        981,
        65535
      ],
      [
        982,
        983,
        65535
      ],
      [
        976,
        981,
        65535
      ],
      [
        977,
        981,
        65535
      ],
      [
        758,
        759,
        65535
      ],
      [
        763,
        981,
        65535
      ],
      [
        678,
        764,
        65535
      ]
    ],
    [
      [
        678,
        767,
        65535
      ],
      [
        678,
        65535,
        65535
      ],
      [
        678,
        65535,
        65535
      ],
      [
        678,
        65535,
        65535
      ],
      [
        678,
        65535,
        65535
      ],
      [
        678,
        65535,
        65535
      ],
      [
        678,
        65535,
        65535
      ],
      [
        678,
        65535,
        65535
      ],
      [
        678,
        65535,
        65535
      ],
      [
        678,
        65535,
        65535
      ],
      [
        678,
        65535,
        65535
      ],
      [
        678,
        65535,
        65535
      ],
      [
        678,
        65535,
        65535
      ],
      [
        678,
        65535,
        65535
      ],
      [
        678,
        65535,
        65535
      ],
      [
        678,
        65535,
        65535
      ],
      [
        678,
        65535,
        65535
      ],
      [
        678,
        766,
        65535
      ]
    ],
    [
      [
        678,
        681,
        65535
      ],
      [
        680,
        65535,
        1249
      ],
      [
        678,
        765,
        65535
      ],
      [
        678,
        765,
        65535
      ],
      [
        678,
        765,
        65535
      ],
      [
        678,
        765,
        65535
      ],
      [
        678,
        765,
        65535
      ],
      [
        678,
        765,
        65535
      ],
      [
        678,
        765,
        65535
      ],
      [
        678,
        765,
        65535
      ],
      [
        678,
        765,
        65535
      ],
      [
        678,
        765,
        65535
      ],
      [
        678,
        765,
        65535
      ],
      [
        678,
        765,
        65535
      ],
      [
        680,
        65535,
        1249
      ],
      [
        678,
        765,
        65535
      ],
      [
        680,
        65535,
        1249
      ],
      [
        678,
        681,
        65535
      ]
    ],
    [
      [
        678,
        762,
        65535
      ],
      [
        982,
        983,
        65535
      ],
      [
        763,
        981,
        981
      ],
      [
        763,
        764,
        65535
      ],
      [
        763,
        762,
        65535
      ],
      [
        975,
        65535,
        65535
      ],
      [
        976,
        65535,
        65535
      ],
      [
        978,
        65535,
        65535
      ],
      [
        976,
        65535,
        65535
      ],
      [
        976,
        65535,
        65535
      ],
      [
        978,
        65535,
        65535
      ],
      [
        976,
        65535,
        65535
      ],
      [
        977,
        65535,
        65535
      ],
      [
        969,
        772,
        65535
      ],
      [
        982,
        983,
        65535
      ],
      [
        969,
        772,
        65535
      ],
      [
        758,
        759,
        65535
      ],
      [
        678,
        764,
        65535
      ]
    ],
    [
      [
        678,
        767,
        65535
      ],
      [
        678,
        65535,
        65535
      ],
      [
        678,
        65535,
        65535
      ],
      [
        678,
        766,
        65535
      ],
      [
        678,
        767,
        65535
      ],
      [
        678,
        65535,
        65535
      ],
      [
        678,
        65535,
        65535
      ],
      [
        678,
        65535,
        65535
      ],
      [
        678,
        65535,
        65535
      ],
      [
        678,
        65535,
        65535
      ],
      [
        678,
        65535,
        65535
      ],
      [
        678,
        65535,
        65535
      ],
      [
        678,
        65535,
        65535
      ],
      [
        678,
        773,
        65535
      ],
      [
        678,
        65535,
        65535
      ],
      [
        678,
        773,
        65535
      ],
      [
        678,
        65535,
        65535
      ],
      [
        678,
        766,
        65535
      ]
    ],
    [
      [
        678,
        767,
        65535
      ],
      [
        678,
        65535,
        65535
      ],
      [
        678,
        65535,
        65535
      ],
      [
        769,
        65535,
        65535
      ],
      [
        768,
        65535,
        65535
      ],
      [
        678,
        65535,
        65535
      ],
      [
        678,
        770,
        65535
      ],
      [
        678,
        765,
        65535
      ],
      [
        678,
        765,
        65535
      ],
      [
        678,
        765,
        65535
      ],
      [
        678,
        765,
        65535
      ],
      [
        678,
        771,
        65535
      ],
      [
        678,
        65535,
        65535
      ],
      [
        678,
        773,
        65535
      ],
      [
        678,
        65535,
        65535
      ],
      [
        678,
        766,
        65535
      ],
      [
        680,
        65535,
        1249
      ],
      [
        678,
        681,
        65535
      ]
    ],
    [
      [
        678,
        681,
        65535
      ],
      [
        678,
        765,
        65535
      ],
      [
        680,
        65535,
        1249
      ],
      [
        678,
        765,
        65535
      ],
      [
        763,
        771,
        65535
      ],
      [
        678,
        65535,
        65535
      ],
      [
        979,
        65535,
        65535
      ],
      [
        976,
        65535,
        65535
      ],
      [
        978,
        65535,
        65535
      ],
      [
        976,
        65535,
        65535
      ],
      [
        977,
        65535,
        65535
      ],
      [
        678,
        776,
        65535
      ],
      [
        678,
        65535,
        65535
      ],
      [
        774,
        65535,
        65535
      ],
      [
        678,
        65535,
        65535
      ],
      [
        678,
        777,
        65535
      ],
      [
        982,
        983,
        65535
      ],
      [
        678,
        764,
        65535
      ]
    ],
    [
      [
        678,
        681,
        65535
      ],
      [
        678,
        540,
        65535
      ],
      [
        601,
        65535,
        1090
      ],
      [
        678,
        541,
        65535
      ],
      [
        678,
        767,
        65535
      ],
      [
        678,
        65535,
        65535
      ],
      [
        678,
        775,
        65535
      ],
      [
        678,
        65535,
        65535
      ],
      [
        678,
        65535,
        65535
      ],
      [
        678,
        65535,
        65535
      ],
      [
        678,
        65535,
        65535
      ],
      [
        678,
        766,
        65535
      ],
      [
        678,
        765,
        65535
      ],
      [
        678,
        765,
        65535
      ],
      [
        678,
        765,
        65535
      ],
      [
        678,
        767,
        65535
      ],
      [
        678,
        65535,
        65535
      ],
      [
        678,
        766,
        65535
      ]
    ],
    [
      [
        678,
        681,
        65535
      ],
      [
        598,
        545,
        65535
      ],
      [
        598,
        65535,
        65535
      ],
      [
        598,
        544,
        65535
      ],
      [
        678,
        767,
        65535
      ],
      [
        678,
        65535,
        65535
      ],
      [
        678,
        766,
        65535
      ],
      [
        678,
        771,
        65535
      ],
      [
        678,
        65535,
        65535
      ],
      [
        678,
        65535,
        65535
      ],
      [
        678,
        65535,
        65535
      ],
      [
        979,
        65535,
        65535
      ],
      [
        978,
        65535,
        65535
      ],
      [
        976,
        65535,
        65535
      ],
      [
        978,
        65535,
        65535
      ],
      [
        980,
        65535,
        65535
      ],
      [
        678,
        65535,
        65535
      ],
      [
        678,
        766,
        65535
      ]
    ],
    [
      [
        678,
        681,
        65535
      ],
      [
        598,
        545,
        65535
      ],
      [
        1340,
        65535,
        65535
      ],
      [
        598,
        544,
        65535
      ],
      [
        678,
        767,
        65535
      ],
      [
        678,
        65535,
        65535
      ],
      [
        678,
        766,
        65535
      ],
      [
        678,
        767,
        65535
      ],
      [
        678,
        65535,
        65535
      ],
      [
        678,
        770,
        65535
      ],
      [
        678,
        771,
        65535
      ],
      [
        678,
        65535,
        65535
      ],
      [
        678,
        65535,
        65535
      ],
      [
        678,
        65535,
        65535
      ],
      [
        678,
        65535,
        65535
      ],
      [
        678,
        65535,
        65535
      ],
      [
        678,
        65535,
        65535
      ],
      [
        678,
        766,
        65535
      ]
    ],
    [
      [
        678,
        681,
        65535
      ],
      [
        678,
        681,
        1086
      ],
      [
        678,
        681,
        1086
      ],
      [
        678,
        681,
        1086
      ],
      [
        678,
        681,
        65535
      ],
      [
        678,
        765,
        65535
      ],
      [
        678,
        681,
        65535
      ],
      [
        678,
        681,
        65535
      ],
      [
        678,
        765,
        65535
      ],
      [
        678,
        681,
        65535
      ],
      [
        678,
        681,
        65535
      ],
      [
        678,
        765,
        65535
      ],
      [
        678,
        765,
        65535
      ],
      [
        678,
        765,
        65535
      ],
      [
        678,
        765,
        65535
      ],
      [
        678,
        765,
        65535
      ],
      [
        678,
        765,
        65535
      ],
      [
        678,
        681,
        65535
      ]
    ],
    []
  ]
}