{
  "zoneId": 346,
  "zoneType": 1,
  "width": 18,
  "height": 18,
  "type": 15,
  "world": 1,
  "objects": [
    {
      "type": 9,
      "x": 4,
      "y": 10,
      "unknown": 1,
      "param": 347
    },
    {
      "type": 9,
      "x": 7,
      "y": 14,
      "unknown": 1,
      "param": 347
    },
    {
      "type": 9,
      "x": 8,
      "y": 7,
      "unknown": 1,
      "param": 347
    },
    {
      "type": 9,
      "x": 13,
      "y": 14,
      "unknown": 1,
      "param": 347
    },
    {
      "type": 9,
      "x": 14,
      "y": 9,
      "unknown": 1,
      "param": 347
    },
    {
      "type": 12,
      "x": 4,
      "y": 10,
      "unknown": 1,
      "param": 65535
    },
    {
      "type": 12,
      "x": 7,
      "y": 14,
      "unknown": 1,
      "param": 65535
    },
    {
      "type": 12,
      "x": 8,
      "y": 7,
      "unknown": 1,
      "param": 65535
    },
    {
      "type": 12,
      "x": 13,
      "y": 14,
      "unknown": 1,
      "param": 65535
    },
    {
      "type": 12,
      "x": 14,
      "y": 9,
      "unknown": 1,
      "param": 65535
    }
  ],
  "actions": [
    {
      "triggers": [
        [
          "on_first_enter",
          203,
          16056,
          212,
          15564,
          212,
          0
        ]
      ],
      "commands": [
        [
          "hide_object",
          0,
          0,
          28488,
          21364,
          28528,
          0
        ],
        [
          "hide_object",
          1,
          0,
          28488,
          21364,
          28528,
          0
        ],
        [
          "hide_object",
          2,
          0,
          28488,
          21364,
          28528,
          0
        ],
        [
          "hide_object",
          3,
          0,
          28488,
          21364,
          28528,
          0
        ],
        [
          "hide_object",
          4,
          0,
          28488,
          21364,
          28528,
          0
        ],
        [
          "random",
          5,
          0,
          26708,
          28530,
          21111,
          0
        ],
        [
          "hide_object",
          5,
          40960,
          25,
          40960,
          28,
          0
        ],
        [
          "hide_object",
          6,
          0,
          28488,
          21364,
          28528,
          0
        ],
        [
          "hide_object",
          7,
          0,
          28488,
          21364,
          28528,
          0
        ],
        [
          "hide_object",
          8,
          0,
          28488,
          21364,
          28528,
          0
        ],
        [
          "hide_object",
          9,
          0,
          0,
          0,
          0,
          0
        ]
      ]
    },
    {
      "triggers": [
        [
          "on_first_enter",
          203,
          0,
          0,
          15348,
          212,
          0
        ],
        [
          "on_rand_var_eq",
          1,
          8,
          0,
          24914,
          25710,
          0
        ]
      ],
      "commands": [
        [
          "show_object",
          0,
          0,
          28488,
          21364,
          28528,
          0
        ],
        [
          "set_tile",
          4,
          10,
          2,
          150,
          25441,
          0
        ],
        [
          "redraw_tile",
          4,
          10,
          25938,
          29284,
          30561,
          0
        ],
        [
          "show_object",
          5,
          0,
          28488,
          21364,
          28528,
          0
        ]
      ]
    },
    {
      "triggers": [
        [
          "on_first_enter",
          203,
          0,
          0,
          15348,
          212,
          0
        ],
        [
          "on_rand_var_eq",
          2,
          8,
          0,
          24914,
          25710,
          0
        ]
      ],
      "commands": [
        [
          "show_object",
          1,
          0,
          28488,
          21364,
          28528,
          0
        ],
        [
          "set_tile",
          7,
          14,
          2,
          150,
          25441,
          0
        ],
        [
          "redraw_tile",
          7,
          14,
          25938,
          29284,
          30561,
          0
        ],
        [
          "show_object",
          6,
          0,
          28488,
          21364,
          28528,
          0
        ]
      ]
    },
    {
      "triggers": [
        [
          "on_first_enter",
          203,
          0,
          0,
          15348,
          212,
          0
        ],
        [
          "on_rand_var_eq",
          3,
          8,
          0,
          24914,
          25710,
          0
        ]
      ],
      "commands": [
        [
          "show_object",
          2,
          0,
          28488,
          21364,
          28528,
          0
        ],
        [
          "set_tile",
          8,
          7,
          2,
          150,
          25441,
          0
        ],
        [
          "redraw_tile",
          8,
          7,
          25938,
          29284,
          30561,
          0
        ],
        [
          "show_object",
          7,
          0,
          28488,
          21364,
          28528,
          0
        ]
      ]
    },
    {
      "triggers": [
        [
          "on_first_enter",
          203,
          0,
          0,
          15348,
          212,
          0
        ],
        [
          "on_rand_var_eq",
          4,
          8,
          0,
          24914,
          25710,
          0
        ]
      ],
      "commands": [
        [
          "show_object",
          3,
          0,
          28488,
          21364,
          28528,
          0
        ],
        [
          "set_tile",
          13,
          14,
          2,
          150,
          25441,
          0
        ],
        [
          "show_object",
          8,
          0,
          28488,
          21364,
          28528,
          0
        ]
      ]
    },
    {
      "triggers": [
        [
          "on_first_enter",
          203,
          0,
          0,
          15348,
          212,
          0
        ],
        [
          "on_rand_var_eq",
          5,
          8,
          0,
          24914,
          25710,
          0
        ]
      ],
      "commands": [
        [
          "show_object",
          4,
          0,
          28488,
          21364,
          28528,
          0
        ],
        [
          "set_tile",
          14,
          9,
          2,
          150,
          25441,
          0
        ],
        [
          "redraw_tile",
          14,
          9,
          25938,
          29284,
          30561,
          0
        ],
        [
          "show_object",
          9,
          0,
          28488,
          21364,
          28528,
          0
        ]
      ]
    },
    {
      "triggers": [
        [
          "on_bump_tile",
          4,
          10,
          145,
          30018,
          28781,
          0
        ]
      ],
      "commands": [
        [
          "set_temp_var",
          1,
          0,
          25939,
          17268,
          30063,
          0
        ]
      ]
    },
    {
      "triggers": [
        [
          "on_bump_tile",
          7,
          14,
          149,
          30018,
          28781,
          0
        ]
      ],
      "commands": [
        [
          "set_temp_var",
          1,
          0,
          25939,
          17268,
          30063,
          0
        ]
      ]
    },
    {
      "triggers": [
        [
          "on_bump_tile",
          8,
          7,
          153,
          30018,
          28781,
          0
        ]
      ],
      "commands": [
        [
          "set_temp_var",
          1,
          0,
          25939,
          17268,
          30063,
          0
        ]
      ]
    },
    {
      "triggers": [
        [
          "on_bump_tile",
          13,
          14,
          152,
          30018,
          28781,
          0
        ]
      ],
      "commands": [
        [
          "set_temp_var",
          1,
          0,
          25939,
          17268,
          30063,
          0
        ]
      ]
    },
    {
      "triggers": [
        [
          "on_bump_tile",
          14,
          9,
          152,
          30018,
          28781,
          0
        ]
      ],
      "commands": [
        [
          "set_temp_var",
          1,
          0,
          25939,
          17268,
          30063,
          0
        ]
      ]
    },
    {
      "triggers": [
        [
          "on_temp_var_eq",
          1,
          8,
          0,
          28483,
          28277,
          0
        ]
      ],
      "commands": [
        [
          "play_sound",
          6,
          0,
          56480,
          322,
          56604,
          0
        ],
        [
          "say_text",
          8,
          0,
          26707,
          30575,
          25940,
          7
        ],
        [
          "set_temp_var",
          0,
          0,
          25939,
          17268,
          30063,
          0
        ]
      ]
    },
    {
      "triggers": [
        [
          "on_drag_item",
          4,
          10,
          1,
          145,
          65535,
          0
        ],
        [
          "on_rand_var_eq",
          1,
          8,
          0,
          24914,
          25710,
          0
        ]
      ],
      "commands": [
        [
          "clear_tile",
          4,
          10,
          1,
          28525,
          25974,
          0
        ],
        [
          "clear_tile",
          4,
          10,
          2,
          28525,
          25974,
          0
        ],
        [
          "redraw_tile",
          4,
          10,
          25938,
          29284,
          30561,
          0
        ],
        [
          "play_sound",
          16,
          0,
          0,
          0,
          0,
          0
        ],
        [
          "render_changes",
          0,
          0,
          0,
          0,
          0,
          0
        ],
        [
          "hide_object",
          5,
          0,
          0,
          0,
          37900,
          0
        ]
      ]
    },
    {
      "triggers": [
        [
          "on_drag_item",
          7,
          14,
          1,
          149,
          65535,
          0
        ],
        [
          "on_rand_var_eq",
          2,
          8,
          0,
          24914,
          25710,
          0
        ]
      ],
      "commands": [
        [
          "play_sound",
          15,
          0,
          27728,
          31073,
          28499,
          0
        ],
        [
          "clear_tile",
          7,
          14,
          1,
          28525,
          25974,
          0
        ],
        [
          "redraw_tile",
          7,
          14,
          25938,
          29284,
          30561,
          0
        ],
        [
          "render_changes",
          0,
          0,
          0,
          0,
          0,
          0
        ],
        [
          "hide_object",
          6,
          0,
          0,
          0,
          37900,
          0
        ]
      ]
    },
    {
      "triggers": [
        [
          "on_drag_item",
          8,
          7,
          1,
          153,
          65535,
          0
        ],
        [
          "on_rand_var_eq",
          3,
          8,
          0,
          24914,
          25710,
          0
        ]
      ],
      "commands": [
        [
          "play_sound",
          15,
          0,
          27728,
          31073,
          28499,
          0
        ],
        [
          "clear_tile",
          8,
          7,
          1,
          28525,
          25974,
          0
        ],
        [
          "redraw_tile",
          8,
          7,
          25938,
          29284,
          30561,
          0
        ],
        [
          "render_changes",
          0,
          0,
          0,
          0,
          0,
          0
        ],
        [
          "hide_object",
          7,
          0,
          0,
          0,
          37900,
          0
        ]
      ]
    },
    {
      "triggers": [
        [
          "on_drag_item",
          13,
          14,
          1,
          152,
          65535,
          0
        ],
        [
          "on_rand_var_eq",
          4,
          8,
          0,
          24914,
          25710,
          0
        ]
      ],
      "commands": [
        [
          "play_sound",
          16,
          0,
          27728,
          31073,
          28499,
          0
        ],
        [
          "clear_tile",
          13,
          14,
          1,
          28525,
          25974,
          0
        ],
        [
          "redraw_tile",
          13,
          14,
          25938,
          29284,
          30561,
          0
        ],
        [
          "render_changes",
          0,
          0,
          0,
          0,
          0,
          0
        ],
        [
          "hide_object",
          8,
          0,
          0,
          0,
          37900,
          0
        ]
      ]
    },
    {
      "triggers": [
        [
          "on_drag_item",
          14,
          9,
          1,
          152,
          65535,
          0
        ],
        [
          "on_rand_var_eq",
          5,
          8,
          0,
          24914,
          25710,
          0
        ]
      ],
      "commands": [
        [
          "play_sound",
          16,
          0,
          27728,
          31073,
          28499,
          0
        ],
        [
          "clear_tile",
          14,
          9,
          1,
          28525,
          25974,
          0
        ],
        [
          "redraw_tile",
          14,
          9,
          25938,
          29284,
          30561,
          0
        ],
        [
          "render_changes",
          0,
          0,
          0,
          0,
          0,
          0
        ],
        [
          "hide_object",
          9,
          0,
          0,
          0,
          37900,
          0
        ]
      ]
    }
  ],
  "tilemap": [
    [
      [
        0,
        65535,
        65535
      ],
      [
        0,
        65535,
        65535
      ],
      [
        0,
        65535,
        65535
      ],
      [
        0,
        65535,
        65535
      ],
      [
        0,
        65535,
        65535
      ],
      [
        0,
        65535,
        65535
      ],
      [
        0,
        65535,
        65535
      ],
      [
        0,
        65535,
        65535
      ],
      [
        0,
        65535,
        65535
      ],
      [
        0,
        65535,
        65535
      ],
      [
        0,
        65535,
        65535
      ],
      [
        3,
        65535,
        65535
      ],
      [
        0,
        65535,
        65535
      ],
      [
        0,
        65535,
        65535
      ],
      [
        0,
        65535,
        65535
      ],
      [
        0,
        65535,
        65535
      ],
      [
        0,
        65535,
        65535
      ],
      [
        0,
        65535,
        65535
      ]
    ],
    [
      [
        0,
        65535,
        65535
      ],
      [
        0,
        65535,
        65535
      ],
      [
        0,
        65535,
        65535
      ],
      [
        0,
        65535,
        65535
      ],
      [
        0,
        65535,
        65535
      ],
      [
        0,
        65535,
        65535
      ],
      [
        0,
        65535,
        65535
      ],
      [
        0,
        65535,
        65535
      ],
      [
        0,
        65535,
        65535
      ],
      [
        0,
        65535,
        65535
      ],
      [
        0,
        65535,
        65535
      ],
      [
        0,
        65535,
        65535
      ],
      [
        0,
        65535,
        65535
      ],
      [
        0,
        65535,
        65535
      ],
      [
        0,
        65535,
        65535
      ],
      [
        0,
        65535,
        65535
      ],
      [
        0,
        65535,
        65535
      ],
      [
        0,
        65535,
        65535
      ]
    ],
    [
      [
        0,
        65535,
        65535
      ],
      [
        2,
        65535,
        65535
      ],
      [
        0,
        23,
        65535
      ],
      [
        0,
        21,
        166
      ],
      [
        0,
        21,
        65535
      ],
      [
        0,
        21,
        65535
      ],
      [
        0,
        21,
        65535
      ],
      [
        0,
        21,
        65535
      ],
      [
        0,
        21,
        65535
      ],
      [
        0,
        21,
        65535
      ],
      [
        402,
        21,
        65535
      ],
      [
        395,
        21,
        1139
      ],
      [
        395,
        21,
        1137
      ],
      [
        395,
        21,
        65535
      ],
      [
        395,
        21,
        65535
      ],
      [
        401,
        21,
        1139
      ],
      [
        0,
        24,
        65535
      ],
      [
        0,
        65535,
        65535
      ]
    ],
    [
      [
        0,
        65535,
        65535
      ],
      [
        0,
        65535,
        65535
      ],
      [
        0,
        22,
        65535
      ],
      [
        406,
        165,
        65535
      ],
      [
        407,
        65535,
        65535
      ],
      [
        356,
        65535,
        124
      ],
      [
        0,
        65535,
        125
      ],
      [
        0,
        65535,
        125
      ],
      [
        0,
        65535,
        126
      ],
      [
        407,
        65535,
        127
      ],
      [
        398,
        65535,
        65535
      ],
      [
        1127,
        1140,
        65535
      ],
      [
        1123,
        1138,
        65535
      ],
      [
        1123,
        65535,
        65535
      ],
      [
        1128,
        65535,
        65535
      ],
      [
        397,
        1140,
        65535
      ],
      [
        0,
        22,
        65535
      ],
      [
        0,
        65535,
        65535
      ]
    ],
    [
      [
        0,
        65535,
        65535
      ],
      [
        0,
        65535,
        65535
      ],
      [
        0,
        22,
        65535
      ],
      [
        404,
        65535,
        65535
      ],
      [
        402,
        65535,
        65535
      ],
      [
        401,
        128,
        65535
      ],
      [
        0,
        129,
        65535
      ],
      [
        0,
        129,
        65535
      ],
      [
        0,
        130,
        65535
      ],
      [
        0,
        131,
        65535
      ],
      [
        398,
        65535,
        65535
      ],
      [
        1125,
        65535,
        65535
      ],
      [
        403,
        1141,
        65535
      ],
      [
        403,
        1141,
        65535
      ],
      [
        1126,
        65535,
        65535
      ],
      [
        394,
        65535,
        65535
      ],
      [
        401,
        22,
        65535
      ],
      [
        0,
        65535,
        65535
      ]
    ],
    [
      [
        0,
        65535,
        65535
      ],
      [
        0,
        65535,
        65535
      ],
      [
        0,
        22,
        65535
      ],
      [
        402,
        65535,
        65535
      ],
      [
        396,
        65535,
        65535
      ],
      [
        397,
        128,
        65535
      ],
      [
        0,
        129,
        163
      ],
      [
        0,
        129,
        65535
      ],
      [
        0,
        130,
        65535
      ],
      [
        0,
        131,
        65535
      ],
      [
        398,
        65535,
        65535
      ],
      [
        1125,
        65535,
        65535
      ],
      [
        1124,
        1143,
        65535
      ],
      [
        1124,
        1143,
        65535
      ],
      [
        1126,
        65535,
        1139
      ],
      [
        403,
        390,
        65535
      ],
      [
        397,
        22,
        65535
      ],
      [
        0,
        65535,
        65535
      ]
    ],
    [
      [
        0,
        65535,
        65535
      ],
      [
        0,
        65535,
        65535
      ],
      [
        0,
        22,
        65535
      ],
      [
        398,
        65535,
        65535
      ],
      [
        391,
        65535,
        65535
      ],
      [
        399,
        156,
        65535
      ],
      [
        0,
        133,
        65535
      ],
      [
        0,
        133,
        65535
      ],
      [
        0,
        134,
        65535
      ],
      [
        400,
        135,
        65535
      ],
      [
        398,
        65535,
        65535
      ],
      [
        1129,
        65535,
        65535
      ],
      [
        1124,
        65535,
        65535
      ],
      [
        1124,
        65535,
        65535
      ],
      [
        1130,
        1140,
        65535
      ],
      [
        391,
        65535,
        65535
      ],
      [
        399,
        22,
        65535
      ],
      [
        0,
        65535,
        65535
      ]
    ],
    [
      [
        0,
        65535,
        65535
      ],
      [
        0,
        65535,
        65535
      ],
      [
        0,
        22,
        65535
      ],
      [
        400,
        65535,
        65535
      ],
      [
        399,
        65535,
        65535
      ],
      [
        357,
        136,
        65535
      ],
      [
        0,
        138,
        114
      ],
      [
        0,
        138,
        65535
      ],
      [
        154,
        153,
        65535
      ],
      [
        0,
        139,
        65535
      ],
      [
        400,
        65535,
        65535
      ],
      [
        392,
        33,
        65535
      ],
      [
        392,
        21,
        352
      ],
      [
        392,
        21,
        118
      ],
      [
        392,
        21,
        119
      ],
      [
        399,
        21,
        120
      ],
      [
        0,
        19,
        65535
      ],
      [
        0,
        65535,
        65535
      ]
    ],
    [
      [
        0,
        65535,
        65535
      ],
      [
        0,
        65535,
        124
      ],
      [
        0,
        22,
        126
      ],
      [
        357,
        65535,
        126
      ],
      [
        358,
        65535,
        126
      ],
      [
        0,
        65535,
        127
      ],
      [
        0,
        65535,
        65535
      ],
      [
        281,
        65535,
        65535
      ],
      [
        282,
        65535,
        65535
      ],
      [
        356,
        65535,
        65535
      ],
      [
        357,
        65535,
        65535
      ],
      [
        0,
        65535,
        65535
      ],
      [
        406,
        351,
        65535
      ],
      [
        0,
        121,
        65535
      ],
      [
        0,
        122,
        65535
      ],
      [
        0,
        123,
        65535
      ],
      [
        0,
        22,
        65535
      ],
      [
        0,
        65535,
        65535
      ]
    ],
    [
      [
        0,
        65535,
        65535
      ],
      [
        0,
        156,
        65535
      ],
      [
        0,
        134,
        65535
      ],
      [
        0,
        134,
        65535
      ],
      [
        0,
        143,
        65535
      ],
      [
        0,
        135,
        65535
      ],
      [
        0,
        9,
        65535
      ],
      [
        0,
        21,
        65535
      ],
      [
        281,
        21,
        65535
      ],
      [
        0,
        34,
        65535
      ],
      [
        0,
        65535,
        65535
      ],
      [
        0,
        65535,
        170
      ],
      [
        0,
        65535,
        65535
      ],
      [
        0,
        136,
        65535
      ],
      [
        151,
        152,
        65535
      ],
      [
        0,
        139,
        166
      ],
      [
        0,
        22,
        65535
      ],
      [
        0,
        65535,
        65535
      ]
    ],
    [
      [
        0,
        65535,
        65535
      ],
      [
        0,
        136,
        65535
      ],
      [
        0,
        115,
        65535
      ],
      [
        0,
        138,
        114
      ],
      [
        144,
        145,
        65535
      ],
      [
        0,
        139,
        65535
      ],
      [
        0,
        65535,
        65535
      ],
      [
        281,
        65535,
        65535
      ],
      [
        0,
        65535,
        65535
      ],
      [
        0,
        65535,
        65535
      ],
      [
        0,
        65535,
        65535
      ],
      [
        0,
        171,
        65535
      ],
      [
        0,
        65535,
        65535
      ],
      [
        0,
        65535,
        65535
      ],
      [
        281,
        65535,
        65535
      ],
      [
        0,
        165,
        65535
      ],
      [
        0,
        10,
        65535
      ],
      [
        0,
        65535,
        65535
      ]
    ],
    [
      [
        0,
        65535,
        65535
      ],
      [
        0,
        65535,
        65535
      ],
      [
        0,
        65535,
        65535
      ],
      [
        0,
        65535,
        65535
      ],
      [
        282,
        65535,
        65535
      ],
      [
        0,
        65535,
        124
      ],
      [
        0,
        65535,
        125
      ],
      [
        0,
        65535,
        126
      ],
      [
        0,
        65535,
        125
      ],
      [
        0,
        65535,
        127
      ],
      [
        0,
        65535,
        65535
      ],
      [
        3,
        65535,
        65535
      ],
      [
        281,
        65535,
        65535
      ],
      [
        282,
        65535,
        65535
      ],
      [
        282,
        65535,
        65535
      ],
      [
        281,
        65535,
        65535
      ],
      [
        0,
        65535,
        65535
      ],
      [
        0,
        65535,
        65535
      ]
    ],
    [
      [
        3,
        65535,
        65535
      ],
      [
        0,
        65535,
        65535
      ],
      [
        0,
        65535,
        65535
      ],
      [
        281,
        65535,
        65535
      ],
      [
        281,
        65535,
        65535
      ],
      [
        0,
        128,
        65535
      ],
      [
        0,
        129,
        65535
      ],
      [
        0,
        130,
        65535
      ],
      [
        0,
        129,
        163
      ],
      [
        0,
        132,
        65535
      ],
      [
        0,
        24,
        65535
      ],
      [
        0,
        65535,
        65535
      ],
      [
        0,
        65535,
        118
      ],
      [
        0,
        355,
        119
      ],
      [
        0,
        65535,
        120
      ],
      [
        0,
        65535,
        65535
      ],
      [
        0,
        65535,
        65535
      ],
      [
        0,
        65535,
        65535
      ]
    ],
    [
      [
        0,
        65535,
        65535
      ],
      [
        0,
        65535,
        65535
      ],
      [
        0,
        26,
        65535
      ],
      [
        0,
        65535,
        65535
      ],
      [
        0,
        65535,
        65535
      ],
      [
        0,
        156,
        65535
      ],
      [
        0,
        133,
        160
      ],
      [
        0,
        142,
        65535
      ],
      [
        0,
        133,
        160
      ],
      [
        0,
        135,
        65535
      ],
      [
        0,
        22,
        65535
      ],
      [
        0,
        65535,
        65535
      ],
      [
        0,
        121,
        65535
      ],
      [
        0,
        122,
        65535
      ],
      [
        0,
        123,
        65535
      ],
      [
        0,
        65535,
        65535
      ],
      [
        0,
        26,
        65535
      ],
      [
        0,
        65535,
        65535
      ]
    ],
    [
      [
        0,
        65535,
        65535
      ],
      [
        0,
        65535,
        65535
      ],
      [
        0,
        22,
        65535
      ],
      [
        281,
        65535,
        65535
      ],
      [
        281,
        65535,
        65535
      ],
      [
        281,
        136,
        65535
      ],
      [
        0,
        146,
        161
      ],
      [
        147,
        149,
        65535
      ],
      [
        0,
        148,
        161
      ],
      [
        0,
        139,
        65535
      ],
      [
        0,
        22,
        65535
      ],
      [
        0,
        65535,
        65535
      ],
      [
        0,
        136,
        65535
      ],
      [
        151,
        152,
        65535
      ],
      [
        282,
        139,
        65535
      ],
      [
        282,
        65535,
        164
      ],
      [
        0,
        22,
        65535
      ],
      [
        0,
        65535,
        65535
      ]
    ],
    [
      [
        0,
        65535,
        65535
      ],
      [
        0,
        65535,
        65535
      ],
      [
        0,
        22,
        65535
      ],
      [
        0,
        65535,
        65535
      ],
      [
        282,
        65535,
        65535
      ],
      [
        281,
        65535,
        65535
      ],
      [
        281,
        65535,
        65535
      ],
      [
        282,
        65535,
        65535
      ],
      [
        0,
        65535,
        65535
      ],
      [
        0,
        65535,
        65535
      ],
      [
        0,
        22,
        65535
      ],
      [
        0,
        65535,
        65535
      ],
      [
        0,
        65535,
        65535
      ],
      [
        282,
        65535,
        65535
      ],
      [
        281,
        65535,
        65535
      ],
      [
        281,
        165,
        65535
      ],
      [
        4,
        22,
        65535
      ],
      [
        0,
        65535,
        65535
      ]
    ],
    [
      [
        0,
        65535,
        65535
      ],
      [
        0,
        65535,
        65535
      ],
      [
        0,
        25,
        65535
      ],
      [
        0,
        21,
        65535
      ],
      [
        2,
        21,
        65535
      ],
      [
        0,
        21,
        65535
      ],
      [
        0,
        21,
        65535
      ],
      [
        0,
        21,
        65535
      ],
      [
        0,
        21,
        65535
      ],
      [
        0,
        21,
        65535
      ],
      [
        0,
        37,
        65535
      ],
      [
        35,
        65535,
        65535
      ],
      [
        0,
        21,
        65535
      ],
      [
        0,
        21,
        65535
      ],
      [
        0,
        21,
        65535
      ],
      [
        0,
        21,
        65535
      ],
      [
        0,
        29,
        65535
      ],
      [
        0,
        65535,
        65535
      ]
    ],
    [
      [
        0,
        65535,
        65535
      ],
      [
        0,
        65535,
        65535
      ],
      [
        0,
        65535,
        65535
      ],
      [
        0,
        65535,
        65535
      ],
      [
        0,
        65535,
        65535
      ],
      [
        0,
        65535,
        65535
      ],
      [
        0,
        65535,
        65535
      ],
      [
        0,
        65535,
        65535
      ],
      [
        0,
        65535,
        65535
      ],
      [
        0,
        65535,
        65535
      ],
      [
        0,
        65535,
        65535
      ],
      [
        0,
        65535,
        65535
      ],
      [
        0,
        65535,
        65535
      ],
      [
        0,
        65535,
        65535
      ],
      [
        0,
        65535,
        65535
      ],
      [
        0,
        65535,
        65535
      ],
      [
        0,
        65535,
        65535
      ],
      [
        0,
        65535,
        65535
      ]
    ],
    []
  ]
}