{
  "zoneId": 358,
  "zoneType": 1,
  "width": 18,
  "height": 18,
  "type": 15,
  "world": 1,
  "objects": [
    {
      "type": 12,
      "x": 8,
      "y": 11,
      "unknown": 1,
      "param": 65535
    },
    {
      "type": 0,
      "x": 7,
      "y": 8,
      "unknown": 1,
      "param": 65535
    }
  ],
  "actions": [
    {
      "triggers": [
        [
          "on_enter",
          0,
          0,
          0,
          28672,
          19488,
          0
        ]
      ],
      "commands": [
        [
          "set_tile",
          8,
          11,
          1,
          149,
          0,
          0
        ],
        [
          "clear_tile",
          8,
          12,
          1,
          136,
          29295,
          0
        ],
        [
          "redraw_tiles",
          8,
          11,
          8,
          12,
          0,
          0
        ]
      ]
    },
    {
      "triggers": [
        [
          "on_bump_tile",
          8,
          13,
          373,
          30018,
          28781,
          0
        ]
      ],
      "commands": [
        [
          "play_sound",
          4,
          0,
          27728,
          31073,
          28499,
          0
        ],
        [
          "add_health",
          65526,
          0,
          25665,
          21604,
          18543,
          0
        ],
        [
          "say_text",
          8,
          0,
          26707,
          30575,
          25940,
          23
        ]
      ]
    },
    {
      "triggers": [
        [
          "on_bump_tile",
          6,
          13,
          288,
          30018,
          28781,
          0
        ],
        [
          "on_temp_var_eq",
          0,
          8,
          0,
          28483,
          28277,
          0
        ]
      ],
      "commands": [
        [
          "say_text",
          8,
          0,
          26707,
          30575,
          25940,
          68
        ]
      ]
    },
    {
      "triggers": [
        [
          "on_drag_item",
          6,
          11,
          2,
          1762,
          511,
          0
        ],
        [
          "on_temp_var_eq",
          0,
          8,
          0,
          28483,
          28277,
          0
        ]
      ],
      "commands": [
        [
          "play_sound",
          25,
          0,
          27728,
          31073,
          28499,
          0
        ],
        [
          "set_tile",
          6,
          11,
          2,
          1761,
          25441,
          0
        ],
        [
          "redraw_tile",
          6,
          11,
          25938,
          29284,
          30561,
          0
        ],
        [
          "render_changes",
          17,
          0,
          25938,
          29284,
          30561,
          0
        ],
        [
          "wait_ticks",
          2,
          0,
          24919,
          29801,
          28486,
          0
        ],
        [
          "set_tile",
          7,
          13,
          1,
          289,
          25441,
          0
        ],
        [
          "clear_tile",
          8,
          13,
          1,
          28525,
          25974,
          0
        ],
        [
          "set_tile",
          9,
          13,
          1,
          287,
          25,
          0
        ],
        [
          "redraw_tiles",
          7,
          13,
          9,
          13,
          30561,
          0
        ],
        [
          "render_changes",
          0,
          0,
          60380,
          221,
          0,
          0
        ],
        [
          "set_temp_var",
          1,
          0,
          25939,
          17268,
          30063,
          0
        ]
      ]
    },
    {
      "triggers": [
        [
          "on_bump_tile",
          8,
          11,
          149,
          30018,
          28781,
          0
        ],
        [
          "on_temp_var_eq",
          1,
          8,
          0,
          28483,
          28277,
          0
        ]
      ],
      "commands": [
        [
          "play_sound",
          6,
          28535,
          27762,
          100,
          101,
          0
        ],
        [
          "say_text",
          8,
          0,
          26707,
          30575,
          25940,
          28
        ]
      ]
    },
    {
      "triggers": [
        [
          "on_bump_tile",
          8,
          11,
          149,
          0,
          0,
          0
        ],
        [
          "on_temp_var_neq",
          1,
          0,
          0,
          0,
          0,
          0
        ]
      ],
      "commands": [
        [
          "clear_tile",
          8,
          11,
          1,
          109,
          50732,
          0
        ],
        [
          "redraw_tile",
          8,
          11,
          0,
          0,
          0,
          0
        ],
        [
          "render_changes",
          1624,
          0,
          52624,
          135,
          52812,
          0
        ],
        [
          "play_sound",
          15,
          0,
          0,
          0,
          0,
          0
        ],
        [
          "wait_ticks",
          4,
          0,
          24919,
          29801,
          28486,
          0
        ],
        [
          "set_tile",
          8,
          11,
          1,
          1056,
          25441,
          0
        ],
        [
          "redraw_tile",
          8,
          11,
          25938,
          29284,
          30561,
          0
        ],
        [
          "render_changes",
          17,
          0,
          25938,
          29284,
          30561,
          0
        ],
        [
          "wait_ticks",
          2,
          0,
          24919,
          29801,
          28486,
          0
        ],
        [
          "move_map_tile",
          8,
          11,
          1,
          8,
          12,
          0
        ],
        [
          "set_tile",
          8,
          11,
          1,
          355,
          0,
          0
        ],
        [
          "redraw_tiles",
          8,
          11,
          8,
          12,
          0,
          0
        ],
        [
          "set_temp_var",
          3,
          0,
          0,
          0,
          0,
          0
        ],
        [
          "set_rand_var",
          30,
          0,
          49700,
          135,
          0,
          0
        ]
      ]
    },
    {
      "triggers": [
        [
          "on_drag_item",
          8,
          11,
          1,
          149,
          65535,
          0
        ]
      ],
      "commands": [
        [
          "clear_tile",
          8,
          11,
          1,
          109,
          50732,
          0
        ],
        [
          "redraw_tile",
          8,
          11,
          0,
          0,
          0,
          0
        ],
        [
          "render_changes",
          1624,
          0,
          52624,
          135,
          52812,
          0
        ],
        [
          "play_sound",
          15,
          0,
          0,
          0,
          0,
          0
        ],
        [
          "wait_ticks",
          4,
          0,
          24919,
          29801,
          28486,
          0
        ],
        [
          "set_tile",
          8,
          11,
          1,
          1056,
          25441,
          0
        ],
        [
          "redraw_tile",
          8,
          11,
          25938,
          29284,
          30561,
          0
        ],
        [
          "render_changes",
          17,
          0,
          25938,
          29284,
          30561,
          0
        ],
        [
          "wait_ticks",
          2,
          0,
          24919,
          29801,
          28486,
          0
        ],
        [
          "move_map_tile",
          8,
          11,
          1,
          8,
          12,
          0
        ],
        [
          "set_tile",
          8,
          11,
          1,
          355,
          7904,
          0
        ],
        [
          "redraw_tiles",
          8,
          11,
          8,
          12,
          0,
          0
        ],
        [
          "set_rand_var",
          30,
          0,
          49700,
          135,
          0,
          0
        ]
      ]
    },
    {
      "triggers": [
        [
          "on_rand_var_eq",
          30,
          0,
          0,
          0,
          0,
          0
        ],
        [
          "on_player_at_pos",
          8,
          12,
          0,
          22618,
          12346,
          0
        ]
      ],
      "commands": [
        [
          "set_player_pos",
          8,
          13,
          62692,
          109,
          51532,
          0
        ]
      ]
    },
    {
      "triggers": [
        [
          "on_rand_var_eq",
          30,
          0,
          0,
          24914,
          25710,
          0
        ]
      ],
      "commands": [
        [
          "render_changes",
          17,
          0,
          25938,
          29284,
          30561,
          0
        ],
        [
          "wait_ticks",
          2,
          0,
          24919,
          29801,
          28486,
          0
        ]
      ]
    },
    {
      "triggers": [
        [
          "on_rand_var_eq",
          30,
          9,
          0,
          26707,
          30575,
          0
        ],
        [
          "on_temp_var_eq",
          1,
          8,
          0,
          28483,
          28277,
          0
        ]
      ],
      "commands": [
        [
          "show_text",
          8,
          12,
          26707,
          30575,
          25940,
          122
        ],
        [
          "spawn_item",
          65535,
          8,
          12,
          28783,
          29769,
          0
        ],
        [
          "set_temp_var",
          2,
          0,
          25939,
          17268,
          30063,
          0
        ],
        [
          "set_rand_var",
          0,
          0,
          0,
          0,
          0,
          0
        ]
      ]
    },
    {
      "triggers": [
        [
          "on_bump_tile",
          8,
          12,
          1056,
          25938,
          29284,
          0
        ]
      ],
      "commands": [
        [
          "set_rand_var",
          30,
          0,
          21325,
          21280,
          28257,
          0
        ]
      ]
    },
    {
      "triggers": [
        [
          "on_rand_var_eq",
          30,
          0,
          0,
          53508,
          135,
          0
        ],
        [
          "on_temp_var_eq",
          2,
          8,
          0,
          28483,
          28277,
          0
        ]
      ],
      "commands": [
        [
          "show_text",
          8,
          12,
          26707,
          30575,
          25940,
          22
        ],
        [
          "set_rand_var",
          0,
          0,
          26707,
          30575,
          25940,
          0
        ]
      ]
    },
    {
      "triggers": [
        [
          "on_rand_var_eq",
          30,
          0,
          0,
          0,
          0,
          0
        ],
        [
          "on_temp_var_eq",
          3,
          8,
          0,
          28483,
          28277,
          0
        ]
      ],
      "commands": [
        [
          "show_text",
          8,
          12,
          64180,
          109,
          32364,
          42
        ],
        [
          "set_rand_var",
          0,
          0,
          24914,
          25710,
          30030,
          0
        ]
      ]
    }
  ],
  "tilemap": [
    [
      [
        0,
        65535,
        65535
      ],
      [
        0,
        65535,
        65535
      ],
      [
        0,
        65535,
        65535
      ],
      [
        0,
        65535,
        65535
      ],
      [
        0,
        65535,
        65535
      ],
      [
        3,
        65535,
        65535
      ],
      [
        0,
        65535,
        65535
      ],
      [
        0,
        65535,
        65535
      ],
      [
        0,
        65535,
        65535
      ],
      [
        0,
        65535,
        65535
      ],
      [
        0,
        65535,
        65535
      ],
      [
        0,
        65535,
        65535
      ],
      [
        0,
        65535,
        65535
      ],
      [
        0,
        65535,
        65535
      ],
      [
        0,
        65535,
        65535
      ],
      [
        0,
        65535,
        65535
      ],
      [
        0,
        65535,
        65535
      ],
      [
        0,
        65535,
        65535
      ]
    ],
    [
      [
        0,
        65535,
        65535
      ],
      [
        0,
        39,
        65535
      ],
      [
        0,
        101,
        65535
      ],
      [
        0,
        53,
        65535
      ],
      [
        0,
        53,
        65535
      ],
      [
        0,
        64,
        65535
      ],
      [
        0,
        65535,
        65535
      ],
      [
        0,
        65535,
        65535
      ],
      [
        0,
        39,
        65535
      ],
      [
        0,
        53,
        65535
      ],
      [
        0,
        64,
        65535
      ],
      [
        0,
        65535,
        65535
      ],
      [
        0,
        65535,
        65535
      ],
      [
        0,
        65535,
        65535
      ],
      [
        3,
        65535,
        65535
      ],
      [
        0,
        65,
        65535
      ],
      [
        0,
        40,
        65535
      ],
      [
        0,
        65535,
        65535
      ]
    ],
    [
      [
        0,
        65535,
        65535
      ],
      [
        2,
        65535,
        65535
      ],
      [
        88,
        65535,
        65535
      ],
      [
        0,
        65535,
        65535
      ],
      [
        347,
        65535,
        65535
      ],
      [
        0,
        60,
        65535
      ],
      [
        0,
        40,
        65535
      ],
      [
        0,
        65535,
        65535
      ],
      [
        0,
        65535,
        65535
      ],
      [
        0,
        65535,
        65535
      ],
      [
        0,
        60,
        65535
      ],
      [
        47,
        40,
        65535
      ],
      [
        346,
        65535,
        65535
      ],
      [
        0,
        39,
        65535
      ],
      [
        0,
        53,
        65535
      ],
      [
        0,
        61,
        65535
      ],
      [
        345,
        65535,
        65535
      ],
      [
        0,
        65535,
        65535
      ]
    ],
    [
      [
        0,
        65535,
        65535
      ],
      [
        0,
        65535,
        65535
      ],
      [
        0,
        57,
        65535
      ],
      [
        0,
        54,
        65535
      ],
      [
        0,
        46,
        65535
      ],
      [
        0,
        65535,
        65535
      ],
      [
        0,
        65535,
        65535
      ],
      [
        0,
        65535,
        65535
      ],
      [
        0,
        65535,
        65535
      ],
      [
        0,
        65535,
        65535
      ],
      [
        0,
        65535,
        65535
      ],
      [
        0,
        65535,
        65535
      ],
      [
        0,
        65535,
        65535
      ],
      [
        2,
        65535,
        65535
      ],
      [
        0,
        65535,
        65535
      ],
      [
        0,
        65535,
        65535
      ],
      [
        0,
        65535,
        65535
      ],
      [
        0,
        65535,
        65535
      ]
    ],
    [
      [
        0,
        65535,
        65535
      ],
      [
        346,
        65535,
        65535
      ],
      [
        0,
        55,
        65535
      ],
      [
        0,
        287,
        275
      ],
      [
        0,
        288,
        170
      ],
      [
        0,
        288,
        65535
      ],
      [
        0,
        288,
        65535
      ],
      [
        0,
        288,
        65535
      ],
      [
        0,
        288,
        65535
      ],
      [
        0,
        288,
        65535
      ],
      [
        0,
        288,
        65535
      ],
      [
        0,
        288,
        170
      ],
      [
        0,
        289,
        275
      ],
      [
        0,
        65535,
        65535
      ],
      [
        0,
        65535,
        65535
      ],
      [
        3,
        65535,
        65535
      ],
      [
        0,
        65535,
        65535
      ],
      [
        0,
        65535,
        65535
      ]
    ],
    [
      [
        0,
        65535,
        65535
      ],
      [
        0,
        57,
        65535
      ],
      [
        0,
        62,
        65535
      ],
      [
        0,
        275,
        65535
      ],
      [
        0,
        171,
        65535
      ],
      [
        0,
        65535,
        65535
      ],
      [
        0,
        65535,
        65535
      ],
      [
        0,
        65535,
        65535
      ],
      [
        3,
        65535,
        65535
      ],
      [
        0,
        65535,
        65535
      ],
      [
        0,
        65535,
        65535
      ],
      [
        0,
        171,
        65535
      ],
      [
        0,
        275,
        65535
      ],
      [
        0,
        65535,
        65535
      ],
      [
        0,
        65535,
        65535
      ],
      [
        365,
        41,
        65535
      ],
      [
        365,
        65535,
        65535
      ],
      [
        0,
        65535,
        65535
      ]
    ],
    [
      [
        0,
        65535,
        65535
      ],
      [
        0,
        55,
        65535
      ],
      [
        0,
        65535,
        65535
      ],
      [
        0,
        275,
        65535
      ],
      [
        0,
        65535,
        65535
      ],
      [
        0,
        65535,
        124
      ],
      [
        0,
        125,
        185
      ],
      [
        0,
        125,
        1715
      ],
      [
        0,
        125,
        1716
      ],
      [
        0,
        125,
        185
      ],
      [
        0,
        65535,
        127
      ],
      [
        0,
        65535,
        65535
      ],
      [
        0,
        275,
        65535
      ],
      [
        0,
        65535,
        65535
      ],
      [
        365,
        65535,
        65535
      ],
      [
        371,
        56,
        65535
      ],
      [
        371,
        65535,
        65535
      ],
      [
        0,
        65535,
        65535
      ]
    ],
    [
      [
        0,
        65535,
        65535
      ],
      [
        0,
        44,
        65535
      ],
      [
        0,
        65535,
        65535
      ],
      [
        3,
        275,
        65535
      ],
      [
        0,
        65535,
        65535
      ],
      [
        0,
        128,
        158
      ],
      [
        129,
        129,
        65535
      ],
      [
        129,
        65535,
        1717
      ],
      [
        129,
        65535,
        1718
      ],
      [
        129,
        129,
        65535
      ],
      [
        0,
        131,
        65535
      ],
      [
        0,
        65535,
        65535
      ],
      [
        0,
        275,
        65535
      ],
      [
        367,
        65535,
        65535
      ],
      [
        372,
        65535,
        65535
      ],
      [
        365,
        56,
        65535
      ],
      [
        365,
        65535,
        65535
      ],
      [
        365,
        65535,
        65535
      ]
    ],
    [
      [
        0,
        65535,
        65535
      ],
      [
        0,
        65535,
        65535
      ],
      [
        0,
        65535,
        65535
      ],
      [
        0,
        275,
        65535
      ],
      [
        0,
        65535,
        65535
      ],
      [
        0,
        128,
        65535
      ],
      [
        129,
        129,
        65535
      ],
      [
        129,
        1719,
        65535
      ],
      [
        129,
        1720,
        65535
      ],
      [
        129,
        129,
        65535
      ],
      [
        0,
        131,
        65535
      ],
      [
        0,
        65535,
        65535
      ],
      [
        0,
        275,
        65535
      ],
      [
        0,
        65535,
        65535
      ],
      [
        0,
        65535,
        645
      ],
      [
        368,
        56,
        65535
      ],
      [
        368,
        65535,
        65535
      ],
      [
        372,
        65535,
        65535
      ]
    ],
    [
      [
        0,
        65535,
        65535
      ],
      [
        0,
        65535,
        65535
      ],
      [
        0,
        7,
        65535
      ],
      [
        0,
        275,
        65535
      ],
      [
        0,
        65535,
        65535
      ],
      [
        0,
        128,
        158
      ],
      [
        129,
        185,
        65535
      ],
      [
        129,
        129,
        65535
      ],
      [
        129,
        129,
        126
      ],
      [
        129,
        185,
        65535
      ],
      [
        0,
        131,
        65535
      ],
      [
        4,
        65535,
        65535
      ],
      [
        0,
        275,
        65535
      ],
      [
        0,
        65535,
        65535
      ],
      [
        0,
        643,
        65535
      ],
      [
        0,
        56,
        65535
      ],
      [
        371,
        65535,
        65535
      ],
      [
        0,
        65535,
        65535
      ]
    ],
    [
      [
        0,
        65535,
        65535
      ],
      [
        0,
        65535,
        65535
      ],
      [
        0,
        65535,
        65535
      ],
      [
        0,
        275,
        65535
      ],
      [
        0,
        65535,
        65535
      ],
      [
        0,
        156,
        65535
      ],
      [
        0,
        133,
        65535
      ],
      [
        0,
        133,
        65535
      ],
      [
        0,
        142,
        65535
      ],
      [
        0,
        133,
        65535
      ],
      [
        0,
        135,
        160
      ],
      [
        0,
        65535,
        65535
      ],
      [
        0,
        275,
        65535
      ],
      [
        0,
        65535,
        65535
      ],
      [
        0,
        65,
        65535
      ],
      [
        0,
        61,
        65535
      ],
      [
        0,
        65535,
        65535
      ],
      [
        0,
        65535,
        65535
      ]
    ],
    [
      [
        0,
        65535,
        65535
      ],
      [
        2,
        65535,
        65535
      ],
      [
        0,
        65535,
        65535
      ],
      [
        0,
        275,
        65535
      ],
      [
        0,
        65535,
        170
      ],
      [
        0,
        136,
        65535
      ],
      [
        0,
        138,
        1762
      ],
      [
        0,
        146,
        65535
      ],
      [
        147,
        149,
        150
      ],
      [
        0,
        148,
        65535
      ],
      [
        0,
        139,
        161
      ],
      [
        0,
        65535,
        170
      ],
      [
        0,
        275,
        65535
      ],
      [
        0,
        65535,
        65535
      ],
      [
        0,
        56,
        65535
      ],
      [
        99,
        65535,
        65535
      ],
      [
        0,
        65535,
        644
      ],
      [
        0,
        65535,
        65535
      ]
    ],
    [
      [
        0,
        65535,
        65535
      ],
      [
        0,
        65535,
        65535
      ],
      [
        0,
        65535,
        65535
      ],
      [
        0,
        275,
        65535
      ],
      [
        0,
        171,
        65535
      ],
      [
        0,
        65535,
        65535
      ],
      [
        0,
        65535,
        65535
      ],
      [
        0,
        65535,
        65535
      ],
      [
        0,
        65535,
        65535
      ],
      [
        0,
        65535,
        65535
      ],
      [
        0,
        65535,
        65535
      ],
      [
        0,
        171,
        65535
      ],
      [
        0,
        275,
        65535
      ],
      [
        0,
        65535,
        65535
      ],
      [
        0,
        56,
        65535
      ],
      [
        364,
        65535,
        65535
      ],
      [
        366,
        642,
        65535
      ],
      [
        0,
        65535,
        65535
      ]
    ],
    [
      [
        0,
        65535,
        65535
      ],
      [
        0,
        65535,
        65535
      ],
      [
        0,
        65535,
        65535
      ],
      [
        0,
        287,
        65535
      ],
      [
        0,
        288,
        65535
      ],
      [
        0,
        288,
        65535
      ],
      [
        0,
        288,
        65535
      ],
      [
        0,
        288,
        65535
      ],
      [
        0,
        373,
        65535
      ],
      [
        0,
        288,
        65535
      ],
      [
        0,
        288,
        65535
      ],
      [
        0,
        288,
        65535
      ],
      [
        0,
        289,
        65535
      ],
      [
        0,
        65535,
        65535
      ],
      [
        0,
        42,
        65535
      ],
      [
        368,
        65535,
        65535
      ],
      [
        370,
        65535,
        65535
      ],
      [
        369,
        65535,
        65535
      ]
    ],
    [
      [
        0,
        65535,
        65535
      ],
      [
        0,
        65535,
        65535
      ],
      [
        0,
        65535,
        65535
      ],
      [
        0,
        65535,
        65535
      ],
      [
        0,
        65535,
        65535
      ],
      [
        0,
        65535,
        65535
      ],
      [
        0,
        65535,
        65535
      ],
      [
        0,
        167,
        65535
      ],
      [
        0,
        65535,
        65535
      ],
      [
        0,
        167,
        65535
      ],
      [
        0,
        65535,
        65535
      ],
      [
        0,
        65535,
        65535
      ],
      [
        0,
        65535,
        65535
      ],
      [
        0,
        65535,
        65535
      ],
      [
        365,
        65535,
        65535
      ],
      [
        370,
        65535,
        65535
      ],
      [
        366,
        65535,
        65535
      ],
      [
        369,
        65535,
        65535
      ]
    ],
    [
      [
        0,
        65535,
        65535
      ],
      [
        0,
        65,
        65535
      ],
      [
        0,
        53,
        644
      ],
      [
        368,
        53,
        65535
      ],
      [
        369,
        53,
        65535
      ],
      [
        0,
        40,
        65535
      ],
      [
        4,
        65535,
        65535
      ],
      [
        0,
        65535,
        65535
      ],
      [
        0,
        65535,
        65535
      ],
      [
        0,
        65535,
        65535
      ],
      [
        0,
        65535,
        65535
      ],
      [
        364,
        65535,
        65535
      ],
      [
        0,
        65535,
        645
      ],
      [
        367,
        39,
        65535
      ],
      [
        368,
        64,
        65535
      ],
      [
        0,
        646,
        65535
      ],
      [
        371,
        65535,
        65535
      ],
      [
        0,
        65535,
        65535
      ]
    ],
    [
      [
        0,
        65535,
        65535
      ],
      [
        0,
        42,
        65535
      ],
      [
        365,
        642,
        65535
      ],
      [
        368,
        65535,
        65535
      ],
      [
        369,
        65535,
        65535
      ],
      [
        0,
        65535,
        65535
      ],
      [
        0,
        65535,
        65535
      ],
      [
        0,
        65535,
        65535
      ],
      [
        0,
        65535,
        65535
      ],
      [
        365,
        65535,
        65535
      ],
      [
        370,
        65535,
        65535
      ],
      [
        368,
        65535,
        65535
      ],
      [
        369,
        643,
        65535
      ],
      [
        0,
        65535,
        65535
      ],
      [
        370,
        60,
        65535
      ],
      [
        368,
        53,
        65535
      ],
      [
        369,
        40,
        65535
      ],
      [
        0,
        65535,
        65535
      ]
    ],
    [
      [
        0,
        65535,
        65535
      ],
      [
        0,
        65535,
        65535
      ],
      [
        370,
        65535,
        65535
      ],
      [
        372,
        65535,
        65535
      ],
      [
        369,
        65535,
        65535
      ],
      [
        0,
        65535,
        65535
      ],
      [
        0,
        65535,
        65535
      ],
      [
        0,
        65535,
        65535
      ],
      [
        0,
        65535,
        65535
      ],
      [
        372,
        65535,
        65535
      ],
      [
        0,
        65535,
        65535
      ],
      [
        371,
        65535,
        65535
      ],
      [
        0,
        65535,
        65535
      ],
      [
        0,
        65535,
        65535
      ],
      [
        0,
        65535,
        65535
      ],
      [
        371,
        65535,
        65535
      ],
      [
        0,
        65535,
        65535
      ],
      [
        0,
        65535,
        65535
      ]
    ],
    []
  ]
}