{
  "zoneId": 363,
  "zoneType": 1,
  "width": 18,
  "height": 18,
  "type": 15,
  "world": 1,
  "objects": [
    {
      "type": 9,
      "x": 7,
      "y": 12,
      "unknown": 1,
      "param": 364
    },
    {
      "type": 12,
      "x": 8,
      "y": 12,
      "unknown": 1,
      "param": 65535
    }
  ],
  "actions": [
    {
      "triggers": [
        [
          "on_first_enter",
          110,
          1992,
          222,
          1976,
          222,
          0
        ]
      ],
      "commands": [
        [
          "random",
          2,
          222,
          6296,
          222,
          0,
          0
        ]
      ]
    },
    {
      "triggers": [
        [
          "on_first_enter",
          221,
          0,
          0,
          1944,
          222,
          0
        ],
        [
          "on_rand_var_eq",
          1,
          8,
          0,
          24914,
          25710,
          0
        ]
      ],
      "commands": [
        [
          "set_global_var",
          1,
          0,
          24914,
          25710,
          30030,
          0
        ]
      ]
    },
    {
      "triggers": [
        [
          "on_first_enter",
          221,
          0,
          0,
          2068,
          222,
          0
        ],
        [
          "on_rand_var_eq",
          2,
          8,
          0,
          24914,
          25710,
          0
        ]
      ],
      "commands": [
        [
          "set_global_var",
          2,
          0,
          24914,
          25710,
          30030,
          0
        ],
        [
          "hide_object",
          1,
          0,
          28488,
          21364,
          28528,
          0
        ]
      ]
    },
    {
      "triggers": [
        [
          "on_first_enter",
          0,
          0,
          0,
          0,
          0,
          0
        ],
        [
          "on_check_end_item",
          518,
          0,
          0,
          0,
          0,
          0
        ]
      ],
      "commands": [
        [
          "set_global_var",
          2,
          0,
          0,
          0,
          0,
          0
        ]
      ]
    },
    {
      "triggers": [
        [
          "on_first_enter",
          0,
          0,
          0,
          0,
          0,
          0
        ],
        [
          "on_check_end_item",
          457,
          0,
          0,
          0,
          0,
          0
        ]
      ],
      "commands": [
        [
          "set_global_var",
          2,
          0,
          0,
          0,
          0,
          0
        ]
      ]
    },
    {
      "triggers": [
        [
          "on_first_enter",
          0,
          0,
          0,
          0,
          0,
          0
        ],
        [
          "on_check_end_item",
          440,
          0,
          0,
          0,
          0,
          0
        ]
      ],
      "commands": [
        [
          "set_global_var",
          2,
          0,
          0,
          0,
          0,
          0
        ]
      ]
    },
    {
      "triggers": [
        [
          "on_bump_tile",
          7,
          12,
          74,
          30018,
          28781,
          0
        ]
      ],
      "commands": [
        [
          "play_sound",
          6,
          25968,
          26994,
          27745,
          29472,
          0
        ],
        [
          "say_text",
          8,
          0,
          26707,
          30575,
          25940,
          37
        ]
      ]
    },
    {
      "triggers": [
        [
          "on_bump_tile",
          8,
          12,
          53,
          30018,
          28781,
          0
        ],
        [
          "on_global_var_eq",
          1,
          10,
          0,
          27719,
          25199,
          0
        ],
        [
          "on_check_map_tile",
          1761,
          8,
          12,
          2,
          25964,
          0
        ]
      ],
      "commands": [
        [
          "say_text",
          8,
          0,
          26707,
          30575,
          25940,
          46
        ]
      ]
    },
    {
      "triggers": [
        [
          "on_drag_item",
          8,
          12,
          2,
          1761,
          65535,
          0
        ],
        [
          "on_global_var_eq",
          1,
          0,
          0,
          0,
          0,
          0
        ]
      ],
      "commands": [
        [
          "play_sound",
          21,
          0,
          27728,
          31073,
          28499,
          0
        ],
        [
          "set_tile",
          8,
          12,
          2,
          1762,
          25441,
          0
        ],
        [
          "redraw_tile",
          8,
          12,
          25938,
          29284,
          30561,
          0
        ],
        [
          "render_changes",
          0,
          0,
          7972,
          222,
          0,
          0
        ],
        [
          "wait_ticks",
          2,
          0,
          24919,
          29801,
          28486,
          0
        ],
        [
          "play_sound",
          17,
          0,
          27728,
          31073,
          28499,
          0
        ],
        [
          "clear_tile",
          7,
          12,
          1,
          28525,
          25974,
          0
        ],
        [
          "redraw_tile",
          7,
          12,
          25938,
          29284,
          30561,
          0
        ],
        [
          "render_changes",
          0,
          0,
          7972,
          222,
          0,
          0
        ]
      ]
    },
    {
      "triggers": [
        [
          "on_bump_tile",
          8,
          12,
          53,
          30018,
          28781,
          0
        ],
        [
          "on_global_var_eq",
          2,
          10,
          0,
          27719,
          25199,
          0
        ],
        [
          "on_check_map_tile",
          1761,
          8,
          12,
          2,
          25964,
          0
        ]
      ],
      "commands": [
        [
          "play_sound",
          21,
          0,
          27728,
          31073,
          28499,
          0
        ],
        [
          "set_tile",
          8,
          12,
          2,
          1762,
          25441,
          0
        ],
        [
          "redraw_tile",
          8,
          12,
          25938,
          29284,
          30561,
          0
        ],
        [
          "render_changes",
          17,
          0,
          25938,
          29284,
          30561,
          0
        ],
        [
          "wait_ticks",
          2,
          0,
          24919,
          29801,
          28486,
          0
        ],
        [
          "play_sound",
          17,
          0,
          0,
          0,
          0,
          0
        ],
        [
          "clear_tile",
          7,
          12,
          1,
          28525,
          25974,
          0
        ],
        [
          "redraw_tile",
          7,
          12,
          25938,
          29284,
          30561,
          0
        ],
        [
          "render_changes",
          0,
          0,
          1944,
          222,
          0,
          0
        ]
      ]
    }
  ],
  "tilemap": [
    [
      [
        0,
        65535,
        65535
      ],
      [
        0,
        65535,
        65535
      ],
      [
        2,
        65535,
        65535
      ],
      [
        0,
        65535,
        65535
      ],
      [
        0,
        65535,
        65535
      ],
      [
        0,
        65535,
        65535
      ],
      [
        0,
        65535,
        65535
      ],
      [
        0,
        65535,
        65535
      ],
      [
        0,
        65535,
        65535
      ],
      [
        365,
        65535,
        65535
      ],
      [
        0,
        65535,
        65535
      ],
      [
        367,
        65535,
        65535
      ],
      [
        369,
        65535,
        65535
      ],
      [
        0,
        65535,
        65535
      ],
      [
        364,
        65535,
        65535
      ],
      [
        369,
        65535,
        65535
      ],
      [
        0,
        65535,
        65535
      ],
      [
        0,
        65535,
        65535
      ]
    ],
    [
      [
        0,
        65535,
        65535
      ],
      [
        0,
        57,
        65535
      ],
      [
        0,
        54,
        65535
      ],
      [
        0,
        54,
        65535
      ],
      [
        0,
        59,
        65535
      ],
      [
        0,
        65535,
        65535
      ],
      [
        0,
        43,
        65535
      ],
      [
        0,
        65535,
        65535
      ],
      [
        367,
        65535,
        65535
      ],
      [
        368,
        65535,
        65535
      ],
      [
        366,
        65535,
        65535
      ],
      [
        0,
        65535,
        65535
      ],
      [
        0,
        65535,
        65535
      ],
      [
        364,
        65535,
        65535
      ],
      [
        368,
        65535,
        65535
      ],
      [
        369,
        65535,
        65535
      ],
      [
        0,
        65535,
        65535
      ],
      [
        0,
        65535,
        65535
      ]
    ],
    [
      [
        0,
        65535,
        65535
      ],
      [
        0,
        55,
        65535
      ],
      [
        0,
        65535,
        65535
      ],
      [
        0,
        39,
        65535
      ],
      [
        0,
        61,
        65535
      ],
      [
        0,
        65535,
        65535
      ],
      [
        0,
        55,
        65535
      ],
      [
        0,
        41,
        65535
      ],
      [
        0,
        65535,
        65535
      ],
      [
        370,
        65535,
        65535
      ],
      [
        368,
        65535,
        65535
      ],
      [
        369,
        65535,
        65535
      ],
      [
        367,
        65535,
        65535
      ],
      [
        368,
        65535,
        65535
      ],
      [
        372,
        65535,
        65535
      ],
      [
        366,
        65535,
        65535
      ],
      [
        0,
        65535,
        65535
      ],
      [
        0,
        65535,
        65535
      ]
    ],
    [
      [
        0,
        65535,
        65535
      ],
      [
        0,
        60,
        65535
      ],
      [
        0,
        40,
        65535
      ],
      [
        0,
        65535,
        65535
      ],
      [
        0,
        65535,
        65535
      ],
      [
        0,
        57,
        65535
      ],
      [
        0,
        62,
        65535
      ],
      [
        0,
        63,
        65535
      ],
      [
        0,
        59,
        65535
      ],
      [
        0,
        65535,
        65535
      ],
      [
        371,
        65535,
        65535
      ],
      [
        0,
        41,
        65535
      ],
      [
        0,
        65535,
        65535
      ],
      [
        370,
        65535,
        65535
      ],
      [
        364,
        65535,
        65535
      ],
      [
        368,
        65535,
        65535
      ],
      [
        369,
        65535,
        65535
      ],
      [
        0,
        65535,
        65535
      ]
    ],
    [
      [
        3,
        65535,
        65535
      ],
      [
        0,
        65535,
        65535
      ],
      [
        0,
        65535,
        65535
      ],
      [
        0,
        57,
        65535
      ],
      [
        0,
        54,
        65535
      ],
      [
        0,
        62,
        65535
      ],
      [
        0,
        65535,
        65535
      ],
      [
        0,
        185,
        65535
      ],
      [
        0,
        63,
        65535
      ],
      [
        0,
        46,
        65535
      ],
      [
        0,
        65535,
        65535
      ],
      [
        0,
        56,
        65535
      ],
      [
        0,
        65535,
        65535
      ],
      [
        0,
        65535,
        65535
      ],
      [
        370,
        65535,
        65535
      ],
      [
        368,
        65535,
        65535
      ],
      [
        369,
        65535,
        65535
      ],
      [
        0,
        65535,
        65535
      ]
    ],
    [
      [
        0,
        65535,
        65535
      ],
      [
        0,
        45,
        65535
      ],
      [
        0,
        54,
        65535
      ],
      [
        0,
        62,
        65535
      ],
      [
        0,
        65535,
        65535
      ],
      [
        0,
        65535,
        65535
      ],
      [
        0,
        57,
        65535
      ],
      [
        0,
        46,
        65535
      ],
      [
        0,
        65535,
        65535
      ],
      [
        0,
        65535,
        65535
      ],
      [
        0,
        65535,
        65535
      ],
      [
        0,
        63,
        65535
      ],
      [
        0,
        59,
        65535
      ],
      [
        0,
        65535,
        65535
      ],
      [
        0,
        65535,
        65535
      ],
      [
        371,
        65535,
        65535
      ],
      [
        365,
        65535,
        65535
      ],
      [
        0,
        65535,
        65535
      ]
    ],
    [
      [
        0,
        65535,
        65535
      ],
      [
        0,
        65535,
        65535
      ],
      [
        0,
        65535,
        65535
      ],
      [
        0,
        65535,
        65535
      ],
      [
        0,
        45,
        65535
      ],
      [
        0,
        54,
        65535
      ],
      [
        0,
        62,
        65535
      ],
      [
        0,
        65535,
        65535
      ],
      [
        0,
        65,
        65535
      ],
      [
        0,
        53,
        65535
      ],
      [
        3,
        40,
        65535
      ],
      [
        0,
        65535,
        65535
      ],
      [
        0,
        63,
        65535
      ],
      [
        0,
        59,
        65535
      ],
      [
        0,
        65535,
        65535
      ],
      [
        367,
        65535,
        65535
      ],
      [
        368,
        65535,
        65535
      ],
      [
        369,
        65535,
        65535
      ]
    ],
    [
      [
        0,
        65535,
        65535
      ],
      [
        3,
        65535,
        65535
      ],
      [
        0,
        39,
        65535
      ],
      [
        0,
        64,
        65535
      ],
      [
        0,
        65535,
        65535
      ],
      [
        0,
        65535,
        65535
      ],
      [
        0,
        65535,
        65535
      ],
      [
        0,
        65535,
        65535
      ],
      [
        0,
        63,
        65535
      ],
      [
        0,
        59,
        65535
      ],
      [
        0,
        65535,
        65535
      ],
      [
        0,
        65535,
        65535
      ],
      [
        4,
        65,
        65535
      ],
      [
        0,
        61,
        65535
      ],
      [
        4,
        65535,
        65535
      ],
      [
        0,
        65535,
        65535
      ],
      [
        370,
        65535,
        65535
      ],
      [
        369,
        65535,
        65535
      ]
    ],
    [
      [
        0,
        65535,
        65535
      ],
      [
        0,
        43,
        65535
      ],
      [
        0,
        65535,
        65535
      ],
      [
        0,
        60,
        65535
      ],
      [
        0,
        64,
        65535
      ],
      [
        0,
        185,
        65535
      ],
      [
        0,
        65535,
        65535
      ],
      [
        0,
        65535,
        65535
      ],
      [
        0,
        355,
        173
      ],
      [
        0,
        63,
        65535
      ],
      [
        0,
        59,
        65535
      ],
      [
        0,
        65535,
        65535
      ],
      [
        0,
        63,
        65535
      ],
      [
        4,
        54,
        65535
      ],
      [
        0,
        46,
        65535
      ],
      [
        0,
        65535,
        65535
      ],
      [
        0,
        65535,
        65535
      ],
      [
        0,
        65535,
        65535
      ]
    ],
    [
      [
        0,
        65535,
        65535
      ],
      [
        0,
        55,
        65535
      ],
      [
        0,
        65535,
        65535
      ],
      [
        0,
        65535,
        65535
      ],
      [
        0,
        60,
        65535
      ],
      [
        0,
        64,
        65535
      ],
      [
        0,
        65535,
        65535
      ],
      [
        4,
        65535,
        65535
      ],
      [
        0,
        45,
        65535
      ],
      [
        0,
        59,
        65535
      ],
      [
        0,
        63,
        65535
      ],
      [
        0,
        59,
        65535
      ],
      [
        0,
        65535,
        65535
      ],
      [
        0,
        65535,
        65535
      ],
      [
        0,
        65535,
        65535
      ],
      [
        0,
        65535,
        65535
      ],
      [
        0,
        65535,
        65535
      ],
      [
        0,
        65535,
        65535
      ]
    ],
    [
      [
        0,
        65535,
        65535
      ],
      [
        0,
        60,
        65535
      ],
      [
        0,
        64,
        65535
      ],
      [
        0,
        65535,
        65535
      ],
      [
        100,
        65535,
        65535
      ],
      [
        0,
        55,
        65535
      ],
      [
        0,
        294,
        65535
      ],
      [
        0,
        43,
        65535
      ],
      [
        0,
        65,
        65535
      ],
      [
        0,
        61,
        65535
      ],
      [
        0,
        65,
        65535
      ],
      [
        0,
        61,
        65535
      ],
      [
        0,
        65535,
        65535
      ],
      [
        367,
        65,
        65535
      ],
      [
        368,
        53,
        65535
      ],
      [
        369,
        40,
        65535
      ],
      [
        0,
        65535,
        65535
      ],
      [
        0,
        65535,
        65535
      ]
    ],
    [
      [
        0,
        65535,
        65535
      ],
      [
        0,
        65535,
        65535
      ],
      [
        0,
        60,
        65535
      ],
      [
        0,
        64,
        65535
      ],
      [
        0,
        65535,
        65535
      ],
      [
        0,
        60,
        65535
      ],
      [
        0,
        64,
        65535
      ],
      [
        0,
        60,
        65535
      ],
      [
        0,
        61,
        65535
      ],
      [
        0,
        65,
        65535
      ],
      [
        0,
        61,
        65535
      ],
      [
        0,
        65535,
        65535
      ],
      [
        0,
        65,
        65535
      ],
      [
        367,
        61,
        65535
      ],
      [
        372,
        65535,
        65535
      ],
      [
        0,
        65535,
        65535
      ],
      [
        0,
        65535,
        65535
      ],
      [
        0,
        65535,
        65535
      ]
    ],
    [
      [
        0,
        65535,
        65535
      ],
      [
        0,
        65535,
        65535
      ],
      [
        98,
        65535,
        65535
      ],
      [
        0,
        55,
        65535
      ],
      [
        0,
        65535,
        65535
      ],
      [
        3,
        65535,
        65535
      ],
      [
        0,
        60,
        65535
      ],
      [
        79,
        74,
        65535
      ],
      [
        0,
        53,
        1761
      ],
      [
        0,
        61,
        65535
      ],
      [
        0,
        65535,
        65535
      ],
      [
        0,
        65535,
        65535
      ],
      [
        0,
        56,
        65535
      ],
      [
        0,
        65535,
        65535
      ],
      [
        0,
        65535,
        65535
      ],
      [
        367,
        65535,
        65535
      ],
      [
        369,
        65535,
        65535
      ],
      [
        0,
        65535,
        65535
      ]
    ],
    [
      [
        0,
        65535,
        65535
      ],
      [
        0,
        65535,
        65535
      ],
      [
        0,
        65535,
        65535
      ],
      [
        0,
        44,
        65535
      ],
      [
        0,
        65535,
        65535
      ],
      [
        0,
        65535,
        65535
      ],
      [
        0,
        65535,
        65535
      ],
      [
        4,
        65535,
        65535
      ],
      [
        0,
        65535,
        65535
      ],
      [
        0,
        65535,
        65535
      ],
      [
        0,
        65,
        65535
      ],
      [
        0,
        101,
        65535
      ],
      [
        0,
        61,
        65535
      ],
      [
        346,
        65535,
        65535
      ],
      [
        0,
        65535,
        65535
      ],
      [
        0,
        57,
        65535
      ],
      [
        0,
        59,
        65535
      ],
      [
        0,
        65535,
        65535
      ]
    ],
    [
      [
        0,
        65535,
        65535
      ],
      [
        2,
        65535,
        65535
      ],
      [
        0,
        65535,
        65535
      ],
      [
        347,
        65535,
        65535
      ],
      [
        0,
        39,
        65535
      ],
      [
        0,
        64,
        65535
      ],
      [
        0,
        65,
        65535
      ],
      [
        0,
        101,
        65535
      ],
      [
        0,
        101,
        65535
      ],
      [
        0,
        53,
        65535
      ],
      [
        0,
        61,
        90
      ],
      [
        0,
        87,
        65535
      ],
      [
        93,
        65535,
        65535
      ],
      [
        0,
        65535,
        65535
      ],
      [
        0,
        45,
        65535
      ],
      [
        0,
        62,
        65535
      ],
      [
        0,
        56,
        65535
      ],
      [
        0,
        65535,
        65535
      ]
    ],
    [
      [
        0,
        65535,
        65535
      ],
      [
        0,
        65535,
        65535
      ],
      [
        0,
        65535,
        65535
      ],
      [
        0,
        65535,
        65535
      ],
      [
        4,
        65535,
        65535
      ],
      [
        0,
        60,
        65535
      ],
      [
        0,
        61,
        90
      ],
      [
        0,
        87,
        65535
      ],
      [
        0,
        87,
        65535
      ],
      [
        93,
        91,
        65535
      ],
      [
        94,
        65535,
        65535
      ],
      [
        95,
        65535,
        65535
      ],
      [
        99,
        65535,
        65535
      ],
      [
        0,
        43,
        65535
      ],
      [
        0,
        65535,
        65535
      ],
      [
        0,
        65535,
        65535
      ],
      [
        0,
        56,
        65535
      ],
      [
        0,
        65535,
        65535
      ]
    ],
    [
      [
        0,
        65535,
        65535
      ],
      [
        0,
        65535,
        65535
      ],
      [
        0,
        65535,
        65535
      ],
      [
        0,
        65535,
        65535
      ],
      [
        0,
        65535,
        65535
      ],
      [
        0,
        65535,
        65535
      ],
      [
        88,
        65535,
        65535
      ],
      [
        94,
        65535,
        65535
      ],
      [
        0,
        87,
        65535
      ],
      [
        95,
        65535,
        65535
      ],
      [
        100,
        65535,
        65535
      ],
      [
        345,
        65535,
        65535
      ],
      [
        0,
        65535,
        65535
      ],
      [
        0,
        60,
        65535
      ],
      [
        0,
        53,
        65535
      ],
      [
        0,
        53,
        65535
      ],
      [
        0,
        61,
        65535
      ],
      [
        0,
        65535,
        65535
      ]
    ],
    [
      [
        0,
        65535,
        65535
      ],
      [
        0,
        65535,
        65535
      ],
      [
        3,
        65535,
        65535
      ],
      [
        0,
        65535,
        65535
      ],
      [
        0,
        65535,
        65535
      ],
      [
        346,
        65535,
        65535
      ],
      [
        0,
        65535,
        65535
      ],
      [
        99,
        65535,
        65535
      ],
      [
        88,
        65535,
        65535
      ],
      [
        98,
        65535,
        65535
      ],
      [
        0,
        65535,
        65535
      ],
      [
        0,
        65535,
        65535
      ],
      [
        347,
        65535,
        65535
      ],
      [
        0,
        65535,
        65535
      ],
      [
        0,
        65535,
        65535
      ],
      [
        2,
        65535,
        65535
      ],
      [
        0,
        65535,
        65535
      ],
      [
        0,
        65535,
        65535
      ]
    ],
    []
  ]
}