{
  "zoneId": 372,
  "zoneType": 3,
  "width": 18,
  "height": 18,
  "type": 15,
  "world": 3,
  "objects": [
    {
      "type": 9,
      "x": 7,
      "y": 5,
      "unknown": 1,
      "param": 373
    },
    {
      "type": 12,
      "x": 7,
      "y": 5,
      "unknown": 1,
      "param": 65535
    }
  ],
  "actions": [
    {
      "triggers": [
        [
          "on_first_enter",
          110,
          28,
          110,
          8344,
          110,
          0
        ]
      ],
      "commands": [
        [
          "random",
          5,
          0,
          26708,
          28530,
          21111,
          0
        ]
      ]
    },
    {
      "triggers": [
        [
          "on_first_enter",
          110,
          14140,
          110,
          18,
          61440,
          0
        ],
        [
          "on_rand_var_eq",
          1,
          8,
          0,
          24914,
          25710,
          0
        ]
      ],
      "commands": [
        [
          "clear_tile",
          11,
          12,
          1,
          28525,
          25974,
          0
        ],
        [
          "clear_tile",
          10,
          11,
          1,
          28525,
          25974,
          0
        ],
        [
          "redraw_tiles",
          10,
          11,
          11,
          12,
          30561,
          0
        ]
      ]
    },
    {
      "triggers": [
        [
          "on_first_enter",
          110,
          0,
          0,
          0,
          0,
          0
        ],
        [
          "on_rand_var_eq",
          2,
          8,
          0,
          24914,
          25710,
          0
        ]
      ],
      "commands": [
        [
          "clear_tile",
          13,
          9,
          1,
          28525,
          25974,
          0
        ],
        [
          "clear_tile",
          12,
          9,
          1,
          28525,
          25974,
          0
        ],
        [
          "clear_tile",
          11,
          9,
          1,
          28525,
          25974,
          0
        ],
        [
          "redraw_tiles",
          11,
          9,
          13,
          9,
          30561,
          0
        ]
      ]
    },
    {
      "triggers": [
        [
          "on_first_enter",
          110,
          0,
          0,
          0,
          0,
          0
        ],
        [
          "on_rand_var_eq",
          3,
          0,
          0,
          0,
          0,
          0
        ]
      ],
      "commands": [
        [
          "clear_tile",
          13,
          4,
          1,
          28525,
          25974,
          0
        ],
        [
          "redraw_tile",
          13,
          4,
          25938,
          29284,
          30561,
          0
        ]
      ]
    },
    {
      "triggers": [
        [
          "on_first_enter",
          110,
          0,
          0,
          0,
          0,
          0
        ],
        [
          "on_rand_var_eq",
          4,
          0,
          0,
          0,
          0,
          0
        ]
      ],
      "commands": [
        [
          "clear_tile",
          3,
          4,
          1,
          28525,
          25974,
          0
        ],
        [
          "redraw_tile",
          3,
          4,
          25938,
          29284,
          30561,
          0
        ]
      ]
    },
    {
      "triggers": [
        [
          "on_first_enter",
          110,
          0,
          0,
          0,
          0,
          0
        ],
        [
          "on_rand_var_eq",
          5,
          0,
          0,
          0,
          0,
          0
        ]
      ],
      "commands": [
        [
          "clear_tile",
          3,
          10,
          1,
          28525,
          25974,
          0
        ],
        [
          "redraw_tile",
          3,
          10,
          25938,
          29284,
          30561,
          0
        ]
      ]
    },
    {
      "triggers": [
        [
          "on_bump_tile",
          7,
          5,
          1539,
          30018,
          28781,
          0
        ]
      ],
      "commands": [
        [
          "play_sound",
          6,
          153,
          2172,
          0,
          13792,
          0
        ],
        [
          "say_text",
          0,
          0,
          26964,
          25964,
          10272,
          37
        ]
      ]
    },
    {
      "triggers": [
        [
          "on_drag_item",
          7,
          5,
          1,
          1539,
          65535,
          0
        ]
      ],
      "commands": [
        [
          "play_sound",
          17,
          0,
          27728,
          31073,
          28499,
          0
        ],
        [
          "remove_item_from_inv",
          65535,
          0,
          25938,
          28525,
          25974,
          0
        ],
        [
          "clear_tile",
          7,
          5,
          1,
          28525,
          25974,
          0
        ],
        [
          "clear_tile",
          7,
          5,
          2,
          0,
          0,
          0
        ],
        [
          "redraw_tile",
          7,
          5,
          25938,
          29284,
          30561,
          0
        ],
        [
          "render_changes",
          0,
          0,
          52284,
          199,
          0,
          0
        ],
        [
          "hide_object",
          1,
          0,
          28488,
          21364,
          28528,
          0
        ],
        [
          "show_object",
          0,
          0,
          28488,
          21364,
          28528,
          0
        ]
      ]
    }
  ],
  "tilemap": [
    [
      [
        403,
        65535,
        65535
      ],
      [
        403,
        65535,
        65535
      ],
      [
        403,
        65535,
        899
      ],
      [
        403,
        65535,
        65535
      ],
      [
        403,
        65535,
        871
      ],
      [
        859,
        65535,
        872
      ],
      [
        860,
        65535,
        872
      ],
      [
        860,
        65535,
        872
      ],
      [
        860,
        65535,
        872
      ],
      [
        860,
        65535,
        872
      ],
      [
        860,
        65535,
        872
      ],
      [
        860,
        65535,
        872
      ],
      [
        861,
        65535,
        873
      ],
      [
        403,
        65535,
        65535
      ],
      [
        403,
        65535,
        65535
      ],
      [
        403,
        65535,
        944
      ],
      [
        403,
        65535,
        945
      ],
      [
        403,
        65535,
        946
      ]
    ],
    [
      [
        403,
        65535,
        65535
      ],
      [
        403,
        65535,
        65535
      ],
      [
        403,
        65535,
        1815
      ],
      [
        859,
        65535,
        871
      ],
      [
        860,
        355,
        877
      ],
      [
        867,
        355,
        888
      ],
      [
        858,
        355,
        884
      ],
      [
        403,
        355,
        884
      ],
      [
        858,
        355,
        884
      ],
      [
        858,
        355,
        884
      ],
      [
        858,
        355,
        884
      ],
      [
        858,
        355,
        887
      ],
      [
        868,
        65535,
        878
      ],
      [
        860,
        65535,
        872
      ],
      [
        861,
        65535,
        873
      ],
      [
        403,
        65535,
        941
      ],
      [
        403,
        65535,
        900
      ],
      [
        403,
        65535,
        943
      ]
    ],
    [
      [
        403,
        65535,
        65535
      ],
      [
        1577,
        65535,
        65535
      ],
      [
        403,
        898,
        65535
      ],
      [
        865,
        65535,
        874
      ],
      [
        403,
        355,
        888
      ],
      [
        858,
        355,
        890
      ],
      [
        858,
        892,
        899
      ],
      [
        858,
        892,
        65535
      ],
      [
        403,
        892,
        65535
      ],
      [
        403,
        892,
        65535
      ],
      [
        403,
        892,
        65535
      ],
      [
        858,
        892,
        889
      ],
      [
        858,
        355,
        884
      ],
      [
        403,
        355,
        887
      ],
      [
        866,
        65535,
        876
      ],
      [
        403,
        65535,
        65535
      ],
      [
        403,
        65535,
        1023
      ],
      [
        403,
        65535,
        65535
      ]
    ],
    [
      [
        403,
        65535,
        65535
      ],
      [
        403,
        1770,
        65535
      ],
      [
        859,
        65535,
        871
      ],
      [
        867,
        355,
        877
      ],
      [
        403,
        892,
        876
      ],
      [
        897,
        893,
        65535
      ],
      [
        880,
        65535,
        1815
      ],
      [
        880,
        65535,
        65535
      ],
      [
        880,
        65535,
        65535
      ],
      [
        880,
        65535,
        65535
      ],
      [
        880,
        65535,
        65535
      ],
      [
        880,
        891,
        65535
      ],
      [
        403,
        892,
        65535
      ],
      [
        403,
        892,
        874
      ],
      [
        866,
        65535,
        876
      ],
      [
        403,
        65535,
        65535
      ],
      [
        403,
        901,
        65535
      ],
      [
        403,
        65535,
        65535
      ]
    ],
    [
      [
        403,
        65535,
        65535
      ],
      [
        403,
        65535,
        65535
      ],
      [
        865,
        65535,
        874
      ],
      [
        858,
        355,
        875
      ],
      [
        880,
        65535,
        876
      ],
      [
        881,
        65535,
        65535
      ],
      [
        403,
        898,
        65535
      ],
      [
        403,
        1580,
        65535
      ],
      [
        1579,
        185,
        1282
      ],
      [
        403,
        65535,
        65535
      ],
      [
        403,
        65535,
        65535
      ],
      [
        879,
        65535,
        65535
      ],
      [
        880,
        65535,
        65535
      ],
      [
        880,
        355,
        874
      ],
      [
        868,
        65535,
        878
      ],
      [
        860,
        65535,
        872
      ],
      [
        861,
        65535,
        873
      ],
      [
        403,
        65535,
        65535
      ]
    ],
    [
      [
        403,
        65535,
        65535
      ],
      [
        859,
        65535,
        871
      ],
      [
        867,
        355,
        877
      ],
      [
        858,
        355,
        875
      ],
      [
        868,
        65535,
        878
      ],
      [
        403,
        1535,
        873
      ],
      [
        403,
        1536,
        65535
      ],
      [
        1538,
        1539,
        1540
      ],
      [
        403,
        1537,
        65535
      ],
      [
        403,
        1535,
        65535
      ],
      [
        403,
        1536,
        65535
      ],
      [
        403,
        1537,
        65535
      ],
      [
        859,
        65535,
        871
      ],
      [
        867,
        355,
        877
      ],
      [
        858,
        355,
        875
      ],
      [
        858,
        355,
        875
      ],
      [
        866,
        65535,
        876
      ],
      [
        403,
        65535,
        65535
      ]
    ],
    [
      [
        403,
        65535,
        65535
      ],
      [
        865,
        65535,
        874
      ],
      [
        858,
        355,
        875
      ],
      [
        858,
        355,
        875
      ],
      [
        858,
        355,
        875
      ],
      [
        868,
        65535,
        878
      ],
      [
        861,
        65535,
        873
      ],
      [
        403,
        1770,
        944
      ],
      [
        403,
        65535,
        945
      ],
      [
        403,
        65535,
        946
      ],
      [
        403,
        1770,
        65535
      ],
      [
        403,
        65535,
        65535
      ],
      [
        865,
        65535,
        874
      ],
      [
        858,
        355,
        875
      ],
      [
        858,
        355,
        875
      ],
      [
        403,
        355,
        888
      ],
      [
        403,
        65535,
        885
      ],
      [
        403,
        65535,
        65535
      ]
    ],
    [
      [
        403,
        65535,
        65535
      ],
      [
        865,
        65535,
        874
      ],
      [
        858,
        355,
        875
      ],
      [
        858,
        355,
        888
      ],
      [
        858,
        355,
        884
      ],
      [
        858,
        355,
        884
      ],
      [
        403,
        65535,
        885
      ],
      [
        403,
        65535,
        941
      ],
      [
        403,
        65535,
        900
      ],
      [
        403,
        65535,
        943
      ],
      [
        403,
        65535,
        65535
      ],
      [
        403,
        1580,
        65535
      ],
      [
        865,
        65535,
        874
      ],
      [
        858,
        355,
        875
      ],
      [
        403,
        355,
        888
      ],
      [
        403,
        892,
        890
      ],
      [
        861,
        893,
        65535
      ],
      [
        403,
        65535,
        65535
      ]
    ],
    [
      [
        403,
        65535,
        65535
      ],
      [
        403,
        65535,
        883
      ],
      [
        403,
        355,
        887
      ],
      [
        403,
        892,
        876
      ],
      [
        403,
        892,
        65535
      ],
      [
        403,
        892,
        65535
      ],
      [
        861,
        893,
        65535
      ],
      [
        403,
        65535,
        65535
      ],
      [
        403,
        65535,
        1023
      ],
      [
        403,
        65535,
        65535
      ],
      [
        859,
        65535,
        871
      ],
      [
        860,
        65535,
        872
      ],
      [
        867,
        65535,
        877
      ],
      [
        858,
        355,
        875
      ],
      [
        866,
        892,
        876
      ],
      [
        897,
        893,
        65535
      ],
      [
        881,
        65535,
        65535
      ],
      [
        403,
        65535,
        65535
      ]
    ],
    [
      [
        403,
        65535,
        65535
      ],
      [
        403,
        891,
        65535
      ],
      [
        403,
        892,
        874
      ],
      [
        880,
        355,
        878
      ],
      [
        880,
        65535,
        873
      ],
      [
        880,
        65535,
        65535
      ],
      [
        881,
        65535,
        65535
      ],
      [
        403,
        1770,
        65535
      ],
      [
        403,
        901,
        65535
      ],
      [
        403,
        65535,
        65535
      ],
      [
        865,
        65535,
        874
      ],
      [
        858,
        355,
        875
      ],
      [
        858,
        355,
        875
      ],
      [
        858,
        355,
        875
      ],
      [
        880,
        65535,
        876
      ],
      [
        881,
        65535,
        65535
      ],
      [
        403,
        65535,
        65535
      ],
      [
        403,
        65535,
        65535
      ]
    ],
    [
      [
        403,
        65535,
        65535
      ],
      [
        879,
        65535,
        65535
      ],
      [
        880,
        65535,
        874
      ],
      [
        858,
        355,
        875
      ],
      [
        868,
        65535,
        878
      ],
      [
        860,
        65535,
        872
      ],
      [
        860,
        65535,
        872
      ],
      [
        861,
        65535,
        873
      ],
      [
        403,
        65535,
        65535
      ],
      [
        859,
        65535,
        871
      ],
      [
        867,
        65535,
        877
      ],
      [
        403,
        355,
        888
      ],
      [
        403,
        355,
        884
      ],
      [
        403,
        355,
        884
      ],
      [
        403,
        65535,
        885
      ],
      [
        403,
        65535,
        899
      ],
      [
        1577,
        65535,
        65535
      ],
      [
        403,
        65535,
        65535
      ]
    ],
    [
      [
        403,
        65535,
        65535
      ],
      [
        403,
        65535,
        65535
      ],
      [
        403,
        65535,
        883
      ],
      [
        403,
        355,
        887
      ],
      [
        858,
        355,
        875
      ],
      [
        858,
        355,
        875
      ],
      [
        858,
        355,
        875
      ],
      [
        868,
        65535,
        878
      ],
      [
        860,
        65535,
        872
      ],
      [
        867,
        65535,
        877
      ],
      [
        858,
        355,
        875
      ],
      [
        403,
        892,
        876
      ],
      [
        403,
        892,
        65535
      ],
      [
        403,
        892,
        65535
      ],
      [
        861,
        893,
        65535
      ],
      [
        403,
        65535,
        1815
      ],
      [
        403,
        65535,
        65535
      ],
      [
        403,
        65535,
        65535
      ]
    ],
    [
      [
        403,
        65535,
        944
      ],
      [
        403,
        65535,
        945
      ],
      [
        403,
        891,
        946
      ],
      [
        403,
        892,
        874
      ],
      [
        858,
        355,
        875
      ],
      [
        403,
        355,
        888
      ],
      [
        403,
        355,
        884
      ],
      [
        403,
        355,
        887
      ],
      [
        403,
        355,
        888
      ],
      [
        403,
        355,
        884
      ],
      [
        403,
        355,
        887
      ],
      [
        880,
        355,
        878
      ],
      [
        880,
        65535,
        873
      ],
      [
        880,
        65535,
        944
      ],
      [
        881,
        65535,
        945
      ],
      [
        403,
        898,
        946
      ],
      [
        403,
        65535,
        65535
      ],
      [
        403,
        65535,
        65535
      ]
    ],
    [
      [
        403,
        65535,
        941
      ],
      [
        403,
        65535,
        900
      ],
      [
        879,
        65535,
        943
      ],
      [
        880,
        65535,
        883
      ],
      [
        403,
        355,
        884
      ],
      [
        403,
        892,
        885
      ],
      [
        403,
        892,
        65535
      ],
      [
        403,
        892,
        874
      ],
      [
        403,
        892,
        876
      ],
      [
        403,
        892,
        65535
      ],
      [
        403,
        355,
        889
      ],
      [
        858,
        355,
        884
      ],
      [
        403,
        65535,
        885
      ],
      [
        403,
        65535,
        941
      ],
      [
        403,
        65535,
        900
      ],
      [
        403,
        65535,
        943
      ],
      [
        403,
        65535,
        65535
      ],
      [
        403,
        65535,
        65535
      ]
    ],
    [
      [
        403,
        65535,
        65535
      ],
      [
        403,
        65535,
        1023
      ],
      [
        403,
        65535,
        65535
      ],
      [
        403,
        891,
        65535
      ],
      [
        403,
        892,
        65535
      ],
      [
        897,
        893,
        65535
      ],
      [
        880,
        65535,
        65535
      ],
      [
        880,
        355,
        883
      ],
      [
        880,
        355,
        885
      ],
      [
        880,
        65535,
        944
      ],
      [
        403,
        891,
        945
      ],
      [
        403,
        892,
        946
      ],
      [
        861,
        893,
        65535
      ],
      [
        403,
        65535,
        65535
      ],
      [
        403,
        65535,
        1023
      ],
      [
        403,
        1770,
        65535
      ],
      [
        403,
        65535,
        65535
      ],
      [
        403,
        65535,
        65535
      ]
    ],
    [
      [
        403,
        65535,
        65535
      ],
      [
        403,
        901,
        65535
      ],
      [
        403,
        65535,
        65535
      ],
      [
        879,
        65535,
        65535
      ],
      [
        880,
        65535,
        65535
      ],
      [
        881,
        65535,
        65535
      ],
      [
        403,
        65535,
        65535
      ],
      [
        403,
        891,
        65535
      ],
      [
        861,
        893,
        65535
      ],
      [
        403,
        65535,
        941
      ],
      [
        879,
        65535,
        900
      ],
      [
        880,
        65535,
        943
      ],
      [
        881,
        65535,
        65535
      ],
      [
        403,
        65535,
        65535
      ],
      [
        403,
        901,
        65535
      ],
      [
        1576,
        65535,
        65535
      ],
      [
        1575,
        65535,
        65535
      ],
      [
        403,
        65535,
        65535
      ]
    ],
    [
      [
        403,
        65535,
        65535
      ],
      [
        403,
        65535,
        65535
      ],
      [
        403,
        65535,
        65535
      ],
      [
        403,
        1770,
        65535
      ],
      [
        1579,
        65535,
        65535
      ],
      [
        403,
        65535,
        65535
      ],
      [
        403,
        65535,
        65535
      ],
      [
        879,
        65535,
        65535
      ],
      [
        881,
        65535,
        65535
      ],
      [
        403,
        65535,
        65535
      ],
      [
        403,
        65535,
        1023
      ],
      [
        403,
        65535,
        65535
      ],
      [
        403,
        65535,
        65535
      ],
      [
        403,
        65535,
        65535
      ],
      [
        1575,
        65535,
        65535
      ],
      [
        403,
        65535,
        65535
      ],
      [
        403,
        65535,
        65535
      ],
      [
        403,
        65535,
        65535
      ]
    ],
    [
      [
        403,
        65535,
        65535
      ],
      [
        1578,
        65535,
        65535
      ],
      [
        403,
        65535,
        65535
      ],
      [
        403,
        65535,
        65535
      ],
      [
        403,
        65535,
        65535
      ],
      [
        403,
        65535,
        65535
      ],
      [
        1577,
        65535,
        65535
      ],
      [
        403,
        65535,
        65535
      ],
      [
        403,
        65535,
        65535
      ],
      [
        403,
        65535,
        65535
      ],
      [
        403,
        901,
        65535
      ],
      [
        403,
        65535,
        65535
      ],
      [
        403,
        65535,
        65535
      ],
      [
        403,
        65535,
        65535
      ],
      [
        1576,
        65535,
        65535
      ],
      [
        403,
        65535,
        65535
      ],
      [
        1576,
        65535,
        65535
      ],
      [
        403,
        65535,
        65535
      ]
    ],
    []
  ]
}