{
  "zoneId": 374,
  "zoneType": 1,
  "width": 18,
  "height": 18,
  "type": 10,
  "world": 1,
  "objects": [
    {
      "type": 9,
      "x": 9,
      "y": 10,
      "unknown": 1,
      "param": 376
    },
    {
      "type": 6,
      "x": 10,
      "y": 7,
      "unknown": 1,
      "param": 1234
    },
    {
      "type": 0,
      "x": 8,
      "y": 7,
      "unknown": 1,
      "param": 65535
    },
    {
      "type": 0,
      "x": 8,
      "y": 8,
      "unknown": 1,
      "param": 65535
    },
    {
      "type": 9,
      "x": 9,
      "y": 7,
      "unknown": 1,
      "param": 375
    }
  ],
  "actions": [
    {
      "triggers": [
        [
          "on_first_enter",
          110,
          0,
          0,
          19744,
          110,
          0
        ]
      ],
      "commands": [
        [
          "random",
          2,
          0,
          26708,
          28530,
          21111,
          0
        ],
        [
          "set_global_var",
          0,
          0,
          25939,
          18292,
          28524,
          0
        ]
      ]
    },
    {
      "triggers": [
        [
          "on_first_enter",
          110,
          10,
          0,
          25939,
          11636,
          0
        ],
        [
          "on_rand_var_eq",
          1,
          0,
          0,
          0,
          0,
          0
        ]
      ],
      "commands": [
        [
          "clear_tile",
          5,
          4,
          2,
          28525,
          25974,
          0
        ],
        [
          "set_tile",
          5,
          4,
          1,
          152,
          25441,
          0
        ],
        [
          "redraw_tile",
          5,
          4,
          25938,
          29284,
          30561,
          0
        ],
        [
          "set_global_var",
          1,
          0,
          25939,
          18292,
          28524,
          0
        ]
      ]
    },
    {
      "triggers": [
        [
          "on_first_enter",
          110,
          10,
          0,
          25939,
          11636,
          0
        ],
        [
          "on_rand_var_eq",
          2,
          0,
          0,
          0,
          0,
          0
        ]
      ],
      "commands": [
        [
          "clear_tile",
          13,
          4,
          2,
          28525,
          25974,
          0
        ],
        [
          "set_tile",
          13,
          4,
          1,
          152,
          25441,
          0
        ],
        [
          "redraw_tile",
          13,
          4,
          25938,
          29284,
          30561,
          0
        ],
        [
          "set_global_var",
          2,
          0,
          25939,
          18292,
          28524,
          0
        ]
      ]
    },
    {
      "triggers": [
        [
          "on_enter_vehicle",
          110,
          35244,
          181,
          0,
          0,
          0
        ],
        [
          "on_player_at_pos",
          5,
          4,
          0,
          25928,
          28530,
          0
        ]
      ],
      "commands": [
        [
          "set_tile",
          5,
          4,
          1,
          355,
          25441,
          0
        ],
        [
          "set_tile",
          9,
          12,
          1,
          355,
          25441,
          0
        ],
        [
          "clear_tile",
          8,
          11,
          1,
          28525,
          25974,
          0
        ],
        [
          "clear_tile",
          9,
          11,
          1,
          28525,
          25974,
          0
        ],
        [
          "clear_tile",
          10,
          11,
          1,
          28525,
          25974,
          0
        ],
        [
          "lock_camera",
          0,
          0,
          0,
          0,
          0,
          0
        ]
      ]
    },
    {
      "triggers": [
        [
          "on_enter_vehicle",
          110,
          35244,
          181,
          0,
          0,
          0
        ],
        [
          "on_player_at_pos",
          13,
          4,
          0,
          25928,
          28530,
          0
        ]
      ],
      "commands": [
        [
          "set_tile",
          13,
          4,
          1,
          355,
          25441,
          0
        ],
        [
          "set_tile",
          9,
          12,
          1,
          355,
          25441,
          0
        ],
        [
          "clear_tile",
          8,
          11,
          1,
          28525,
          25974,
          0
        ],
        [
          "clear_tile",
          9,
          11,
          1,
          28525,
          25974,
          0
        ],
        [
          "clear_tile",
          10,
          11,
          1,
          28525,
          25974,
          0
        ],
        [
          "lock_camera",
          13,
          0,
          28233,
          29254,
          28015,
          0
        ]
      ]
    },
    {
      "triggers": [
        [
          "on_enter_vehicle",
          110,
          35244,
          181,
          0,
          0,
          0
        ],
        [
          "on_player_at_pos",
          9,
          12,
          0,
          25928,
          28530,
          0
        ]
      ],
      "commands": [
        [
          "set_tile",
          9,
          12,
          1,
          355,
          25441,
          0
        ],
        [
          "set_tile",
          8,
          11,
          1,
          355,
          25441,
          0
        ],
        [
          "set_tile",
          9,
          11,
          1,
          355,
          25441,
          0
        ],
        [
          "set_tile",
          10,
          11,
          1,
          355,
          25441,
          0
        ],
        [
          "lock_camera",
          13,
          0,
          28233,
          29254,
          28015,
          0
        ]
      ]
    },
    {
      "triggers": [
        [
          "on_bump_tile",
          5,
          4,
          355,
          30018,
          28781,
          0
        ]
      ],
      "commands": [
        [
          "clear_tile",
          5,
          4,
          1,
          28525,
          25974,
          0
        ],
        [
          "set_player_pos",
          5,
          4,
          25939,
          18548,
          29285,
          0
        ],
        [
          "render_changes",
          0,
          0,
          0,
          0,
          0,
          0
        ],
        [
          "wait_ticks",
          2,
          0,
          24919,
          29801,
          28486,
          0
        ],
        [
          "release_camera",
          11,
          0,
          28487,
          28500,
          17197,
          0
        ],
        [
          "warp_to_map",
          375,
          2,
          0,
          0,
          26723,
          0
        ]
      ]
    },
    {
      "triggers": [
        [
          "on_bump_tile",
          13,
          4,
          355,
          30018,
          28781,
          0
        ]
      ],
      "commands": [
        [
          "clear_tile",
          13,
          4,
          1,
          28525,
          25974,
          0
        ],
        [
          "set_player_pos",
          13,
          4,
          25939,
          18548,
          29285,
          0
        ],
        [
          "render_changes",
          11,
          0,
          28487,
          28500,
          17197,
          0
        ],
        [
          "wait_ticks",
          2,
          0,
          24919,
          29801,
          28486,
          0
        ],
        [
          "release_camera",
          11,
          0,
          28487,
          28500,
          17197,
          0
        ],
        [
          "warp_to_map",
          375,
          15,
          0,
          0,
          26723,
          0
        ]
      ]
    },
    {
      "triggers": [
        [
          "on_bump_tile",
          9,
          12,
          355,
          30018,
          28781,
          0
        ],
        [
          "on_player_at_pos",
          9,
          13,
          0,
          25928,
          28530,
          0
        ]
      ],
      "commands": [
        [
          "clear_tile",
          9,
          12,
          1,
          28525,
          25974,
          0
        ],
        [
          "set_player_pos",
          9,
          12,
          25939,
          18548,
          29285,
          0
        ],
        [
          "render_changes",
          11,
          0,
          28487,
          28500,
          17197,
          0
        ],
        [
          "wait_ticks",
          2,
          0,
          24919,
          29801,
          28486,
          0
        ],
        [
          "release_camera",
          11,
          0,
          28487,
          28500,
          17197,
          0
        ],
        [
          "warp_to_map",
          375,
          8,
          17,
          0,
          26723,
          0
        ]
      ]
    },
    {
      "triggers": [
        [
          "on_bump_tile",
          9,
          12,
          76,
          30018,
          28781,
          0
        ]
      ],
      "commands": [
        [
          "play_sound",
          6,
          0,
          0,
          0,
          0,
          0
        ],
        [
          "say_text",
          8,
          0,
          26707,
          30575,
          25940,
          70
        ]
      ]
    },
    {
      "triggers": [
        [
          "on_drag_item",
          10,
          12,
          2,
          361,
          1243,
          0
        ]
      ],
      "commands": [
        [
          "set_tile",
          9,
          12,
          1,
          355,
          25441,
          0
        ],
        [
          "set_tile",
          10,
          12,
          2,
          362,
          25441,
          0
        ],
        [
          "redraw_tiles",
          9,
          12,
          10,
          12,
          30561,
          0
        ],
        [
          "render_changes",
          0,
          0,
          37264,
          181,
          0,
          0
        ],
        [
          "play_sound",
          17,
          0,
          27728,
          31073,
          28499,
          0
        ],
        [
          "wait_ticks",
          2,
          0,
          24919,
          29801,
          28486,
          0
        ]
      ]
    }
  ],
  "tilemap": [
    [
      [
        0,
        65535,
        65535
      ],
      [
        0,
        65535,
        65535
      ],
      [
        0,
        65535,
        65535
      ],
      [
        0,
        65535,
        65535
      ],
      [
        0,
        65535,
        65535
      ],
      [
        0,
        65535,
        65535
      ],
      [
        0,
        65535,
        65535
      ],
      [
        0,
        65535,
        65535
      ],
      [
        0,
        65535,
        65535
      ],
      [
        0,
        65535,
        65535
      ],
      [
        0,
        65535,
        65535
      ],
      [
        0,
        65535,
        65535
      ],
      [
        0,
        65535,
        65535
      ],
      [
        0,
        65535,
        65535
      ],
      [
        0,
        65535,
        65535
      ],
      [
        0,
        65535,
        65535
      ],
      [
        0,
        65535,
        65535
      ],
      [
        0,
        65535,
        65535
      ]
    ],
    [
      [
        0,
        65535,
        65535
      ],
      [
        346,
        65535,
        65535
      ],
      [
        0,
        65535,
        65535
      ],
      [
        0,
        65535,
        65535
      ],
      [
        356,
        65535,
        65535
      ],
      [
        0,
        65535,
        815
      ],
      [
        0,
        65535,
        65535
      ],
      [
        0,
        65535,
        65535
      ],
      [
        0,
        65535,
        65535
      ],
      [
        0,
        65535,
        65535
      ],
      [
        100,
        65535,
        65535
      ],
      [
        0,
        65535,
        65535
      ],
      [
        0,
        65535,
        65535
      ],
      [
        0,
        65535,
        815
      ],
      [
        0,
        65535,
        65535
      ],
      [
        0,
        65535,
        65535
      ],
      [
        357,
        65535,
        65535
      ],
      [
        0,
        65535,
        65535
      ]
    ],
    [
      [
        0,
        65535,
        65535
      ],
      [
        0,
        65535,
        65535
      ],
      [
        0,
        65535,
        65535
      ],
      [
        0,
        57,
        65535
      ],
      [
        0,
        54,
        124
      ],
      [
        0,
        54,
        814
      ],
      [
        0,
        54,
        127
      ],
      [
        0,
        59,
        65535
      ],
      [
        0,
        65535,
        65535
      ],
      [
        0,
        65535,
        65535
      ],
      [
        0,
        65535,
        65535
      ],
      [
        0,
        57,
        65535
      ],
      [
        0,
        54,
        124
      ],
      [
        0,
        54,
        814
      ],
      [
        0,
        54,
        127
      ],
      [
        0,
        59,
        65535
      ],
      [
        0,
        65535,
        65535
      ],
      [
        0,
        65535,
        65535
      ]
    ],
    [
      [
        0,
        65535,
        65535
      ],
      [
        0,
        65535,
        65535
      ],
      [
        0,
        65535,
        65535
      ],
      [
        0,
        55,
        65535
      ],
      [
        0,
        156,
        65535
      ],
      [
        0,
        133,
        65535
      ],
      [
        0,
        135,
        65535
      ],
      [
        0,
        56,
        65535
      ],
      [
        98,
        65535,
        65535
      ],
      [
        356,
        65535,
        65535
      ],
      [
        346,
        65535,
        65535
      ],
      [
        0,
        55,
        65535
      ],
      [
        0,
        156,
        65535
      ],
      [
        0,
        133,
        65535
      ],
      [
        0,
        135,
        65535
      ],
      [
        0,
        56,
        65535
      ],
      [
        0,
        65535,
        65535
      ],
      [
        0,
        65535,
        65535
      ]
    ],
    [
      [
        0,
        65535,
        65535
      ],
      [
        0,
        65535,
        65535
      ],
      [
        0,
        65535,
        65535
      ],
      [
        0,
        55,
        65535
      ],
      [
        0,
        136,
        65535
      ],
      [
        151,
        159,
        114
      ],
      [
        0,
        139,
        65535
      ],
      [
        0,
        63,
        65535
      ],
      [
        0,
        54,
        65535
      ],
      [
        0,
        54,
        65535
      ],
      [
        0,
        54,
        65535
      ],
      [
        0,
        62,
        65535
      ],
      [
        0,
        136,
        65535
      ],
      [
        151,
        159,
        114
      ],
      [
        0,
        139,
        65535
      ],
      [
        0,
        56,
        65535
      ],
      [
        0,
        65535,
        65535
      ],
      [
        0,
        65535,
        65535
      ]
    ],
    [
      [
        0,
        65535,
        65535
      ],
      [
        0,
        65535,
        65535
      ],
      [
        0,
        65535,
        65535
      ],
      [
        0,
        60,
        65535
      ],
      [
        0,
        64,
        65535
      ],
      [
        281,
        65535,
        65535
      ],
      [
        281,
        65535,
        124
      ],
      [
        281,
        65535,
        126
      ],
      [
        281,
        65535,
        125
      ],
      [
        281,
        65535,
        126
      ],
      [
        281,
        65535,
        125
      ],
      [
        281,
        65535,
        126
      ],
      [
        281,
        65535,
        127
      ],
      [
        281,
        65535,
        65535
      ],
      [
        0,
        65,
        65535
      ],
      [
        0,
        69,
        65535
      ],
      [
        0,
        65535,
        65535
      ],
      [
        0,
        65535,
        65535
      ]
    ],
    [
      [
        0,
        65535,
        65535
      ],
      [
        0,
        65535,
        65535
      ],
      [
        0,
        65535,
        65535
      ],
      [
        99,
        65535,
        65535
      ],
      [
        0,
        55,
        65535
      ],
      [
        282,
        65535,
        65535
      ],
      [
        0,
        128,
        65535
      ],
      [
        0,
        130,
        65535
      ],
      [
        0,
        129,
        118
      ],
      [
        0,
        130,
        119
      ],
      [
        0,
        129,
        120
      ],
      [
        0,
        130,
        65535
      ],
      [
        282,
        131,
        65535
      ],
      [
        282,
        65535,
        65535
      ],
      [
        0,
        56,
        65535
      ],
      [
        98,
        65535,
        65535
      ],
      [
        0,
        65535,
        65535
      ],
      [
        0,
        65535,
        65535
      ]
    ],
    [
      [
        0,
        65535,
        65535
      ],
      [
        0,
        65535,
        65535
      ],
      [
        345,
        65535,
        65535
      ],
      [
        0,
        65535,
        65535
      ],
      [
        0,
        55,
        65535
      ],
      [
        281,
        65535,
        65535
      ],
      [
        282,
        128,
        158
      ],
      [
        0,
        130,
        65535
      ],
      [
        129,
        121,
        65535
      ],
      [
        0,
        122,
        65535
      ],
      [
        0,
        123,
        65535
      ],
      [
        0,
        130,
        65535
      ],
      [
        0,
        131,
        65535
      ],
      [
        281,
        65535,
        65535
      ],
      [
        0,
        56,
        65535
      ],
      [
        353,
        65535,
        65535
      ],
      [
        0,
        65535,
        65535
      ],
      [
        0,
        65535,
        65535
      ]
    ],
    [
      [
        0,
        65535,
        65535
      ],
      [
        0,
        65535,
        352
      ],
      [
        0,
        65535,
        65535
      ],
      [
        0,
        65535,
        65535
      ],
      [
        0,
        55,
        65535
      ],
      [
        281,
        65535,
        65535
      ],
      [
        282,
        128,
        65535
      ],
      [
        0,
        130,
        65535
      ],
      [
        0,
        129,
        65535
      ],
      [
        0,
        129,
        126
      ],
      [
        0,
        129,
        65535
      ],
      [
        0,
        130,
        65535
      ],
      [
        0,
        131,
        65535
      ],
      [
        282,
        65535,
        65535
      ],
      [
        0,
        56,
        65535
      ],
      [
        0,
        65535,
        65535
      ],
      [
        0,
        65535,
        65535
      ],
      [
        0,
        65535,
        65535
      ]
    ],
    [
      [
        0,
        65535,
        65535
      ],
      [
        0,
        351,
        65535
      ],
      [
        0,
        65535,
        65535
      ],
      [
        0,
        65535,
        65535
      ],
      [
        0,
        55,
        65535
      ],
      [
        281,
        65535,
        65535
      ],
      [
        0,
        156,
        158
      ],
      [
        0,
        134,
        65535
      ],
      [
        0,
        133,
        65535
      ],
      [
        0,
        142,
        65535
      ],
      [
        0,
        133,
        65535
      ],
      [
        0,
        134,
        65535
      ],
      [
        0,
        135,
        65535
      ],
      [
        281,
        65535,
        65535
      ],
      [
        0,
        56,
        65535
      ],
      [
        345,
        65535,
        65535
      ],
      [
        0,
        65535,
        65535
      ],
      [
        0,
        65535,
        65535
      ]
    ],
    [
      [
        0,
        65535,
        65535
      ],
      [
        0,
        65535,
        65535
      ],
      [
        353,
        65535,
        65535
      ],
      [
        0,
        65535,
        65535
      ],
      [
        0,
        55,
        65535
      ],
      [
        281,
        65535,
        815
      ],
      [
        0,
        136,
        65535
      ],
      [
        0,
        159,
        114
      ],
      [
        0,
        146,
        65535
      ],
      [
        147,
        65535,
        65535
      ],
      [
        0,
        148,
        65535
      ],
      [
        0,
        159,
        114
      ],
      [
        0,
        139,
        65535
      ],
      [
        281,
        65535,
        815
      ],
      [
        0,
        56,
        65535
      ],
      [
        0,
        65535,
        65535
      ],
      [
        346,
        65535,
        65535
      ],
      [
        0,
        65535,
        65535
      ]
    ],
    [
      [
        0,
        65535,
        65535
      ],
      [
        0,
        65535,
        65535
      ],
      [
        0,
        65535,
        65535
      ],
      [
        0,
        57,
        65535
      ],
      [
        0,
        62,
        124
      ],
      [
        281,
        65535,
        814
      ],
      [
        281,
        65535,
        127
      ],
      [
        282,
        65535,
        65535
      ],
      [
        281,
        355,
        65535
      ],
      [
        281,
        355,
        65535
      ],
      [
        281,
        355,
        65535
      ],
      [
        281,
        65535,
        65535
      ],
      [
        281,
        65535,
        124
      ],
      [
        281,
        65535,
        814
      ],
      [
        0,
        63,
        127
      ],
      [
        0,
        59,
        65535
      ],
      [
        0,
        65535,
        65535
      ],
      [
        0,
        65535,
        65535
      ]
    ],
    [
      [
        0,
        65535,
        65535
      ],
      [
        0,
        65535,
        65535
      ],
      [
        346,
        65535,
        65535
      ],
      [
        0,
        55,
        65535
      ],
      [
        0,
        156,
        65535
      ],
      [
        0,
        133,
        65535
      ],
      [
        0,
        135,
        65535
      ],
      [
        0,
        65,
        65535
      ],
      [
        0,
        53,
        65535
      ],
      [
        78,
        76,
        65535
      ],
      [
        0,
        53,
        361
      ],
      [
        0,
        64,
        65535
      ],
      [
        0,
        156,
        65535
      ],
      [
        0,
        133,
        65535
      ],
      [
        0,
        135,
        65535
      ],
      [
        0,
        56,
        65535
      ],
      [
        0,
        65535,
        65535
      ],
      [
        0,
        65535,
        65535
      ]
    ],
    [
      [
        0,
        65535,
        65535
      ],
      [
        0,
        65535,
        65535
      ],
      [
        0,
        65535,
        65535
      ],
      [
        0,
        55,
        65535
      ],
      [
        0,
        136,
        65535
      ],
      [
        0,
        159,
        114
      ],
      [
        0,
        139,
        65535
      ],
      [
        0,
        56,
        65535
      ],
      [
        0,
        185,
        65535
      ],
      [
        282,
        65535,
        65535
      ],
      [
        0,
        185,
        65535
      ],
      [
        0,
        55,
        65535
      ],
      [
        0,
        136,
        65535
      ],
      [
        0,
        159,
        114
      ],
      [
        0,
        139,
        65535
      ],
      [
        0,
        56,
        65535
      ],
      [
        0,
        65535,
        65535
      ],
      [
        0,
        65535,
        65535
      ]
    ],
    [
      [
        0,
        65535,
        65535
      ],
      [
        0,
        65535,
        65535
      ],
      [
        0,
        65535,
        65535
      ],
      [
        0,
        60,
        65535
      ],
      [
        0,
        53,
        65535
      ],
      [
        0,
        53,
        65535
      ],
      [
        0,
        53,
        65535
      ],
      [
        0,
        69,
        65535
      ],
      [
        0,
        65535,
        65535
      ],
      [
        281,
        65535,
        65535
      ],
      [
        0,
        65535,
        65535
      ],
      [
        0,
        60,
        65535
      ],
      [
        0,
        53,
        65535
      ],
      [
        0,
        53,
        65535
      ],
      [
        0,
        53,
        65535
      ],
      [
        0,
        69,
        65535
      ],
      [
        0,
        65535,
        65535
      ],
      [
        0,
        65535,
        65535
      ]
    ],
    [
      [
        0,
        65535,
        65535
      ],
      [
        0,
        65535,
        65535
      ],
      [
        0,
        65535,
        65535
      ],
      [
        0,
        65535,
        65535
      ],
      [
        358,
        65535,
        65535
      ],
      [
        0,
        65535,
        65535
      ],
      [
        98,
        65535,
        65535
      ],
      [
        0,
        65535,
        65535
      ],
      [
        0,
        65535,
        65535
      ],
      [
        281,
        65535,
        65535
      ],
      [
        0,
        65535,
        65535
      ],
      [
        0,
        65535,
        65535
      ],
      [
        346,
        65535,
        65535
      ],
      [
        0,
        65535,
        65535
      ],
      [
        356,
        65535,
        65535
      ],
      [
        0,
        65535,
        65535
      ],
      [
        0,
        65535,
        65535
      ],
      [
        0,
        65535,
        65535
      ]
    ],
    [
      [
        0,
        65535,
        65535
      ],
      [
        357,
        65535,
        65535
      ],
      [
        0,
        65535,
        65535
      ],
      [
        0,
        65535,
        65535
      ],
      [
        0,
        65535,
        65535
      ],
      [
        99,
        65535,
        65535
      ],
      [
        0,
        65535,
        65535
      ],
      [
        0,
        65535,
        65535
      ],
      [
        0,
        65535,
        65535
      ],
      [
        0,
        65535,
        65535
      ],
      [
        0,
        65535,
        65535
      ],
      [
        0,
        65535,
        65535
      ],
      [
        0,
        65535,
        65535
      ],
      [
        0,
        65535,
        65535
      ],
      [
        0,
        65535,
        65535
      ],
      [
        0,
        65535,
        65535
      ],
      [
        0,
        65535,
        65535
      ],
      [
        0,
        65535,
        65535
      ]
    ],
    [
      [
        0,
        65535,
        65535
      ],
      [
        0,
        65535,
        65535
      ],
      [
        0,
        65535,
        65535
      ],
      [
        0,
        65535,
        65535
      ],
      [
        0,
        65535,
        65535
      ],
      [
        0,
        65535,
        65535
      ],
      [
        0,
        65535,
        65535
      ],
      [
        0,
        65535,
        65535
      ],
      [
        0,
        65535,
        65535
      ],
      [
        0,
        65535,
        65535
      ],
      [
        0,
        65535,
        65535
      ],
      [
        0,
        65535,
        65535
      ],
      [
        0,
        65535,
        65535
      ],
      [
        0,
        65535,
        65535
      ],
      [
        0,
        65535,
        65535
      ],
      [
        0,
        65535,
        65535
      ],
      [
        0,
        65535,
        65535
      ],
      [
        99,
        65535,
        65535
      ]
    ],
    []
  ]
}