{
  "zoneId": 389,
  "zoneType": 2,
  "width": 18,
  "height": 18,
  "type": 5,
  "world": 2,
  "objects": [
    {
      "type": 12,
      "x": 2,
      "y": 12,
      "unknown": 1,
      "param": 65535
    }
  ],
  "actions": [
    {
      "triggers": [
        [
          "on_bump_tile",
          8,
          9,
          1150,
          30018,
          28781,
          0
        ],
        [
          "on_temp_var_eq",
          0,
          8,
          0,
          28483,
          28277,
          0
        ]
      ],
      "commands": [
        [
          "say_text",
          8,
          0,
          26707,
          30575,
          25940,
          82
        ]
      ]
    },
    {
      "triggers": [
        [
          "on_bump_tile",
          8,
          9,
          1150,
          30018,
          28781,
          0
        ],
        [
          "on_temp_var_eq",
          1,
          8,
          0,
          28483,
          28277,
          0
        ]
      ],
      "commands": [
        [
          "say_text",
          8,
          0,
          26707,
          30575,
          25940,
          51
        ]
      ]
    },
    {
      "triggers": [
        [
          "on_bump_tile",
          8,
          9,
          1150,
          30018,
          28781,
          0
        ],
        [
          "on_temp_var_eq",
          2,
          8,
          0,
          28483,
          28277,
          0
        ]
      ],
      "commands": [
        [
          "say_text",
          8,
          0,
          26707,
          30575,
          25940,
          24
        ]
      ]
    },
    {
      "triggers": [
        [
          "on_check_map_tile",
          1167,
          9,
          9,
          1,
          25964,
          0
        ],
        [
          "on_temp_var_eq",
          2,
          8,
          0,
          28483,
          28277,
          0
        ]
      ],
      "commands": [
        [
          "clear_tile",
          9,
          9,
          1,
          28525,
          25974,
          0
        ],
        [
          "set_tile",
          8,
          9,
          2,
          1167,
          25441,
          0
        ],
        [
          "redraw_tiles",
          8,
          9,
          9,
          9,
          30561,
          0
        ],
        [
          "render_changes",
          2,
          0,
          3168,
          0,
          17948,
          0
        ],
        [
          "set_temp_var",
          3,
          0,
          25939,
          17268,
          30063,
          0
        ]
      ]
    },
    {
      "triggers": [
        [
          "on_check_map_tile",
          1167,
          9,
          9,
          1,
          25964,
          0
        ],
        [
          "on_temp_var_eq",
          1,
          8,
          0,
          28483,
          28277,
          0
        ]
      ],
      "commands": [
        [
          "clear_tile",
          9,
          9,
          1,
          28525,
          25974,
          0
        ],
        [
          "set_tile",
          8,
          9,
          2,
          1167,
          25441,
          0
        ],
        [
          "redraw_tiles",
          8,
          9,
          9,
          9,
          30561,
          0
        ],
        [
          "render_changes",
          2,
          0,
          3168,
          0,
          17948,
          0
        ],
        [
          "wait_ticks",
          2,
          0,
          24919,
          29801,
          28486,
          0
        ],
        [
          "move_map_tile",
          8,
          9,
          2,
          7,
          9,
          0
        ],
        [
          "redraw_tiles",
          7,
          9,
          8,
          9,
          30561,
          0
        ],
        [
          "render_changes",
          0,
          0,
          0,
          0,
          17948,
          0
        ],
        [
          "set_temp_var",
          2,
          0,
          25939,
          17268,
          30063,
          0
        ]
      ]
    },
    {
      "triggers": [
        [
          "on_check_map_tile",
          1167,
          9,
          9,
          1,
          25964,
          0
        ],
        [
          "on_temp_var_eq",
          0,
          8,
          0,
          28483,
          28277,
          0
        ]
      ],
      "commands": [
        [
          "clear_tile",
          9,
          9,
          1,
          28525,
          25974,
          0
        ],
        [
          "set_tile",
          8,
          9,
          2,
          1167,
          25441,
          0
        ],
        [
          "redraw_tiles",
          8,
          9,
          9,
          9,
          30561,
          0
        ],
        [
          "render_changes",
          2,
          0,
          3168,
          0,
          17948,
          0
        ],
        [
          "wait_ticks",
          2,
          0,
          24919,
          29801,
          28486,
          0
        ],
        [
          "move_map_tile",
          8,
          9,
          2,
          7,
          9,
          0
        ],
        [
          "redraw_tiles",
          7,
          9,
          8,
          9,
          30561,
          0
        ],
        [
          "render_changes",
          0,
          0,
          0,
          0,
          17948,
          0
        ],
        [
          "wait_ticks",
          2,
          0,
          0,
          0,
          0,
          0
        ],
        [
          "move_map_tile",
          7,
          9,
          2,
          6,
          9,
          0
        ],
        [
          "redraw_tiles",
          6,
          9,
          7,
          9,
          30561,
          0
        ],
        [
          "render_changes",
          18128,
          110,
          0,
          0,
          0,
          0
        ],
        [
          "set_temp_var",
          1,
          0,
          25939,
          17268,
          30063,
          0
        ]
      ]
    },
    {
      "triggers": [
        [
          "on_bump_tile",
          8,
          9,
          1150,
          30018,
          28781,
          0
        ],
        [
          "on_temp_var_eq",
          3,
          8,
          0,
          28483,
          28277,
          0
        ]
      ],
      "commands": [
        [
          "release_camera",
          10,
          0,
          28483,
          28277,
          25972,
          0
        ],
        [
          "set_player_pos",
          8,
          8,
          25939,
          18548,
          29285,
          0
        ],
        [
          "draw_overlay_tile",
          8,
          8,
          1027,
          30561,
          26964,
          0
        ],
        [
          "render_changes",
          20276,
          70,
          1,
          0,
          0,
          0
        ],
        [
          "wait_ticks",
          2,
          0,
          24919,
          29801,
          28486,
          0
        ],
        [
          "redraw_tile",
          8,
          8,
          25938,
          29284,
          30561,
          0
        ],
        [
          "set_player_pos",
          7,
          8,
          25939,
          18548,
          29285,
          0
        ],
        [
          "draw_overlay_tile",
          7,
          8,
          1028,
          30561,
          26964,
          0
        ],
        [
          "render_changes",
          0,
          0,
          49980,
          206,
          0,
          0
        ],
        [
          "wait_ticks",
          2,
          0,
          24919,
          29801,
          28486,
          0
        ],
        [
          "redraw_tile",
          7,
          8,
          25938,
          29284,
          30561,
          0
        ],
        [
          "draw_overlay_tile",
          6,
          8,
          1027,
          30561,
          26964,
          0
        ],
        [
          "set_player_pos",
          6,
          8,
          25939,
          18548,
          29285,
          0
        ],
        [
          "render_changes",
          16,
          0,
          25939,
          18548,
          29285,
          0
        ],
        [
          "redraw_tile",
          6,
          8,
          25938,
          29284,
          30561,
          0
        ],
        [
          "set_player_pos",
          5,
          9,
          25939,
          18548,
          29285,
          0
        ],
        [
          "render_changes",
          0,
          0,
          0,
          0,
          0,
          0
        ],
        [
          "lock_camera",
          27,
          0,
          22618,
          12346,
          8240,
          0
        ]
      ]
    },
    {
      "triggers": [
        [
          "on_bump_tile",
          6,
          9,
          1148,
          30018,
          28781,
          0
        ],
        [
          "on_temp_var_eq",
          3,
          8,
          0,
          28483,
          28277,
          0
        ]
      ],
      "commands": [
        [
          "release_camera",
          10,
          0,
          28483,
          28277,
          25972,
          0
        ],
        [
          "set_player_pos",
          6,
          8,
          25939,
          18548,
          29285,
          0
        ],
        [
          "draw_overlay_tile",
          6,
          8,
          1030,
          30561,
          26964,
          0
        ],
        [
          "render_changes",
          20276,
          70,
          1,
          0,
          0,
          0
        ],
        [
          "wait_ticks",
          2,
          0,
          24919,
          29801,
          28486,
          0
        ],
        [
          "redraw_tile",
          6,
          8,
          25938,
          29284,
          30561,
          0
        ],
        [
          "set_player_pos",
          7,
          8,
          25939,
          18548,
          29285,
          0
        ],
        [
          "draw_overlay_tile",
          7,
          8,
          1031,
          30561,
          26964,
          0
        ],
        [
          "render_changes",
          0,
          0,
          49980,
          206,
          0,
          0
        ],
        [
          "wait_ticks",
          2,
          0,
          24919,
          29801,
          28486,
          0
        ],
        [
          "redraw_tile",
          7,
          8,
          25938,
          29284,
          30561,
          0
        ],
        [
          "draw_overlay_tile",
          8,
          8,
          1030,
          30561,
          26964,
          0
        ],
        [
          "set_player_pos",
          8,
          8,
          25939,
          18548,
          29285,
          0
        ],
        [
          "render_changes",
          16,
          0,
          25939,
          18548,
          29285,
          0
        ],
        [
          "redraw_tile",
          8,
          8,
          25938,
          29284,
          30561,
          0
        ],
        [
          "set_player_pos",
          9,
          9,
          25939,
          18548,
          29285,
          0
        ],
        [
          "render_changes",
          0,
          0,
          0,
          0,
          0,
          0
        ],
        [
          "lock_camera",
          27,
          0,
          22618,
          12346,
          8240,
          0
        ]
      ]
    },
    {
      "triggers": [
        [
          "on_bump_tile",
          2,
          12,
          1259,
          30018,
          28781,
          0
        ]
      ],
      "commands": [
        [
          "play_sound",
          6,
          0,
          0,
          0,
          0,
          0
        ],
        [
          "say_text",
          8,
          0,
          26707,
          30575,
          25940,
          40
        ]
      ]
    },
    {
      "triggers": [
        [
          "on_drag_item",
          2,
          12,
          1,
          1259,
          65535,
          0
        ]
      ],
      "commands": [
        [
          "play_sound",
          58,
          0,
          27728,
          31073,
          28499,
          0
        ],
        [
          "remove_item_from_inv",
          65535,
          0,
          0,
          0,
          0,
          0
        ],
        [
          "clear_tile",
          2,
          12,
          1,
          28525,
          25974,
          0
        ],
        [
          "redraw_tile",
          2,
          12,
          25938,
          29284,
          30561,
          0
        ],
        [
          "render_changes",
          0,
          0,
          52776,
          206,
          0,
          0
        ]
      ]
    }
  ],
  "tilemap": [
    [
      [
        648,
        65535,
        65535
      ],
      [
        648,
        711,
        65535
      ],
      [
        648,
        65535,
        65535
      ],
      [
        648,
        65535,
        65535
      ],
      [
        1010,
        65535,
        65535
      ],
      [
        1008,
        1610,
        65535
      ],
      [
        1011,
        1611,
        65535
      ],
      [
        1008,
        1158,
        65535
      ],
      [
        1161,
        65535,
        65535
      ],
      [
        648,
        1610,
        65535
      ],
      [
        648,
        1147,
        65535
      ],
      [
        648,
        1147,
        65535
      ],
      [
        648,
        1611,
        65535
      ],
      [
        1008,
        1153,
        65535
      ],
      [
        1162,
        65535,
        65535
      ],
      [
        1011,
        65535,
        65535
      ],
      [
        648,
        65535,
        65535
      ],
      [
        648,
        65535,
        65535
      ]
    ],
    [
      [
        1000,
        65535,
        65535
      ],
      [
        648,
        711,
        65535
      ],
      [
        1013,
        65535,
        65535
      ],
      [
        1009,
        65535,
        65535
      ],
      [
        1017,
        1157,
        65535
      ],
      [
        1010,
        1610,
        65535
      ],
      [
        1018,
        1611,
        65535
      ],
      [
        1008,
        1158,
        65535
      ],
      [
        648,
        1148,
        65535
      ],
      [
        1000,
        1610,
        65535
      ],
      [
        648,
        1147,
        65535
      ],
      [
        1013,
        1147,
        65535
      ],
      [
        1009,
        1614,
        65535
      ],
      [
        1008,
        1151,
        65535
      ],
      [
        1020,
        65535,
        65535
      ],
      [
        1016,
        65535,
        65535
      ],
      [
        648,
        65535,
        65535
      ],
      [
        648,
        65535,
        65535
      ]
    ],
    [
      [
        648,
        65535,
        65535
      ],
      [
        648,
        711,
        65535
      ],
      [
        1010,
        65535,
        65535
      ],
      [
        1159,
        65535,
        65535
      ],
      [
        1017,
        1148,
        65535
      ],
      [
        1017,
        1147,
        65535
      ],
      [
        1008,
        1614,
        65535
      ],
      [
        1008,
        1153,
        65535
      ],
      [
        1014,
        1612,
        65535
      ],
      [
        648,
        1147,
        65535
      ],
      [
        648,
        1147,
        65535
      ],
      [
        1010,
        1611,
        65535
      ],
      [
        1008,
        1150,
        65535
      ],
      [
        1008,
        1158,
        65535
      ],
      [
        1011,
        65535,
        65535
      ],
      [
        1000,
        65535,
        65535
      ],
      [
        648,
        1167,
        65535
      ],
      [
        648,
        65535,
        65535
      ]
    ],
    [
      [
        648,
        65535,
        65535
      ],
      [
        648,
        711,
        65535
      ],
      [
        1010,
        1157,
        65535
      ],
      [
        1008,
        1152,
        65535
      ],
      [
        1610,
        1610,
        65535
      ],
      [
        1008,
        1611,
        65535
      ],
      [
        1008,
        1149,
        65535
      ],
      [
        1008,
        1150,
        65535
      ],
      [
        1008,
        1158,
        65535
      ],
      [
        648,
        1610,
        65535
      ],
      [
        1013,
        1147,
        65535
      ],
      [
        1017,
        1611,
        65535
      ],
      [
        1008,
        1149,
        65535
      ],
      [
        1008,
        1158,
        65535
      ],
      [
        1011,
        65535,
        65535
      ],
      [
        648,
        65535,
        65535
      ],
      [
        648,
        65535,
        65535
      ],
      [
        648,
        65535,
        65535
      ]
    ],
    [
      [
        648,
        65535,
        65535
      ],
      [
        648,
        711,
        65535
      ],
      [
        1010,
        65535,
        65535
      ],
      [
        1008,
        1154,
        65535
      ],
      [
        1610,
        1612,
        65535
      ],
      [
        1008,
        1611,
        65535
      ],
      [
        1008,
        1150,
        65535
      ],
      [
        1008,
        1148,
        65535
      ],
      [
        1008,
        1609,
        65535
      ],
      [
        648,
        1610,
        65535
      ],
      [
        1010,
        1147,
        65535
      ],
      [
        1161,
        1614,
        65535
      ],
      [
        1008,
        1156,
        65535
      ],
      [
        1162,
        65535,
        65535
      ],
      [
        1011,
        65535,
        65535
      ],
      [
        1022,
        65535,
        65535
      ],
      [
        648,
        65535,
        65535
      ],
      [
        648,
        65535,
        65535
      ]
    ],
    [
      [
        648,
        65535,
        65535
      ],
      [
        648,
        711,
        65535
      ],
      [
        1010,
        65535,
        65535
      ],
      [
        1008,
        1157,
        65535
      ],
      [
        1008,
        1150,
        65535
      ],
      [
        1008,
        1610,
        65535
      ],
      [
        1008,
        1609,
        65535
      ],
      [
        1008,
        1612,
        65535
      ],
      [
        648,
        1614,
        65535
      ],
      [
        1013,
        1612,
        65535
      ],
      [
        1017,
        1614,
        65535
      ],
      [
        1008,
        1151,
        65535
      ],
      [
        1020,
        1158,
        65535
      ],
      [
        1019,
        65535,
        65535
      ],
      [
        1018,
        1157,
        65535
      ],
      [
        1009,
        1155,
        65535
      ],
      [
        1014,
        65535,
        65535
      ],
      [
        648,
        65535,
        65535
      ]
    ],
    [
      [
        648,
        65535,
        65535
      ],
      [
        648,
        711,
        65535
      ],
      [
        1015,
        65535,
        65535
      ],
      [
        1019,
        65535,
        65535
      ],
      [
        1008,
        1152,
        65535
      ],
      [
        648,
        1610,
        65535
      ],
      [
        1008,
        1147,
        65535
      ],
      [
        1011,
        1608,
        65535
      ],
      [
        1013,
        1608,
        65535
      ],
      [
        1017,
        1609,
        65535
      ],
      [
        1008,
        1151,
        65535
      ],
      [
        1020,
        65535,
        65535
      ],
      [
        1016,
        65535,
        65535
      ],
      [
        1010,
        65535,
        65535
      ],
      [
        1008,
        1152,
        65535
      ],
      [
        1008,
        1149,
        65535
      ],
      [
        1011,
        1158,
        65535
      ],
      [
        1000,
        65535,
        65535
      ]
    ],
    [
      [
        648,
        65535,
        65535
      ],
      [
        1000,
        711,
        65535
      ],
      [
        648,
        65535,
        65535
      ],
      [
        1010,
        1157,
        65535
      ],
      [
        1008,
        1149,
        65535
      ],
      [
        1008,
        1610,
        65535
      ],
      [
        1008,
        1611,
        65535
      ],
      [
        1008,
        1612,
        65535
      ],
      [
        1008,
        1613,
        65535
      ],
      [
        1160,
        1614,
        65535
      ],
      [
        1020,
        1158,
        65535
      ],
      [
        1016,
        65535,
        65535
      ],
      [
        648,
        1167,
        65535
      ],
      [
        1010,
        65535,
        65535
      ],
      [
        1008,
        1148,
        65535
      ],
      [
        1008,
        1609,
        65535
      ],
      [
        1011,
        1158,
        65535
      ],
      [
        648,
        65535,
        65535
      ]
    ],
    [
      [
        648,
        65535,
        65535
      ],
      [
        648,
        711,
        65535
      ],
      [
        648,
        65535,
        65535
      ],
      [
        1010,
        1157,
        65535
      ],
      [
        1008,
        1154,
        65535
      ],
      [
        1008,
        1612,
        65535
      ],
      [
        1008,
        1614,
        65535
      ],
      [
        1008,
        1149,
        65535
      ],
      [
        1008,
        1151,
        65535
      ],
      [
        1020,
        1156,
        65535
      ],
      [
        1016,
        65535,
        65535
      ],
      [
        997,
        65535,
        65535
      ],
      [
        1013,
        65535,
        65535
      ],
      [
        1017,
        1157,
        65535
      ],
      [
        1008,
        1610,
        65535
      ],
      [
        1008,
        1611,
        65535
      ],
      [
        1011,
        1158,
        65535
      ],
      [
        648,
        65535,
        65535
      ]
    ],
    [
      [
        648,
        65535,
        65535
      ],
      [
        648,
        711,
        65535
      ],
      [
        648,
        65535,
        65535
      ],
      [
        1015,
        65535,
        65535
      ],
      [
        1019,
        65535,
        65535
      ],
      [
        1161,
        65535,
        65535
      ],
      [
        1008,
        1148,
        65535
      ],
      [
        1008,
        1609,
        65535
      ],
      [
        1008,
        1150,
        65535
      ],
      [
        1011,
        65535,
        65535
      ],
      [
        998,
        65535,
        65535
      ],
      [
        648,
        65535,
        65535
      ],
      [
        1010,
        65535,
        65535
      ],
      [
        1008,
        1157,
        65535
      ],
      [
        1008,
        1610,
        65535
      ],
      [
        1008,
        1611,
        65535
      ],
      [
        1011,
        1158,
        65535
      ],
      [
        648,
        65535,
        65535
      ]
    ],
    [
      [
        648,
        65535,
        65535
      ],
      [
        648,
        715,
        65535
      ],
      [
        1260,
        704,
        65535
      ],
      [
        648,
        728,
        65535
      ],
      [
        1010,
        65535,
        65535
      ],
      [
        1008,
        1152,
        65535
      ],
      [
        1008,
        1610,
        65535
      ],
      [
        1008,
        1147,
        65535
      ],
      [
        1008,
        1609,
        65535
      ],
      [
        1018,
        1152,
        65535
      ],
      [
        1009,
        65535,
        65535
      ],
      [
        1014,
        65535,
        65535
      ],
      [
        1015,
        65535,
        65535
      ],
      [
        1019,
        1157,
        65535
      ],
      [
        1008,
        1612,
        65535
      ],
      [
        1008,
        1614,
        65535
      ],
      [
        1011,
        1158,
        65535
      ],
      [
        648,
        65535,
        65535
      ]
    ],
    [
      [
        648,
        65535,
        65535
      ],
      [
        997,
        65535,
        65535
      ],
      [
        648,
        65535,
        65535
      ],
      [
        648,
        711,
        65535
      ],
      [
        1015,
        65535,
        65535
      ],
      [
        1019,
        1157,
        65535
      ],
      [
        1008,
        1612,
        65535
      ],
      [
        1008,
        1147,
        65535
      ],
      [
        1008,
        1147,
        65535
      ],
      [
        1008,
        1609,
        65535
      ],
      [
        1008,
        1153,
        65535
      ],
      [
        1018,
        65535,
        65535
      ],
      [
        1009,
        65535,
        65535
      ],
      [
        1017,
        1157,
        65535
      ],
      [
        1008,
        1149,
        65535
      ],
      [
        1020,
        1151,
        65535
      ],
      [
        1016,
        65535,
        65535
      ],
      [
        648,
        65535,
        65535
      ]
    ],
    [
      [
        648,
        65535,
        65535
      ],
      [
        648,
        713,
        65535
      ],
      [
        1260,
        1259,
        1258
      ],
      [
        648,
        725,
        65535
      ],
      [
        998,
        65535,
        65535
      ],
      [
        1010,
        65535,
        65535
      ],
      [
        1008,
        1154,
        65535
      ],
      [
        1008,
        1610,
        65535
      ],
      [
        1008,
        1147,
        65535
      ],
      [
        1008,
        1611,
        65535
      ],
      [
        1008,
        1150,
        65535
      ],
      [
        1008,
        1153,
        65535
      ],
      [
        1159,
        65535,
        65535
      ],
      [
        1160,
        65535,
        65535
      ],
      [
        1162,
        65535,
        65535
      ],
      [
        1018,
        1167,
        65535
      ],
      [
        1014,
        65535,
        65535
      ],
      [
        648,
        65535,
        65535
      ]
    ],
    [
      [
        648,
        65535,
        65535
      ],
      [
        648,
        711,
        65535
      ],
      [
        648,
        65535,
        65535
      ],
      [
        648,
        65535,
        65535
      ],
      [
        1013,
        65535,
        65535
      ],
      [
        1017,
        65535,
        65535
      ],
      [
        1008,
        1152,
        65535
      ],
      [
        1008,
        1612,
        65535
      ],
      [
        1151,
        1147,
        65535
      ],
      [
        1008,
        1147,
        65535
      ],
      [
        1008,
        1609,
        65535
      ],
      [
        1008,
        1149,
        65535
      ],
      [
        1008,
        1153,
        65535
      ],
      [
        1008,
        1155,
        65535
      ],
      [
        1008,
        1152,
        65535
      ],
      [
        1008,
        1153,
        65535
      ],
      [
        1018,
        1153,
        65535
      ],
      [
        1014,
        65535,
        65535
      ]
    ],
    [
      [
        648,
        65535,
        65535
      ],
      [
        997,
        711,
        65535
      ],
      [
        648,
        65535,
        65535
      ],
      [
        1013,
        65535,
        65535
      ],
      [
        1017,
        65535,
        65535
      ],
      [
        1160,
        65535,
        65535
      ],
      [
        1020,
        1150,
        65535
      ],
      [
        1008,
        1151,
        65535
      ],
      [
        1012,
        1610,
        65535
      ],
      [
        1019,
        1147,
        65535
      ],
      [
        1162,
        1147,
        65535
      ],
      [
        1011,
        1609,
        65535
      ],
      [
        1008,
        1150,
        65535
      ],
      [
        1010,
        1148,
        65535
      ],
      [
        1020,
        1608,
        65535
      ],
      [
        1016,
        1609,
        65535
      ],
      [
        1008,
        1153,
        65535
      ],
      [
        1011,
        65535,
        65535
      ]
    ],
    [
      [
        648,
        65535,
        65535
      ],
      [
        648,
        711,
        65535
      ],
      [
        648,
        65535,
        65535
      ],
      [
        1010,
        1157,
        65535
      ],
      [
        1008,
        1152,
        65535
      ],
      [
        1008,
        1150,
        65535
      ],
      [
        1008,
        1149,
        65535
      ],
      [
        1008,
        1158,
        65535
      ],
      [
        648,
        1610,
        65535
      ],
      [
        1015,
        1147,
        65535
      ],
      [
        1019,
        1613,
        65535
      ],
      [
        1011,
        1147,
        65535
      ],
      [
        648,
        1608,
        65535
      ],
      [
        1010,
        1147,
        65535
      ],
      [
        1008,
        1613,
        65535
      ],
      [
        1014,
        1614,
        65535
      ],
      [
        1008,
        1151,
        65535
      ],
      [
        1011,
        65535,
        65535
      ]
    ],
    [
      [
        648,
        65535,
        65535
      ],
      [
        648,
        711,
        65535
      ],
      [
        1013,
        65535,
        65535
      ],
      [
        1017,
        1157,
        65535
      ],
      [
        1008,
        1148,
        65535
      ],
      [
        1008,
        1608,
        65535
      ],
      [
        1008,
        1609,
        65535
      ],
      [
        1008,
        1153,
        65535
      ],
      [
        1014,
        1610,
        65535
      ],
      [
        648,
        1147,
        65535
      ],
      [
        1010,
        1609,
        65535
      ],
      [
        1011,
        1610,
        65535
      ],
      [
        648,
        1613,
        65535
      ],
      [
        1015,
        1614,
        65535
      ],
      [
        1008,
        1151,
        65535
      ],
      [
        1008,
        1156,
        65535
      ],
      [
        1162,
        65535,
        65535
      ],
      [
        1011,
        65535,
        65535
      ]
    ],
    [
      [
        648,
        65535,
        65535
      ],
      [
        648,
        711,
        65535
      ],
      [
        1010,
        1157,
        65535
      ],
      [
        1008,
        1152,
        65535
      ],
      [
        1008,
        1610,
        65535
      ],
      [
        1008,
        1147,
        65535
      ],
      [
        1008,
        1611,
        65535
      ],
      [
        1008,
        1153,
        65535
      ],
      [
        1011,
        1610,
        65535
      ],
      [
        648,
        1147,
        65535
      ],
      [
        1015,
        1611,
        65535
      ],
      [
        1016,
        1149,
        65535
      ],
      [
        1008,
        1149,
        65535
      ],
      [
        1008,
        1150,
        65535
      ],
      [
        1008,
        1153,
        65535
      ],
      [
        1020,
        1158,
        65535
      ],
      [
        1012,
        65535,
        65535
      ],
      [
        1016,
        65535,
        65535
      ]
    ],
    []
  ]
}