{
  "zoneId": 400,
  "zoneType": 3,
  "width": 18,
  "height": 18,
  "type": 15,
  "world": 3,
  "objects": [
    {
      "type": 9,
      "x": 10,
      "y": 7,
      "unknown": 1,
      "param": 401
    },
    {
      "type": 12,
      "x": 2,
      "y": 2,
      "unknown": 1,
      "param": 65535
    }
  ],
  "actions": [
    {
      "triggers": [
        [
          "on_first_enter",
          110,
          6,
          0,
          8192,
          13873,
          0
        ]
      ],
      "commands": [
        [
          "random",
          2,
          0,
          24898,
          27491,
          29287,
          0
        ]
      ]
    },
    {
      "triggers": [
        [
          "on_first_enter",
          110,
          0,
          0,
          50388,
          188,
          0
        ],
        [
          "on_rand_var_eq",
          1,
          8,
          0,
          24914,
          25710,
          0
        ]
      ],
      "commands": [
        [
          "set_map_tile_var",
          2,
          2,
          0,
          1,
          18004,
          0
        ]
      ]
    },
    {
      "triggers": [
        [
          "on_first_enter",
          110,
          0,
          0,
          50388,
          188,
          0
        ],
        [
          "on_rand_var_eq",
          2,
          8,
          0,
          24914,
          25710,
          0
        ]
      ],
      "commands": [
        [
          "set_map_tile_var",
          2,
          2,
          0,
          2,
          18004,
          0
        ],
        [
          "clear_tile",
          5,
          7,
          1,
          28525,
          25974,
          0
        ],
        [
          "clear_tile",
          5,
          8,
          1,
          28525,
          25974,
          0
        ],
        [
          "clear_tile",
          6,
          7,
          1,
          28525,
          25974,
          0
        ],
        [
          "redraw_tiles",
          5,
          7,
          6,
          8,
          30561,
          0
        ]
      ]
    },
    {
      "triggers": [
        [
          "on_first_enter",
          0,
          0,
          0,
          0,
          0,
          0
        ]
      ],
      "commands": [
        [
          "random",
          3,
          0,
          16288,
          320,
          12548,
          0
        ]
      ]
    },
    {
      "triggers": [
        [
          "on_first_enter",
          0,
          0,
          0,
          0,
          0,
          0
        ],
        [
          "on_rand_var_eq",
          1,
          0,
          0,
          0,
          0,
          0
        ]
      ],
      "commands": [
        [
          "set_tile",
          11,
          11,
          1,
          480,
          30309,
          0
        ]
      ]
    },
    {
      "triggers": [
        [
          "on_first_enter",
          0,
          0,
          0,
          0,
          0,
          0
        ],
        [
          "on_rand_var_eq",
          2,
          0,
          0,
          0,
          0,
          0
        ]
      ],
      "commands": [
        [
          "set_tile",
          5,
          5,
          1,
          514,
          0,
          0
        ]
      ]
    },
    {
      "triggers": [
        [
          "on_first_enter",
          0,
          0,
          0,
          0,
          0,
          0
        ],
        [
          "on_rand_var_eq",
          3,
          0,
          0,
          0,
          0,
          0
        ]
      ],
      "commands": [
        [
          "set_tile",
          13,
          4,
          1,
          505,
          52,
          0
        ]
      ]
    },
    {
      "triggers": [
        [
          "on_enter_vehicle",
          110,
          0,
          0,
          0,
          0,
          0
        ]
      ],
      "commands": [
        [
          "lock_camera",
          272,
          0,
          34352,
          189,
          35440,
          0
        ]
      ]
    },
    {
      "triggers": [
        [
          "on_bump_tile",
          7,
          8,
          355,
          30018,
          28781,
          0
        ]
      ],
      "commands": [
        [
          "set_rand_var",
          99,
          0,
          25939,
          21108,
          28257,
          0
        ]
      ]
    },
    {
      "triggers": [
        [
          "on_bump_tile",
          8,
          8,
          355,
          30018,
          28781,
          0
        ]
      ],
      "commands": [
        [
          "set_rand_var",
          99,
          0,
          25939,
          21108,
          28257,
          0
        ]
      ]
    },
    {
      "triggers": [
        [
          "on_bump_tile",
          9,
          8,
          355,
          30018,
          28781,
          0
        ]
      ],
      "commands": [
        [
          "set_rand_var",
          99,
          0,
          25939,
          21108,
          28257,
          0
        ]
      ]
    },
    {
      "triggers": [
        [
          "on_rand_var_eq",
          99,
          0,
          0,
          0,
          0,
          0
        ],
        [
          "on_has_item",
          499,
          0,
          0,
          0,
          0,
          0
        ]
      ],
      "commands": [
        [
          "set_map_tile_var",
          2,
          3,
          0,
          1,
          0,
          0
        ]
      ]
    },
    {
      "triggers": [
        [
          "on_rand_var_eq",
          99,
          0,
          0,
          0,
          0,
          0
        ],
        [
          "on_check_map_tile_var",
          1,
          2,
          3,
          0,
          29801,
          0
        ],
        [
          "on_check_map_tile_var",
          2,
          15,
          11,
          0,
          0,
          0
        ]
      ],
      "commands": [
        [
          "show_text",
          8,
          9,
          26707,
          30575,
          25940,
          19
        ],
        [
          "render_changes",
          7,
          0,
          24915,
          19065,
          28021,
          0
        ],
        [
          "wait_ticks",
          2,
          0,
          0,
          0,
          0,
          0
        ],
        [
          "set_rand_var",
          100,
          0,
          0,
          0,
          0,
          0
        ]
      ]
    },
    {
      "triggers": [
        [
          "on_rand_var_eq",
          99,
          0,
          0,
          0,
          0,
          0
        ],
        [
          "on_check_map_tile_var",
          1,
          2,
          3,
          0,
          29801,
          0
        ],
        [
          "on_check_map_tile_var",
          1,
          15,
          11,
          0,
          0,
          0
        ]
      ],
      "commands": [
        [
          "show_text",
          8,
          9,
          26707,
          30575,
          25940,
          74
        ],
        [
          "render_changes",
          7,
          0,
          24915,
          19065,
          28021,
          0
        ],
        [
          "wait_ticks",
          2,
          0,
          0,
          0,
          0,
          0
        ],
        [
          "set_map_tile_var",
          15,
          11,
          0,
          2,
          0,
          0
        ],
        [
          "set_rand_var",
          100,
          0,
          0,
          0,
          0,
          0
        ]
      ]
    },
    {
      "triggers": [
        [
          "on_rand_var_eq",
          99,
          8,
          0,
          24914,
          25710,
          0
        ]
      ],
      "commands": [
        [
          "play_sound",
          6,
          0,
          0,
          0,
          0,
          0
        ],
        [
          "say_text",
          8,
          0,
          26707,
          30575,
          25940,
          103
        ],
        [
          "set_map_tile_var",
          15,
          11,
          0,
          1,
          5468,
          0
        ],
        [
          "set_rand_var",
          0,
          0,
          0,
          0,
          0,
          0
        ]
      ]
    },
    {
      "triggers": [
        [
          "on_rand_var_eq",
          100,
          8,
          0,
          24914,
          25710,
          0
        ],
        [
          "on_check_map_tile_var",
          1,
          2,
          2,
          0,
          25697,
          0
        ]
      ],
      "commands": [
        [
          "clear_tile",
          7,
          8,
          1,
          28525,
          25974,
          0
        ],
        [
          "clear_tile",
          8,
          8,
          1,
          28525,
          25974,
          0
        ],
        [
          "clear_tile",
          9,
          8,
          1,
          28525,
          25974,
          0
        ],
        [
          "clear_tile",
          11,
          7,
          1,
          25697,
          18004,
          0
        ],
        [
          "clear_tile",
          12,
          7,
          1,
          28525,
          25974,
          0
        ],
        [
          "set_tile",
          13,
          8,
          1,
          355,
          25441,
          0
        ],
        [
          "set_tile",
          8,
          9,
          1,
          355,
          25441,
          0
        ],
        [
          "set_player_pos",
          8,
          8,
          25939,
          18548,
          29285,
          0
        ],
        [
          "render_changes",
          16,
          0,
          25939,
          18548,
          29285,
          0
        ],
        [
          "play_sound",
          50,
          0,
          27728,
          31073,
          28499,
          0
        ],
        [
          "wait_ticks",
          2,
          0,
          24919,
          29801,
          28486,
          0
        ],
        [
          "set_rand_var",
          0,
          0,
          25939,
          21108,
          28257,
          0
        ]
      ]
    },
    {
      "triggers": [
        [
          "on_rand_var_eq",
          100,
          8,
          0,
          24914,
          25710,
          0
        ],
        [
          "on_check_map_tile_var",
          2,
          2,
          2,
          0,
          25697,
          0
        ]
      ],
      "commands": [
        [
          "clear_tile",
          7,
          8,
          1,
          28525,
          25974,
          0
        ],
        [
          "clear_tile",
          8,
          8,
          1,
          28525,
          25974,
          0
        ],
        [
          "clear_tile",
          9,
          8,
          1,
          28525,
          25974,
          0
        ],
        [
          "clear_tile",
          10,
          9,
          1,
          28525,
          25974,
          0
        ],
        [
          "set_tile",
          7,
          5,
          1,
          355,
          25441,
          0
        ],
        [
          "set_tile",
          7,
          6,
          1,
          355,
          25441,
          0
        ],
        [
          "clear_tile",
          12,
          7,
          1,
          28525,
          25974,
          0
        ],
        [
          "set_tile",
          13,
          8,
          1,
          355,
          25441,
          0
        ],
        [
          "set_tile",
          8,
          9,
          1,
          355,
          25441,
          0
        ],
        [
          "set_player_pos",
          8,
          8,
          25939,
          18548,
          29285,
          0
        ],
        [
          "render_changes",
          16,
          0,
          25939,
          18548,
          29285,
          0
        ],
        [
          "play_sound",
          50,
          0,
          27728,
          31073,
          28499,
          0
        ],
        [
          "wait_ticks",
          2,
          0,
          24919,
          29801,
          28486,
          0
        ],
        [
          "set_rand_var",
          0,
          0,
          25939,
          21108,
          28257,
          0
        ]
      ]
    },
    {
      "triggers": [
        [
          "on_rand_var_neq",
          0,
          10,
          0,
          24914,
          25710,
          0
        ]
      ],
      "commands": [
        [
          "set_rand_var",
          0,
          0,
          25939,
          21108,
          28257,
          0
        ]
      ]
    },
    {
      "triggers": [
        [
          "on_bump_tile",
          10,
          7,
          355,
          30018,
          28781,
          0
        ],
        [
          "on_check_map_tile_var",
          1,
          2,
          2,
          0,
          25697,
          0
        ],
        [
          "on_player_at_pos",
          11,
          7,
          0,
          25928,
          28530,
          0
        ]
      ],
      "commands": [
        [
          "clear_tile",
          10,
          7,
          1,
          28525,
          25974,
          0
        ]
      ]
    },
    {
      "triggers": [
        [
          "on_bump_tile",
          10,
          7,
          355,
          30018,
          28781,
          0
        ],
        [
          "on_check_map_tile_var",
          1,
          2,
          2,
          0,
          25697,
          0
        ],
        [
          "on_player_at_pos",
          11,
          8,
          0,
          25928,
          28530,
          0
        ]
      ],
      "commands": [
        [
          "clear_tile",
          10,
          7,
          1,
          28525,
          25974,
          0
        ]
      ]
    },
    {
      "triggers": [
        [
          "on_bump_tile",
          9,
          7,
          355,
          30018,
          28781,
          0
        ],
        [
          "on_check_map_tile_var",
          2,
          2,
          2,
          0,
          25697,
          0
        ],
        [
          "on_player_at_pos",
          8,
          6,
          0,
          25928,
          28530,
          0
        ]
      ],
      "commands": [
        [
          "clear_tile",
          9,
          7,
          1,
          28525,
          25974,
          0
        ],
        [
          "clear_tile",
          10,
          7,
          1,
          28525,
          25974,
          0
        ]
      ]
    },
    {
      "triggers": [
        [
          "on_bump_tile",
          8,
          9,
          355,
          30018,
          28781,
          0
        ],
        [
          "on_player_at_pos",
          7,
          8,
          0,
          25928,
          28530,
          0
        ]
      ],
      "commands": [
        [
          "set_rand_var",
          101,
          0,
          25939,
          21108,
          28257,
          0
        ]
      ]
    },
    {
      "triggers": [
        [
          "on_bump_tile",
          8,
          9,
          355,
          30018,
          28781,
          0
        ],
        [
          "on_player_at_pos",
          8,
          8,
          0,
          25928,
          28530,
          0
        ]
      ],
      "commands": [
        [
          "set_rand_var",
          101,
          0,
          25939,
          21108,
          28257,
          0
        ]
      ]
    },
    {
      "triggers": [
        [
          "on_bump_tile",
          8,
          9,
          355,
          30018,
          28781,
          0
        ],
        [
          "on_player_at_pos",
          9,
          8,
          0,
          25928,
          28530,
          0
        ]
      ],
      "commands": [
        [
          "set_rand_var",
          101,
          0,
          25939,
          21108,
          28257,
          0
        ]
      ]
    },
    {
      "triggers": [
        [
          "on_rand_var_eq",
          101,
          8,
          0,
          24914,
          25710,
          0
        ]
      ],
      "commands": [
        [
          "set_tile",
          7,
          8,
          1,
          355,
          25441,
          0
        ],
        [
          "set_tile",
          8,
          8,
          1,
          355,
          25441,
          0
        ],
        [
          "set_tile",
          9,
          8,
          1,
          355,
          25441,
          0
        ],
        [
          "clear_tile",
          13,
          8,
          1,
          28525,
          25974,
          0
        ],
        [
          "set_tile",
          12,
          7,
          1,
          355,
          25441,
          0
        ],
        [
          "clear_tile",
          8,
          9,
          1,
          31073,
          28499,
          0
        ],
        [
          "set_player_pos",
          8,
          9,
          25939,
          18548,
          29285,
          0
        ],
        [
          "redraw_tile",
          8,
          9,
          25938,
          29284,
          30561,
          0
        ],
        [
          "render_changes",
          52644,
          188,
          53680,
          188,
          0,
          0
        ],
        [
          "play_sound",
          50,
          0,
          27728,
          31073,
          28499,
          0
        ],
        [
          "wait_ticks",
          2,
          0,
          24919,
          29801,
          28486,
          0
        ],
        [
          "set_rand_var",
          0,
          0,
          25939,
          21108,
          28257,
          0
        ]
      ]
    },
    {
      "triggers": [
        [
          "on_bump_tile",
          5,
          5,
          514,
          26708,
          29285,
          0
        ]
      ],
      "commands": [
        [
          "clear_tile",
          5,
          5,
          1,
          0,
          0,
          0
        ],
        [
          "redraw_tile",
          5,
          5,
          0,
          0,
          0,
          0
        ],
        [
          "render_changes",
          0,
          0,
          0,
          0,
          0,
          0
        ],
        [
          "wait_ticks",
          1,
          0,
          30018,
          28781,
          26964,
          0
        ],
        [
          "spawn_item",
          514,
          5,
          5,
          0,
          0,
          0
        ]
      ]
    },
    {
      "triggers": [
        [
          "on_bump_tile",
          11,
          11,
          480,
          26708,
          29285,
          0
        ]
      ],
      "commands": [
        [
          "clear_tile",
          11,
          11,
          1,
          0,
          0,
          0
        ],
        [
          "redraw_tile",
          11,
          11,
          0,
          0,
          0,
          0
        ],
        [
          "render_changes",
          0,
          0,
          0,
          0,
          0,
          0
        ],
        [
          "wait_ticks",
          1,
          0,
          30018,
          28781,
          26964,
          0
        ],
        [
          "spawn_item",
          480,
          11,
          11,
          0,
          0,
          0
        ]
      ]
    },
    {
      "triggers": [
        [
          "on_bump_tile",
          13,
          4,
          505,
          26708,
          29285,
          0
        ]
      ],
      "commands": [
        [
          "clear_tile",
          13,
          4,
          1,
          0,
          0,
          0
        ],
        [
          "redraw_tile",
          13,
          4,
          0,
          0,
          0,
          0
        ],
        [
          "render_changes",
          0,
          0,
          0,
          0,
          0,
          0
        ],
        [
          "wait_ticks",
          1,
          0,
          30018,
          28781,
          26964,
          0
        ],
        [
          "spawn_item",
          505,
          13,
          4,
          0,
          0,
          0
        ]
      ]
    }
  ],
  "tilemap": [
    [
      [
        1578,
        65535,
        65535
      ],
      [
        403,
        65535,
        65535
      ],
      [
        859,
        65535,
        871
      ],
      [
        860,
        65535,
        872
      ],
      [
        860,
        65535,
        872
      ],
      [
        861,
        65535,
        873
      ],
      [
        403,
        65535,
        65535
      ],
      [
        403,
        65535,
        65535
      ],
      [
        403,
        65535,
        1139
      ],
      [
        403,
        65535,
        65535
      ],
      [
        403,
        65535,
        65535
      ],
      [
        403,
        65535,
        1137
      ],
      [
        403,
        65535,
        65535
      ],
      [
        403,
        65535,
        933
      ],
      [
        403,
        65535,
        65535
      ],
      [
        403,
        65535,
        65535
      ],
      [
        403,
        65535,
        65535
      ],
      [
        403,
        65535,
        65535
      ]
    ],
    [
      [
        403,
        65535,
        65535
      ],
      [
        859,
        65535,
        871
      ],
      [
        867,
        65535,
        877
      ],
      [
        858,
        892,
        888
      ],
      [
        858,
        894,
        886
      ],
      [
        403,
        893,
        885
      ],
      [
        403,
        65535,
        65535
      ],
      [
        403,
        65535,
        65535
      ],
      [
        403,
        1140,
        65535
      ],
      [
        403,
        65535,
        65535
      ],
      [
        403,
        65535,
        933
      ],
      [
        403,
        1138,
        65535
      ],
      [
        1579,
        65535,
        65535
      ],
      [
        403,
        898,
        65535
      ],
      [
        403,
        65535,
        65535
      ],
      [
        403,
        65535,
        1137
      ],
      [
        403,
        65535,
        65535
      ],
      [
        403,
        65535,
        65535
      ]
    ],
    [
      [
        403,
        65535,
        65535
      ],
      [
        1125,
        65535,
        874
      ],
      [
        858,
        892,
        888
      ],
      [
        858,
        892,
        885
      ],
      [
        403,
        894,
        65535
      ],
      [
        861,
        893,
        65535
      ],
      [
        403,
        65535,
        65535
      ],
      [
        403,
        65535,
        65535
      ],
      [
        403,
        65535,
        65535
      ],
      [
        403,
        65535,
        65535
      ],
      [
        403,
        898,
        65535
      ],
      [
        403,
        374,
        65535
      ],
      [
        403,
        375,
        65535
      ],
      [
        403,
        375,
        65535
      ],
      [
        403,
        376,
        65535
      ],
      [
        403,
        1138,
        65535
      ],
      [
        1578,
        65535,
        65535
      ],
      [
        403,
        65535,
        65535
      ]
    ],
    [
      [
        403,
        65535,
        65535
      ],
      [
        862,
        891,
        883
      ],
      [
        0,
        892,
        885
      ],
      [
        897,
        893,
        65535
      ],
      [
        882,
        65535,
        65535
      ],
      [
        881,
        65535,
        65535
      ],
      [
        1577,
        65535,
        65535
      ],
      [
        386,
        390,
        65535
      ],
      [
        387,
        374,
        65535
      ],
      [
        386,
        375,
        65535
      ],
      [
        387,
        375,
        65535
      ],
      [
        386,
        382,
        65535
      ],
      [
        387,
        65535,
        1625
      ],
      [
        386,
        65535,
        1626
      ],
      [
        387,
        383,
        65535
      ],
      [
        403,
        376,
        65535
      ],
      [
        403,
        65535,
        65535
      ],
      [
        403,
        65535,
        65535
      ]
    ],
    [
      [
        403,
        65535,
        65535
      ],
      [
        879,
        891,
        65535
      ],
      [
        897,
        893,
        65535
      ],
      [
        881,
        65535,
        65535
      ],
      [
        386,
        374,
        65535
      ],
      [
        387,
        375,
        65535
      ],
      [
        386,
        375,
        65535
      ],
      [
        387,
        375,
        65535
      ],
      [
        386,
        382,
        65535
      ],
      [
        387,
        65535,
        1625
      ],
      [
        386,
        65535,
        1626
      ],
      [
        387,
        65535,
        1625
      ],
      [
        386,
        65535,
        1626
      ],
      [
        387,
        65535,
        1625
      ],
      [
        386,
        355,
        1626
      ],
      [
        403,
        381,
        65535
      ],
      [
        403,
        65535,
        65535
      ],
      [
        403,
        65535,
        65535
      ]
    ],
    [
      [
        403,
        65535,
        65535
      ],
      [
        879,
        65535,
        65535
      ],
      [
        881,
        65535,
        65535
      ],
      [
        386,
        374,
        65535
      ],
      [
        387,
        382,
        65535
      ],
      [
        386,
        65535,
        1626
      ],
      [
        387,
        65535,
        1625
      ],
      [
        386,
        65535,
        1626
      ],
      [
        387,
        65535,
        1625
      ],
      [
        386,
        1619,
        65535
      ],
      [
        387,
        1620,
        65535
      ],
      [
        386,
        1621,
        65535
      ],
      [
        387,
        65535,
        1625
      ],
      [
        386,
        65535,
        1626
      ],
      [
        387,
        385,
        65535
      ],
      [
        379,
        65535,
        65535
      ],
      [
        403,
        65535,
        65535
      ],
      [
        403,
        65535,
        65535
      ]
    ],
    [
      [
        403,
        65535,
        65535
      ],
      [
        403,
        65535,
        65535
      ],
      [
        403,
        374,
        65535
      ],
      [
        387,
        382,
        65535
      ],
      [
        386,
        65535,
        1626
      ],
      [
        387,
        65535,
        1625
      ],
      [
        386,
        65535,
        1626
      ],
      [
        387,
        65535,
        1625
      ],
      [
        386,
        65535,
        1626
      ],
      [
        387,
        1622,
        65535
      ],
      [
        386,
        355,
        1623
      ],
      [
        387,
        1624,
        65535
      ],
      [
        386,
        65535,
        1626
      ],
      [
        387,
        355,
        1625
      ],
      [
        386,
        381,
        944
      ],
      [
        403,
        65535,
        945
      ],
      [
        403,
        65535,
        946
      ],
      [
        403,
        65535,
        65535
      ]
    ],
    [
      [
        403,
        65535,
        65535
      ],
      [
        403,
        65535,
        933
      ],
      [
        403,
        380,
        65535
      ],
      [
        386,
        65535,
        1626
      ],
      [
        387,
        65535,
        1625
      ],
      [
        386,
        355,
        1626
      ],
      [
        387,
        355,
        1625
      ],
      [
        386,
        355,
        1626
      ],
      [
        387,
        355,
        1625
      ],
      [
        386,
        355,
        1626
      ],
      [
        387,
        355,
        1625
      ],
      [
        386,
        355,
        1626
      ],
      [
        387,
        355,
        1625
      ],
      [
        386,
        385,
        65535
      ],
      [
        379,
        65535,
        941
      ],
      [
        403,
        65535,
        900
      ],
      [
        403,
        65535,
        943
      ],
      [
        1578,
        65535,
        65535
      ]
    ],
    [
      [
        403,
        65535,
        65535
      ],
      [
        403,
        898,
        65535
      ],
      [
        403,
        380,
        65535
      ],
      [
        387,
        65535,
        1625
      ],
      [
        386,
        65535,
        1626
      ],
      [
        387,
        355,
        1625
      ],
      [
        386,
        65535,
        1626
      ],
      [
        387,
        355,
        1625
      ],
      [
        386,
        355,
        1626
      ],
      [
        387,
        355,
        1625
      ],
      [
        386,
        355,
        1626
      ],
      [
        387,
        65535,
        1625
      ],
      [
        386,
        385,
        65535
      ],
      [
        379,
        65535,
        65535
      ],
      [
        1579,
        65535,
        65535
      ],
      [
        403,
        901,
        65535
      ],
      [
        403,
        65535,
        65535
      ],
      [
        403,
        65535,
        65535
      ]
    ],
    [
      [
        403,
        65535,
        65535
      ],
      [
        403,
        65535,
        65535
      ],
      [
        403,
        380,
        65535
      ],
      [
        386,
        355,
        65535
      ],
      [
        387,
        65535,
        1625
      ],
      [
        386,
        65535,
        1626
      ],
      [
        387,
        355,
        1625
      ],
      [
        386,
        385,
        65535
      ],
      [
        378,
        65535,
        65535
      ],
      [
        378,
        384,
        65535
      ],
      [
        387,
        355,
        1625
      ],
      [
        386,
        65535,
        1626
      ],
      [
        387,
        381,
        65535
      ],
      [
        403,
        388,
        65535
      ],
      [
        859,
        65535,
        871
      ],
      [
        860,
        65535,
        872
      ],
      [
        861,
        65535,
        873
      ],
      [
        403,
        65535,
        65535
      ]
    ],
    [
      [
        1577,
        65535,
        65535
      ],
      [
        403,
        65535,
        65535
      ],
      [
        377,
        65535,
        65535
      ],
      [
        387,
        384,
        65535
      ],
      [
        386,
        65535,
        1626
      ],
      [
        387,
        65535,
        1625
      ],
      [
        386,
        385,
        65535
      ],
      [
        379,
        65535,
        65535
      ],
      [
        386,
        374,
        65535
      ],
      [
        387,
        382,
        65535
      ],
      [
        386,
        65535,
        1626
      ],
      [
        387,
        65535,
        1625
      ],
      [
        386,
        383,
        65535
      ],
      [
        387,
        376,
        65535
      ],
      [
        403,
        65535,
        874
      ],
      [
        858,
        65535,
        888
      ],
      [
        403,
        65535,
        885
      ],
      [
        403,
        65535,
        65535
      ]
    ],
    [
      [
        403,
        65535,
        65535
      ],
      [
        403,
        65535,
        65535
      ],
      [
        403,
        65535,
        1137
      ],
      [
        386,
        380,
        65535
      ],
      [
        387,
        355,
        1625
      ],
      [
        386,
        65535,
        1626
      ],
      [
        387,
        383,
        65535
      ],
      [
        386,
        376,
        65535
      ],
      [
        377,
        65535,
        65535
      ],
      [
        386,
        384,
        65535
      ],
      [
        387,
        355,
        1625
      ],
      [
        386,
        65535,
        1626
      ],
      [
        387,
        355,
        1625
      ],
      [
        386,
        381,
        65535
      ],
      [
        403,
        65535,
        883
      ],
      [
        0,
        892,
        885
      ],
      [
        861,
        893,
        65535
      ],
      [
        403,
        65535,
        65535
      ]
    ],
    [
      [
        403,
        65535,
        65535
      ],
      [
        403,
        65535,
        65535
      ],
      [
        403,
        1138,
        65535
      ],
      [
        377,
        65535,
        65535
      ],
      [
        386,
        384,
        65535
      ],
      [
        387,
        355,
        1625
      ],
      [
        386,
        355,
        1139
      ],
      [
        387,
        383,
        65535
      ],
      [
        378,
        376,
        65535
      ],
      [
        377,
        65535,
        65535
      ],
      [
        386,
        384,
        65535
      ],
      [
        387,
        65535,
        1625
      ],
      [
        386,
        385,
        65535
      ],
      [
        379,
        65535,
        871
      ],
      [
        879,
        65535,
        872
      ],
      [
        880,
        893,
        873
      ],
      [
        881,
        65535,
        65535
      ],
      [
        403,
        65535,
        65535
      ]
    ],
    [
      [
        403,
        65535,
        65535
      ],
      [
        403,
        374,
        65535
      ],
      [
        403,
        375,
        65535
      ],
      [
        403,
        376,
        65535
      ],
      [
        377,
        65535,
        65535
      ],
      [
        378,
        65535,
        65535
      ],
      [
        378,
        1140,
        65535
      ],
      [
        378,
        65535,
        65535
      ],
      [
        379,
        65535,
        65535
      ],
      [
        386,
        374,
        65535
      ],
      [
        387,
        382,
        65535
      ],
      [
        386,
        355,
        65535
      ],
      [
        387,
        381,
        65535
      ],
      [
        403,
        65535,
        874
      ],
      [
        858,
        891,
        888
      ],
      [
        881,
        65535,
        885
      ],
      [
        1577,
        65535,
        65535
      ],
      [
        403,
        65535,
        65535
      ]
    ],
    [
      [
        403,
        65535,
        65535
      ],
      [
        377,
        65535,
        65535
      ],
      [
        377,
        384,
        65535
      ],
      [
        403,
        383,
        65535
      ],
      [
        403,
        375,
        65535
      ],
      [
        403,
        376,
        65535
      ],
      [
        403,
        65535,
        65535
      ],
      [
        859,
        65535,
        871
      ],
      [
        861,
        65535,
        873
      ],
      [
        377,
        65535,
        65535
      ],
      [
        378,
        65535,
        65535
      ],
      [
        378,
        65535,
        65535
      ],
      [
        379,
        65535,
        65535
      ],
      [
        403,
        898,
        883
      ],
      [
        858,
        892,
        885
      ],
      [
        861,
        893,
        65535
      ],
      [
        403,
        65535,
        65535
      ],
      [
        403,
        65535,
        65535
      ]
    ],
    [
      [
        403,
        65535,
        65535
      ],
      [
        1579,
        65535,
        65535
      ],
      [
        377,
        65535,
        65535
      ],
      [
        378,
        65535,
        65535
      ],
      [
        378,
        65535,
        65535
      ],
      [
        379,
        65535,
        65535
      ],
      [
        403,
        65535,
        933
      ],
      [
        862,
        891,
        883
      ],
      [
        866,
        893,
        885
      ],
      [
        403,
        65535,
        65535
      ],
      [
        403,
        1580,
        65535
      ],
      [
        403,
        65535,
        65535
      ],
      [
        403,
        65535,
        65535
      ],
      [
        403,
        891,
        65535
      ],
      [
        897,
        893,
        65535
      ],
      [
        881,
        65535,
        65535
      ],
      [
        403,
        65535,
        65535
      ],
      [
        403,
        65535,
        65535
      ]
    ],
    [
      [
        403,
        65535,
        65535
      ],
      [
        403,
        65535,
        65535
      ],
      [
        403,
        65535,
        65535
      ],
      [
        403,
        65535,
        65535
      ],
      [
        403,
        65535,
        65535
      ],
      [
        403,
        65535,
        65535
      ],
      [
        403,
        898,
        65535
      ],
      [
        879,
        65535,
        65535
      ],
      [
        881,
        65535,
        65535
      ],
      [
        403,
        65535,
        65535
      ],
      [
        403,
        65535,
        65535
      ],
      [
        1579,
        65535,
        65535
      ],
      [
        403,
        65535,
        65535
      ],
      [
        879,
        65535,
        65535
      ],
      [
        881,
        65535,
        65535
      ],
      [
        1578,
        65535,
        65535
      ],
      [
        403,
        65535,
        65535
      ],
      [
        403,
        65535,
        65535
      ]
    ],
    [
      [
        403,
        65535,
        65535
      ],
      [
        403,
        65535,
        65535
      ],
      [
        403,
        65535,
        65535
      ],
      [
        403,
        65535,
        65535
      ],
      [
        1577,
        65535,
        65535
      ],
      [
        403,
        65535,
        65535
      ],
      [
        403,
        65535,
        65535
      ],
      [
        403,
        65535,
        65535
      ],
      [
        403,
        65535,
        65535
      ],
      [
        403,
        65535,
        65535
      ],
      [
        403,
        65535,
        65535
      ],
      [
        403,
        65535,
        65535
      ],
      [
        403,
        65535,
        65535
      ],
      [
        403,
        65535,
        65535
      ],
      [
        403,
        65535,
        65535
      ],
      [
        403,
        65535,
        65535
      ],
      [
        403,
        65535,
        65535
      ],
      [
        403,
        65535,
        65535
      ]
    ],
    []
  ]
}