{
  "zoneId": 406,
  "zoneType": 2,
  "width": 18,
  "height": 18,
  "type": 8,
  "world": 2,
  "objects": [
    {
      "type": 10,
      "x": 14,
      "y": 0,
      "unknown": 1,
      "param": 65535
    }
  ],
  "actions": [
    {
      "triggers": [
        [
          "on_first_enter",
          218,
          10,
          0,
          25939,
          30068,
          0
        ],
        [
          "on_global_var_eq",
          0,
          10,
          0,
          27719,
          25199,
          0
        ]
      ],
      "commands": [
        [
          "clear_tile",
          6,
          6,
          1,
          28525,
          25974,
          0
        ],
        [
          "redraw_tile",
          6,
          6,
          25938,
          29284,
          30561,
          0
        ],
        [
          "clear_tile",
          6,
          15,
          1,
          28525,
          25974,
          0
        ],
        [
          "set_tile",
          6,
          15,
          0,
          1102,
          25441,
          0
        ],
        [
          "redraw_tile",
          6,
          15,
          25938,
          29284,
          30561,
          0
        ]
      ]
    },
    {
      "triggers": [
        [
          "on_first_enter",
          226,
          5,
          0,
          25971,
          30068,
          0
        ],
        [
          "on_global_var_eq",
          1,
          10,
          0,
          27719,
          25199,
          0
        ]
      ],
      "commands": [
        [
          "random",
          2,
          0,
          0,
          0,
          0,
          0
        ]
      ]
    },
    {
      "triggers": [
        [
          "on_first_enter",
          110,
          3,
          0,
          272,
          0,
          0
        ],
        [
          "on_rand_var_eq",
          1,
          8,
          0,
          24914,
          25710,
          0
        ],
        [
          "on_global_var_eq",
          1,
          10,
          0,
          27719,
          25199,
          0
        ]
      ],
      "commands": [
        [
          "clear_tile",
          6,
          15,
          1,
          28525,
          25974,
          0
        ],
        [
          "set_tile",
          6,
          15,
          0,
          1102,
          25441,
          0
        ],
        [
          "redraw_tile",
          6,
          15,
          25938,
          29284,
          30561,
          0
        ]
      ]
    },
    {
      "triggers": [
        [
          "on_first_enter",
          110,
          24988,
          226,
          0,
          0,
          0
        ],
        [
          "on_global_var_eq",
          1,
          10,
          0,
          27719,
          25199,
          0
        ],
        [
          "on_rand_var_eq",
          2,
          0,
          0,
          0,
          0,
          0
        ]
      ],
      "commands": [
        [
          "clear_tile",
          6,
          6,
          1,
          28525,
          25974,
          0
        ],
        [
          "redraw_tile",
          6,
          6,
          25938,
          29284,
          30561,
          0
        ]
      ]
    },
    {
      "triggers": [
        [
          "on_bump_tile",
          16,
          16,
          355,
          30018,
          28781,
          0
        ]
      ],
      "commands": [
        [
          "set_player_pos",
          16,
          16,
          25939,
          18548,
          29285,
          0
        ],
        [
          "redraw_tiles",
          16,
          15,
          16,
          16,
          30561,
          0
        ],
        [
          "render_changes",
          0,
          0,
          34028,
          193,
          0,
          0
        ],
        [
          "wait_ticks",
          2,
          0,
          24919,
          29801,
          28486,
          0
        ],
        [
          "release_camera",
          0,
          0,
          15108,
          198,
          0,
          0
        ],
        [
          "warp_to_map",
          405,
          4,
          11,
          0,
          26723,
          0
        ]
      ]
    },
    {
      "triggers": [
        [
          "on_enter_vehicle",
          110,
          0,
          0,
          14720,
          198,
          0
        ]
      ],
      "commands": [
        [
          "lock_camera",
          0,
          0,
          0,
          0,
          0,
          0
        ]
      ]
    },
    {
      "triggers": [
        [
          "on_bump_tile",
          15,
          10,
          355,
          30018,
          28781,
          0
        ]
      ],
      "commands": [
        [
          "play_sound",
          21,
          0,
          27728,
          31073,
          28499,
          0
        ],
        [
          "set_tile",
          15,
          10,
          2,
          1092,
          25441,
          0
        ],
        [
          "redraw_tile",
          15,
          10,
          25938,
          29284,
          30561,
          0
        ],
        [
          "render_changes",
          0,
          0,
          24972,
          226,
          0,
          0
        ],
        [
          "play_sound",
          15,
          0,
          27728,
          31073,
          28499,
          0
        ],
        [
          "clear_tile",
          16,
          15,
          1,
          28525,
          25974,
          0
        ],
        [
          "redraw_tile",
          16,
          15,
          25938,
          29284,
          30561,
          0
        ],
        [
          "render_changes",
          0,
          0,
          28288,
          223,
          0,
          0
        ],
        [
          "flag_once",
          18,
          0,
          25938,
          29284,
          30561,
          0
        ]
      ]
    },
    {
      "triggers": [
        [
          "on_bump_tile",
          6,
          6,
          699,
          30018,
          28781,
          0
        ]
      ],
      "commands": [
        [
          "play_sound",
          6,
          0,
          27664,
          153,
          0,
          0
        ],
        [
          "say_text",
          8,
          0,
          26707,
          30575,
          25940,
          30
        ]
      ]
    },
    {
      "triggers": [
        [
          "on_drag_item",
          6,
          6,
          1,
          699,
          65535,
          0
        ]
      ],
      "commands": [
        [
          "play_sound",
          58,
          0,
          27728,
          31073,
          28499,
          0
        ],
        [
          "remove_item_from_inv",
          65535,
          0,
          25938,
          28525,
          25974,
          0
        ],
        [
          "clear_tile",
          6,
          6,
          1,
          28525,
          25974,
          0
        ],
        [
          "redraw_tile",
          6,
          6,
          25938,
          29284,
          30561,
          0
        ],
        [
          "render_changes",
          0,
          0,
          30840,
          223,
          0,
          0
        ],
        [
          "open",
          0,
          0,
          0,
          0,
          0,
          0
        ]
      ]
    },
    {
      "triggers": [
        [
          "on_bump_tile",
          6,
          15,
          699,
          30018,
          28781,
          0
        ]
      ],
      "commands": [
        [
          "play_sound",
          6,
          0,
          0,
          0,
          25412,
          0
        ],
        [
          "say_text",
          8,
          0,
          26707,
          30575,
          25940,
          40
        ]
      ]
    },
    {
      "triggers": [
        [
          "on_drag_item",
          6,
          15,
          1,
          699,
          65535,
          0
        ]
      ],
      "commands": [
        [
          "play_sound",
          58,
          0,
          27728,
          31073,
          28499,
          0
        ],
        [
          "remove_item_from_inv",
          65535,
          0,
          25938,
          28525,
          25974,
          0
        ],
        [
          "clear_tile",
          6,
          15,
          1,
          28525,
          25974,
          0
        ],
        [
          "set_tile",
          6,
          15,
          0,
          1102,
          25441,
          0
        ],
        [
          "redraw_tile",
          6,
          15,
          25938,
          29284,
          30561,
          0
        ],
        [
          "render_changes",
          0,
          0,
          30840,
          223,
          0,
          0
        ],
        [
          "open",
          10,
          0,
          28751,
          28261,
          27731,
          0
        ]
      ]
    },
    {
      "triggers": [
        [
          "on_bump_tile",
          16,
          15,
          983,
          30018,
          28781,
          0
        ]
      ],
      "commands": [
        [
          "play_sound",
          6,
          0,
          3156,
          0,
          28384,
          0
        ],
        [
          "say_text",
          8,
          0,
          26707,
          30575,
          25940,
          59
        ]
      ]
    }
  ],
  "tilemap": [
    [
      [
        678,
        682,
        65535
      ],
      [
        683,
        65535,
        65535
      ],
      [
        683,
        65535,
        65535
      ],
      [
        683,
        65535,
        65535
      ],
      [
        683,
        65535,
        65535
      ],
      [
        683,
        65535,
        65535
      ],
      [
        683,
        684,
        65535
      ],
      [
        683,
        682,
        65535
      ],
      [
        683,
        699,
        65535
      ],
      [
        683,
        693,
        65535
      ],
      [
        683,
        65535,
        65535
      ],
      [
        683,
        65535,
        65535
      ],
      [
        683,
        65535,
        65535
      ],
      [
        683,
        65535,
        65535
      ],
      [
        1102,
        65535,
        65535
      ],
      [
        683,
        65535,
        65535
      ],
      [
        683,
        684,
        65535
      ],
      [
        683,
        681,
        65535
      ]
    ],
    [
      [
        678,
        688,
        65535
      ],
      [
        678,
        65535,
        65535
      ],
      [
        678,
        691,
        65535
      ],
      [
        678,
        686,
        65535
      ],
      [
        678,
        692,
        65535
      ],
      [
        678,
        65535,
        65535
      ],
      [
        678,
        687,
        65535
      ],
      [
        678,
        688,
        65535
      ],
      [
        678,
        65535,
        65535
      ],
      [
        678,
        694,
        65535
      ],
      [
        678,
        65535,
        65535
      ],
      [
        678,
        65535,
        65535
      ],
      [
        678,
        65535,
        65535
      ],
      [
        678,
        65535,
        65535
      ],
      [
        678,
        65535,
        65535
      ],
      [
        678,
        65535,
        65535
      ],
      [
        690,
        65535,
        65535
      ],
      [
        678,
        684,
        65535
      ]
    ],
    [
      [
        678,
        688,
        65535
      ],
      [
        678,
        65535,
        65535
      ],
      [
        678,
        687,
        65535
      ],
      [
        678,
        682,
        65535
      ],
      [
        689,
        65535,
        65535
      ],
      [
        678,
        65535,
        65535
      ],
      [
        678,
        687,
        65535
      ],
      [
        678,
        688,
        65535
      ],
      [
        678,
        65535,
        65535
      ],
      [
        695,
        65535,
        65535
      ],
      [
        678,
        65535,
        65535
      ],
      [
        678,
        65535,
        65535
      ],
      [
        678,
        691,
        65535
      ],
      [
        678,
        686,
        65535
      ],
      [
        678,
        692,
        65535
      ],
      [
        678,
        65535,
        65535
      ],
      [
        678,
        65535,
        65535
      ],
      [
        678,
        687,
        65535
      ]
    ],
    [
      [
        678,
        688,
        65535
      ],
      [
        678,
        65535,
        65535
      ],
      [
        690,
        65535,
        65535
      ],
      [
        689,
        65535,
        65535
      ],
      [
        678,
        65535,
        65535
      ],
      [
        678,
        691,
        65535
      ],
      [
        678,
        681,
        65535
      ],
      [
        678,
        688,
        65535
      ],
      [
        678,
        65535,
        65535
      ],
      [
        678,
        696,
        65535
      ],
      [
        678,
        65535,
        65535
      ],
      [
        678,
        65535,
        65535
      ],
      [
        690,
        65535,
        65535
      ],
      [
        683,
        65535,
        65535
      ],
      [
        678,
        697,
        65535
      ],
      [
        678,
        65535,
        65535
      ],
      [
        678,
        691,
        65535
      ],
      [
        678,
        681,
        65535
      ]
    ],
    [
      [
        678,
        681,
        65535
      ],
      [
        678,
        692,
        65535
      ],
      [
        678,
        65535,
        65535
      ],
      [
        678,
        696,
        65535
      ],
      [
        678,
        65535,
        65535
      ],
      [
        678,
        687,
        65535
      ],
      [
        678,
        681,
        65535
      ],
      [
        678,
        688,
        65535
      ],
      [
        678,
        65535,
        65535
      ],
      [
        678,
        687,
        65535
      ],
      [
        678,
        692,
        65535
      ],
      [
        678,
        65535,
        65535
      ],
      [
        678,
        696,
        65535
      ],
      [
        678,
        65535,
        65535
      ],
      [
        678,
        694,
        65535
      ],
      [
        678,
        65535,
        65535
      ],
      [
        678,
        687,
        65535
      ],
      [
        678,
        681,
        65535
      ]
    ],
    [
      [
        678,
        681,
        65535
      ],
      [
        678,
        688,
        65535
      ],
      [
        678,
        65535,
        65535
      ],
      [
        678,
        694,
        65535
      ],
      [
        678,
        65535,
        65535
      ],
      [
        690,
        65535,
        65535
      ],
      [
        678,
        684,
        65535
      ],
      [
        678,
        688,
        65535
      ],
      [
        678,
        65535,
        65535
      ],
      [
        678,
        687,
        65535
      ],
      [
        678,
        681,
        65535
      ],
      [
        678,
        686,
        65535
      ],
      [
        678,
        688,
        65535
      ],
      [
        678,
        65535,
        65535
      ],
      [
        678,
        694,
        65535
      ],
      [
        678,
        65535,
        65535
      ],
      [
        678,
        687,
        65535
      ],
      [
        678,
        681,
        65535
      ]
    ],
    [
      [
        678,
        681,
        65535
      ],
      [
        678,
        688,
        65535
      ],
      [
        678,
        65535,
        65535
      ],
      [
        678,
        694,
        65535
      ],
      [
        678,
        65535,
        65535
      ],
      [
        678,
        65535,
        65535
      ],
      [
        690,
        699,
        65535
      ],
      [
        689,
        65535,
        65535
      ],
      [
        678,
        65535,
        65535
      ],
      [
        678,
        687,
        65535
      ],
      [
        678,
        681,
        65535
      ],
      [
        678,
        681,
        65535
      ],
      [
        678,
        688,
        65535
      ],
      [
        678,
        65535,
        65535
      ],
      [
        678,
        694,
        65535
      ],
      [
        678,
        65535,
        65535
      ],
      [
        678,
        687,
        65535
      ],
      [
        678,
        681,
        65535
      ]
    ],
    [
      [
        678,
        682,
        65535
      ],
      [
        689,
        65535,
        65535
      ],
      [
        678,
        65535,
        65535
      ],
      [
        678,
        694,
        65535
      ],
      [
        678,
        65535,
        65535
      ],
      [
        678,
        691,
        65535
      ],
      [
        678,
        692,
        65535
      ],
      [
        678,
        65535,
        65535
      ],
      [
        678,
        691,
        65535
      ],
      [
        678,
        681,
        65535
      ],
      [
        678,
        682,
        65535
      ],
      [
        683,
        65535,
        65535
      ],
      [
        678,
        697,
        65535
      ],
      [
        678,
        65535,
        65535
      ],
      [
        678,
        694,
        65535
      ],
      [
        678,
        65535,
        65535
      ],
      [
        690,
        65535,
        65535
      ],
      [
        678,
        684,
        65535
      ]
    ],
    [
      [
        678,
        688,
        65535
      ],
      [
        678,
        65535,
        65535
      ],
      [
        678,
        691,
        65535
      ],
      [
        678,
        688,
        65535
      ],
      [
        678,
        65535,
        65535
      ],
      [
        690,
        65535,
        65535
      ],
      [
        678,
        684,
        65535
      ],
      [
        678,
        686,
        65535
      ],
      [
        678,
        681,
        65535
      ],
      [
        678,
        681,
        65535
      ],
      [
        678,
        688,
        65535
      ],
      [
        678,
        65535,
        65535
      ],
      [
        695,
        65535,
        65535
      ],
      [
        678,
        65535,
        65535
      ],
      [
        678,
        687,
        65535
      ],
      [
        678,
        692,
        65535
      ],
      [
        678,
        65535,
        65535
      ],
      [
        678,
        687,
        65535
      ]
    ],
    [
      [
        678,
        688,
        65535
      ],
      [
        678,
        65535,
        65535
      ],
      [
        678,
        687,
        65535
      ],
      [
        678,
        681,
        65535
      ],
      [
        678,
        692,
        65535
      ],
      [
        678,
        65535,
        65535
      ],
      [
        678,
        687,
        65535
      ],
      [
        678,
        681,
        65535
      ],
      [
        678,
        681,
        65535
      ],
      [
        678,
        682,
        65535
      ],
      [
        689,
        65535,
        65535
      ],
      [
        678,
        65535,
        65535
      ],
      [
        678,
        696,
        65535
      ],
      [
        678,
        65535,
        65535
      ],
      [
        678,
        687,
        65535
      ],
      [
        678,
        688,
        65535
      ],
      [
        678,
        65535,
        65535
      ],
      [
        678,
        687,
        65535
      ]
    ],
    [
      [
        678,
        688,
        65535
      ],
      [
        678,
        65535,
        65535
      ],
      [
        690,
        65535,
        65535
      ],
      [
        683,
        699,
        65535
      ],
      [
        678,
        684,
        65535
      ],
      [
        678,
        692,
        65535
      ],
      [
        690,
        698,
        65535
      ],
      [
        683,
        65535,
        65535
      ],
      [
        683,
        65535,
        65535
      ],
      [
        689,
        65535,
        65535
      ],
      [
        678,
        65535,
        65535
      ],
      [
        678,
        691,
        65535
      ],
      [
        678,
        681,
        65535
      ],
      [
        678,
        686,
        65535
      ],
      [
        678,
        682,
        65535
      ],
      [
        689,
        355,
        778
      ],
      [
        678,
        65535,
        65535
      ],
      [
        678,
        687,
        65535
      ]
    ],
    [
      [
        678,
        688,
        65535
      ],
      [
        678,
        65535,
        65535
      ],
      [
        678,
        696,
        65535
      ],
      [
        678,
        65535,
        65535
      ],
      [
        678,
        687,
        65535
      ],
      [
        678,
        681,
        65535
      ],
      [
        678,
        681,
        65535
      ],
      [
        678,
        686,
        65535
      ],
      [
        678,
        686,
        65535
      ],
      [
        678,
        686,
        65535
      ],
      [
        678,
        686,
        65535
      ],
      [
        678,
        682,
        65535
      ],
      [
        683,
        65535,
        65535
      ],
      [
        683,
        65535,
        65535
      ],
      [
        689,
        684,
        65535
      ],
      [
        678,
        686,
        65535
      ],
      [
        678,
        686,
        65535
      ],
      [
        678,
        681,
        65535
      ]
    ],
    [
      [
        678,
        688,
        65535
      ],
      [
        678,
        65535,
        65535
      ],
      [
        678,
        694,
        65535
      ],
      [
        678,
        65535,
        65535
      ],
      [
        678,
        687,
        65535
      ],
      [
        678,
        681,
        65535
      ],
      [
        678,
        682,
        65535
      ],
      [
        683,
        65535,
        65535
      ],
      [
        683,
        65535,
        65535
      ],
      [
        683,
        65535,
        65535
      ],
      [
        678,
        693,
        65535
      ],
      [
        689,
        65535,
        65535
      ],
      [
        678,
        65535,
        65535
      ],
      [
        678,
        696,
        65535
      ],
      [
        690,
        65535,
        65535
      ],
      [
        678,
        684,
        65535
      ],
      [
        678,
        681,
        65535
      ],
      [
        678,
        681,
        65535
      ]
    ],
    [
      [
        678,
        688,
        65535
      ],
      [
        678,
        65535,
        65535
      ],
      [
        678,
        694,
        65535
      ],
      [
        678,
        65535,
        65535
      ],
      [
        690,
        65535,
        65535
      ],
      [
        678,
        693,
        65535
      ],
      [
        689,
        65535,
        65535
      ],
      [
        678,
        65535,
        65535
      ],
      [
        678,
        696,
        65535
      ],
      [
        678,
        65535,
        65535
      ],
      [
        695,
        65535,
        65535
      ],
      [
        678,
        65535,
        65535
      ],
      [
        678,
        65535,
        65535
      ],
      [
        678,
        694,
        65535
      ],
      [
        678,
        65535,
        65535
      ],
      [
        690,
        65535,
        65535
      ],
      [
        683,
        65535,
        65535
      ],
      [
        678,
        684,
        65535
      ]
    ],
    [
      [
        678,
        688,
        65535
      ],
      [
        678,
        65535,
        65535
      ],
      [
        678,
        694,
        65535
      ],
      [
        678,
        65535,
        65535
      ],
      [
        678,
        65535,
        65535
      ],
      [
        678,
        687,
        65535
      ],
      [
        678,
        65535,
        1249
      ],
      [
        678,
        686,
        65535
      ],
      [
        678,
        681,
        65535
      ],
      [
        678,
        686,
        65535
      ],
      [
        678,
        692,
        65535
      ],
      [
        678,
        65535,
        65535
      ],
      [
        678,
        691,
        65535
      ],
      [
        678,
        688,
        65535
      ],
      [
        678,
        65535,
        65535
      ],
      [
        678,
        691,
        65535
      ],
      [
        678,
        65535,
        1249
      ],
      [
        678,
        681,
        65535
      ]
    ],
    [
      [
        678,
        688,
        65535
      ],
      [
        678,
        65535,
        65535
      ],
      [
        678,
        687,
        65535
      ],
      [
        678,
        686,
        65535
      ],
      [
        678,
        686,
        65535
      ],
      [
        678,
        682,
        65535
      ],
      [
        683,
        699,
        65535
      ],
      [
        678,
        684,
        65535
      ],
      [
        678,
        682,
        65535
      ],
      [
        683,
        65535,
        65535
      ],
      [
        678,
        684,
        65535
      ],
      [
        678,
        686,
        65535
      ],
      [
        678,
        682,
        65535
      ],
      [
        689,
        65535,
        65535
      ],
      [
        678,
        65535,
        65535
      ],
      [
        678,
        698,
        65535
      ],
      [
        982,
        983,
        65535
      ],
      [
        678,
        684,
        65535
      ]
    ],
    [
      [
        678,
        688,
        65535
      ],
      [
        678,
        65535,
        65535
      ],
      [
        690,
        65535,
        65535
      ],
      [
        683,
        65535,
        65535
      ],
      [
        683,
        65535,
        65535
      ],
      [
        689,
        65535,
        65535
      ],
      [
        678,
        65535,
        65535
      ],
      [
        678,
        687,
        65535
      ],
      [
        678,
        688,
        65535
      ],
      [
        678,
        65535,
        65535
      ],
      [
        690,
        65535,
        65535
      ],
      [
        683,
        65535,
        65535
      ],
      [
        689,
        65535,
        65535
      ],
      [
        678,
        65535,
        65535
      ],
      [
        678,
        65535,
        65535
      ],
      [
        678,
        694,
        65535
      ],
      [
        679,
        355,
        65535
      ],
      [
        678,
        687,
        65535
      ]
    ],
    [
      [
        678,
        681,
        65535
      ],
      [
        678,
        686,
        65535
      ],
      [
        678,
        681,
        65535
      ],
      [
        678,
        686,
        65535
      ],
      [
        678,
        686,
        65535
      ],
      [
        678,
        686,
        65535
      ],
      [
        678,
        686,
        65535
      ],
      [
        678,
        681,
        65535
      ],
      [
        678,
        681,
        65535
      ],
      [
        678,
        686,
        65535
      ],
      [
        678,
        686,
        65535
      ],
      [
        678,
        686,
        65535
      ],
      [
        678,
        686,
        65535
      ],
      [
        678,
        686,
        65535
      ],
      [
        678,
        686,
        65535
      ],
      [
        678,
        681,
        65535
      ],
      [
        681,
        355,
        1249
      ],
      [
        678,
        681,
        65535
      ]
    ],
    []
  ]
}