{
  "zoneId": 415,
  "zoneType": 2,
  "width": 9,
  "height": 9,
  "type": 8,
  "world": 2,
  "objects": [
    {
      "type": 10,
      "x": 4,
      "y": 8,
      "unknown": 1,
      "param": 65535
    },
    {
      "type": 6,
      "x": 7,
      "y": 1,
      "unknown": 1,
      "param": 175
    },
    {
      "type": 6,
      "x": 1,
      "y": 6,
      "unknown": 1,
      "param": 442
    },
    {
      "type": 6,
      "x": 7,
      "y": 5,
      "unknown": 1,
      "param": 505
    },
    {
      "type": 8,
      "x": 1,
      "y": 1,
      "unknown": 1,
      "param": 514
    }
  ],
  "actions": [
    {
      "triggers": [
        [
          "on_first_enter",
          190,
          0,
          0,
          26092,
          190,
          0
        ]
      ],
      "commands": [
        [
          "random",
          3,
          0,
          26708,
          28530,
          21111,
          0
        ],
        [
          "hide_object",
          1,
          0,
          28488,
          21364,
          28528,
          0
        ],
        [
          "hide_object",
          2,
          0,
          28488,
          21364,
          28528,
          0
        ],
        [
          "hide_object",
          3,
          0,
          28488,
          21364,
          28528,
          0
        ]
      ]
    },
    {
      "triggers": [
        [
          "on_first_enter",
          110,
          0,
          0,
          28408,
          190,
          0
        ],
        [
          "on_rand_var_eq",
          1,
          0,
          0,
          0,
          0,
          0
        ]
      ],
      "commands": [
        [
          "show_object",
          1,
          0,
          28488,
          21364,
          28528,
          0
        ]
      ]
    },
    {
      "triggers": [
        [
          "on_first_enter",
          110,
          0,
          0,
          28408,
          190,
          0
        ],
        [
          "on_rand_var_eq",
          2,
          0,
          0,
          0,
          0,
          0
        ]
      ],
      "commands": [
        [
          "show_object",
          2,
          0,
          28488,
          21364,
          28528,
          0
        ]
      ]
    },
    {
      "triggers": [
        [
          "on_first_enter",
          110,
          0,
          0,
          28408,
          190,
          0
        ],
        [
          "on_rand_var_eq",
          3,
          0,
          0,
          0,
          0,
          0
        ]
      ],
      "commands": [
        [
          "show_object",
          3,
          0,
          28488,
          21364,
          28528,
          0
        ]
      ]
    },
    {
      "triggers": [
        [
          "on_enter",
          110,
          0,
          0,
          30036,
          190,
          0
        ],
        [
          "on_check_map_tile_var",
          1,
          1,
          0,
          0,
          25697,
          0
        ]
      ],
      "commands": [
        [
          "clear_tile",
          4,
          3,
          1,
          28525,
          25974,
          0
        ],
        [
          "redraw_tile",
          4,
          3,
          25938,
          29284,
          30561,
          0
        ],
        [
          "clear_tile",
          1,
          3,
          2,
          28525,
          25974,
          0
        ],
        [
          "clear_tile",
          1,
          4,
          2,
          28525,
          25974,
          0
        ],
        [
          "clear_tile",
          2,
          3,
          2,
          28525,
          25974,
          0
        ],
        [
          "clear_tile",
          2,
          4,
          2,
          28525,
          25974,
          0
        ],
        [
          "clear_tile",
          1,
          3,
          1,
          28525,
          25974,
          0
        ],
        [
          "clear_tile",
          1,
          4,
          1,
          28525,
          25974,
          0
        ],
        [
          "clear_tile",
          2,
          3,
          1,
          28525,
          25974,
          0
        ],
        [
          "clear_tile",
          2,
          4,
          1,
          28525,
          25974,
          0
        ],
        [
          "redraw_tiles",
          1,
          3,
          2,
          4,
          30561,
          0
        ]
      ]
    },
    {
      "triggers": [
        [
          "on_enter",
          110,
          10,
          0,
          25938,
          25697,
          0
        ],
        [
          "on_global_var_eq",
          20,
          10,
          0,
          27719,
          25199,
          0
        ]
      ],
      "commands": [
        [
          "set_tile",
          4,
          3,
          1,
          1214,
          25441,
          0
        ],
        [
          "set_map_tile_var",
          0,
          0,
          0,
          6,
          18004,
          0
        ]
      ]
    },
    {
      "triggers": [
        [
          "on_bump_tile",
          4,
          3,
          1214,
          30018,
          28781,
          0
        ],
        [
          "on_check_map_tile_var",
          6,
          0,
          0,
          0,
          25697,
          0
        ]
      ],
      "commands": [
        [
          "show_text",
          4,
          3,
          26707,
          30575,
          25940,
          43
        ],
        [
          "render_changes",
          0,
          0,
          0,
          0,
          0,
          0
        ],
        [
          "wait_ticks",
          1,
          0,
          24919,
          29801,
          28486,
          0
        ],
        [
          "set_global_var",
          10,
          0,
          25939,
          18292,
          28524,
          0
        ]
      ]
    },
    {
      "triggers": [
        [
          "on_bump_tile",
          4,
          3,
          1214,
          30018,
          28781,
          0
        ],
        [
          "on_check_map_tile_var",
          5,
          0,
          0,
          0,
          25697,
          0
        ]
      ],
      "commands": [
        [
          "show_text",
          4,
          3,
          26707,
          30575,
          25940,
          53
        ],
        [
          "render_changes",
          0,
          0,
          0,
          0,
          0,
          0
        ],
        [
          "wait_ticks",
          1,
          0,
          24919,
          29801,
          28486,
          0
        ]
      ]
    },
    {
      "triggers": [
        [
          "on_bump_tile",
          4,
          3,
          1214,
          30018,
          28781,
          0
        ],
        [
          "on_check_map_tile_var",
          4,
          0,
          0,
          0,
          25697,
          0
        ]
      ],
      "commands": [
        [
          "show_text",
          4,
          3,
          26707,
          30575,
          25940,
          48
        ],
        [
          "render_changes",
          0,
          0,
          0,
          0,
          0,
          0
        ],
        [
          "wait_ticks",
          1,
          0,
          24919,
          29801,
          28486,
          0
        ]
      ]
    },
    {
      "triggers": [
        [
          "on_bump_tile",
          4,
          3,
          1214,
          30018,
          28781,
          0
        ],
        [
          "on_check_map_tile_var",
          3,
          0,
          0,
          0,
          25697,
          0
        ]
      ],
      "commands": [
        [
          "show_text",
          4,
          3,
          26707,
          30575,
          25940,
          182
        ],
        [
          "render_changes",
          0,
          0,
          0,
          0,
          0,
          0
        ],
        [
          "wait_ticks",
          2,
          0,
          24919,
          29801,
          28486,
          0
        ],
        [
          "set_map_tile_var",
          0,
          0,
          0,
          4,
          18004,
          0
        ]
      ]
    },
    {
      "triggers": [
        [
          "on_bump_tile",
          4,
          3,
          1214,
          30018,
          28781,
          0
        ],
        [
          "on_check_map_tile_var",
          2,
          0,
          0,
          0,
          25697,
          0
        ]
      ],
      "commands": [
        [
          "say_text",
          8,
          0,
          26707,
          30575,
          25940,
          71
        ],
        [
          "render_changes",
          0,
          0,
          14380,
          190,
          0,
          0
        ],
        [
          "wait_ticks",
          2,
          0,
          24919,
          29801,
          28486,
          0
        ],
        [
          "show_text",
          4,
          3,
          26707,
          30575,
          25940,
          104
        ],
        [
          "render_changes",
          0,
          0,
          14380,
          190,
          0,
          0
        ],
        [
          "set_map_tile_var",
          0,
          0,
          0,
          3,
          18004,
          0
        ]
      ]
    },
    {
      "triggers": [
        [
          "on_bump_tile",
          4,
          3,
          1214,
          30018,
          28781,
          0
        ],
        [
          "on_check_map_tile_var",
          1,
          0,
          0,
          0,
          25697,
          0
        ]
      ],
      "commands": [
        [
          "say_text",
          8,
          0,
          26707,
          30575,
          25940,
          80
        ],
        [
          "render_changes",
          0,
          0,
          14380,
          190,
          0,
          0
        ],
        [
          "wait_ticks",
          2,
          0,
          24919,
          29801,
          28486,
          0
        ],
        [
          "show_text",
          4,
          3,
          26707,
          30575,
          25940,
          28
        ],
        [
          "render_changes",
          0,
          0,
          14380,
          190,
          0,
          0
        ],
        [
          "set_map_tile_var",
          0,
          0,
          0,
          2,
          18004,
          0
        ]
      ]
    },
    {
      "triggers": [
        [
          "on_bump_tile",
          4,
          3,
          1214,
          30018,
          28781,
          0
        ],
        [
          "on_check_map_tile_var",
          0,
          0,
          0,
          0,
          25697,
          0
        ]
      ],
      "commands": [
        [
          "say_text",
          8,
          0,
          26707,
          30575,
          25940,
          111
        ],
        [
          "render_changes",
          0,
          0,
          14380,
          190,
          0,
          0
        ],
        [
          "wait_ticks",
          2,
          0,
          24919,
          29801,
          28486,
          0
        ],
        [
          "show_text",
          4,
          3,
          26707,
          30575,
          25940,
          94
        ],
        [
          "render_changes",
          0,
          0,
          14380,
          190,
          0,
          0
        ],
        [
          "set_map_tile_var",
          0,
          0,
          0,
          1,
          18004,
          0
        ]
      ]
    },
    {
      "triggers": [
        [
          "on_bump_tile",
          2,
          3,
          1556,
          30018,
          28781,
          0
        ],
        [
          "on_check_map_tile_var",
          0,
          1,
          0,
          0,
          25697,
          0
        ]
      ],
      "commands": [
        [
          "set_temp_var",
          99,
          0,
          25939,
          17268,
          30063,
          0
        ]
      ]
    },
    {
      "triggers": [
        [
          "on_bump_tile",
          2,
          4,
          1558,
          30018,
          28781,
          0
        ],
        [
          "on_check_map_tile_var",
          0,
          1,
          0,
          0,
          25697,
          0
        ]
      ],
      "commands": [
        [
          "set_temp_var",
          99,
          0,
          25939,
          17268,
          30063,
          0
        ]
      ]
    },
    {
      "triggers": [
        [
          "on_temp_var_eq",
          99,
          8,
          0,
          28483,
          28277,
          0
        ]
      ],
      "commands": [
        [
          "show_text",
          4,
          3,
          26707,
          30575,
          25940,
          49
        ],
        [
          "set_temp_var",
          0,
          0,
          25939,
          17268,
          30063,
          0
        ]
      ]
    },
    {
      "triggers": [
        [
          "on_drag_item",
          4,
          3,
          1,
          1214,
          1245,
          0
        ],
        [
          "on_check_map_tile_var",
          1,
          1,
          0,
          0,
          25697,
          0
        ]
      ],
      "commands": [
        [
          "show_text",
          4,
          3,
          26707,
          30575,
          25940,
          53
        ],
        [
          "render_changes",
          0,
          0,
          0,
          0,
          0,
          0
        ],
        [
          "wait_ticks",
          1,
          0,
          24919,
          29801,
          28486,
          0
        ]
      ]
    },
    {
      "triggers": [
        [
          "on_drag_item",
          4,
          3,
          1,
          1214,
          1245,
          0
        ],
        [
          "on_check_map_tile_var",
          0,
          1,
          0,
          0,
          25697,
          0
        ]
      ],
      "commands": [
        [
          "play_sound",
          0,
          0,
          0,
          0,
          0,
          0
        ],
        [
          "show_text",
          4,
          3,
          26707,
          30575,
          25940,
          103
        ],
        [
          "set_map_tile_var",
          0,
          0,
          0,
          5,
          18004,
          0
        ],
        [
          "set_map_tile_var",
          1,
          0,
          0,
          1,
          18004,
          0
        ],
        [
          "set_global_var",
          10,
          0,
          25939,
          18292,
          28524,
          0
        ],
        [
          "flag_once",
          6,
          0,
          26951,
          25974,
          17481,
          0
        ]
      ]
    },
    {
      "triggers": [
        [
          "on_drag_wrong_item",
          4,
          3,
          1,
          1214,
          1245,
          0
        ]
      ],
      "commands": [
        [
          "play_sound",
          6,
          0,
          0,
          0,
          0,
          0
        ],
        [
          "show_text",
          4,
          3,
          26707,
          30575,
          25940,
          39
        ]
      ]
    }
  ],
  "tilemap": [
    [
      [
        0,
        538,
        65535
      ],
      [
        0,
        572,
        65535
      ],
      [
        0,
        569,
        65535
      ],
      [
        0,
        572,
        65535
      ],
      [
        0,
        571,
        65535
      ],
      [
        0,
        572,
        65535
      ],
      [
        0,
        569,
        65535
      ],
      [
        0,
        572,
        65535
      ],
      [
        0,
        543,
        1394
      ]
    ],
    [
      [
        604,
        545,
        613
      ],
      [
        604,
        266,
        65535
      ],
      [
        604,
        65535,
        65535
      ],
      [
        604,
        65535,
        65535
      ],
      [
        604,
        65535,
        65535
      ],
      [
        604,
        65535,
        65535
      ],
      [
        604,
        65535,
        65535
      ],
      [
        604,
        266,
        65535
      ],
      [
        604,
        544,
        1393
      ]
    ],
    [
      [
        604,
        1335,
        65535
      ],
      [
        604,
        1336,
        65535
      ],
      [
        604,
        555,
        65535
      ],
      [
        604,
        569,
        65535
      ],
      [
        604,
        560,
        65535
      ],
      [
        604,
        543,
        65535
      ],
      [
        604,
        65535,
        65535
      ],
      [
        604,
        65535,
        65535
      ],
      [
        604,
        544,
        1393
      ]
    ],
    [
      [
        594,
        65535,
        65535
      ],
      [
        594,
        1555,
        1551
      ],
      [
        594,
        1556,
        1552
      ],
      [
        594,
        65535,
        65535
      ],
      [
        604,
        1214,
        65535
      ],
      [
        604,
        544,
        614
      ],
      [
        604,
        65535,
        1329
      ],
      [
        605,
        548,
        1331
      ],
      [
        604,
        539,
        1446
      ]
    ],
    [
      [
        594,
        65535,
        65535
      ],
      [
        594,
        1557,
        1553
      ],
      [
        594,
        1558,
        1554
      ],
      [
        594,
        65535,
        65535
      ],
      [
        604,
        65535,
        65535
      ],
      [
        604,
        544,
        614
      ],
      [
        605,
        65535,
        65535
      ],
      [
        605,
        1433,
        65535
      ],
      [
        604,
        541,
        1394
      ]
    ],
    [
      [
        604,
        542,
        65535
      ],
      [
        604,
        1336,
        65535
      ],
      [
        604,
        555,
        65535
      ],
      [
        604,
        569,
        65535
      ],
      [
        604,
        65535,
        65535
      ],
      [
        604,
        1433,
        65535
      ],
      [
        604,
        65535,
        65535
      ],
      [
        604,
        265,
        65535
      ],
      [
        604,
        544,
        1393
      ]
    ],
    [
      [
        604,
        545,
        65535
      ],
      [
        604,
        266,
        65535
      ],
      [
        604,
        65535,
        65535
      ],
      [
        604,
        65535,
        65535
      ],
      [
        604,
        65535,
        65535
      ],
      [
        604,
        65535,
        65535
      ],
      [
        604,
        65535,
        65535
      ],
      [
        604,
        265,
        65535
      ],
      [
        604,
        544,
        1393
      ]
    ],
    [
      [
        604,
        545,
        65535
      ],
      [
        604,
        265,
        65535
      ],
      [
        604,
        65535,
        65535
      ],
      [
        604,
        65535,
        65535
      ],
      [
        604,
        65535,
        65535
      ],
      [
        604,
        65535,
        65535
      ],
      [
        604,
        65535,
        65535
      ],
      [
        604,
        266,
        65535
      ],
      [
        604,
        544,
        1393
      ]
    ],
    [
      [
        604,
        802,
        1086
      ],
      [
        604,
        802,
        1086
      ],
      [
        604,
        802,
        1086
      ],
      [
        604,
        802,
        1086
      ],
      [
        605,
        65535,
        1086
      ],
      [
        604,
        802,
        1086
      ],
      [
        604,
        802,
        1086
      ],
      [
        604,
        802,
        1086
      ],
      [
        604,
        802,
        1086
      ]
    ],
    []
  ]
}