{
  "zoneId": 428,
  "zoneType": 3,
  "width": 18,
  "height": 18,
  "type": 8,
  "world": 3,
  "objects": [
    {
      "type": 10,
      "x": 9,
      "y": 17,
      "unknown": 1,
      "param": 65535
    },
    {
      "type": 0,
      "x": 6,
      "y": 2,
      "unknown": 1,
      "param": 65535
    },
    {
      "type": 12,
      "x": 6,
      "y": 3,
      "unknown": 1,
      "param": 65535
    }
  ],
  "actions": [
    {
      "triggers": [
        [
          "on_first_enter",
          0,
          8,
          0,
          26707,
          30575,
          0
        ]
      ],
      "commands": [
        [
          "random",
          2,
          0,
          21325,
          21280,
          28257,
          0
        ]
      ]
    },
    {
      "triggers": [
        [
          "on_first_enter",
          0,
          12,
          0,
          26708,
          28530,
          0
        ],
        [
          "on_rand_var_eq",
          1,
          0,
          0,
          0,
          0,
          0
        ]
      ],
      "commands": [
        [
          "set_tile",
          2,
          10,
          1,
          355,
          0,
          0
        ]
      ]
    },
    {
      "triggers": [
        [
          "on_first_enter",
          0,
          12,
          0,
          26708,
          28530,
          0
        ],
        [
          "on_rand_var_eq",
          2,
          0,
          0,
          0,
          0,
          0
        ]
      ],
      "commands": [
        [
          "set_tile",
          3,
          9,
          1,
          355,
          0,
          0
        ]
      ]
    },
    {
      "triggers": [
        [
          "on_bump_tile",
          6,
          3,
          633,
          30018,
          28781,
          0
        ],
        [
          "on_temp_var_eq",
          1,
          8,
          0,
          28483,
          28277,
          0
        ]
      ],
      "commands": [
        [
          "say_text",
          8,
          0,
          26707,
          30575,
          25940,
          21
        ]
      ]
    },
    {
      "triggers": [
        [
          "on_bump_tile",
          6,
          3,
          633,
          30018,
          28781,
          0
        ],
        [
          "on_temp_var_eq",
          0,
          8,
          0,
          28483,
          28277,
          0
        ]
      ],
      "commands": [
        [
          "play_sound",
          6,
          29479,
          25632,
          28271,
          8293,
          0
        ],
        [
          "say_text",
          8,
          0,
          26707,
          30575,
          25940,
          83
        ],
        [
          "set_temp_var",
          1,
          0,
          25939,
          17268,
          30063,
          0
        ]
      ]
    },
    {
      "triggers": [
        [
          "on_drag_item",
          6,
          3,
          1,
          633,
          65535,
          0
        ]
      ],
      "commands": [
        [
          "play_sound",
          20,
          0,
          27728,
          31073,
          28499,
          0
        ],
        [
          "remove_item_from_inv",
          65535,
          0,
          25938,
          28525,
          25974,
          0
        ],
        [
          "set_tile",
          6,
          3,
          1,
          634,
          25441,
          0
        ],
        [
          "redraw_tile",
          6,
          3,
          25938,
          29284,
          30561,
          0
        ],
        [
          "render_changes",
          0,
          0,
          0,
          0,
          0,
          0
        ],
        [
          "spawn_item",
          65535,
          6,
          3,
          28783,
          29769,
          0
        ]
      ]
    }
  ],
  "tilemap": [
    [
      [
        858,
        355,
        875
      ],
      [
        858,
        355,
        875
      ],
      [
        858,
        355,
        875
      ],
      [
        858,
        355,
        911
      ],
      [
        858,
        355,
        910
      ],
      [
        858,
        355,
        875
      ],
      [
        858,
        355,
        875
      ],
      [
        858,
        355,
        875
      ],
      [
        858,
        355,
        875
      ],
      [
        858,
        355,
        911
      ],
      [
        858,
        355,
        907
      ],
      [
        858,
        355,
        907
      ],
      [
        858,
        355,
        910
      ],
      [
        858,
        355,
        875
      ],
      [
        858,
        65535,
        875
      ],
      [
        858,
        355,
        875
      ],
      [
        858,
        355,
        875
      ],
      [
        858,
        355,
        875
      ]
    ],
    [
      [
        858,
        355,
        875
      ],
      [
        858,
        355,
        875
      ],
      [
        858,
        355,
        875
      ],
      [
        858,
        915,
        878
      ],
      [
        858,
        915,
        877
      ],
      [
        858,
        355,
        911
      ],
      [
        858,
        355,
        907
      ],
      [
        858,
        355,
        910
      ],
      [
        858,
        355,
        875
      ],
      [
        858,
        915,
        878
      ],
      [
        858,
        915,
        872
      ],
      [
        858,
        915,
        873
      ],
      [
        858,
        915,
        874
      ],
      [
        858,
        355,
        875
      ],
      [
        858,
        355,
        875
      ],
      [
        858,
        355,
        875
      ],
      [
        858,
        355,
        875
      ],
      [
        858,
        355,
        878
      ]
    ],
    [
      [
        858,
        355,
        875
      ],
      [
        858,
        355,
        911
      ],
      [
        858,
        355,
        907
      ],
      [
        858,
        355,
        907
      ],
      [
        858,
        355,
        907
      ],
      [
        858,
        915,
        908
      ],
      [
        858,
        915,
        65535
      ],
      [
        858,
        915,
        906
      ],
      [
        858,
        355,
        907
      ],
      [
        858,
        355,
        907
      ],
      [
        858,
        355,
        910
      ],
      [
        903,
        65535,
        878
      ],
      [
        903,
        65535,
        877
      ],
      [
        858,
        355,
        875
      ],
      [
        858,
        65535,
        911
      ],
      [
        858,
        65535,
        907
      ],
      [
        858,
        65535,
        910
      ],
      [
        858,
        355,
        875
      ]
    ],
    [
      [
        858,
        355,
        875
      ],
      [
        858,
        914,
        878
      ],
      [
        858,
        915,
        872
      ],
      [
        858,
        915,
        873
      ],
      [
        858,
        915,
        65535
      ],
      [
        903,
        916,
        65535
      ],
      [
        903,
        633,
        65535
      ],
      [
        903,
        914,
        65535
      ],
      [
        858,
        915,
        65535
      ],
      [
        858,
        915,
        65535
      ],
      [
        858,
        916,
        906
      ],
      [
        858,
        355,
        907
      ],
      [
        858,
        355,
        907
      ],
      [
        858,
        65535,
        910
      ],
      [
        858,
        915,
        878
      ],
      [
        858,
        915,
        873
      ],
      [
        858,
        915,
        906
      ],
      [
        858,
        65535,
        907
      ]
    ],
    [
      [
        858,
        355,
        875
      ],
      [
        902,
        355,
        875
      ],
      [
        903,
        355,
        875
      ],
      [
        903,
        65535,
        876
      ],
      [
        903,
        65535,
        65535
      ],
      [
        904,
        65535,
        65535
      ],
      [
        858,
        65535,
        65535
      ],
      [
        902,
        65535,
        65535
      ],
      [
        903,
        65535,
        65535
      ],
      [
        903,
        65535,
        65535
      ],
      [
        904,
        914,
        65535
      ],
      [
        858,
        915,
        65535
      ],
      [
        858,
        915,
        65535
      ],
      [
        858,
        916,
        906
      ],
      [
        858,
        65535,
        910
      ],
      [
        903,
        65535,
        878
      ],
      [
        903,
        914,
        873
      ],
      [
        858,
        915,
        65535
      ]
    ],
    [
      [
        858,
        355,
        875
      ],
      [
        858,
        355,
        875
      ],
      [
        858,
        355,
        911
      ],
      [
        858,
        65535,
        908
      ],
      [
        858,
        919,
        65535
      ],
      [
        858,
        923,
        933
      ],
      [
        858,
        923,
        65535
      ],
      [
        858,
        923,
        65535
      ],
      [
        858,
        923,
        65535
      ],
      [
        858,
        920,
        65535
      ],
      [
        902,
        65535,
        65535
      ],
      [
        903,
        65535,
        933
      ],
      [
        903,
        65535,
        871
      ],
      [
        904,
        914,
        872
      ],
      [
        858,
        915,
        877
      ],
      [
        858,
        355,
        875
      ],
      [
        902,
        355,
        878
      ],
      [
        903,
        355,
        872
      ]
    ],
    [
      [
        858,
        355,
        875
      ],
      [
        858,
        355,
        875
      ],
      [
        858,
        915,
        876
      ],
      [
        858,
        65535,
        916
      ],
      [
        858,
        925,
        65535
      ],
      [
        858,
        932,
        934
      ],
      [
        858,
        855,
        65535
      ],
      [
        858,
        930,
        65535
      ],
      [
        858,
        929,
        65535
      ],
      [
        858,
        928,
        933
      ],
      [
        858,
        923,
        65535
      ],
      [
        858,
        923,
        934
      ],
      [
        858,
        923,
        906
      ],
      [
        902,
        355,
        907
      ],
      [
        858,
        355,
        910
      ],
      [
        858,
        355,
        875
      ],
      [
        858,
        355,
        875
      ],
      [
        858,
        355,
        875
      ]
    ],
    [
      [
        858,
        355,
        875
      ],
      [
        858,
        355,
        911
      ],
      [
        903,
        65535,
        908
      ],
      [
        904,
        65535,
        65535
      ],
      [
        921,
        65535,
        65535
      ],
      [
        924,
        935,
        65535
      ],
      [
        858,
        929,
        65535
      ],
      [
        858,
        926,
        65535
      ],
      [
        925,
        65535,
        65535
      ],
      [
        858,
        855,
        934
      ],
      [
        858,
        932,
        65535
      ],
      [
        920,
        930,
        935
      ],
      [
        924,
        935,
        914
      ],
      [
        858,
        915,
        65535
      ],
      [
        858,
        915,
        874
      ],
      [
        858,
        355,
        875
      ],
      [
        858,
        355,
        875
      ],
      [
        858,
        355,
        875
      ]
    ],
    [
      [
        858,
        355,
        875
      ],
      [
        858,
        915,
        878
      ],
      [
        858,
        916,
        872
      ],
      [
        858,
        65535,
        872
      ],
      [
        858,
        65535,
        873
      ],
      [
        858,
        65535,
        65535
      ],
      [
        858,
        925,
        65535
      ],
      [
        858,
        926,
        65535
      ],
      [
        921,
        65535,
        65535
      ],
      [
        924,
        935,
        65535
      ],
      [
        924,
        65535,
        65535
      ],
      [
        922,
        65535,
        65535
      ],
      [
        902,
        65535,
        65535
      ],
      [
        903,
        65535,
        871
      ],
      [
        903,
        65535,
        877
      ],
      [
        858,
        355,
        875
      ],
      [
        858,
        65535,
        911
      ],
      [
        858,
        65535,
        910
      ]
    ],
    [
      [
        902,
        355,
        875
      ],
      [
        903,
        355,
        911
      ],
      [
        858,
        65535,
        910
      ],
      [
        858,
        65535,
        911
      ],
      [
        858,
        919,
        908
      ],
      [
        858,
        923,
        65535
      ],
      [
        858,
        927,
        65535
      ],
      [
        858,
        928,
        65535
      ],
      [
        858,
        920,
        65535
      ],
      [
        858,
        65535,
        65535
      ],
      [
        858,
        919,
        65535
      ],
      [
        858,
        920,
        65535
      ],
      [
        858,
        65535,
        65535
      ],
      [
        858,
        65535,
        906
      ],
      [
        858,
        355,
        907
      ],
      [
        858,
        355,
        907
      ],
      [
        858,
        915,
        908
      ],
      [
        858,
        915,
        874
      ]
    ],
    [
      [
        858,
        355,
        875
      ],
      [
        858,
        914,
        876
      ],
      [
        858,
        65535,
        912
      ],
      [
        858,
        915,
        908
      ],
      [
        921,
        65535,
        916
      ],
      [
        858,
        929,
        65535
      ],
      [
        858,
        855,
        65535
      ],
      [
        858,
        918,
        65535
      ],
      [
        858,
        926,
        65535
      ],
      [
        858,
        65535,
        65535
      ],
      [
        858,
        925,
        65535
      ],
      [
        858,
        928,
        65535
      ],
      [
        858,
        920,
        65535
      ],
      [
        858,
        65535,
        914
      ],
      [
        858,
        915,
        65535
      ],
      [
        858,
        915,
        65535
      ],
      [
        903,
        916,
        871
      ],
      [
        903,
        355,
        877
      ]
    ],
    [
      [
        858,
        355,
        875
      ],
      [
        903,
        65535,
        876
      ],
      [
        903,
        65535,
        914
      ],
      [
        903,
        916,
        871
      ],
      [
        904,
        65535,
        873
      ],
      [
        921,
        65535,
        65535
      ],
      [
        858,
        929,
        65535
      ],
      [
        858,
        930,
        65535
      ],
      [
        922,
        65535,
        65535
      ],
      [
        919,
        919,
        65535
      ],
      [
        858,
        927,
        65535
      ],
      [
        858,
        932,
        65535
      ],
      [
        858,
        926,
        65535
      ],
      [
        902,
        65535,
        65535
      ],
      [
        903,
        65535,
        65535
      ],
      [
        903,
        65535,
        871
      ],
      [
        904,
        355,
        877
      ],
      [
        858,
        355,
        875
      ]
    ],
    [
      [
        858,
        355,
        875
      ],
      [
        858,
        65535,
        878
      ],
      [
        902,
        65535,
        872
      ],
      [
        903,
        355,
        877
      ],
      [
        904,
        919,
        876
      ],
      [
        858,
        920,
        65535
      ],
      [
        921,
        65535,
        65535
      ],
      [
        922,
        65535,
        65535
      ],
      [
        919,
        919,
        65535
      ],
      [
        858,
        927,
        65535
      ],
      [
        858,
        930,
        65535
      ],
      [
        924,
        65535,
        65535
      ],
      [
        922,
        65535,
        944
      ],
      [
        858,
        65535,
        945
      ],
      [
        858,
        65535,
        946
      ],
      [
        858,
        65535,
        874
      ],
      [
        858,
        355,
        875
      ],
      [
        858,
        355,
        875
      ]
    ],
    [
      [
        858,
        355,
        875
      ],
      [
        858,
        65535,
        875
      ],
      [
        858,
        65535,
        911
      ],
      [
        858,
        914,
        907
      ],
      [
        858,
        855,
        908
      ],
      [
        858,
        928,
        65535
      ],
      [
        858,
        923,
        65535
      ],
      [
        858,
        923,
        65535
      ],
      [
        858,
        927,
        65535
      ],
      [
        858,
        855,
        65535
      ],
      [
        858,
        926,
        65535
      ],
      [
        858,
        65535,
        65535
      ],
      [
        858,
        65535,
        941
      ],
      [
        858,
        65535,
        942
      ],
      [
        858,
        65535,
        871
      ],
      [
        858,
        355,
        877
      ],
      [
        858,
        355,
        875
      ],
      [
        858,
        355,
        875
      ]
    ],
    [
      [
        858,
        65535,
        875
      ],
      [
        858,
        65535,
        911
      ],
      [
        858,
        915,
        908
      ],
      [
        902,
        915,
        871
      ],
      [
        918,
        916,
        872
      ],
      [
        858,
        855,
        873
      ],
      [
        858,
        855,
        65535
      ],
      [
        858,
        930,
        65535
      ],
      [
        924,
        65535,
        65535
      ],
      [
        924,
        65535,
        65535
      ],
      [
        922,
        65535,
        871
      ],
      [
        858,
        65535,
        872
      ],
      [
        858,
        65535,
        873
      ],
      [
        858,
        940,
        871
      ],
      [
        858,
        355,
        877
      ],
      [
        858,
        355,
        875
      ],
      [
        858,
        65535,
        911
      ],
      [
        858,
        355,
        910
      ]
    ],
    [
      [
        858,
        65535,
        875
      ],
      [
        858,
        915,
        878
      ],
      [
        903,
        916,
        873
      ],
      [
        903,
        65535,
        906
      ],
      [
        903,
        65535,
        907
      ],
      [
        921,
        65535,
        908
      ],
      [
        924,
        65535,
        871
      ],
      [
        922,
        65535,
        872
      ],
      [
        870,
        65535,
        873
      ],
      [
        863,
        65535,
        65535
      ],
      [
        869,
        65535,
        906
      ],
      [
        858,
        65535,
        910
      ],
      [
        858,
        65535,
        878
      ],
      [
        858,
        65535,
        877
      ],
      [
        858,
        355,
        875
      ],
      [
        858,
        355,
        911
      ],
      [
        858,
        915,
        908
      ],
      [
        858,
        915,
        874
      ]
    ],
    [
      [
        858,
        355,
        875
      ],
      [
        903,
        65535,
        875
      ],
      [
        904,
        65535,
        878
      ],
      [
        858,
        914,
        873
      ],
      [
        858,
        915,
        65535
      ],
      [
        858,
        916,
        871
      ],
      [
        858,
        65535,
        877
      ],
      [
        858,
        355,
        875
      ],
      [
        866,
        355,
        876
      ],
      [
        1475,
        65535,
        65535
      ],
      [
        865,
        914,
        871
      ],
      [
        858,
        915,
        877
      ],
      [
        858,
        355,
        875
      ],
      [
        858,
        355,
        875
      ],
      [
        858,
        65535,
        911
      ],
      [
        858,
        914,
        908
      ],
      [
        903,
        916,
        871
      ],
      [
        903,
        355,
        877
      ]
    ],
    [
      [
        858,
        355,
        875
      ],
      [
        858,
        355,
        875
      ],
      [
        858,
        355,
        875
      ],
      [
        902,
        65535,
        878
      ],
      [
        903,
        65535,
        872
      ],
      [
        904,
        65535,
        877
      ],
      [
        858,
        355,
        875
      ],
      [
        858,
        355,
        875
      ],
      [
        866,
        355,
        878
      ],
      [
        1474,
        65535,
        872
      ],
      [
        865,
        355,
        877
      ],
      [
        858,
        355,
        875
      ],
      [
        858,
        355,
        875
      ],
      [
        858,
        355,
        875
      ],
      [
        858,
        915,
        878
      ],
      [
        902,
        916,
        872
      ],
      [
        904,
        355,
        877
      ],
      [
        858,
        355,
        875
      ]
    ],
    []
  ]
}