{
  "zoneId": 431,
  "zoneType": 3,
  "width": 9,
  "height": 9,
  "type": 8,
  "world": 3,
  "objects": [
    {
      "type": 1,
      "x": 7,
      "y": 2,
      "unknown": 1,
      "param": 65535
    },
    {
      "type": 10,
      "x": 4,
      "y": 8,
      "unknown": 1,
      "param": 65535
    },
    {
      "type": 1,
      "x": 1,
      "y": 2,
      "unknown": 1,
      "param": 65535
    }
  ],
  "actions": [
    {
      "triggers": [
        [
          "on_bump_tile",
          6,
          1,
          258,
          30018,
          28781,
          0
        ]
      ],
      "commands": [
        [
          "play_sound",
          19,
          0,
          27728,
          31073,
          28499,
          0
        ],
        [
          "set_tile",
          6,
          1,
          1,
          259,
          25441,
          0
        ],
        [
          "redraw_tile",
          6,
          1,
          25938,
          29284,
          30561,
          0
        ],
        [
          "render_changes",
          0,
          0,
          48668,
          233,
          0,
          0
        ],
        [
          "random",
          7,
          0,
          26708,
          28530,
          21111,
          0
        ]
      ]
    },
    {
      "triggers": [
        [
          "on_rand_var_eq",
          1,
          8,
          0,
          24914,
          25710,
          0
        ]
      ],
      "commands": [
        [
          "spawn_item",
          512,
          6,
          1,
          28783,
          29769,
          0
        ],
        [
          "set_rand_var",
          0,
          0,
          25939,
          21108,
          28257,
          0
        ]
      ]
    },
    {
      "triggers": [
        [
          "on_rand_var_eq",
          2,
          8,
          0,
          24914,
          25710,
          0
        ]
      ],
      "commands": [
        [
          "spawn_item",
          513,
          6,
          1,
          28783,
          29769,
          0
        ],
        [
          "set_rand_var",
          0,
          0,
          25939,
          21108,
          28257,
          0
        ]
      ]
    },
    {
      "triggers": [
        [
          "on_rand_var_eq",
          3,
          8,
          0,
          24914,
          25710,
          0
        ]
      ],
      "commands": [
        [
          "spawn_item",
          514,
          6,
          1,
          28783,
          29769,
          0
        ],
        [
          "set_rand_var",
          0,
          0,
          25939,
          21108,
          28257,
          0
        ]
      ]
    },
    {
      "triggers": [
        [
          "on_rand_var_eq",
          4,
          8,
          0,
          24914,
          25710,
          0
        ]
      ],
      "commands": [
        [
          "spawn_item",
          505,
          6,
          1,
          28783,
          29769,
          0
        ],
        [
          "set_rand_var",
          0,
          0,
          25939,
          21108,
          28257,
          0
        ]
      ]
    }
  ],
  "tilemap": [
    [
      [
        1524,
        1526,
        65535
      ],
      [
        65535,
        1520,
        65535
      ],
      [
        65535,
        1520,
        254
      ],
      [
        65535,
        1520,
        255
      ],
      [
        65535,
        1520,
        65535
      ],
      [
        65535,
        1519,
        65535
      ],
      [
        65535,
        1520,
        256
      ],
      [
        65535,
        1520,
        285
      ],
      [
        1524,
        1528,
        65535
      ]
    ],
    [
      [
        1524,
        1527,
        65535
      ],
      [
        1524,
        419,
        65535
      ],
      [
        1524,
        260,
        263
      ],
      [
        1524,
        261,
        262
      ],
      [
        1524,
        65535,
        65535
      ],
      [
        1524,
        1522,
        65535
      ],
      [
        1524,
        258,
        65535
      ],
      [
        1524,
        286,
        65535
      ],
      [
        1524,
        1529,
        270
      ]
    ],
    [
      [
        1524,
        1522,
        65535
      ],
      [
        1524,
        65535,
        65535
      ],
      [
        1524,
        65535,
        65535
      ],
      [
        1524,
        65535,
        65535
      ],
      [
        1524,
        271,
        271
      ],
      [
        1524,
        1522,
        65535
      ],
      [
        1524,
        65535,
        65535
      ],
      [
        1524,
        65535,
        65535
      ],
      [
        1524,
        1523,
        65535
      ]
    ],
    [
      [
        1524,
        1522,
        65535
      ],
      [
        1524,
        65535,
        65535
      ],
      [
        1524,
        65535,
        65535
      ],
      [
        1524,
        65535,
        65535
      ],
      [
        1524,
        65535,
        65535
      ],
      [
        1524,
        1522,
        65535
      ],
      [
        1524,
        65535,
        65535
      ],
      [
        1524,
        1375,
        65535
      ],
      [
        1524,
        1523,
        65535
      ]
    ],
    [
      [
        1524,
        1519,
        65535
      ],
      [
        1524,
        1520,
        65535
      ],
      [
        1524,
        1520,
        65535
      ],
      [
        1915,
        65535,
        1914
      ],
      [
        1524,
        1520,
        65535
      ],
      [
        1524,
        1520,
        254
      ],
      [
        1915,
        65535,
        1914
      ],
      [
        1524,
        1520,
        65535
      ],
      [
        1524,
        1521,
        65535
      ]
    ],
    [
      [
        1524,
        1522,
        65535
      ],
      [
        1524,
        273,
        65535
      ],
      [
        1524,
        257,
        274
      ],
      [
        1524,
        65535,
        65535
      ],
      [
        1524,
        65535,
        65535
      ],
      [
        1524,
        65535,
        65535
      ],
      [
        1524,
        65535,
        65535
      ],
      [
        1524,
        273,
        65535
      ],
      [
        1524,
        1523,
        65535
      ]
    ],
    [
      [
        1524,
        1522,
        65535
      ],
      [
        1524,
        65535,
        65535
      ],
      [
        1524,
        65535,
        65535
      ],
      [
        1524,
        65535,
        65535
      ],
      [
        1524,
        65535,
        65535
      ],
      [
        1524,
        65535,
        65535
      ],
      [
        1524,
        65535,
        65535
      ],
      [
        1524,
        65535,
        65535
      ],
      [
        1524,
        1523,
        65535
      ]
    ],
    [
      [
        1524,
        1531,
        65535
      ],
      [
        1524,
        65535,
        65535
      ],
      [
        1524,
        65535,
        65535
      ],
      [
        1524,
        65535,
        65535
      ],
      [
        1524,
        65535,
        65535
      ],
      [
        1524,
        65535,
        65535
      ],
      [
        1524,
        65535,
        65535
      ],
      [
        1524,
        65535,
        65535
      ],
      [
        1524,
        1533,
        65535
      ]
    ],
    [
      [
        65535,
        1530,
        65535
      ],
      [
        65535,
        1520,
        65535
      ],
      [
        65535,
        1520,
        65535
      ],
      [
        65535,
        1520,
        65535
      ],
      [
        1525,
        65535,
        1914
      ],
      [
        65535,
        1520,
        65535
      ],
      [
        65535,
        1520,
        65535
      ],
      [
        65535,
        1520,
        65535
      ],
      [
        1524,
        1532,
        65535
      ]
    ],
    []
  ]
}