{
  "zoneId": 457,
  "zoneType": 3,
  "width": 18,
  "height": 18,
  "type": 1,
  "world": 3,
  "objects": [
    {
      "type": 6,
      "x": 7,
      "y": 10,
      "unknown": 1,
      "param": 1197
    }
  ],
  "actions": [],
  "tilemap": [
    [
      [
        403,
        65535,
        65535
      ],
      [
        859,
        65535,
        871
      ],
      [
        860,
        65535,
        872
      ],
      [
        860,
        65535,
        872
      ],
      [
        403,
        65535,
        873
      ],
      [
        859,
        65535,
        871
      ],
      [
        861,
        65535,
        873
      ],
      [
        403,
        65535,
        65535
      ],
      [
        403,
        65535,
        65535
      ],
      [
        403,
        65535,
        65535
      ],
      [
        403,
        65535,
        65535
      ],
      [
        859,
        65535,
        871
      ],
      [
        861,
        65535,
        873
      ],
      [
        403,
        65535,
        65535
      ],
      [
        403,
        65535,
        65535
      ],
      [
        403,
        65535,
        65535
      ],
      [
        403,
        65535,
        65535
      ],
      [
        403,
        65535,
        65535
      ]
    ],
    [
      [
        403,
        65535,
        65535
      ],
      [
        865,
        65535,
        874
      ],
      [
        858,
        65535,
        888
      ],
      [
        858,
        65535,
        884
      ],
      [
        403,
        374,
        885
      ],
      [
        403,
        375,
        883
      ],
      [
        403,
        376,
        885
      ],
      [
        403,
        65535,
        65535
      ],
      [
        403,
        65535,
        65535
      ],
      [
        403,
        65535,
        65535
      ],
      [
        403,
        65535,
        65535
      ],
      [
        862,
        65535,
        883
      ],
      [
        864,
        65535,
        885
      ],
      [
        403,
        65535,
        65535
      ],
      [
        403,
        65535,
        65535
      ],
      [
        403,
        65535,
        65535
      ],
      [
        403,
        65535,
        65535
      ],
      [
        403,
        65535,
        65535
      ]
    ],
    [
      [
        859,
        65535,
        871
      ],
      [
        403,
        65535,
        877
      ],
      [
        858,
        892,
        876
      ],
      [
        403,
        892,
        65535
      ],
      [
        377,
        893,
        65535
      ],
      [
        378,
        891,
        65535
      ],
      [
        861,
        893,
        65535
      ],
      [
        403,
        65535,
        65535
      ],
      [
        403,
        65535,
        65535
      ],
      [
        403,
        65535,
        65535
      ],
      [
        403,
        65535,
        65535
      ],
      [
        403,
        891,
        65535
      ],
      [
        403,
        893,
        65535
      ],
      [
        403,
        65535,
        65535
      ],
      [
        403,
        65535,
        65535
      ],
      [
        403,
        65535,
        65535
      ],
      [
        1578,
        65535,
        65535
      ],
      [
        403,
        65535,
        65535
      ]
    ],
    [
      [
        403,
        65535,
        883
      ],
      [
        403,
        65535,
        884
      ],
      [
        880,
        65535,
        885
      ],
      [
        880,
        65535,
        65535
      ],
      [
        881,
        65535,
        65535
      ],
      [
        879,
        65535,
        65535
      ],
      [
        881,
        65535,
        65535
      ],
      [
        403,
        374,
        65535
      ],
      [
        403,
        375,
        65535
      ],
      [
        403,
        375,
        65535
      ],
      [
        403,
        376,
        65535
      ],
      [
        879,
        65535,
        944
      ],
      [
        881,
        65535,
        945
      ],
      [
        403,
        374,
        946
      ],
      [
        403,
        375,
        65535
      ],
      [
        403,
        376,
        65535
      ],
      [
        403,
        65535,
        65535
      ],
      [
        403,
        65535,
        65535
      ]
    ],
    [
      [
        403,
        65535,
        891
      ],
      [
        403,
        892,
        65535
      ],
      [
        861,
        65535,
        893
      ],
      [
        403,
        374,
        65535
      ],
      [
        403,
        375,
        65535
      ],
      [
        879,
        376,
        65535
      ],
      [
        403,
        374,
        65535
      ],
      [
        403,
        382,
        65535
      ],
      [
        403,
        387,
        65535
      ],
      [
        403,
        386,
        65535
      ],
      [
        403,
        383,
        65535
      ],
      [
        881,
        376,
        941
      ],
      [
        403,
        65535,
        900
      ],
      [
        881,
        380,
        943
      ],
      [
        403,
        387,
        65535
      ],
      [
        403,
        383,
        65535
      ],
      [
        403,
        376,
        65535
      ],
      [
        403,
        65535,
        65535
      ]
    ],
    [
      [
        879,
        65535,
        65535
      ],
      [
        880,
        65535,
        65535
      ],
      [
        881,
        65535,
        65535
      ],
      [
        403,
        380,
        65535
      ],
      [
        403,
        387,
        65535
      ],
      [
        403,
        383,
        65535
      ],
      [
        403,
        382,
        65535
      ],
      [
        403,
        386,
        65535
      ],
      [
        403,
        386,
        65535
      ],
      [
        403,
        387,
        65535
      ],
      [
        403,
        386,
        65535
      ],
      [
        403,
        381,
        65535
      ],
      [
        403,
        65535,
        1023
      ],
      [
        403,
        380,
        65535
      ],
      [
        386,
        386,
        944
      ],
      [
        386,
        387,
        945
      ],
      [
        403,
        381,
        946
      ],
      [
        403,
        65535,
        65535
      ]
    ],
    [
      [
        403,
        65535,
        65535
      ],
      [
        403,
        65535,
        65535
      ],
      [
        403,
        374,
        65535
      ],
      [
        403,
        382,
        65535
      ],
      [
        403,
        386,
        65535
      ],
      [
        403,
        387,
        65535
      ],
      [
        377,
        386,
        65535
      ],
      [
        403,
        386,
        65535
      ],
      [
        403,
        387,
        65535
      ],
      [
        386,
        386,
        944
      ],
      [
        386,
        387,
        945
      ],
      [
        403,
        381,
        946
      ],
      [
        403,
        901,
        65535
      ],
      [
        377,
        65535,
        65535
      ],
      [
        378,
        65535,
        941
      ],
      [
        378,
        65535,
        900
      ],
      [
        379,
        65535,
        943
      ],
      [
        403,
        65535,
        65535
      ]
    ],
    [
      [
        403,
        65535,
        65535
      ],
      [
        403,
        65535,
        944
      ],
      [
        403,
        380,
        945
      ],
      [
        386,
        386,
        946
      ],
      [
        403,
        387,
        65535
      ],
      [
        403,
        386,
        65535
      ],
      [
        403,
        387,
        65535
      ],
      [
        403,
        386,
        65535
      ],
      [
        1579,
        386,
        65535
      ],
      [
        386,
        387,
        941
      ],
      [
        403,
        385,
        900
      ],
      [
        379,
        65535,
        943
      ],
      [
        403,
        65535,
        65535
      ],
      [
        1575,
        65535,
        65535
      ],
      [
        403,
        65535,
        65535
      ],
      [
        403,
        65535,
        1023
      ],
      [
        403,
        65535,
        65535
      ],
      [
        403,
        65535,
        65535
      ]
    ],
    [
      [
        403,
        65535,
        65535
      ],
      [
        403,
        65535,
        941
      ],
      [
        377,
        65535,
        900
      ],
      [
        403,
        384,
        943
      ],
      [
        403,
        386,
        65535
      ],
      [
        403,
        387,
        65535
      ],
      [
        386,
        386,
        871
      ],
      [
        377,
        385,
        873
      ],
      [
        403,
        384,
        65535
      ],
      [
        403,
        386,
        65535
      ],
      [
        403,
        381,
        1023
      ],
      [
        403,
        65535,
        65535
      ],
      [
        403,
        374,
        65535
      ],
      [
        403,
        375,
        65535
      ],
      [
        403,
        376,
        65535
      ],
      [
        403,
        901,
        65535
      ],
      [
        403,
        65535,
        65535
      ],
      [
        403,
        65535,
        65535
      ]
    ],
    [
      [
        403,
        65535,
        65535
      ],
      [
        403,
        65535,
        65535
      ],
      [
        403,
        65535,
        1023
      ],
      [
        377,
        65535,
        65535
      ],
      [
        403,
        384,
        65535
      ],
      [
        403,
        385,
        65535
      ],
      [
        378,
        65535,
        883
      ],
      [
        379,
        65535,
        885
      ],
      [
        377,
        65535,
        65535
      ],
      [
        378,
        65535,
        65535
      ],
      [
        379,
        901,
        65535
      ],
      [
        403,
        65535,
        65535
      ],
      [
        403,
        380,
        65535
      ],
      [
        403,
        385,
        65535
      ],
      [
        379,
        65535,
        65535
      ],
      [
        403,
        65535,
        65535
      ],
      [
        403,
        390,
        65535
      ],
      [
        403,
        65535,
        65535
      ]
    ],
    [
      [
        403,
        65535,
        65535
      ],
      [
        403,
        65535,
        65535
      ],
      [
        403,
        901,
        65535
      ],
      [
        403,
        65535,
        65535
      ],
      [
        377,
        65535,
        65535
      ],
      [
        379,
        65535,
        65535
      ],
      [
        403,
        891,
        65535
      ],
      [
        861,
        893,
        65535
      ],
      [
        403,
        65535,
        65535
      ],
      [
        403,
        65535,
        65535
      ],
      [
        1579,
        65535,
        65535
      ],
      [
        403,
        65535,
        65535
      ],
      [
        377,
        65535,
        65535
      ],
      [
        379,
        65535,
        65535
      ],
      [
        403,
        374,
        65535
      ],
      [
        1579,
        376,
        65535
      ],
      [
        403,
        65535,
        65535
      ],
      [
        403,
        65535,
        65535
      ]
    ],
    [
      [
        403,
        65535,
        65535
      ],
      [
        403,
        374,
        65535
      ],
      [
        403,
        375,
        65535
      ],
      [
        403,
        375,
        65535
      ],
      [
        403,
        375,
        65535
      ],
      [
        403,
        376,
        65535
      ],
      [
        879,
        65535,
        65535
      ],
      [
        881,
        65535,
        65535
      ],
      [
        403,
        374,
        65535
      ],
      [
        403,
        375,
        65535
      ],
      [
        403,
        376,
        65535
      ],
      [
        403,
        374,
        65535
      ],
      [
        403,
        376,
        65535
      ],
      [
        403,
        65535,
        65535
      ],
      [
        403,
        380,
        65535
      ],
      [
        403,
        381,
        65535
      ],
      [
        403,
        65535,
        65535
      ],
      [
        403,
        65535,
        65535
      ]
    ],
    [
      [
        403,
        65535,
        65535
      ],
      [
        377,
        65535,
        65535
      ],
      [
        403,
        384,
        65535
      ],
      [
        403,
        386,
        65535
      ],
      [
        403,
        386,
        65535
      ],
      [
        403,
        381,
        65535
      ],
      [
        403,
        65535,
        65535
      ],
      [
        403,
        374,
        65535
      ],
      [
        403,
        382,
        65535
      ],
      [
        403,
        386,
        65535
      ],
      [
        403,
        383,
        65535
      ],
      [
        403,
        382,
        65535
      ],
      [
        403,
        383,
        65535
      ],
      [
        403,
        375,
        65535
      ],
      [
        386,
        382,
        871
      ],
      [
        403,
        381,
        872
      ],
      [
        861,
        65535,
        873
      ],
      [
        403,
        65535,
        65535
      ]
    ],
    [
      [
        403,
        65535,
        65535
      ],
      [
        859,
        65535,
        871
      ],
      [
        403,
        380,
        872
      ],
      [
        386,
        386,
        873
      ],
      [
        403,
        386,
        65535
      ],
      [
        403,
        381,
        65535
      ],
      [
        403,
        65535,
        65535
      ],
      [
        403,
        380,
        65535
      ],
      [
        403,
        385,
        871
      ],
      [
        386,
        65535,
        872
      ],
      [
        386,
        384,
        873
      ],
      [
        403,
        387,
        65535
      ],
      [
        403,
        386,
        65535
      ],
      [
        386,
        387,
        871
      ],
      [
        386,
        891,
        877
      ],
      [
        383,
        885,
        875
      ],
      [
        403,
        376,
        876
      ],
      [
        403,
        65535,
        65535
      ]
    ],
    [
      [
        403,
        65535,
        65535
      ],
      [
        403,
        65535,
        883
      ],
      [
        377,
        65535,
        884
      ],
      [
        403,
        386,
        885
      ],
      [
        403,
        385,
        65535
      ],
      [
        379,
        65535,
        65535
      ],
      [
        403,
        65535,
        65535
      ],
      [
        377,
        65535,
        65535
      ],
      [
        379,
        65535,
        874
      ],
      [
        858,
        65535,
        875
      ],
      [
        386,
        380,
        876
      ],
      [
        403,
        387,
        65535
      ],
      [
        403,
        387,
        65535
      ],
      [
        386,
        891,
        883
      ],
      [
        387,
        891,
        884
      ],
      [
        387,
        891,
        884
      ],
      [
        379,
        65535,
        885
      ],
      [
        403,
        65535,
        65535
      ]
    ],
    [
      [
        403,
        65535,
        65535
      ],
      [
        403,
        891,
        65535
      ],
      [
        1576,
        892,
        65535
      ],
      [
        377,
        65535,
        893
      ],
      [
        379,
        65535,
        65535
      ],
      [
        403,
        374,
        65535
      ],
      [
        403,
        375,
        65535
      ],
      [
        403,
        376,
        65535
      ],
      [
        403,
        65535,
        883
      ],
      [
        858,
        65535,
        884
      ],
      [
        377,
        65535,
        885
      ],
      [
        403,
        384,
        65535
      ],
      [
        403,
        385,
        65535
      ],
      [
        378,
        891,
        65535
      ],
      [
        379,
        892,
        65535
      ],
      [
        403,
        892,
        65535
      ],
      [
        861,
        893,
        65535
      ],
      [
        403,
        65535,
        65535
      ]
    ],
    [
      [
        403,
        65535,
        65535
      ],
      [
        879,
        65535,
        65535
      ],
      [
        880,
        65535,
        65535
      ],
      [
        881,
        65535,
        65535
      ],
      [
        403,
        65535,
        65535
      ],
      [
        377,
        380,
        65535
      ],
      [
        378,
        387,
        65535
      ],
      [
        403,
        381,
        65535
      ],
      [
        879,
        891,
        65535
      ],
      [
        880,
        892,
        65535
      ],
      [
        881,
        893,
        65535
      ],
      [
        377,
        65535,
        65535
      ],
      [
        379,
        65535,
        65535
      ],
      [
        879,
        65535,
        65535
      ],
      [
        880,
        65535,
        65535
      ],
      [
        880,
        65535,
        65535
      ],
      [
        881,
        65535,
        65535
      ],
      [
        403,
        65535,
        65535
      ]
    ],
    [
      [
        403,
        65535,
        65535
      ],
      [
        403,
        65535,
        65535
      ],
      [
        403,
        65535,
        65535
      ],
      [
        403,
        65535,
        65535
      ],
      [
        403,
        65535,
        65535
      ],
      [
        377,
        65535,
        65535
      ],
      [
        378,
        65535,
        65535
      ],
      [
        379,
        65535,
        65535
      ],
      [
        879,
        65535,
        65535
      ],
      [
        880,
        65535,
        65535
      ],
      [
        881,
        65535,
        65535
      ],
      [
        403,
        65535,
        65535
      ],
      [
        403,
        65535,
        65535
      ],
      [
        403,
        65535,
        65535
      ],
      [
        403,
        65535,
        65535
      ],
      [
        403,
        65535,
        65535
      ],
      [
        403,
        65535,
        65535
      ],
      [
        403,
        65535,
        65535
      ]
    ],
    []
  ]
}