{
  "zoneId": 469,
  "zoneType": 3,
  "width": 18,
  "height": 18,
  "type": 10,
  "world": 3,
  "objects": [
    {
      "type": 9,
      "x": 11,
      "y": 5,
      "unknown": 1,
      "param": 470
    },
    {
      "type": 0,
      "x": 9,
      "y": 2,
      "unknown": 1,
      "param": 65535
    },
    {
      "type": 0,
      "x": 9,
      "y": 2,
      "unknown": 1,
      "param": 65535
    },
    {
      "type": 6,
      "x": 13,
      "y": 4,
      "unknown": 1,
      "param": 528
    }
  ],
  "actions": [
    {
      "triggers": [
        [
          "on_first_enter",
          110,
          0,
          0,
          0,
          0,
          0
        ]
      ],
      "commands": [
        [
          "set_global_var",
          0,
          0,
          28488,
          21364,
          28528,
          0
        ],
        [
          "random",
          3,
          0,
          28488,
          21364,
          28528,
          0
        ],
        [
          "hide_object",
          0,
          0,
          28488,
          21364,
          28528,
          0
        ]
      ]
    },
    {
      "triggers": [
        [
          "on_first_enter",
          0,
          0,
          0,
          0,
          0,
          0
        ],
        [
          "on_has_item",
          447,
          0,
          0,
          40248,
          183,
          0
        ]
      ],
      "commands": [
        [
          "set_map_tile_var",
          5,
          5,
          0,
          1,
          0,
          0
        ]
      ]
    },
    {
      "triggers": [
        [
          "on_enter",
          110,
          14772,
          110,
          0,
          0,
          0
        ],
        [
          "on_has_item",
          447,
          23,
          0,
          28225,
          26996,
          0
        ]
      ],
      "commands": [
        [
          "set_tile",
          8,
          5,
          1,
          1605,
          0,
          0
        ],
        [
          "set_tile",
          8,
          6,
          0,
          1475,
          25441,
          0
        ],
        [
          "set_tile",
          9,
          6,
          0,
          1475,
          25441,
          0
        ],
        [
          "set_tile",
          8,
          7,
          0,
          1476,
          25441,
          0
        ],
        [
          "set_tile",
          9,
          7,
          0,
          1476,
          25441,
          0
        ],
        [
          "set_tile",
          8,
          9,
          1,
          923,
          25441,
          0
        ],
        [
          "set_tile",
          9,
          9,
          1,
          923,
          25441,
          0
        ],
        [
          "set_tile",
          8,
          10,
          1,
          918,
          25441,
          0
        ],
        [
          "set_tile",
          9,
          10,
          1,
          918,
          976,
          0
        ],
        [
          "redraw_tiles",
          8,
          5,
          9,
          10,
          30561,
          0
        ],
        [
          "set_map_tile_var",
          3,
          6,
          0,
          1,
          18004,
          0
        ],
        [
          "flag_once",
          11,
          0,
          26707,
          28777,
          28494,
          0
        ]
      ]
    },
    {
      "triggers": [
        [
          "on_bump_tile",
          15,
          2,
          1140,
          30018,
          28781,
          0
        ]
      ],
      "commands": [
        [
          "set_temp_var",
          100,
          0,
          25939,
          17268,
          30063,
          0
        ],
        [
          "flag_once",
          0,
          0,
          0,
          0,
          0,
          0
        ]
      ]
    },
    {
      "triggers": [
        [
          "on_bump_tile",
          3,
          9,
          1140,
          30018,
          28781,
          0
        ]
      ],
      "commands": [
        [
          "set_temp_var",
          100,
          0,
          25939,
          17268,
          30063,
          0
        ],
        [
          "flag_once",
          0,
          0,
          0,
          0,
          0,
          0
        ]
      ]
    },
    {
      "triggers": [
        [
          "on_bump_tile",
          15,
          16,
          1140,
          30018,
          28781,
          0
        ]
      ],
      "commands": [
        [
          "set_temp_var",
          100,
          0,
          25939,
          17268,
          30063,
          0
        ],
        [
          "flag_once",
          0,
          0,
          65292,
          183,
          0,
          0
        ]
      ]
    },
    {
      "triggers": [
        [
          "on_temp_var_eq",
          100,
          8,
          0,
          28483,
          28277,
          0
        ]
      ],
      "commands": [
        [
          "say_text",
          8,
          0,
          26707,
          30575,
          25940,
          48
        ],
        [
          "set_temp_var",
          0,
          0,
          25939,
          17268,
          30063,
          0
        ]
      ]
    },
    {
      "triggers": [
        [
          "on_drag_item",
          15,
          2,
          1,
          1140,
          18,
          0
        ]
      ],
      "commands": [
        [
          "set_temp_var",
          11,
          0,
          28483,
          28277,
          25972,
          0
        ]
      ]
    },
    {
      "triggers": [
        [
          "on_drag_item",
          15,
          2,
          1,
          1140,
          510,
          0
        ]
      ],
      "commands": [
        [
          "set_temp_var",
          11,
          0,
          28483,
          28277,
          25972,
          0
        ]
      ]
    },
    {
      "triggers": [
        [
          "on_temp_var_eq",
          11,
          0,
          0,
          0,
          0,
          0
        ],
        [
          "on_check_map_tile_var",
          0,
          8,
          2,
          0,
          25697,
          0
        ]
      ],
      "commands": [
        [
          "say_text",
          8,
          0,
          26707,
          30575,
          25940,
          61
        ],
        [
          "set_map_tile_var",
          8,
          2,
          0,
          1,
          18004,
          0
        ]
      ]
    },
    {
      "triggers": [
        [
          "on_temp_var_eq",
          11,
          0,
          0,
          0,
          0,
          0
        ]
      ],
      "commands": [
        [
          "set_tile",
          15,
          2,
          2,
          1073,
          25441,
          0
        ],
        [
          "redraw_tile",
          15,
          2,
          25938,
          29284,
          30561,
          0
        ],
        [
          "render_changes",
          32984,
          203,
          0,
          0,
          0,
          0
        ],
        [
          "play_sound",
          3,
          0,
          0,
          0,
          0,
          0
        ],
        [
          "wait_ticks",
          1,
          0,
          24919,
          29801,
          28486,
          0
        ],
        [
          "set_tile",
          15,
          2,
          2,
          1074,
          25441,
          0
        ],
        [
          "clear_tile",
          15,
          1,
          2,
          28525,
          25974,
          0
        ],
        [
          "clear_tile",
          15,
          2,
          1,
          28525,
          25974,
          0
        ],
        [
          "redraw_tiles",
          15,
          1,
          15,
          2,
          30561,
          0
        ],
        [
          "render_changes",
          0,
          0,
          33088,
          203,
          0,
          0
        ],
        [
          "wait_ticks",
          1,
          0,
          24919,
          29801,
          28486,
          0
        ],
        [
          "set_tile",
          15,
          2,
          2,
          1075,
          25441,
          0
        ],
        [
          "redraw_tile",
          15,
          2,
          25938,
          29284,
          30561,
          0
        ],
        [
          "render_changes",
          0,
          0,
          32984,
          203,
          0,
          0
        ],
        [
          "wait_ticks",
          1,
          0,
          24919,
          29801,
          28486,
          0
        ],
        [
          "clear_tile",
          15,
          2,
          2,
          28525,
          25974,
          0
        ],
        [
          "redraw_tile",
          15,
          2,
          25938,
          29284,
          30561,
          0
        ],
        [
          "redraw_tiles",
          14,
          1,
          16,
          3,
          503,
          0
        ],
        [
          "render_changes",
          0,
          0,
          32984,
          203,
          0,
          0
        ],
        [
          "wait_ticks",
          1,
          0,
          24919,
          29801,
          28486,
          0
        ],
        [
          "set_temp_var",
          101,
          0,
          25939,
          17268,
          30063,
          0
        ]
      ]
    },
    {
      "triggers": [
        [
          "on_temp_var_eq",
          101,
          8,
          0,
          28483,
          28277,
          0
        ],
        [
          "on_rand_var_eq",
          1,
          8,
          0,
          24914,
          25710,
          0
        ]
      ],
      "commands": [
        [
          "play_sound",
          0,
          0,
          10550,
          8192,
          28180,
          0
        ],
        [
          "spawn_item",
          528,
          15,
          2,
          28783,
          29769,
          0
        ],
        [
          "flag_once",
          0,
          0,
          32220,
          203,
          0,
          0
        ],
        [
          "set_temp_var",
          0,
          0,
          0,
          0,
          0,
          0
        ]
      ]
    },
    {
      "triggers": [
        [
          "on_drag_item",
          3,
          9,
          1,
          1140,
          18,
          0
        ]
      ],
      "commands": [
        [
          "set_temp_var",
          22,
          0,
          28483,
          28277,
          25972,
          0
        ]
      ]
    },
    {
      "triggers": [
        [
          "on_drag_item",
          3,
          9,
          1,
          1140,
          510,
          0
        ]
      ],
      "commands": [
        [
          "set_temp_var",
          22,
          0,
          28483,
          28277,
          25972,
          0
        ]
      ]
    },
    {
      "triggers": [
        [
          "on_temp_var_eq",
          22,
          0,
          0,
          0,
          0,
          0
        ],
        [
          "on_check_map_tile_var",
          0,
          8,
          2,
          0,
          25697,
          0
        ]
      ],
      "commands": [
        [
          "say_text",
          8,
          0,
          26707,
          30575,
          25940,
          61
        ],
        [
          "set_map_tile_var",
          8,
          2,
          0,
          1,
          18004,
          0
        ]
      ]
    },
    {
      "triggers": [
        [
          "on_temp_var_eq",
          22,
          16,
          0,
          25938,
          29284,
          0
        ]
      ],
      "commands": [
        [
          "set_tile",
          3,
          9,
          2,
          1073,
          25441,
          0
        ],
        [
          "redraw_tile",
          3,
          9,
          25938,
          29284,
          30561,
          0
        ],
        [
          "render_changes",
          32984,
          203,
          0,
          0,
          0,
          0
        ],
        [
          "play_sound",
          3,
          0,
          25938,
          27760,
          25441,
          0
        ],
        [
          "wait_ticks",
          1,
          0,
          24919,
          29801,
          28486,
          0
        ],
        [
          "set_tile",
          3,
          9,
          2,
          1074,
          25441,
          0
        ],
        [
          "clear_tile",
          3,
          8,
          2,
          28525,
          25974,
          0
        ],
        [
          "clear_tile",
          3,
          9,
          1,
          28525,
          25974,
          0
        ],
        [
          "redraw_tiles",
          3,
          8,
          3,
          9,
          30561,
          0
        ],
        [
          "render_changes",
          0,
          0,
          33088,
          203,
          0,
          0
        ],
        [
          "wait_ticks",
          1,
          0,
          24919,
          29801,
          28486,
          0
        ],
        [
          "set_tile",
          3,
          9,
          2,
          1075,
          25441,
          0
        ],
        [
          "redraw_tile",
          3,
          9,
          25938,
          29284,
          30561,
          0
        ],
        [
          "render_changes",
          0,
          0,
          32984,
          203,
          0,
          0
        ],
        [
          "wait_ticks",
          1,
          0,
          24919,
          29801,
          28486,
          0
        ],
        [
          "clear_tile",
          3,
          9,
          2,
          28525,
          25974,
          0
        ],
        [
          "redraw_tiles",
          2,
          8,
          4,
          10,
          8240,
          0
        ],
        [
          "redraw_tile",
          3,
          9,
          25938,
          29284,
          30561,
          0
        ],
        [
          "render_changes",
          0,
          0,
          32984,
          203,
          0,
          0
        ],
        [
          "wait_ticks",
          1,
          0,
          24919,
          29801,
          28486,
          0
        ],
        [
          "set_temp_var",
          102,
          0,
          25939,
          17268,
          30063,
          0
        ]
      ]
    },
    {
      "triggers": [
        [
          "on_temp_var_eq",
          102,
          8,
          0,
          28483,
          28277,
          0
        ],
        [
          "on_rand_var_eq",
          2,
          8,
          0,
          24914,
          25710,
          0
        ]
      ],
      "commands": [
        [
          "play_sound",
          0,
          0,
          0,
          0,
          0,
          0
        ],
        [
          "spawn_item",
          528,
          3,
          9,
          28783,
          29769,
          0
        ],
        [
          "flag_once",
          0,
          0,
          32220,
          203,
          0,
          0
        ],
        [
          "set_temp_var",
          0,
          0,
          21325,
          21280,
          28257,
          0
        ]
      ]
    },
    {
      "triggers": [
        [
          "on_drag_item",
          15,
          16,
          1,
          1140,
          18,
          0
        ]
      ],
      "commands": [
        [
          "set_temp_var",
          33,
          0,
          28483,
          28277,
          25972,
          0
        ]
      ]
    },
    {
      "triggers": [
        [
          "on_drag_item",
          15,
          16,
          1,
          1140,
          510,
          0
        ]
      ],
      "commands": [
        [
          "set_temp_var",
          33,
          0,
          28483,
          28277,
          25972,
          0
        ]
      ]
    },
    {
      "triggers": [
        [
          "on_temp_var_eq",
          33,
          0,
          0,
          0,
          0,
          0
        ],
        [
          "on_check_map_tile_var",
          0,
          8,
          2,
          0,
          25697,
          0
        ]
      ],
      "commands": [
        [
          "say_text",
          8,
          0,
          26707,
          30575,
          25940,
          61
        ],
        [
          "set_map_tile_var",
          8,
          2,
          0,
          1,
          18004,
          0
        ]
      ]
    },
    {
      "triggers": [
        [
          "on_temp_var_eq",
          33,
          0,
          0,
          0,
          0,
          0
        ]
      ],
      "commands": [
        [
          "set_tile",
          15,
          16,
          2,
          1073,
          25441,
          0
        ],
        [
          "redraw_tile",
          15,
          16,
          25938,
          29284,
          30561,
          0
        ],
        [
          "render_changes",
          32984,
          203,
          0,
          0,
          0,
          0
        ],
        [
          "play_sound",
          3,
          0,
          7032,
          189,
          0,
          0
        ],
        [
          "wait_ticks",
          1,
          0,
          24919,
          29801,
          28486,
          0
        ],
        [
          "set_tile",
          15,
          16,
          2,
          1074,
          25441,
          0
        ],
        [
          "clear_tile",
          15,
          15,
          2,
          28525,
          25974,
          0
        ],
        [
          "clear_tile",
          15,
          16,
          1,
          28525,
          25974,
          0
        ],
        [
          "redraw_tiles",
          15,
          15,
          15,
          16,
          30561,
          0
        ],
        [
          "render_changes",
          0,
          0,
          33088,
          203,
          0,
          0
        ],
        [
          "wait_ticks",
          1,
          0,
          24919,
          29801,
          28486,
          0
        ],
        [
          "set_tile",
          15,
          16,
          2,
          1075,
          25441,
          0
        ],
        [
          "redraw_tile",
          15,
          16,
          25938,
          29284,
          30561,
          0
        ],
        [
          "render_changes",
          0,
          0,
          32984,
          203,
          0,
          0
        ],
        [
          "wait_ticks",
          1,
          0,
          24919,
          29801,
          28486,
          0
        ],
        [
          "clear_tile",
          15,
          16,
          2,
          28525,
          25974,
          0
        ],
        [
          "redraw_tile",
          15,
          16,
          25938,
          29284,
          30561,
          0
        ],
        [
          "redraw_tiles",
          14,
          15,
          16,
          17,
          0,
          0
        ],
        [
          "render_changes",
          0,
          0,
          32984,
          203,
          0,
          0
        ],
        [
          "wait_ticks",
          1,
          0,
          24919,
          29801,
          28486,
          0
        ],
        [
          "set_temp_var",
          103,
          0,
          25939,
          17268,
          30063,
          0
        ]
      ]
    },
    {
      "triggers": [
        [
          "on_temp_var_eq",
          103,
          8,
          0,
          28483,
          28277,
          0
        ],
        [
          "on_rand_var_eq",
          3,
          8,
          0,
          24914,
          25710,
          0
        ]
      ],
      "commands": [
        [
          "play_sound",
          0,
          0,
          25939,
          17268,
          30063,
          0
        ],
        [
          "spawn_item",
          528,
          15,
          16,
          28783,
          29769,
          0
        ],
        [
          "flag_once",
          0,
          0,
          32220,
          203,
          0,
          0
        ],
        [
          "set_temp_var",
          0,
          0,
          25939,
          17268,
          30063,
          0
        ]
      ]
    },
    {
      "triggers": [
        [
          "on_temp_var_neq",
          0,
          10,
          0,
          28483,
          28277,
          0
        ]
      ],
      "commands": [
        [
          "set_temp_var",
          0,
          204,
          42644,
          204,
          0,
          0
        ]
      ]
    },
    {
      "triggers": [
        [
          "on_bump_tile",
          8,
          4,
          892,
          30018,
          28781,
          0
        ],
        [
          "on_check_map_tile",
          1475,
          8,
          6,
          0,
          25964,
          0
        ],
        [
          "on_check_map_tile_var",
          1,
          8,
          4,
          0,
          0,
          0
        ]
      ],
      "commands": [
        [
          "set_temp_var",
          199,
          0,
          25939,
          17268,
          30063,
          0
        ]
      ]
    },
    {
      "triggers": [
        [
          "on_bump_tile",
          9,
          4,
          892,
          30018,
          28781,
          0
        ],
        [
          "on_check_map_tile",
          1475,
          8,
          6,
          0,
          25964,
          0
        ],
        [
          "on_check_map_tile_var",
          1,
          8,
          4,
          0,
          0,
          0
        ]
      ],
      "commands": [
        [
          "set_temp_var",
          199,
          0,
          25939,
          17268,
          30063,
          0
        ]
      ]
    },
    {
      "triggers": [
        [
          "on_temp_var_eq",
          199,
          8,
          0,
          28483,
          28277,
          0
        ]
      ],
      "commands": [
        [
          "say_text",
          8,
          0,
          26707,
          30575,
          25940,
          49
        ],
        [
          "set_temp_var",
          0,
          0,
          25939,
          17268,
          30063,
          0
        ]
      ]
    },
    {
      "triggers": [
        [
          "on_bump_tile",
          8,
          5,
          1605,
          25938,
          28525,
          0
        ],
        [
          "on_check_map_tile_var",
          1,
          5,
          5,
          0,
          0,
          0
        ]
      ],
      "commands": [
        [
          "show_text",
          8,
          5,
          0,
          0,
          0,
          83
        ],
        [
          "set_temp_var",
          55,
          0,
          0,
          0,
          0,
          0
        ]
      ]
    },
    {
      "triggers": [
        [
          "on_bump_tile",
          8,
          5,
          1605,
          25938,
          28525,
          0
        ],
        [
          "on_check_map_tile_var",
          0,
          5,
          5,
          0,
          0,
          0
        ]
      ],
      "commands": [
        [
          "show_text",
          8,
          5,
          0,
          0,
          0,
          38
        ],
        [
          "set_temp_var",
          55,
          0,
          0,
          0,
          0,
          0
        ]
      ]
    },
    {
      "triggers": [
        [
          "on_temp_var_eq",
          55,
          0,
          0,
          0,
          0,
          0
        ]
      ],
      "commands": [
        [
          "render_changes",
          0,
          0,
          0,
          0,
          44356,
          0
        ],
        [
          "wait_ticks",
          3,
          0,
          0,
          0,
          0,
          0
        ],
        [
          "set_tile",
          8,
          5,
          1,
          1616,
          20500,
          0
        ],
        [
          "redraw_tile",
          8,
          5,
          0,
          0,
          0,
          0
        ],
        [
          "render_changes",
          0,
          0,
          0,
          0,
          0,
          0
        ],
        [
          "wait_ticks",
          3,
          0,
          44624,
          183,
          0,
          0
        ],
        [
          "move_map_tile",
          8,
          5,
          1,
          9,
          5,
          0
        ],
        [
          "redraw_tiles",
          8,
          5,
          9,
          5,
          0,
          0
        ],
        [
          "render_changes",
          0,
          0,
          41780,
          183,
          0,
          0
        ],
        [
          "wait_ticks",
          3,
          0,
          0,
          0,
          0,
          0
        ],
        [
          "move_map_tile",
          9,
          5,
          1,
          10,
          5,
          0
        ],
        [
          "redraw_tiles",
          9,
          5,
          10,
          5,
          0,
          0
        ],
        [
          "render_changes",
          2376,
          0,
          42640,
          183,
          42732,
          0
        ],
        [
          "wait_ticks",
          3,
          0,
          0,
          0,
          0,
          0
        ],
        [
          "clear_tile",
          10,
          5,
          1,
          0,
          0,
          0
        ],
        [
          "clear_tile",
          11,
          5,
          1,
          183,
          41972,
          0
        ],
        [
          "redraw_tiles",
          10,
          5,
          11,
          5,
          0,
          0
        ],
        [
          "render_changes",
          0,
          0,
          44356,
          183,
          41868,
          0
        ],
        [
          "wait_ticks",
          3,
          0,
          0,
          0,
          0,
          0
        ],
        [
          "show_object",
          0,
          0,
          2376,
          0,
          41936,
          0
        ],
        [
          "set_map_tile_var",
          8,
          4,
          0,
          1,
          0,
          0
        ],
        [
          "set_temp_var",
          0,
          0,
          0,
          0,
          0,
          0
        ]
      ]
    },
    {
      "triggers": [
        [
          "on_bump_tile",
          8,
          8,
          355,
          30018,
          28781,
          0
        ]
      ],
      "commands": [
        [
          "set_temp_var",
          200,
          0,
          25939,
          17268,
          30063,
          0
        ]
      ]
    },
    {
      "triggers": [
        [
          "on_bump_tile",
          9,
          8,
          355,
          30018,
          28781,
          0
        ]
      ],
      "commands": [
        [
          "set_temp_var",
          200,
          0,
          25939,
          17268,
          30063,
          0
        ]
      ]
    },
    {
      "triggers": [
        [
          "on_bump_tile",
          7,
          11,
          355,
          30018,
          28781,
          0
        ]
      ],
      "commands": [
        [
          "set_temp_var",
          200,
          0,
          25939,
          17268,
          30063,
          0
        ]
      ]
    },
    {
      "triggers": [
        [
          "on_bump_tile",
          8,
          11,
          929,
          30018,
          28781,
          0
        ]
      ],
      "commands": [
        [
          "set_temp_var",
          200,
          0,
          25939,
          17268,
          30063,
          0
        ]
      ]
    },
    {
      "triggers": [
        [
          "on_bump_tile",
          10,
          9,
          920,
          30018,
          28781,
          0
        ]
      ],
      "commands": [
        [
          "set_temp_var",
          200,
          0,
          25939,
          17268,
          30063,
          0
        ]
      ]
    },
    {
      "triggers": [
        [
          "on_bump_tile",
          10,
          11,
          930,
          30018,
          28781,
          0
        ]
      ],
      "commands": [
        [
          "set_temp_var",
          200,
          0,
          25939,
          17268,
          30063,
          0
        ]
      ]
    },
    {
      "triggers": [
        [
          "on_bump_tile",
          10,
          10,
          928,
          30018,
          28781,
          0
        ]
      ],
      "commands": [
        [
          "set_temp_var",
          200,
          0,
          25939,
          17268,
          30063,
          0
        ]
      ]
    },
    {
      "triggers": [
        [
          "on_bump_tile",
          8,
          12,
          355,
          30018,
          28781,
          0
        ]
      ],
      "commands": [
        [
          "set_temp_var",
          200,
          0,
          25939,
          17268,
          30063,
          0
        ]
      ]
    },
    {
      "triggers": [
        [
          "on_bump_tile",
          9,
          12,
          355,
          30018,
          28781,
          0
        ]
      ],
      "commands": [
        [
          "set_temp_var",
          200,
          0,
          25939,
          17268,
          30063,
          0
        ]
      ]
    },
    {
      "triggers": [
        [
          "on_bump_tile",
          10,
          12,
          355,
          30018,
          28781,
          0
        ]
      ],
      "commands": [
        [
          "set_temp_var",
          200,
          0,
          25939,
          17268,
          30063,
          0
        ]
      ]
    },
    {
      "triggers": [
        [
          "on_temp_var_eq",
          200,
          8,
          0,
          28483,
          28277,
          0
        ],
        [
          "on_check_map_tile",
          1665,
          8,
          9,
          1,
          25964,
          0
        ],
        [
          "on_check_map_tile_var",
          1,
          3,
          6,
          0,
          25697,
          0
        ]
      ],
      "commands": [
        [
          "say_text",
          8,
          0,
          26707,
          30575,
          25940,
          29
        ],
        [
          "set_temp_var",
          0,
          0,
          25939,
          17268,
          30063,
          0
        ]
      ]
    },
    {
      "triggers": [
        [
          "on_temp_var_eq",
          200,
          8,
          0,
          28483,
          28277,
          0
        ],
        [
          "on_check_map_tile",
          1665,
          8,
          9,
          1,
          25964,
          0
        ],
        [
          "on_check_map_tile_var",
          0,
          3,
          6,
          0,
          25697,
          0
        ]
      ],
      "commands": [
        [
          "say_text",
          8,
          0,
          26707,
          30575,
          25940,
          69
        ],
        [
          "set_temp_var",
          0,
          0,
          25939,
          17268,
          30063,
          0
        ],
        [
          "set_map_tile_var",
          3,
          6,
          0,
          1,
          18004,
          0
        ]
      ]
    },
    {
      "triggers": [
        [
          "on_temp_var_eq",
          200,
          8,
          0,
          28483,
          28277,
          0
        ],
        [
          "on_check_map_tile",
          923,
          8,
          9,
          1,
          25964,
          0
        ],
        [
          "on_check_map_tile_var",
          2,
          3,
          6,
          0,
          25697,
          0
        ],
        [
          "on_check_map_tile",
          1605,
          8,
          5,
          1,
          0,
          0
        ],
        [
          "on_check_map_tile_var",
          0,
          5,
          5,
          0,
          0,
          0
        ]
      ],
      "commands": [
        [
          "say_text",
          8,
          0,
          26707,
          30575,
          25940,
          23
        ],
        [
          "set_temp_var",
          0,
          0,
          25939,
          17268,
          30063,
          0
        ]
      ]
    },
    {
      "triggers": [
        [
          "on_temp_var_eq",
          200,
          8,
          0,
          28483,
          28277,
          0
        ],
        [
          "on_check_map_tile",
          923,
          8,
          9,
          1,
          25964,
          0
        ],
        [
          "on_check_map_tile_var",
          1,
          3,
          6,
          0,
          25697,
          0
        ],
        [
          "on_check_map_tile",
          1605,
          8,
          5,
          1,
          28277,
          0
        ],
        [
          "on_check_map_tile_var",
          0,
          5,
          5,
          0,
          25697,
          0
        ]
      ],
      "commands": [
        [
          "say_text",
          8,
          0,
          26707,
          30575,
          25940,
          30
        ],
        [
          "set_temp_var",
          0,
          0,
          25939,
          17268,
          30063,
          0
        ],
        [
          "set_map_tile_var",
          3,
          6,
          0,
          2,
          18004,
          0
        ]
      ]
    },
    {
      "triggers": [
        [
          "on_temp_var_neq",
          0,
          40432,
          163,
          62912,
          183,
          0
        ]
      ],
      "commands": [
        [
          "set_temp_var",
          0,
          0,
          0,
          0,
          0,
          0
        ]
      ]
    },
    {
      "triggers": [
        [
          "on_drag_item",
          8,
          9,
          1,
          1665,
          511,
          0
        ],
        [
          "on_check_map_tile_var",
          0,
          15,
          12,
          0,
          0,
          0
        ]
      ],
      "commands": [
        [
          "set_temp_var",
          210,
          0,
          25939,
          17268,
          30063,
          0
        ],
        [
          "set_map_tile_var",
          15,
          12,
          0,
          1,
          0,
          0
        ]
      ]
    },
    {
      "triggers": [
        [
          "on_drag_item",
          9,
          10,
          1,
          1814,
          511,
          0
        ],
        [
          "on_check_map_tile_var",
          0,
          15,
          12,
          0,
          0,
          0
        ]
      ],
      "commands": [
        [
          "set_temp_var",
          210,
          0,
          25939,
          17268,
          30063,
          0
        ],
        [
          "set_map_tile_var",
          15,
          12,
          0,
          1,
          0,
          0
        ]
      ]
    },
    {
      "triggers": [
        [
          "on_temp_var_eq",
          210,
          8,
          0,
          28483,
          28277,
          0
        ]
      ],
      "commands": [
        [
          "set_temp_var",
          0,
          0,
          25939,
          17268,
          30063,
          0
        ],
        [
          "set_map_tile_var",
          15,
          12,
          0,
          0,
          0,
          0
        ],
        [
          "say_text",
          8,
          0,
          26707,
          30575,
          25940,
          50
        ]
      ]
    }
  ],
  "tilemap": [
    [
      [
        403,
        65535,
        65535
      ],
      [
        859,
        65535,
        871
      ],
      [
        860,
        65535,
        872
      ],
      [
        861,
        65535,
        873
      ],
      [
        403,
        65535,
        65535
      ],
      [
        1577,
        65535,
        65535
      ],
      [
        403,
        65535,
        65535
      ],
      [
        859,
        65535,
        871
      ],
      [
        860,
        65535,
        872
      ],
      [
        860,
        65535,
        872
      ],
      [
        860,
        65535,
        872
      ],
      [
        861,
        65535,
        873
      ],
      [
        403,
        65535,
        65535
      ],
      [
        1576,
        65535,
        65535
      ],
      [
        403,
        65535,
        933
      ],
      [
        403,
        65535,
        65535
      ],
      [
        1577,
        65535,
        65535
      ],
      [
        403,
        65535,
        65535
      ]
    ],
    [
      [
        403,
        65535,
        65535
      ],
      [
        865,
        65535,
        874
      ],
      [
        403,
        65535,
        888
      ],
      [
        403,
        65535,
        885
      ],
      [
        403,
        65535,
        65535
      ],
      [
        859,
        65535,
        871
      ],
      [
        860,
        65535,
        872
      ],
      [
        867,
        65535,
        877
      ],
      [
        858,
        892,
        875
      ],
      [
        858,
        892,
        875
      ],
      [
        858,
        892,
        875
      ],
      [
        868,
        65535,
        878
      ],
      [
        861,
        65535,
        873
      ],
      [
        403,
        65535,
        65535
      ],
      [
        403,
        898,
        65535
      ],
      [
        403,
        65535,
        1139
      ],
      [
        403,
        65535,
        933
      ],
      [
        403,
        65535,
        65535
      ]
    ],
    [
      [
        1578,
        65535,
        65535
      ],
      [
        865,
        65535,
        883
      ],
      [
        403,
        892,
        885
      ],
      [
        403,
        893,
        65535
      ],
      [
        859,
        65535,
        871
      ],
      [
        867,
        65535,
        877
      ],
      [
        858,
        892,
        875
      ],
      [
        858,
        892,
        875
      ],
      [
        858,
        892,
        875
      ],
      [
        858,
        892,
        875
      ],
      [
        403,
        892,
        875
      ],
      [
        858,
        892,
        875
      ],
      [
        868,
        65535,
        878
      ],
      [
        860,
        65535,
        872
      ],
      [
        861,
        65535,
        873
      ],
      [
        403,
        1140,
        65535
      ],
      [
        403,
        898,
        65535
      ],
      [
        403,
        65535,
        65535
      ]
    ],
    [
      [
        403,
        65535,
        65535
      ],
      [
        879,
        891,
        65535
      ],
      [
        897,
        893,
        65535
      ],
      [
        881,
        65535,
        871
      ],
      [
        867,
        65535,
        877
      ],
      [
        403,
        892,
        875
      ],
      [
        403,
        892,
        875
      ],
      [
        403,
        892,
        888
      ],
      [
        858,
        892,
        884
      ],
      [
        858,
        892,
        884
      ],
      [
        403,
        892,
        884
      ],
      [
        403,
        892,
        887
      ],
      [
        858,
        892,
        875
      ],
      [
        858,
        892,
        875
      ],
      [
        868,
        65535,
        878
      ],
      [
        861,
        65535,
        873
      ],
      [
        1576,
        65535,
        65535
      ],
      [
        403,
        65535,
        65535
      ]
    ],
    [
      [
        403,
        65535,
        65535
      ],
      [
        879,
        65535,
        65535
      ],
      [
        881,
        65535,
        871
      ],
      [
        867,
        65535,
        877
      ],
      [
        858,
        892,
        888
      ],
      [
        858,
        892,
        886
      ],
      [
        858,
        892,
        884
      ],
      [
        403,
        892,
        885
      ],
      [
        0,
        892,
        65535
      ],
      [
        858,
        892,
        65535
      ],
      [
        403,
        892,
        871
      ],
      [
        403,
        892,
        877
      ],
      [
        858,
        892,
        875
      ],
      [
        858,
        892,
        875
      ],
      [
        403,
        65535,
        888
      ],
      [
        866,
        65535,
        885
      ],
      [
        403,
        65535,
        65535
      ],
      [
        1578,
        65535,
        65535
      ]
    ],
    [
      [
        403,
        65535,
        65535
      ],
      [
        1577,
        65535,
        65535
      ],
      [
        865,
        65535,
        883
      ],
      [
        403,
        892,
        884
      ],
      [
        403,
        892,
        885
      ],
      [
        0,
        894,
        65535
      ],
      [
        403,
        892,
        65535
      ],
      [
        897,
        893,
        65535
      ],
      [
        880,
        65535,
        65535
      ],
      [
        880,
        65535,
        65535
      ],
      [
        880,
        65535,
        883
      ],
      [
        858,
        892,
        886
      ],
      [
        403,
        892,
        887
      ],
      [
        403,
        892,
        888
      ],
      [
        403,
        892,
        885
      ],
      [
        881,
        893,
        65535
      ],
      [
        403,
        65535,
        65535
      ],
      [
        403,
        65535,
        65535
      ]
    ],
    [
      [
        403,
        65535,
        65535
      ],
      [
        403,
        65535,
        65535
      ],
      [
        879,
        891,
        65535
      ],
      [
        0,
        892,
        65535
      ],
      [
        897,
        893,
        65535
      ],
      [
        882,
        65535,
        65535
      ],
      [
        880,
        65535,
        65535
      ],
      [
        881,
        65535,
        65535
      ],
      [
        403,
        65535,
        65535
      ],
      [
        403,
        65535,
        65535
      ],
      [
        403,
        891,
        65535
      ],
      [
        880,
        894,
        65535
      ],
      [
        880,
        892,
        883
      ],
      [
        880,
        892,
        885
      ],
      [
        897,
        893,
        65535
      ],
      [
        881,
        65535,
        65535
      ],
      [
        403,
        65535,
        65535
      ],
      [
        403,
        65535,
        65535
      ]
    ],
    [
      [
        403,
        65535,
        65535
      ],
      [
        403,
        65535,
        65535
      ],
      [
        879,
        65535,
        65535
      ],
      [
        880,
        65535,
        65535
      ],
      [
        881,
        65535,
        65535
      ],
      [
        403,
        65535,
        65535
      ],
      [
        859,
        65535,
        65535
      ],
      [
        861,
        65535,
        65535
      ],
      [
        403,
        65535,
        65535
      ],
      [
        403,
        65535,
        65535
      ],
      [
        879,
        65535,
        65535
      ],
      [
        882,
        65535,
        65535
      ],
      [
        880,
        891,
        65535
      ],
      [
        897,
        893,
        65535
      ],
      [
        881,
        65535,
        65535
      ],
      [
        403,
        65535,
        65535
      ],
      [
        403,
        65535,
        933
      ],
      [
        403,
        65535,
        65535
      ]
    ],
    [
      [
        403,
        65535,
        65535
      ],
      [
        403,
        65535,
        65535
      ],
      [
        403,
        65535,
        65535
      ],
      [
        403,
        65535,
        1139
      ],
      [
        403,
        65535,
        65535
      ],
      [
        859,
        65535,
        65535
      ],
      [
        867,
        65535,
        65535
      ],
      [
        868,
        355,
        65535
      ],
      [
        860,
        355,
        65535
      ],
      [
        860,
        355,
        65535
      ],
      [
        860,
        355,
        65535
      ],
      [
        861,
        65535,
        65535
      ],
      [
        879,
        65535,
        65535
      ],
      [
        881,
        65535,
        65535
      ],
      [
        403,
        65535,
        65535
      ],
      [
        403,
        65535,
        65535
      ],
      [
        403,
        898,
        65535
      ],
      [
        403,
        65535,
        65535
      ]
    ],
    [
      [
        1579,
        65535,
        65535
      ],
      [
        403,
        65535,
        65535
      ],
      [
        403,
        65535,
        65535
      ],
      [
        403,
        1140,
        65535
      ],
      [
        403,
        65535,
        65535
      ],
      [
        865,
        65535,
        65535
      ],
      [
        403,
        919,
        65535
      ],
      [
        379,
        923,
        65535
      ],
      [
        923,
        1665,
        65535
      ],
      [
        923,
        1666,
        65535
      ],
      [
        860,
        920,
        65535
      ],
      [
        868,
        65535,
        65535
      ],
      [
        860,
        65535,
        65535
      ],
      [
        861,
        65535,
        65535
      ],
      [
        859,
        65535,
        871
      ],
      [
        403,
        65535,
        873
      ],
      [
        403,
        65535,
        65535
      ],
      [
        403,
        65535,
        65535
      ]
    ],
    [
      [
        403,
        65535,
        65535
      ],
      [
        859,
        65535,
        871
      ],
      [
        861,
        65535,
        873
      ],
      [
        403,
        65535,
        65535
      ],
      [
        859,
        65535,
        65535
      ],
      [
        867,
        65535,
        65535
      ],
      [
        921,
        355,
        65535
      ],
      [
        403,
        929,
        65535
      ],
      [
        1667,
        1813,
        65535
      ],
      [
        1668,
        1814,
        65535
      ],
      [
        403,
        928,
        65535
      ],
      [
        868,
        920,
        65535
      ],
      [
        870,
        65535,
        65535
      ],
      [
        864,
        65535,
        65535
      ],
      [
        403,
        891,
        883
      ],
      [
        868,
        65535,
        887
      ],
      [
        403,
        65535,
        873
      ],
      [
        403,
        65535,
        65535
      ]
    ],
    [
      [
        403,
        65535,
        65535
      ],
      [
        865,
        65535,
        874
      ],
      [
        868,
        65535,
        878
      ],
      [
        861,
        65535,
        873
      ],
      [
        862,
        65535,
        65535
      ],
      [
        863,
        65535,
        65535
      ],
      [
        869,
        65535,
        65535
      ],
      [
        921,
        355,
        65535
      ],
      [
        403,
        929,
        65535
      ],
      [
        403,
        918,
        65535
      ],
      [
        403,
        930,
        65535
      ],
      [
        922,
        355,
        65535
      ],
      [
        866,
        65535,
        65535
      ],
      [
        403,
        65535,
        65535
      ],
      [
        859,
        891,
        871
      ],
      [
        867,
        892,
        877
      ],
      [
        403,
        893,
        876
      ],
      [
        403,
        65535,
        65535
      ]
    ],
    [
      [
        403,
        65535,
        65535
      ],
      [
        865,
        891,
        883
      ],
      [
        403,
        892,
        887
      ],
      [
        866,
        65535,
        876
      ],
      [
        403,
        65535,
        65535
      ],
      [
        1578,
        65535,
        65535
      ],
      [
        862,
        65535,
        65535
      ],
      [
        869,
        65535,
        65535
      ],
      [
        921,
        355,
        65535
      ],
      [
        924,
        355,
        65535
      ],
      [
        922,
        355,
        65535
      ],
      [
        870,
        65535,
        65535
      ],
      [
        864,
        65535,
        65535
      ],
      [
        859,
        65535,
        871
      ],
      [
        403,
        65535,
        888
      ],
      [
        0,
        892,
        884
      ],
      [
        866,
        65535,
        885
      ],
      [
        403,
        65535,
        65535
      ]
    ],
    [
      [
        403,
        65535,
        65535
      ],
      [
        403,
        891,
        65535
      ],
      [
        403,
        892,
        883
      ],
      [
        866,
        893,
        885
      ],
      [
        403,
        65535,
        65535
      ],
      [
        403,
        65535,
        65535
      ],
      [
        403,
        65535,
        65535
      ],
      [
        865,
        65535,
        65535
      ],
      [
        870,
        65535,
        65535
      ],
      [
        863,
        65535,
        65535
      ],
      [
        863,
        65535,
        65535
      ],
      [
        864,
        65535,
        933
      ],
      [
        1577,
        65535,
        65535
      ],
      [
        865,
        65535,
        883
      ],
      [
        403,
        892,
        885
      ],
      [
        403,
        892,
        65535
      ],
      [
        881,
        893,
        65535
      ],
      [
        403,
        65535,
        65535
      ]
    ],
    [
      [
        403,
        65535,
        65535
      ],
      [
        879,
        65535,
        65535
      ],
      [
        880,
        891,
        65535
      ],
      [
        881,
        893,
        65535
      ],
      [
        403,
        65535,
        944
      ],
      [
        403,
        65535,
        945
      ],
      [
        403,
        65535,
        946
      ],
      [
        862,
        65535,
        65535
      ],
      [
        864,
        65535,
        65535
      ],
      [
        403,
        65535,
        65535
      ],
      [
        403,
        65535,
        65535
      ],
      [
        403,
        898,
        65535
      ],
      [
        403,
        65535,
        65535
      ],
      [
        403,
        891,
        65535
      ],
      [
        897,
        893,
        65535
      ],
      [
        880,
        65535,
        65535
      ],
      [
        881,
        65535,
        65535
      ],
      [
        403,
        65535,
        65535
      ]
    ],
    [
      [
        1578,
        65535,
        65535
      ],
      [
        403,
        65535,
        65535
      ],
      [
        879,
        65535,
        65535
      ],
      [
        881,
        65535,
        65535
      ],
      [
        403,
        65535,
        941
      ],
      [
        403,
        65535,
        900
      ],
      [
        403,
        65535,
        943
      ],
      [
        1579,
        65535,
        65535
      ],
      [
        403,
        65535,
        65535
      ],
      [
        403,
        65535,
        65535
      ],
      [
        403,
        65535,
        65535
      ],
      [
        403,
        65535,
        65535
      ],
      [
        403,
        65535,
        65535
      ],
      [
        879,
        65535,
        65535
      ],
      [
        881,
        65535,
        65535
      ],
      [
        403,
        65535,
        1139
      ],
      [
        403,
        65535,
        65535
      ],
      [
        1579,
        65535,
        65535
      ]
    ],
    [
      [
        403,
        65535,
        65535
      ],
      [
        403,
        65535,
        65535
      ],
      [
        403,
        65535,
        65535
      ],
      [
        403,
        65535,
        65535
      ],
      [
        403,
        65535,
        65535
      ],
      [
        403,
        901,
        65535
      ],
      [
        403,
        65535,
        65535
      ],
      [
        403,
        65535,
        65535
      ],
      [
        403,
        65535,
        65535
      ],
      [
        403,
        65535,
        65535
      ],
      [
        403,
        65535,
        65535
      ],
      [
        403,
        65535,
        65535
      ],
      [
        403,
        65535,
        65535
      ],
      [
        403,
        65535,
        65535
      ],
      [
        403,
        65535,
        65535
      ],
      [
        403,
        1140,
        65535
      ],
      [
        403,
        65535,
        65535
      ],
      [
        403,
        65535,
        65535
      ]
    ],
    [
      [
        403,
        65535,
        65535
      ],
      [
        403,
        65535,
        65535
      ],
      [
        403,
        65535,
        65535
      ],
      [
        403,
        65535,
        65535
      ],
      [
        1577,
        65535,
        65535
      ],
      [
        403,
        65535,
        65535
      ],
      [
        403,
        65535,
        65535
      ],
      [
        403,
        65535,
        65535
      ],
      [
        403,
        65535,
        65535
      ],
      [
        403,
        65535,
        65535
      ],
      [
        403,
        65535,
        65535
      ],
      [
        403,
        65535,
        65535
      ],
      [
        1577,
        65535,
        65535
      ],
      [
        403,
        65535,
        65535
      ],
      [
        403,
        65535,
        65535
      ],
      [
        403,
        65535,
        65535
      ],
      [
        403,
        65535,
        65535
      ],
      [
        403,
        65535,
        65535
      ]
    ],
    []
  ]
}