{
  "zoneId": 477,
  "zoneType": 3,
  "width": 9,
  "height": 9,
  "type": 8,
  "world": 3,
  "objects": [
    {
      "type": 10,
      "x": 3,
      "y": 8,
      "unknown": 1,
      "param": 65535
    }
  ],
  "actions": [
    {
      "triggers": [
        [
          "on_first_enter",
          0,
          0,
          0,
          0,
          0,
          0
        ],
        [
          "on_has_item",
          421,
          0,
          0,
          0,
          0,
          0
        ]
      ],
      "commands": [
        [
          "set_map_tile_var",
          2,
          2,
          0,
          1,
          0,
          0
        ]
      ]
    },
    {
      "triggers": [
        [
          "on_enter",
          0,
          0,
          0,
          0,
          0,
          0
        ],
        [
          "on_has_item",
          421,
          0,
          0,
          0,
          0,
          0
        ],
        [
          "on_check_map_tile_var",
          3,
          2,
          2,
          0,
          179,
          0
        ]
      ],
      "commands": [
        [
          "set_map_tile_var",
          2,
          2,
          0,
          4,
          0,
          0
        ]
      ]
    },
    {
      "triggers": [
        [
          "on_first_enter",
          0,
          0,
          0,
          0,
          0,
          0
        ],
        [
          "on_experience_gt",
          2,
          0,
          0,
          0,
          0,
          0
        ]
      ],
      "commands": [
        [
          "set_map_tile_var",
          2,
          2,
          0,
          2,
          0,
          0
        ]
      ]
    },
    {
      "triggers": [
        [
          "on_first_enter",
          0,
          0,
          0,
          0,
          0,
          0
        ],
        [
          "on_check_start_item",
          1788,
          0,
          0,
          0,
          0,
          0
        ]
      ],
      "commands": [
        [
          "set_map_tile_var",
          2,
          2,
          0,
          4,
          2808,
          0
        ]
      ]
    },
    {
      "triggers": [
        [
          "on_enter",
          0,
          0,
          0,
          0,
          0,
          0
        ]
      ],
      "commands": [
        [
          "set_map_tile_var",
          3,
          2,
          0,
          0,
          24468,
          0
        ]
      ]
    },
    {
      "triggers": [
        [
          "on_bump_tile",
          3,
          3,
          797,
          30018,
          28781,
          0
        ],
        [
          "on_health_gt",
          200,
          0,
          0,
          604,
          0,
          0
        ],
        [
          "on_check_map_tile_var",
          1,
          3,
          2,
          0,
          0,
          0
        ]
      ],
      "commands": [
        [
          "show_text",
          3,
          3,
          26707,
          30575,
          25940,
          30
        ]
      ]
    },
    {
      "triggers": [
        [
          "on_bump_tile",
          3,
          3,
          797,
          30018,
          28781,
          0
        ],
        [
          "on_health_gt",
          200,
          0,
          0,
          604,
          0,
          0
        ],
        [
          "on_check_map_tile_var",
          2,
          3,
          2,
          0,
          0,
          0
        ]
      ],
      "commands": [
        [
          "show_text",
          3,
          3,
          26707,
          30575,
          25940,
          68
        ]
      ]
    },
    {
      "triggers": [
        [
          "on_bump_tile",
          3,
          3,
          797,
          0,
          0,
          0
        ],
        [
          "on_game_complete",
          0,
          21,
          0,
          25938,
          25697,
          0
        ],
        [
          "on_check_map_tile_var",
          0,
          3,
          2,
          0,
          0,
          0
        ]
      ],
      "commands": [
        [
          "show_text",
          3,
          3,
          26707,
          30575,
          25940,
          39
        ],
        [
          "set_map_tile_var",
          2,
          2,
          0,
          5,
          0,
          0
        ]
      ]
    },
    {
      "triggers": [
        [
          "on_bump_tile",
          3,
          3,
          797,
          0,
          0,
          0
        ],
        [
          "on_health_lt",
          299,
          11,
          0,
          25928,
          28530,
          0
        ],
        [
          "on_game_complete",
          0,
          0,
          0,
          27088,
          179,
          0
        ],
        [
          "on_check_map_tile_var",
          0,
          3,
          2,
          0,
          0,
          0
        ]
      ],
      "commands": [
        [
          "add_health",
          300,
          0,
          25665,
          21604,
          18543,
          0
        ],
        [
          "play_sound",
          0,
          0,
          27728,
          31073,
          28499,
          0
        ],
        [
          "set_map_tile_var",
          0,
          0,
          0,
          1,
          0,
          0
        ]
      ]
    },
    {
      "triggers": [
        [
          "on_bump_tile",
          3,
          3,
          797,
          30018,
          28781,
          0
        ],
        [
          "on_health_lt",
          100,
          0,
          0,
          0,
          0,
          0
        ],
        [
          "on_check_map_tile_var",
          4,
          2,
          2,
          0,
          0,
          0
        ]
      ],
      "commands": [
        [
          "show_text",
          3,
          3,
          26707,
          30575,
          25940,
          87
        ],
        [
          "add_health",
          300,
          0,
          25665,
          21604,
          18543,
          0
        ],
        [
          "play_sound",
          0,
          0,
          27728,
          31073,
          28499,
          0
        ],
        [
          "set_map_tile_var",
          3,
          2,
          0,
          2,
          0,
          0
        ],
        [
          "set_map_tile_var",
          0,
          0,
          0,
          1,
          20500,
          0
        ]
      ]
    },
    {
      "triggers": [
        [
          "on_bump_tile",
          3,
          3,
          797,
          30018,
          28781,
          0
        ],
        [
          "on_health_gt",
          99,
          0,
          0,
          3828,
          0,
          0
        ],
        [
          "on_health_lt",
          201,
          0,
          0,
          0,
          0,
          0
        ],
        [
          "on_check_map_tile_var",
          4,
          2,
          2,
          0,
          0,
          0
        ]
      ],
      "commands": [
        [
          "show_text",
          3,
          3,
          26707,
          30575,
          25940,
          79
        ],
        [
          "add_health",
          300,
          0,
          25665,
          21604,
          18543,
          0
        ],
        [
          "play_sound",
          0,
          0,
          27728,
          31073,
          28499,
          0
        ],
        [
          "set_map_tile_var",
          3,
          2,
          0,
          1,
          0,
          0
        ],
        [
          "set_map_tile_var",
          0,
          0,
          0,
          1,
          3420,
          0
        ]
      ]
    },
    {
      "triggers": [
        [
          "on_bump_tile",
          3,
          3,
          797,
          30018,
          28781,
          0
        ],
        [
          "on_health_gt",
          200,
          0,
          0,
          0,
          0,
          0
        ],
        [
          "on_health_lt",
          250,
          0,
          0,
          0,
          0,
          0
        ],
        [
          "on_check_map_tile_var",
          4,
          2,
          2,
          0,
          0,
          0
        ],
        [
          "on_check_map_tile_var",
          0,
          3,
          2,
          0,
          0,
          0
        ]
      ],
      "commands": [
        [
          "show_text",
          3,
          3,
          26707,
          30575,
          25940,
          86
        ]
      ]
    },
    {
      "triggers": [
        [
          "on_bump_tile",
          3,
          3,
          797,
          30018,
          28781,
          0
        ],
        [
          "on_health_gt",
          250,
          0,
          0,
          0,
          0,
          0
        ],
        [
          "on_check_map_tile_var",
          4,
          2,
          2,
          0,
          0,
          0
        ],
        [
          "on_check_map_tile_var",
          0,
          3,
          2,
          0,
          0,
          0
        ]
      ],
      "commands": [
        [
          "show_text",
          3,
          3,
          26707,
          30575,
          25940,
          58
        ]
      ]
    },
    {
      "triggers": [
        [
          "on_bump_tile",
          3,
          3,
          797,
          30018,
          28781,
          0
        ],
        [
          "on_health_gt",
          200,
          0,
          0,
          0,
          0,
          0
        ],
        [
          "on_check_map_tile_var",
          3,
          2,
          2,
          0,
          0,
          0
        ],
        [
          "on_check_map_tile_var",
          0,
          3,
          2,
          0,
          0,
          0
        ]
      ],
      "commands": [
        [
          "show_text",
          3,
          3,
          26707,
          30575,
          25940,
          91
        ]
      ]
    },
    {
      "triggers": [
        [
          "on_bump_tile",
          3,
          3,
          797,
          30018,
          28781,
          0
        ],
        [
          "on_check_map_tile_var",
          2,
          2,
          2,
          0,
          0,
          0
        ],
        [
          "on_check_map_tile_var",
          0,
          3,
          2,
          0,
          0,
          0
        ]
      ],
      "commands": [
        [
          "show_text",
          3,
          3,
          26707,
          30575,
          25940,
          95
        ],
        [
          "set_map_tile_var",
          2,
          2,
          0,
          4,
          28257,
          0
        ]
      ]
    },
    {
      "triggers": [
        [
          "on_bump_tile",
          3,
          3,
          797,
          30018,
          28781,
          0
        ],
        [
          "on_check_map_tile_var",
          1,
          2,
          2,
          0,
          0,
          0
        ],
        [
          "on_check_map_tile_var",
          0,
          3,
          2,
          0,
          0,
          0
        ]
      ],
      "commands": [
        [
          "show_text",
          3,
          3,
          26707,
          30575,
          25940,
          393
        ],
        [
          "set_map_tile_var",
          2,
          2,
          0,
          4,
          28257,
          0
        ]
      ]
    },
    {
      "triggers": [
        [
          "on_bump_tile",
          3,
          3,
          797,
          30018,
          28781,
          0
        ],
        [
          "on_check_map_tile_var",
          0,
          2,
          2,
          0,
          0,
          0
        ],
        [
          "on_check_map_tile_var",
          0,
          3,
          2,
          0,
          0,
          0
        ]
      ],
      "commands": [
        [
          "show_text",
          3,
          3,
          26707,
          30575,
          25940,
          537
        ],
        [
          "set_map_tile_var",
          2,
          2,
          0,
          3,
          28257,
          0
        ]
      ]
    },
    {
      "triggers": [
        [
          "on_bump_tile",
          3,
          3,
          797,
          30018,
          28781,
          0
        ],
        [
          "on_health_lt",
          200,
          0,
          0,
          0,
          0,
          0
        ],
        [
          "on_check_map_tile_var",
          3,
          2,
          2,
          0,
          0,
          0
        ],
        [
          "on_check_map_tile_var",
          0,
          3,
          2,
          0,
          0,
          0
        ]
      ],
      "commands": [
        [
          "set_map_tile_var",
          2,
          2,
          0,
          4,
          0,
          0
        ]
      ]
    },
    {
      "triggers": [
        [
          "on_check_map_tile_var",
          1,
          0,
          0,
          0,
          0,
          0
        ],
        [
          "on_player_at_pos",
          3,
          4,
          0,
          38168,
          188,
          0
        ]
      ],
      "commands": [
        [
          "set_tile",
          3,
          4,
          2,
          1429,
          0,
          0
        ],
        [
          "redraw_tile",
          3,
          4,
          0,
          0,
          0,
          0
        ],
        [
          "render_changes",
          0,
          0,
          0,
          0,
          0,
          0
        ],
        [
          "wait_ticks",
          2,
          13356,
          8233,
          12832,
          8224,
          0
        ],
        [
          "set_tile",
          3,
          4,
          2,
          1430,
          39996,
          0
        ],
        [
          "redraw_tile",
          3,
          4,
          0,
          0,
          0,
          0
        ],
        [
          "render_changes",
          0,
          0,
          0,
          0,
          0,
          0
        ],
        [
          "wait_ticks",
          2,
          0,
          0,
          0,
          0,
          0
        ],
        [
          "set_tile",
          3,
          4,
          2,
          1431,
          0,
          0
        ],
        [
          "redraw_tile",
          3,
          4,
          0,
          0,
          20500,
          0
        ],
        [
          "render_changes",
          11,
          0,
          24919,
          29801,
          28486,
          0
        ],
        [
          "wait_ticks",
          2,
          0,
          0,
          0,
          0,
          0
        ],
        [
          "set_tile",
          3,
          4,
          2,
          1429,
          0,
          0
        ],
        [
          "redraw_tile",
          3,
          4,
          0,
          0,
          20500,
          0
        ],
        [
          "render_changes",
          0,
          0,
          0,
          0,
          0,
          0
        ],
        [
          "wait_ticks",
          2,
          0,
          0,
          0,
          0,
          0
        ],
        [
          "set_tile",
          3,
          4,
          2,
          1430,
          0,
          0
        ],
        [
          "redraw_tile",
          3,
          4,
          0,
          0,
          0,
          0
        ],
        [
          "render_changes",
          0,
          0,
          25939,
          18548,
          0,
          0
        ],
        [
          "wait_ticks",
          2,
          0,
          0,
          0,
          0,
          0
        ],
        [
          "set_tile",
          3,
          4,
          2,
          1431,
          0,
          0
        ],
        [
          "redraw_tile",
          3,
          4,
          0,
          0,
          0,
          0
        ],
        [
          "render_changes",
          0,
          0,
          0,
          0,
          0,
          0
        ],
        [
          "wait_ticks",
          2,
          0,
          0,
          0,
          0,
          0
        ],
        [
          "clear_tile",
          3,
          4,
          2,
          188,
          38700,
          0
        ],
        [
          "redraw_tile",
          3,
          4,
          0,
          0,
          0,
          0
        ],
        [
          "render_changes",
          0,
          0,
          40592,
          188,
          20500,
          0
        ],
        [
          "wait_ticks",
          2,
          0,
          37584,
          188,
          37684,
          0
        ],
        [
          "set_map_tile_var",
          0,
          0,
          0,
          0,
          41244,
          0
        ]
      ]
    },
    {
      "triggers": [
        [
          "on_check_map_tile_var",
          1,
          0,
          0,
          0,
          0,
          0
        ],
        [
          "on_player_at_pos",
          4,
          4,
          0,
          38168,
          188,
          0
        ]
      ],
      "commands": [
        [
          "set_tile",
          4,
          4,
          2,
          1429,
          0,
          0
        ],
        [
          "redraw_tile",
          4,
          4,
          0,
          0,
          0,
          0
        ],
        [
          "render_changes",
          0,
          0,
          0,
          0,
          0,
          0
        ],
        [
          "wait_ticks",
          2,
          13356,
          8233,
          12832,
          8224,
          0
        ],
        [
          "set_tile",
          4,
          4,
          2,
          1430,
          39996,
          0
        ],
        [
          "redraw_tile",
          4,
          4,
          0,
          0,
          0,
          0
        ],
        [
          "render_changes",
          0,
          0,
          0,
          0,
          0,
          0
        ],
        [
          "wait_ticks",
          2,
          0,
          0,
          0,
          0,
          0
        ],
        [
          "set_tile",
          4,
          4,
          2,
          1431,
          0,
          0
        ],
        [
          "redraw_tile",
          4,
          4,
          0,
          0,
          20500,
          0
        ],
        [
          "render_changes",
          11,
          0,
          24919,
          29801,
          28486,
          0
        ],
        [
          "wait_ticks",
          2,
          0,
          0,
          0,
          0,
          0
        ],
        [
          "set_tile",
          4,
          4,
          2,
          1429,
          0,
          0
        ],
        [
          "redraw_tile",
          4,
          4,
          0,
          0,
          20500,
          0
        ],
        [
          "render_changes",
          0,
          0,
          0,
          0,
          0,
          0
        ],
        [
          "wait_ticks",
          2,
          0,
          0,
          0,
          0,
          0
        ],
        [
          "set_tile",
          4,
          4,
          2,
          1430,
          0,
          0
        ],
        [
          "redraw_tile",
          4,
          4,
          0,
          0,
          0,
          0
        ],
        [
          "render_changes",
          0,
          0,
          25939,
          18548,
          0,
          0
        ],
        [
          "wait_ticks",
          2,
          0,
          0,
          0,
          0,
          0
        ],
        [
          "set_tile",
          4,
          4,
          2,
          1431,
          0,
          0
        ],
        [
          "redraw_tile",
          4,
          4,
          0,
          0,
          0,
          0
        ],
        [
          "render_changes",
          0,
          0,
          0,
          0,
          0,
          0
        ],
        [
          "wait_ticks",
          2,
          0,
          0,
          0,
          0,
          0
        ],
        [
          "clear_tile",
          4,
          4,
          2,
          188,
          38700,
          0
        ],
        [
          "redraw_tile",
          4,
          4,
          0,
          0,
          0,
          0
        ],
        [
          "render_changes",
          0,
          0,
          40592,
          188,
          20500,
          0
        ],
        [
          "wait_ticks",
          2,
          0,
          37584,
          188,
          37684,
          0
        ],
        [
          "set_map_tile_var",
          0,
          0,
          0,
          0,
          41244,
          0
        ]
      ]
    },
    {
      "triggers": [
        [
          "on_check_map_tile_var",
          1,
          0,
          0,
          0,
          0,
          0
        ],
        [
          "on_player_at_pos",
          4,
          3,
          0,
          38168,
          188,
          0
        ]
      ],
      "commands": [
        [
          "set_tile",
          4,
          3,
          2,
          1429,
          0,
          0
        ],
        [
          "redraw_tile",
          4,
          3,
          0,
          0,
          0,
          0
        ],
        [
          "render_changes",
          0,
          0,
          0,
          0,
          0,
          0
        ],
        [
          "wait_ticks",
          2,
          13356,
          8233,
          12832,
          8224,
          0
        ],
        [
          "set_tile",
          4,
          3,
          2,
          1430,
          39996,
          0
        ],
        [
          "redraw_tile",
          4,
          3,
          0,
          0,
          0,
          0
        ],
        [
          "render_changes",
          0,
          0,
          0,
          0,
          0,
          0
        ],
        [
          "wait_ticks",
          2,
          0,
          0,
          0,
          0,
          0
        ],
        [
          "set_tile",
          4,
          3,
          2,
          1431,
          0,
          0
        ],
        [
          "redraw_tile",
          4,
          3,
          0,
          0,
          20500,
          0
        ],
        [
          "render_changes",
          11,
          0,
          24919,
          29801,
          28486,
          0
        ],
        [
          "wait_ticks",
          2,
          0,
          0,
          0,
          0,
          0
        ],
        [
          "set_tile",
          4,
          3,
          2,
          1429,
          0,
          0
        ],
        [
          "redraw_tile",
          4,
          3,
          0,
          0,
          20500,
          0
        ],
        [
          "render_changes",
          0,
          0,
          0,
          0,
          0,
          0
        ],
        [
          "wait_ticks",
          2,
          0,
          0,
          0,
          0,
          0
        ],
        [
          "set_tile",
          4,
          3,
          2,
          1430,
          0,
          0
        ],
        [
          "redraw_tile",
          4,
          3,
          0,
          0,
          0,
          0
        ],
        [
          "render_changes",
          0,
          0,
          25939,
          18548,
          0,
          0
        ],
        [
          "wait_ticks",
          2,
          0,
          0,
          0,
          0,
          0
        ],
        [
          "set_tile",
          4,
          3,
          2,
          1431,
          0,
          0
        ],
        [
          "redraw_tile",
          4,
          3,
          0,
          0,
          0,
          0
        ],
        [
          "render_changes",
          0,
          0,
          0,
          0,
          0,
          0
        ],
        [
          "wait_ticks",
          2,
          0,
          0,
          0,
          0,
          0
        ],
        [
          "clear_tile",
          4,
          3,
          2,
          188,
          38700,
          0
        ],
        [
          "redraw_tile",
          4,
          3,
          0,
          0,
          0,
          0
        ],
        [
          "render_changes",
          0,
          0,
          40592,
          188,
          20500,
          0
        ],
        [
          "wait_ticks",
          2,
          0,
          37584,
          188,
          37684,
          0
        ],
        [
          "set_map_tile_var",
          0,
          0,
          0,
          0,
          41244,
          0
        ]
      ]
    }
  ],
  "tilemap": [
    [
      [
        0,
        1519,
        65535
      ],
      [
        0,
        1520,
        275
      ],
      [
        0,
        1520,
        616
      ],
      [
        0,
        1520,
        617
      ],
      [
        0,
        1520,
        617
      ],
      [
        0,
        1520,
        617
      ],
      [
        0,
        1520,
        619
      ],
      [
        0,
        1520,
        981
      ],
      [
        0,
        1521,
        65535
      ]
    ],
    [
      [
        1524,
        1522,
        269
      ],
      [
        1524,
        294,
        275
      ],
      [
        1524,
        65535,
        65535
      ],
      [
        1524,
        65535,
        65535
      ],
      [
        1524,
        65535,
        65535
      ],
      [
        1524,
        65535,
        65535
      ],
      [
        1524,
        65535,
        65535
      ],
      [
        1524,
        65535,
        65535
      ],
      [
        1524,
        1523,
        270
      ]
    ],
    [
      [
        1524,
        1522,
        269
      ],
      [
        1524,
        287,
        65535
      ],
      [
        0,
        540,
        65535
      ],
      [
        0,
        581,
        65535
      ],
      [
        0,
        570,
        65535
      ],
      [
        0,
        629,
        1087
      ],
      [
        0,
        541,
        620
      ],
      [
        1524,
        65535,
        65535
      ],
      [
        1524,
        1523,
        270
      ]
    ],
    [
      [
        1524,
        1522,
        65535
      ],
      [
        1524,
        65535,
        65535
      ],
      [
        604,
        545,
        613
      ],
      [
        604,
        797,
        65535
      ],
      [
        604,
        65535,
        65535
      ],
      [
        1088,
        65535,
        65535
      ],
      [
        604,
        544,
        65535
      ],
      [
        1524,
        65535,
        65535
      ],
      [
        1524,
        1523,
        65535
      ]
    ],
    [
      [
        1524,
        1522,
        65535
      ],
      [
        1524,
        65535,
        65535
      ],
      [
        604,
        1434,
        65535
      ],
      [
        604,
        65535,
        65535
      ],
      [
        604,
        65535,
        65535
      ],
      [
        604,
        65535,
        65535
      ],
      [
        604,
        1433,
        65535
      ],
      [
        1524,
        65535,
        65535
      ],
      [
        1524,
        1523,
        65535
      ]
    ],
    [
      [
        1524,
        1522,
        65535
      ],
      [
        1524,
        65535,
        65535
      ],
      [
        1524,
        65535,
        65535
      ],
      [
        1524,
        65535,
        65535
      ],
      [
        1524,
        65535,
        65535
      ],
      [
        1524,
        65535,
        65535
      ],
      [
        1524,
        65535,
        65535
      ],
      [
        1524,
        65535,
        65535
      ],
      [
        1524,
        1523,
        65535
      ]
    ],
    [
      [
        1524,
        1522,
        65535
      ],
      [
        1524,
        65535,
        285
      ],
      [
        1524,
        65535,
        285
      ],
      [
        1524,
        65535,
        65535
      ],
      [
        1524,
        65535,
        65535
      ],
      [
        1524,
        65535,
        65535
      ],
      [
        1524,
        65535,
        65535
      ],
      [
        1524,
        273,
        65535
      ],
      [
        1524,
        1523,
        65535
      ]
    ],
    [
      [
        1524,
        1522,
        65535
      ],
      [
        1524,
        286,
        65535
      ],
      [
        1524,
        286,
        65535
      ],
      [
        1524,
        65535,
        65535
      ],
      [
        1524,
        65535,
        65535
      ],
      [
        1524,
        65535,
        65535
      ],
      [
        1524,
        65535,
        65535
      ],
      [
        1524,
        257,
        274
      ],
      [
        1524,
        1523,
        65535
      ]
    ],
    [
      [
        1524,
        1520,
        65535
      ],
      [
        1524,
        1520,
        65535
      ],
      [
        1524,
        1520,
        65535
      ],
      [
        1525,
        65535,
        1914
      ],
      [
        1524,
        1520,
        65535
      ],
      [
        0,
        1520,
        65535
      ],
      [
        0,
        1520,
        65535
      ],
      [
        0,
        1520,
        65535
      ],
      [
        0,
        1520,
        65535
      ]
    ],
    []
  ]
}