{
  "zoneId": 481,
  "zoneType": 1,
  "width": 18,
  "height": 18,
  "type": 1,
  "world": 1,
  "objects": [
    {
      "type": 13,
      "x": 8,
      "y": 6,
      "unknown": 1,
      "param": 65535
    }
  ],
  "actions": [
    {
      "triggers": [
        [
          "on_first_enter",
          222,
          14812,
          222,
          0,
          0,
          0
        ]
      ],
      "commands": [
        [
          "hide_object",
          0,
          0,
          28488,
          21364,
          28528,
          0
        ],
        [
          "random",
          3,
          0,
          26708,
          28530,
          21111,
          0
        ]
      ]
    },
    {
      "triggers": [
        [
          "on_temp_var_eq",
          0,
          8,
          0,
          28483,
          28277,
          0
        ],
        [
          "on_walk",
          8,
          6,
          536,
          0,
          0,
          0
        ],
        [
          "on_check_map_tile",
          355,
          8,
          5,
          1,
          0,
          0
        ]
      ],
      "commands": [
        [
          "say_text",
          8,
          0,
          26707,
          30575,
          25940,
          42
        ],
        [
          "set_temp_var",
          1,
          0,
          0,
          0,
          0,
          0
        ]
      ]
    },
    {
      "triggers": [
        [
          "on_enter",
          0,
          0,
          0,
          0,
          0,
          0
        ],
        [
          "on_check_map_tile",
          355,
          8,
          5,
          1,
          190,
          0
        ]
      ],
      "commands": [
        [
          "set_temp_var",
          0,
          0,
          0,
          0,
          0,
          0
        ]
      ]
    },
    {
      "triggers": [
        [
          "on_first_enter",
          110,
          3368,
          0,
          14084,
          222,
          0
        ],
        [
          "on_rand_var_eq",
          1,
          8,
          0,
          24914,
          25710,
          0
        ]
      ],
      "commands": [
        [
          "set_tile",
          4,
          13,
          1,
          532,
          25441,
          0
        ],
        [
          "redraw_tile",
          4,
          13,
          0,
          0,
          0,
          0
        ]
      ]
    },
    {
      "triggers": [
        [
          "on_first_enter",
          110,
          3368,
          0,
          14084,
          222,
          0
        ],
        [
          "on_rand_var_eq",
          2,
          8,
          0,
          24914,
          25710,
          0
        ]
      ],
      "commands": [
        [
          "set_tile",
          13,
          10,
          1,
          532,
          25441,
          0
        ],
        [
          "redraw_tile",
          13,
          10,
          0,
          0,
          0,
          0
        ]
      ]
    },
    {
      "triggers": [
        [
          "on_first_enter",
          110,
          3368,
          0,
          14084,
          222,
          0
        ],
        [
          "on_rand_var_eq",
          3,
          8,
          0,
          24914,
          25710,
          0
        ]
      ],
      "commands": [
        [
          "set_tile",
          2,
          1,
          1,
          532,
          25441,
          0
        ],
        [
          "redraw_tile",
          2,
          1,
          0,
          0,
          0,
          0
        ]
      ]
    },
    {
      "triggers": [
        [
          "on_bump_tile",
          4,
          13,
          532,
          30018,
          28781,
          0
        ]
      ],
      "commands": [
        [
          "clear_tile",
          4,
          13,
          1,
          28525,
          25974,
          0
        ],
        [
          "redraw_tile",
          4,
          13,
          25938,
          29284,
          30561,
          0
        ],
        [
          "spawn_item",
          532,
          4,
          13,
          28783,
          29769,
          0
        ],
        [
          "flag_once",
          8,
          0,
          29252,
          28783,
          29769,
          0
        ]
      ]
    },
    {
      "triggers": [
        [
          "on_bump_tile",
          13,
          10,
          532,
          30018,
          28781,
          0
        ]
      ],
      "commands": [
        [
          "clear_tile",
          13,
          10,
          1,
          28525,
          25974,
          0
        ],
        [
          "redraw_tile",
          13,
          10,
          25938,
          29284,
          30561,
          0
        ],
        [
          "spawn_item",
          532,
          13,
          10,
          28783,
          29769,
          0
        ],
        [
          "flag_once",
          8,
          0,
          29252,
          28783,
          29769,
          0
        ]
      ]
    },
    {
      "triggers": [
        [
          "on_bump_tile",
          2,
          1,
          532,
          30018,
          28781,
          0
        ]
      ],
      "commands": [
        [
          "clear_tile",
          2,
          1,
          1,
          28525,
          25974,
          0
        ],
        [
          "redraw_tile",
          2,
          1,
          25938,
          29284,
          30561,
          0
        ],
        [
          "spawn_item",
          532,
          2,
          1,
          28783,
          29769,
          0
        ],
        [
          "flag_once",
          8,
          0,
          29252,
          28783,
          29769,
          0
        ]
      ]
    },
    {
      "triggers": [
        [
          "on_drag_item",
          8,
          5,
          1,
          355,
          532,
          0
        ]
      ],
      "commands": [
        [
          "play_sound",
          0,
          0,
          27728,
          31073,
          28499,
          0
        ],
        [
          "remove_item_from_inv",
          532,
          0,
          25938,
          28525,
          25974,
          0
        ],
        [
          "set_tile",
          8,
          5,
          1,
          532,
          25441,
          0
        ],
        [
          "set_tile",
          8,
          6,
          0,
          537,
          25441,
          0
        ],
        [
          "set_tile",
          6,
          6,
          1,
          1403,
          25441,
          0
        ],
        [
          "redraw_tiles",
          6,
          5,
          8,
          6,
          30561,
          0
        ],
        [
          "render_changes",
          0,
          0,
          0,
          0,
          0,
          0
        ],
        [
          "show_object",
          0,
          0,
          28488,
          21364,
          28528,
          0
        ],
        [
          "set_temp_var",
          1,
          0,
          25939,
          17268,
          30063,
          0
        ]
      ]
    }
  ],
  "tilemap": [
    [
      [
        0,
        65535,
        65535
      ],
      [
        0,
        65535,
        65535
      ],
      [
        0,
        65535,
        65535
      ],
      [
        0,
        65535,
        65535
      ],
      [
        0,
        65535,
        65535
      ],
      [
        0,
        65535,
        65535
      ],
      [
        0,
        65535,
        65535
      ],
      [
        0,
        65535,
        65535
      ],
      [
        0,
        65535,
        65535
      ],
      [
        0,
        65535,
        65535
      ],
      [
        0,
        65535,
        65535
      ],
      [
        0,
        65535,
        65535
      ],
      [
        0,
        65535,
        65535
      ],
      [
        2,
        65535,
        65535
      ],
      [
        0,
        65535,
        65535
      ],
      [
        0,
        65535,
        65535
      ],
      [
        0,
        65535,
        65535
      ],
      [
        0,
        65535,
        65535
      ]
    ],
    [
      [
        0,
        65535,
        65535
      ],
      [
        0,
        65535,
        65535
      ],
      [
        0,
        65535,
        65535
      ],
      [
        3,
        65535,
        65535
      ],
      [
        0,
        65535,
        65535
      ],
      [
        0,
        65535,
        65535
      ],
      [
        0,
        65535,
        65535
      ],
      [
        0,
        65535,
        65535
      ],
      [
        0,
        65535,
        65535
      ],
      [
        0,
        65535,
        65535
      ],
      [
        0,
        65535,
        65535
      ],
      [
        0,
        65535,
        65535
      ],
      [
        0,
        65535,
        65535
      ],
      [
        0,
        65535,
        65535
      ],
      [
        0,
        65535,
        65535
      ],
      [
        0,
        65535,
        65535
      ],
      [
        0,
        65535,
        65535
      ],
      [
        0,
        65535,
        65535
      ]
    ],
    [
      [
        0,
        65535,
        65535
      ],
      [
        0,
        65535,
        65535
      ],
      [
        0,
        65535,
        65535
      ],
      [
        0,
        65535,
        65535
      ],
      [
        0,
        65535,
        65535
      ],
      [
        0,
        65535,
        65535
      ],
      [
        0,
        65535,
        65535
      ],
      [
        0,
        65535,
        65535
      ],
      [
        0,
        647,
        65535
      ],
      [
        0,
        65535,
        65535
      ],
      [
        0,
        65535,
        65535
      ],
      [
        0,
        65535,
        65535
      ],
      [
        0,
        65535,
        65535
      ],
      [
        0,
        65535,
        644
      ],
      [
        0,
        65535,
        65535
      ],
      [
        0,
        65535,
        65535
      ],
      [
        0,
        65535,
        65535
      ],
      [
        0,
        65535,
        65535
      ]
    ],
    [
      [
        0,
        65535,
        65535
      ],
      [
        0,
        65535,
        65535
      ],
      [
        0,
        65535,
        65535
      ],
      [
        0,
        65535,
        65535
      ],
      [
        0,
        65535,
        65535
      ],
      [
        0,
        65535,
        65535
      ],
      [
        0,
        65535,
        65535
      ],
      [
        0,
        65535,
        65535
      ],
      [
        0,
        65535,
        65535
      ],
      [
        0,
        65535,
        65535
      ],
      [
        0,
        65535,
        65535
      ],
      [
        3,
        65535,
        65535
      ],
      [
        0,
        65535,
        65535
      ],
      [
        0,
        642,
        65535
      ],
      [
        0,
        65535,
        65535
      ],
      [
        0,
        65535,
        65535
      ],
      [
        4,
        65535,
        65535
      ],
      [
        0,
        65535,
        65535
      ]
    ],
    [
      [
        0,
        65535,
        65535
      ],
      [
        0,
        65535,
        65535
      ],
      [
        2,
        65535,
        65535
      ],
      [
        0,
        65535,
        65535
      ],
      [
        0,
        65535,
        65535
      ],
      [
        0,
        287,
        275
      ],
      [
        0,
        288,
        65535
      ],
      [
        0,
        288,
        65535
      ],
      [
        0,
        288,
        65535
      ],
      [
        0,
        288,
        65535
      ],
      [
        0,
        288,
        65535
      ],
      [
        0,
        288,
        166
      ],
      [
        0,
        289,
        275
      ],
      [
        365,
        65535,
        65535
      ],
      [
        0,
        65535,
        65535
      ],
      [
        0,
        65535,
        65535
      ],
      [
        0,
        65535,
        65535
      ],
      [
        0,
        65535,
        65535
      ]
    ],
    [
      [
        0,
        65535,
        65535
      ],
      [
        0,
        65535,
        65535
      ],
      [
        0,
        65535,
        65535
      ],
      [
        0,
        65535,
        65535
      ],
      [
        0,
        65535,
        65535
      ],
      [
        0,
        275,
        275
      ],
      [
        0,
        65535,
        65535
      ],
      [
        282,
        65535,
        530
      ],
      [
        1304,
        355,
        65535
      ],
      [
        0,
        65535,
        65535
      ],
      [
        0,
        65535,
        65535
      ],
      [
        0,
        165,
        65535
      ],
      [
        0,
        294,
        65535
      ],
      [
        371,
        65535,
        65535
      ],
      [
        0,
        65535,
        65535
      ],
      [
        0,
        65535,
        645
      ],
      [
        0,
        65535,
        65535
      ],
      [
        0,
        65535,
        65535
      ]
    ],
    [
      [
        0,
        65535,
        65535
      ],
      [
        0,
        65535,
        65535
      ],
      [
        0,
        65535,
        65535
      ],
      [
        0,
        65535,
        65535
      ],
      [
        0,
        65535,
        645
      ],
      [
        0,
        275,
        275
      ],
      [
        281,
        344,
        65535
      ],
      [
        282,
        531,
        1423
      ],
      [
        536,
        65535,
        65535
      ],
      [
        282,
        65535,
        65535
      ],
      [
        0,
        65535,
        65535
      ],
      [
        0,
        65535,
        65535
      ],
      [
        0,
        65535,
        65535
      ],
      [
        0,
        65535,
        65535
      ],
      [
        0,
        65535,
        65535
      ],
      [
        0,
        643,
        65535
      ],
      [
        0,
        65535,
        65535
      ],
      [
        0,
        65535,
        65535
      ]
    ],
    [
      [
        0,
        65535,
        65535
      ],
      [
        0,
        65535,
        65535
      ],
      [
        0,
        65535,
        65535
      ],
      [
        365,
        65535,
        65535
      ],
      [
        0,
        642,
        65535
      ],
      [
        0,
        287,
        65535
      ],
      [
        0,
        288,
        65535
      ],
      [
        282,
        288,
        65535
      ],
      [
        281,
        288,
        65535
      ],
      [
        282,
        288,
        65535
      ],
      [
        0,
        288,
        65535
      ],
      [
        365,
        288,
        65535
      ],
      [
        365,
        289,
        65535
      ],
      [
        0,
        65535,
        65535
      ],
      [
        0,
        65535,
        65535
      ],
      [
        0,
        65535,
        65535
      ],
      [
        0,
        65535,
        65535
      ],
      [
        0,
        65535,
        65535
      ]
    ],
    [
      [
        0,
        65535,
        65535
      ],
      [
        0,
        65535,
        65535
      ],
      [
        367,
        65535,
        644
      ],
      [
        368,
        65535,
        65535
      ],
      [
        369,
        65535,
        65535
      ],
      [
        0,
        65535,
        65535
      ],
      [
        0,
        65535,
        65535
      ],
      [
        0,
        65535,
        65535
      ],
      [
        0,
        65535,
        65535
      ],
      [
        0,
        646,
        65535
      ],
      [
        365,
        65535,
        65535
      ],
      [
        364,
        65535,
        65535
      ],
      [
        368,
        65535,
        644
      ],
      [
        369,
        65535,
        65535
      ],
      [
        365,
        647,
        65535
      ],
      [
        0,
        65535,
        65535
      ],
      [
        0,
        65535,
        65535
      ],
      [
        0,
        65535,
        65535
      ]
    ],
    [
      [
        0,
        65535,
        65535
      ],
      [
        0,
        65535,
        65535
      ],
      [
        367,
        643,
        65535
      ],
      [
        372,
        65535,
        65535
      ],
      [
        0,
        65535,
        65535
      ],
      [
        0,
        647,
        65535
      ],
      [
        0,
        65535,
        65535
      ],
      [
        0,
        65535,
        645
      ],
      [
        0,
        65535,
        65535
      ],
      [
        367,
        65535,
        65535
      ],
      [
        368,
        65535,
        65535
      ],
      [
        368,
        65535,
        65535
      ],
      [
        372,
        643,
        65535
      ],
      [
        367,
        65535,
        65535
      ],
      [
        368,
        65535,
        65535
      ],
      [
        366,
        65535,
        65535
      ],
      [
        0,
        65535,
        65535
      ],
      [
        0,
        65535,
        65535
      ]
    ],
    [
      [
        0,
        65535,
        65535
      ],
      [
        367,
        65535,
        65535
      ],
      [
        368,
        65535,
        65535
      ],
      [
        369,
        65535,
        65535
      ],
      [
        0,
        65535,
        65535
      ],
      [
        0,
        65535,
        644
      ],
      [
        364,
        65535,
        65535
      ],
      [
        368,
        643,
        65535
      ],
      [
        0,
        65535,
        65535
      ],
      [
        0,
        65535,
        644
      ],
      [
        370,
        65535,
        65535
      ],
      [
        372,
        65535,
        645
      ],
      [
        371,
        65535,
        65535
      ],
      [
        364,
        65535,
        645
      ],
      [
        368,
        65535,
        65535
      ],
      [
        368,
        65535,
        65535
      ],
      [
        369,
        65535,
        65535
      ],
      [
        0,
        65535,
        65535
      ]
    ],
    [
      [
        0,
        65535,
        65535
      ],
      [
        0,
        65535,
        65535
      ],
      [
        370,
        65535,
        65535
      ],
      [
        369,
        65535,
        65535
      ],
      [
        0,
        65535,
        645
      ],
      [
        0,
        642,
        65535
      ],
      [
        368,
        65535,
        65535
      ],
      [
        372,
        65535,
        65535
      ],
      [
        0,
        65535,
        65535
      ],
      [
        368,
        642,
        65535
      ],
      [
        0,
        65535,
        65535
      ],
      [
        365,
        643,
        65535
      ],
      [
        367,
        65535,
        65535
      ],
      [
        372,
        642,
        65535
      ],
      [
        372,
        65535,
        65535
      ],
      [
        371,
        65535,
        65535
      ],
      [
        0,
        65535,
        65535
      ],
      [
        0,
        65535,
        65535
      ]
    ],
    [
      [
        0,
        65535,
        65535
      ],
      [
        0,
        646,
        65535
      ],
      [
        0,
        65535,
        65535
      ],
      [
        0,
        65535,
        65535
      ],
      [
        0,
        642,
        65535
      ],
      [
        0,
        65535,
        65535
      ],
      [
        371,
        65535,
        65535
      ],
      [
        0,
        65535,
        65535
      ],
      [
        0,
        65535,
        645
      ],
      [
        0,
        65535,
        65535
      ],
      [
        0,
        65535,
        65535
      ],
      [
        365,
        65535,
        65535
      ],
      [
        365,
        65535,
        65535
      ],
      [
        0,
        65535,
        65535
      ],
      [
        0,
        65535,
        65535
      ],
      [
        0,
        65535,
        65535
      ],
      [
        0,
        65535,
        65535
      ],
      [
        0,
        65535,
        65535
      ]
    ],
    [
      [
        0,
        65535,
        65535
      ],
      [
        0,
        65535,
        65535
      ],
      [
        0,
        65535,
        65535
      ],
      [
        0,
        65535,
        65535
      ],
      [
        0,
        65535,
        65535
      ],
      [
        0,
        65535,
        65535
      ],
      [
        0,
        65535,
        65535
      ],
      [
        364,
        646,
        65535
      ],
      [
        365,
        643,
        65535
      ],
      [
        365,
        65535,
        65535
      ],
      [
        370,
        65535,
        65535
      ],
      [
        368,
        65535,
        65535
      ],
      [
        368,
        65535,
        65535
      ],
      [
        369,
        65535,
        65535
      ],
      [
        0,
        65535,
        65535
      ],
      [
        0,
        65535,
        65535
      ],
      [
        0,
        65535,
        65535
      ],
      [
        0,
        65535,
        65535
      ]
    ],
    [
      [
        0,
        65535,
        65535
      ],
      [
        0,
        65535,
        65535
      ],
      [
        0,
        65535,
        65535
      ],
      [
        0,
        65535,
        644
      ],
      [
        365,
        65535,
        65535
      ],
      [
        0,
        65535,
        65535
      ],
      [
        367,
        65535,
        644
      ],
      [
        368,
        65535,
        65535
      ],
      [
        368,
        65535,
        65535
      ],
      [
        372,
        65535,
        65535
      ],
      [
        0,
        65535,
        65535
      ],
      [
        372,
        65535,
        65535
      ],
      [
        371,
        646,
        65535
      ],
      [
        0,
        65535,
        65535
      ],
      [
        0,
        65535,
        65535
      ],
      [
        0,
        65535,
        65535
      ],
      [
        0,
        65535,
        65535
      ],
      [
        0,
        65535,
        65535
      ]
    ],
    [
      [
        0,
        65535,
        65535
      ],
      [
        0,
        65535,
        65535
      ],
      [
        0,
        65535,
        65535
      ],
      [
        0,
        642,
        65535
      ],
      [
        364,
        65535,
        65535
      ],
      [
        366,
        65535,
        65535
      ],
      [
        0,
        642,
        65535
      ],
      [
        370,
        65535,
        65535
      ],
      [
        368,
        65535,
        65535
      ],
      [
        369,
        65535,
        644
      ],
      [
        0,
        65535,
        65535
      ],
      [
        0,
        65535,
        65535
      ],
      [
        0,
        65535,
        65535
      ],
      [
        0,
        65535,
        65535
      ],
      [
        0,
        65535,
        65535
      ],
      [
        0,
        65535,
        65535
      ],
      [
        0,
        65535,
        65535
      ],
      [
        0,
        65535,
        65535
      ]
    ],
    [
      [
        0,
        65535,
        65535
      ],
      [
        4,
        65535,
        65535
      ],
      [
        0,
        65535,
        65535
      ],
      [
        0,
        65535,
        65535
      ],
      [
        370,
        647,
        65535
      ],
      [
        368,
        65535,
        65535
      ],
      [
        372,
        65535,
        65535
      ],
      [
        0,
        65535,
        65535
      ],
      [
        371,
        65535,
        65535
      ],
      [
        0,
        643,
        65535
      ],
      [
        0,
        65535,
        65535
      ],
      [
        0,
        65535,
        65535
      ],
      [
        0,
        65535,
        65535
      ],
      [
        0,
        65535,
        65535
      ],
      [
        0,
        65535,
        65535
      ],
      [
        0,
        65535,
        65535
      ],
      [
        0,
        65535,
        65535
      ],
      [
        0,
        65535,
        65535
      ]
    ],
    [
      [
        0,
        65535,
        65535
      ],
      [
        0,
        65535,
        65535
      ],
      [
        0,
        65535,
        65535
      ],
      [
        0,
        65535,
        65535
      ],
      [
        0,
        65535,
        65535
      ],
      [
        371,
        646,
        65535
      ],
      [
        0,
        65535,
        65535
      ],
      [
        0,
        65535,
        65535
      ],
      [
        0,
        65535,
        65535
      ],
      [
        0,
        65535,
        65535
      ],
      [
        0,
        65535,
        65535
      ],
      [
        0,
        65535,
        65535
      ],
      [
        0,
        65535,
        65535
      ],
      [
        0,
        65535,
        65535
      ],
      [
        0,
        65535,
        65535
      ],
      [
        2,
        65535,
        65535
      ],
      [
        0,
        65535,
        65535
      ],
      [
        0,
        65535,
        65535
      ]
    ],
    []
  ]
}