{
  "zoneId": 505,
  "zoneType": 3,
  "width": 9,
  "height": 9,
  "type": 8,
  "world": 3,
  "objects": [
    {
      "type": 10,
      "x": 4,
      "y": 8,
      "unknown": 1,
      "param": 65535
    },
    {
      "type": 1,
      "x": 2,
      "y": 1,
      "unknown": 1,
      "param": 65535
    },
    {
      "type": 6,
      "x": 6,
      "y": 1,
      "unknown": 1,
      "param": 174
    }
  ],
  "actions": [
    {
      "triggers": [
        [
          "on_first_enter",
          0,
          42932,
          177,
          0,
          0,
          0
        ]
      ],
      "commands": [
        [
          "hide_entity",
          0,
          177,
          0,
          0,
          20500,
          0
        ]
      ]
    },
    {
      "triggers": [
        [
          "on_check_map_tile",
          65535,
          7,
          2,
          1,
          0,
          0
        ]
      ],
      "commands": [
        [
          "show_entity",
          0,
          0,
          0,
          0,
          0,
          0
        ],
        [
          "flag_once",
          0,
          0,
          42724,
          177,
          2532,
          0
        ]
      ]
    }
  ],
  "tilemap": [
    [
      [
        1524,
        1526,
        65535
      ],
      [
        65535,
        1520,
        65535
      ],
      [
        65535,
        1520,
        65535
      ],
      [
        65535,
        1520,
        65535
      ],
      [
        65535,
        1520,
        65535
      ],
      [
        65535,
        1521,
        65535
      ],
      [
        65535,
        1520,
        65535
      ],
      [
        65535,
        1520,
        65535
      ],
      [
        1524,
        1528,
        65535
      ]
    ],
    [
      [
        1524,
        1527,
        811
      ],
      [
        1524,
        261,
        65535
      ],
      [
        1524,
        65535,
        65535
      ],
      [
        1524,
        273,
        65535
      ],
      [
        1524,
        257,
        262
      ],
      [
        1524,
        1523,
        65535
      ],
      [
        1524,
        186,
        65535
      ],
      [
        1524,
        186,
        65535
      ],
      [
        1524,
        1529,
        270
      ]
    ],
    [
      [
        1524,
        1522,
        811
      ],
      [
        1524,
        65535,
        285
      ],
      [
        1524,
        65535,
        65535
      ],
      [
        1524,
        65535,
        65535
      ],
      [
        1524,
        65535,
        65535
      ],
      [
        1524,
        1523,
        65535
      ],
      [
        1524,
        186,
        65535
      ],
      [
        1524,
        186,
        65535
      ],
      [
        1524,
        1523,
        65535
      ]
    ],
    [
      [
        1524,
        1522,
        811
      ],
      [
        1524,
        286,
        65535
      ],
      [
        1524,
        65535,
        65535
      ],
      [
        1524,
        65535,
        65535
      ],
      [
        1524,
        65535,
        65535
      ],
      [
        1524,
        1523,
        65535
      ],
      [
        1524,
        186,
        65535
      ],
      [
        1524,
        186,
        65535
      ],
      [
        1524,
        1523,
        65535
      ]
    ],
    [
      [
        1524,
        1519,
        65535
      ],
      [
        1524,
        1520,
        65535
      ],
      [
        1524,
        1520,
        65535
      ],
      [
        1915,
        65535,
        1914
      ],
      [
        1524,
        1520,
        65535
      ],
      [
        1524,
        1520,
        65535
      ],
      [
        1524,
        1520,
        65535
      ],
      [
        1915,
        65535,
        1914
      ],
      [
        1524,
        1521,
        65535
      ]
    ],
    [
      [
        1524,
        1522,
        65535
      ],
      [
        1524,
        420,
        65535
      ],
      [
        1524,
        65535,
        65535
      ],
      [
        1524,
        65535,
        65535
      ],
      [
        1524,
        65535,
        65535
      ],
      [
        1524,
        65535,
        65535
      ],
      [
        1524,
        65535,
        65535
      ],
      [
        1524,
        65535,
        65535
      ],
      [
        1524,
        1523,
        65535
      ]
    ],
    [
      [
        1524,
        1522,
        65535
      ],
      [
        1524,
        65535,
        65535
      ],
      [
        1524,
        65535,
        65535
      ],
      [
        1524,
        65535,
        65535
      ],
      [
        1524,
        65535,
        65535
      ],
      [
        1524,
        65535,
        65535
      ],
      [
        1524,
        65535,
        65535
      ],
      [
        1524,
        65535,
        65535
      ],
      [
        1524,
        1523,
        65535
      ]
    ],
    [
      [
        1524,
        1531,
        65535
      ],
      [
        1524,
        65535,
        65535
      ],
      [
        1524,
        65535,
        65535
      ],
      [
        1524,
        65535,
        65535
      ],
      [
        1524,
        65535,
        65535
      ],
      [
        1524,
        65535,
        65535
      ],
      [
        1524,
        65535,
        65535
      ],
      [
        1524,
        65535,
        65535
      ],
      [
        1524,
        1533,
        65535
      ]
    ],
    [
      [
        1524,
        1530,
        65535
      ],
      [
        65535,
        1520,
        65535
      ],
      [
        65535,
        1520,
        65535
      ],
      [
        65535,
        1520,
        65535
      ],
      [
        1525,
        65535,
        1914
      ],
      [
        65535,
        1520,
        65535
      ],
      [
        65535,
        1520,
        65535
      ],
      [
        65535,
        1520,
        65535
      ],
      [
        1524,
        1532,
        65535
      ]
    ],
    []
  ]
}