{
  "zoneId": 513,
  "zoneType": 3,
  "width": 18,
  "height": 18,
  "type": 17,
  "world": 3,
  "objects": [
    {
      "type": 0,
      "x": 11,
      "y": 12,
      "unknown": 1,
      "param": 65535
    }
  ],
  "actions": [
    {
      "triggers": [
        [
          "on_first_enter",
          110,
          5,
          0,
          26950,
          29554,
          0
        ]
      ],
      "commands": [
        [
          "random",
          6,
          0,
          26708,
          28530,
          21111,
          0
        ],
        [
          "set_temp_var",
          0,
          0,
          25939,
          17268,
          30063,
          0
        ],
        [
          "set_global_var",
          0,
          0,
          25939,
          18292,
          28524,
          0
        ]
      ]
    },
    {
      "triggers": [
        [
          "on_first_enter",
          110,
          10,
          0,
          24914,
          25710,
          0
        ],
        [
          "on_rand_var_gt",
          3,
          8,
          0,
          24914,
          25710,
          0
        ]
      ],
      "commands": [
        [
          "set_tile",
          4,
          3,
          1,
          86,
          25441,
          0
        ],
        [
          "set_tile",
          9,
          5,
          1,
          86,
          25441,
          0
        ],
        [
          "set_tile",
          12,
          10,
          1,
          86,
          25441,
          0
        ],
        [
          "redraw_tiles",
          4,
          3,
          12,
          10,
          30561,
          0
        ],
        [
          "set_global_var",
          1,
          0,
          25939,
          18292,
          28524,
          0
        ]
      ]
    },
    {
      "triggers": [
        [
          "on_bump_tile",
          12,
          13,
          355,
          30018,
          28781,
          0
        ],
        [
          "on_rand_var_lt",
          4,
          8,
          0,
          24914,
          25710,
          0
        ],
        [
          "on_rand_var_gt",
          0,
          8,
          0,
          24914,
          25710,
          0
        ]
      ],
      "commands": [
        [
          "say_text",
          8,
          0,
          26707,
          30575,
          25940,
          52
        ],
        [
          "set_rand_var",
          0,
          0,
          25939,
          21108,
          28257,
          0
        ],
        [
          "spawn_item",
          65535,
          12,
          13,
          28783,
          29769,
          0
        ]
      ]
    },
    {
      "triggers": [
        [
          "on_bump_tile",
          11,
          13,
          355,
          30018,
          28781,
          0
        ],
        [
          "on_rand_var_gt",
          0,
          8,
          0,
          24914,
          25710,
          0
        ],
        [
          "on_rand_var_lt",
          4,
          8,
          0,
          24914,
          25710,
          0
        ]
      ],
      "commands": [
        [
          "say_text",
          8,
          0,
          26707,
          30575,
          25940,
          52
        ],
        [
          "set_rand_var",
          0,
          0,
          25939,
          21108,
          28257,
          0
        ],
        [
          "spawn_item",
          65535,
          11,
          13,
          28783,
          29769,
          0
        ]
      ]
    },
    {
      "triggers": [
        [
          "on_bump_tile",
          11,
          13,
          355,
          30018,
          28781,
          0
        ],
        [
          "on_rand_var_gt",
          3,
          8,
          0,
          24914,
          25710,
          0
        ],
        [
          "on_global_var_eq",
          1,
          10,
          0,
          27719,
          25199,
          0
        ]
      ],
      "commands": [
        [
          "say_text",
          8,
          0,
          26707,
          30575,
          25940,
          71
        ],
        [
          "play_sound",
          0,
          0,
          27728,
          31073,
          28499,
          0
        ],
        [
          "spawn_item",
          609,
          11,
          13,
          28783,
          29769,
          0
        ],
        [
          "set_global_var",
          0,
          0,
          25939,
          18292,
          28524,
          0
        ],
        [
          "set_temp_var",
          2,
          25959,
          25454,
          8313,
          30067,
          0
        ],
        [
          "flag_once",
          0,
          0,
          0,
          0,
          0,
          0
        ]
      ]
    },
    {
      "triggers": [
        [
          "on_bump_tile",
          12,
          13,
          1891,
          30018,
          28781,
          0
        ],
        [
          "on_rand_var_gt",
          3,
          8,
          0,
          24914,
          25710,
          0
        ],
        [
          "on_global_var_eq",
          1,
          10,
          0,
          27719,
          25199,
          0
        ]
      ],
      "commands": [
        [
          "say_text",
          8,
          0,
          26707,
          30575,
          25940,
          71
        ],
        [
          "play_sound",
          0,
          0,
          27728,
          31073,
          28499,
          0
        ],
        [
          "spawn_item",
          609,
          12,
          13,
          28783,
          29769,
          0
        ],
        [
          "set_global_var",
          0,
          0,
          25939,
          18292,
          28524,
          0
        ],
        [
          "set_temp_var",
          2,
          0,
          0,
          0,
          0,
          0
        ],
        [
          "flag_once",
          0,
          0,
          0,
          0,
          0,
          0
        ]
      ]
    },
    {
      "triggers": [
        [
          "on_bump_tile",
          4,
          3,
          86,
          30018,
          28781,
          0
        ],
        [
          "on_temp_var_eq",
          0,
          0,
          0,
          0,
          0,
          0
        ]
      ],
      "commands": [
        [
          "set_temp_var",
          1,
          0,
          25939,
          17268,
          30063,
          0
        ]
      ]
    },
    {
      "triggers": [
        [
          "on_bump_tile",
          9,
          5,
          86,
          30018,
          28781,
          0
        ],
        [
          "on_temp_var_eq",
          0,
          0,
          0,
          0,
          0,
          0
        ]
      ],
      "commands": [
        [
          "set_temp_var",
          1,
          0,
          25939,
          17268,
          30063,
          0
        ]
      ]
    },
    {
      "triggers": [
        [
          "on_bump_tile",
          12,
          10,
          86,
          30018,
          28781,
          0
        ],
        [
          "on_temp_var_eq",
          0,
          8,
          0,
          30018,
          28781,
          0
        ]
      ],
      "commands": [
        [
          "set_temp_var",
          1,
          0,
          25939,
          17268,
          30063,
          0
        ]
      ]
    },
    {
      "triggers": [
        [
          "on_temp_var_eq",
          1,
          8,
          0,
          28483,
          28277,
          0
        ]
      ],
      "commands": [
        [
          "play_sound",
          6,
          0,
          0,
          0,
          0,
          0
        ],
        [
          "say_text",
          8,
          0,
          26707,
          30575,
          25940,
          62
        ],
        [
          "flag_once",
          20,
          0,
          30018,
          28781,
          26964,
          0
        ]
      ]
    },
    {
      "triggers": [
        [
          "on_drag_item",
          4,
          3,
          1,
          86,
          609,
          0
        ],
        [
          "on_rand_var_neq",
          4,
          10,
          0,
          24914,
          25710,
          0
        ]
      ],
      "commands": [
        [
          "play_sound",
          3,
          0,
          29525,
          18789,
          25972,
          0
        ],
        [
          "draw_overlay_tile",
          4,
          3,
          1073,
          28005,
          20345,
          0
        ],
        [
          "render_changes",
          17,
          0,
          17487,
          8265,
          29263,
          0
        ],
        [
          "wait_ticks",
          1,
          132,
          0,
          0,
          0,
          0
        ],
        [
          "draw_overlay_tile",
          4,
          3,
          1074,
          0,
          3120,
          0
        ],
        [
          "render_changes",
          0,
          0,
          34452,
          132,
          0,
          0
        ],
        [
          "wait_ticks",
          1,
          1634,
          0,
          0,
          34396,
          0
        ],
        [
          "draw_overlay_tile",
          4,
          3,
          1075,
          0,
          3120,
          0
        ],
        [
          "render_changes",
          0,
          0,
          0,
          0,
          0,
          0
        ],
        [
          "wait_ticks",
          1,
          0,
          29952,
          28781,
          20500,
          0
        ],
        [
          "clear_tile",
          4,
          3,
          1,
          28525,
          25974,
          0
        ],
        [
          "redraw_tile",
          4,
          3,
          25938,
          29284,
          30561,
          0
        ],
        [
          "render_changes",
          10304,
          232,
          0,
          0,
          0,
          0
        ]
      ]
    },
    {
      "triggers": [
        [
          "on_drag_item",
          9,
          5,
          1,
          86,
          609,
          0
        ],
        [
          "on_rand_var_neq",
          5,
          10,
          0,
          24914,
          25710,
          0
        ]
      ],
      "commands": [
        [
          "play_sound",
          3,
          0,
          29525,
          18789,
          25972,
          0
        ],
        [
          "draw_overlay_tile",
          9,
          5,
          1073,
          28005,
          20345,
          0
        ],
        [
          "render_changes",
          17,
          0,
          17487,
          8265,
          29263,
          0
        ],
        [
          "wait_ticks",
          1,
          132,
          0,
          0,
          0,
          0
        ],
        [
          "draw_overlay_tile",
          9,
          5,
          1074,
          0,
          3120,
          0
        ],
        [
          "render_changes",
          0,
          0,
          34452,
          132,
          0,
          0
        ],
        [
          "wait_ticks",
          1,
          1634,
          0,
          0,
          34396,
          0
        ],
        [
          "draw_overlay_tile",
          9,
          5,
          1075,
          0,
          3120,
          0
        ],
        [
          "render_changes",
          0,
          0,
          0,
          0,
          0,
          0
        ],
        [
          "wait_ticks",
          1,
          0,
          29952,
          28781,
          20500,
          0
        ],
        [
          "clear_tile",
          9,
          5,
          1,
          28525,
          25974,
          0
        ],
        [
          "redraw_tile",
          9,
          5,
          25938,
          29284,
          30561,
          0
        ],
        [
          "render_changes",
          10304,
          232,
          0,
          0,
          0,
          0
        ]
      ]
    },
    {
      "triggers": [
        [
          "on_drag_item",
          12,
          10,
          1,
          86,
          609,
          0
        ],
        [
          "on_rand_var_neq",
          6,
          10,
          0,
          24914,
          25710,
          0
        ]
      ],
      "commands": [
        [
          "play_sound",
          3,
          0,
          29525,
          18789,
          25972,
          0
        ],
        [
          "draw_overlay_tile",
          12,
          10,
          1073,
          28005,
          20345,
          0
        ],
        [
          "render_changes",
          17,
          0,
          17487,
          8265,
          29263,
          0
        ],
        [
          "wait_ticks",
          1,
          132,
          0,
          0,
          0,
          0
        ],
        [
          "draw_overlay_tile",
          12,
          10,
          1074,
          0,
          3120,
          0
        ],
        [
          "render_changes",
          0,
          0,
          34452,
          132,
          0,
          0
        ],
        [
          "wait_ticks",
          1,
          1634,
          0,
          0,
          34396,
          0
        ],
        [
          "draw_overlay_tile",
          12,
          10,
          1075,
          0,
          3120,
          0
        ],
        [
          "render_changes",
          0,
          0,
          0,
          0,
          0,
          0
        ],
        [
          "wait_ticks",
          1,
          0,
          29952,
          28781,
          20500,
          0
        ],
        [
          "clear_tile",
          12,
          10,
          1,
          28525,
          25974,
          0
        ],
        [
          "redraw_tile",
          12,
          10,
          25938,
          29284,
          30561,
          0
        ],
        [
          "render_changes",
          10304,
          232,
          0,
          0,
          0,
          0
        ]
      ]
    },
    {
      "triggers": [
        [
          "on_drag_item",
          4,
          3,
          1,
          86,
          609,
          0
        ],
        [
          "on_rand_var_eq",
          4,
          8,
          0,
          28229,
          28005,
          0
        ]
      ],
      "commands": [
        [
          "play_sound",
          3,
          0,
          29525,
          18789,
          25972,
          0
        ],
        [
          "draw_overlay_tile",
          4,
          3,
          1073,
          28005,
          20345,
          0
        ],
        [
          "render_changes",
          17,
          0,
          17487,
          8265,
          29263,
          0
        ],
        [
          "wait_ticks",
          1,
          132,
          0,
          0,
          0,
          0
        ],
        [
          "draw_overlay_tile",
          4,
          3,
          1074,
          0,
          3120,
          0
        ],
        [
          "render_changes",
          0,
          0,
          34452,
          132,
          0,
          0
        ],
        [
          "wait_ticks",
          1,
          1634,
          0,
          0,
          34396,
          0
        ],
        [
          "draw_overlay_tile",
          4,
          3,
          1075,
          0,
          3120,
          0
        ],
        [
          "render_changes",
          0,
          0,
          0,
          0,
          0,
          0
        ],
        [
          "wait_ticks",
          1,
          0,
          29952,
          28781,
          20500,
          0
        ],
        [
          "clear_tile",
          4,
          3,
          1,
          28525,
          25974,
          0
        ],
        [
          "redraw_tile",
          4,
          3,
          25938,
          29284,
          30561,
          0
        ],
        [
          "render_changes",
          10304,
          232,
          0,
          0,
          0,
          0
        ],
        [
          "spawn_item",
          65535,
          4,
          3,
          12602,
          20500,
          0
        ],
        [
          "remove_item_from_inv",
          609,
          0,
          26707,
          30575,
          20500,
          0
        ]
      ]
    },
    {
      "triggers": [
        [
          "on_drag_item",
          12,
          10,
          1,
          86,
          609,
          0
        ],
        [
          "on_rand_var_eq",
          6,
          19,
          0,
          25938,
          28525,
          0
        ]
      ],
      "commands": [
        [
          "play_sound",
          3,
          0,
          29525,
          18789,
          25972,
          0
        ],
        [
          "draw_overlay_tile",
          12,
          10,
          1073,
          28005,
          20345,
          0
        ],
        [
          "render_changes",
          17,
          0,
          17487,
          8265,
          29263,
          0
        ],
        [
          "wait_ticks",
          1,
          132,
          0,
          0,
          0,
          0
        ],
        [
          "draw_overlay_tile",
          12,
          10,
          1074,
          0,
          3120,
          0
        ],
        [
          "render_changes",
          0,
          0,
          34452,
          132,
          0,
          0
        ],
        [
          "wait_ticks",
          1,
          1634,
          0,
          0,
          34396,
          0
        ],
        [
          "draw_overlay_tile",
          12,
          10,
          1075,
          0,
          3120,
          0
        ],
        [
          "render_changes",
          0,
          0,
          0,
          0,
          0,
          0
        ],
        [
          "wait_ticks",
          1,
          0,
          29952,
          28781,
          20500,
          0
        ],
        [
          "clear_tile",
          12,
          10,
          1,
          28525,
          25974,
          0
        ],
        [
          "redraw_tile",
          12,
          10,
          25938,
          29284,
          30561,
          0
        ],
        [
          "render_changes",
          10304,
          232,
          0,
          0,
          0,
          0
        ],
        [
          "spawn_item",
          65535,
          12,
          10,
          28525,
          25974,
          0
        ],
        [
          "remove_item_from_inv",
          609,
          0,
          0,
          0,
          0,
          0
        ]
      ]
    },
    {
      "triggers": [
        [
          "on_drag_item",
          9,
          5,
          1,
          86,
          609,
          0
        ],
        [
          "on_rand_var_eq",
          5,
          0,
          0,
          820,
          0,
          0
        ]
      ],
      "commands": [
        [
          "play_sound",
          3,
          0,
          29525,
          18789,
          25972,
          0
        ],
        [
          "draw_overlay_tile",
          9,
          5,
          1073,
          28005,
          20345,
          0
        ],
        [
          "render_changes",
          17,
          0,
          17487,
          8265,
          29263,
          0
        ],
        [
          "wait_ticks",
          1,
          132,
          0,
          0,
          0,
          0
        ],
        [
          "draw_overlay_tile",
          9,
          5,
          1074,
          0,
          3120,
          0
        ],
        [
          "render_changes",
          0,
          0,
          34452,
          132,
          0,
          0
        ],
        [
          "wait_ticks",
          1,
          1634,
          0,
          0,
          34396,
          0
        ],
        [
          "draw_overlay_tile",
          9,
          5,
          1075,
          0,
          3120,
          0
        ],
        [
          "render_changes",
          0,
          0,
          0,
          0,
          0,
          0
        ],
        [
          "wait_ticks",
          1,
          0,
          29952,
          28781,
          20500,
          0
        ],
        [
          "clear_tile",
          9,
          5,
          1,
          28525,
          25974,
          0
        ],
        [
          "redraw_tile",
          9,
          5,
          25938,
          29284,
          30561,
          0
        ],
        [
          "render_changes",
          10304,
          232,
          0,
          0,
          0,
          0
        ],
        [
          "spawn_item",
          65535,
          9,
          5,
          0,
          0,
          0
        ],
        [
          "remove_item_from_inv",
          609,
          133,
          10848,
          133,
          10992,
          0
        ]
      ]
    }
  ],
  "tilemap": [
    [
      [
        403,
        65535,
        65535
      ],
      [
        403,
        65535,
        65535
      ],
      [
        403,
        65535,
        65535
      ],
      [
        403,
        65535,
        65535
      ],
      [
        403,
        65535,
        65535
      ],
      [
        403,
        65535,
        65535
      ],
      [
        403,
        65535,
        65535
      ],
      [
        403,
        65535,
        933
      ],
      [
        403,
        65535,
        65535
      ],
      [
        403,
        65535,
        65535
      ],
      [
        403,
        65535,
        65535
      ],
      [
        403,
        65535,
        65535
      ],
      [
        403,
        65535,
        65535
      ],
      [
        403,
        65535,
        933
      ],
      [
        403,
        65535,
        65535
      ],
      [
        403,
        65535,
        65535
      ],
      [
        403,
        65535,
        65535
      ],
      [
        403,
        65535,
        65535
      ]
    ],
    [
      [
        391,
        65535,
        65535
      ],
      [
        393,
        65535,
        65535
      ],
      [
        391,
        65535,
        65535
      ],
      [
        392,
        65535,
        65535
      ],
      [
        393,
        65535,
        65535
      ],
      [
        403,
        65535,
        65535
      ],
      [
        403,
        65535,
        65535
      ],
      [
        403,
        898,
        65535
      ],
      [
        403,
        65535,
        65535
      ],
      [
        403,
        65535,
        65535
      ],
      [
        403,
        65535,
        65535
      ],
      [
        403,
        65535,
        410
      ],
      [
        403,
        65535,
        65535
      ],
      [
        403,
        898,
        65535
      ],
      [
        1577,
        65535,
        65535
      ],
      [
        859,
        65535,
        871
      ],
      [
        861,
        65535,
        873
      ],
      [
        403,
        65535,
        65535
      ]
    ],
    [
      [
        394,
        65535,
        65535
      ],
      [
        396,
        65535,
        65535
      ],
      [
        394,
        65535,
        65535
      ],
      [
        401,
        65535,
        65535
      ],
      [
        400,
        65535,
        65535
      ],
      [
        393,
        65535,
        65535
      ],
      [
        403,
        65535,
        65535
      ],
      [
        403,
        65535,
        65535
      ],
      [
        403,
        65535,
        65535
      ],
      [
        403,
        65535,
        65535
      ],
      [
        403,
        65535,
        65535
      ],
      [
        403,
        355,
        411
      ],
      [
        403,
        65535,
        65535
      ],
      [
        859,
        65535,
        871
      ],
      [
        860,
        65535,
        872
      ],
      [
        867,
        65535,
        877
      ],
      [
        866,
        65535,
        876
      ],
      [
        403,
        65535,
        65535
      ]
    ],
    [
      [
        403,
        65535,
        65535
      ],
      [
        403,
        65535,
        65535
      ],
      [
        403,
        65535,
        65535
      ],
      [
        397,
        65535,
        65535
      ],
      [
        404,
        65535,
        65535
      ],
      [
        398,
        65535,
        65535
      ],
      [
        391,
        65535,
        65535
      ],
      [
        392,
        65535,
        65535
      ],
      [
        392,
        65535,
        65535
      ],
      [
        393,
        65535,
        65535
      ],
      [
        403,
        65535,
        65535
      ],
      [
        403,
        65535,
        65535
      ],
      [
        403,
        65535,
        65535
      ],
      [
        865,
        65535,
        883
      ],
      [
        858,
        65535,
        884
      ],
      [
        858,
        65535,
        884
      ],
      [
        864,
        65535,
        885
      ],
      [
        403,
        65535,
        65535
      ]
    ],
    [
      [
        403,
        65535,
        65535
      ],
      [
        859,
        65535,
        871
      ],
      [
        860,
        65535,
        872
      ],
      [
        394,
        65535,
        873
      ],
      [
        395,
        65535,
        65535
      ],
      [
        396,
        65535,
        65535
      ],
      [
        394,
        65535,
        65535
      ],
      [
        401,
        65535,
        65535
      ],
      [
        356,
        65535,
        65535
      ],
      [
        400,
        65535,
        65535
      ],
      [
        393,
        65535,
        65535
      ],
      [
        403,
        65535,
        65535
      ],
      [
        403,
        65535,
        65535
      ],
      [
        403,
        891,
        65535
      ],
      [
        403,
        892,
        65535
      ],
      [
        403,
        892,
        65535
      ],
      [
        861,
        893,
        65535
      ],
      [
        403,
        65535,
        65535
      ]
    ],
    [
      [
        403,
        65535,
        65535
      ],
      [
        403,
        65535,
        883
      ],
      [
        858,
        65535,
        884
      ],
      [
        403,
        65535,
        885
      ],
      [
        403,
        65535,
        65535
      ],
      [
        403,
        65535,
        65535
      ],
      [
        403,
        65535,
        408
      ],
      [
        394,
        65535,
        65535
      ],
      [
        401,
        65535,
        65535
      ],
      [
        404,
        65535,
        65535
      ],
      [
        398,
        65535,
        65535
      ],
      [
        403,
        65535,
        65535
      ],
      [
        403,
        65535,
        65535
      ],
      [
        879,
        65535,
        65535
      ],
      [
        880,
        65535,
        65535
      ],
      [
        880,
        65535,
        933
      ],
      [
        881,
        65535,
        65535
      ],
      [
        403,
        65535,
        65535
      ]
    ],
    [
      [
        403,
        65535,
        65535
      ],
      [
        1577,
        891,
        65535
      ],
      [
        403,
        892,
        65535
      ],
      [
        861,
        893,
        65535
      ],
      [
        1575,
        65535,
        65535
      ],
      [
        403,
        65535,
        65535
      ],
      [
        403,
        409,
        65535
      ],
      [
        403,
        65535,
        65535
      ],
      [
        394,
        65535,
        65535
      ],
      [
        395,
        65535,
        65535
      ],
      [
        396,
        65535,
        65535
      ],
      [
        403,
        65535,
        65535
      ],
      [
        403,
        65535,
        65535
      ],
      [
        403,
        65535,
        408
      ],
      [
        403,
        65535,
        65535
      ],
      [
        403,
        898,
        65535
      ],
      [
        403,
        65535,
        65535
      ],
      [
        403,
        65535,
        65535
      ]
    ],
    [
      [
        403,
        65535,
        65535
      ],
      [
        879,
        65535,
        65535
      ],
      [
        880,
        65535,
        65535
      ],
      [
        881,
        65535,
        65535
      ],
      [
        403,
        65535,
        65535
      ],
      [
        403,
        65535,
        65535
      ],
      [
        391,
        65535,
        65535
      ],
      [
        393,
        65535,
        65535
      ],
      [
        403,
        65535,
        65535
      ],
      [
        1577,
        65535,
        65535
      ],
      [
        403,
        65535,
        65535
      ],
      [
        391,
        65535,
        65535
      ],
      [
        393,
        65535,
        65535
      ],
      [
        403,
        409,
        65535
      ],
      [
        403,
        65535,
        65535
      ],
      [
        403,
        65535,
        65535
      ],
      [
        403,
        65535,
        65535
      ],
      [
        403,
        65535,
        65535
      ]
    ],
    [
      [
        403,
        65535,
        65535
      ],
      [
        403,
        65535,
        65535
      ],
      [
        403,
        65535,
        65535
      ],
      [
        403,
        374,
        65535
      ],
      [
        403,
        375,
        65535
      ],
      [
        403,
        376,
        65535
      ],
      [
        394,
        65535,
        65535
      ],
      [
        396,
        65535,
        65535
      ],
      [
        403,
        65535,
        65535
      ],
      [
        391,
        65535,
        65535
      ],
      [
        393,
        65535,
        65535
      ],
      [
        397,
        65535,
        65535
      ],
      [
        400,
        65535,
        65535
      ],
      [
        393,
        65535,
        65535
      ],
      [
        403,
        65535,
        65535
      ],
      [
        403,
        65535,
        65535
      ],
      [
        403,
        65535,
        933
      ],
      [
        403,
        65535,
        65535
      ]
    ],
    [
      [
        403,
        65535,
        65535
      ],
      [
        1576,
        65535,
        65535
      ],
      [
        403,
        374,
        65535
      ],
      [
        403,
        382,
        65535
      ],
      [
        403,
        385,
        65535
      ],
      [
        379,
        65535,
        65535
      ],
      [
        403,
        65535,
        933
      ],
      [
        403,
        65535,
        65535
      ],
      [
        403,
        65535,
        65535
      ],
      [
        397,
        65535,
        65535
      ],
      [
        400,
        65535,
        65535
      ],
      [
        399,
        65535,
        65535
      ],
      [
        356,
        65535,
        65535
      ],
      [
        398,
        65535,
        65535
      ],
      [
        403,
        65535,
        410
      ],
      [
        403,
        65535,
        65535
      ],
      [
        403,
        898,
        65535
      ],
      [
        403,
        65535,
        65535
      ]
    ],
    [
      [
        403,
        65535,
        65535
      ],
      [
        403,
        65535,
        65535
      ],
      [
        377,
        65535,
        65535
      ],
      [
        403,
        384,
        65535
      ],
      [
        403,
        383,
        65535
      ],
      [
        403,
        376,
        65535
      ],
      [
        403,
        898,
        65535
      ],
      [
        403,
        65535,
        65535
      ],
      [
        403,
        65535,
        65535
      ],
      [
        397,
        65535,
        65535
      ],
      [
        0,
        65535,
        65535
      ],
      [
        357,
        65535,
        65535
      ],
      [
        404,
        65535,
        65535
      ],
      [
        398,
        65535,
        65535
      ],
      [
        1578,
        411,
        65535
      ],
      [
        403,
        65535,
        65535
      ],
      [
        403,
        65535,
        65535
      ],
      [
        403,
        65535,
        65535
      ]
    ],
    [
      [
        403,
        65535,
        65535
      ],
      [
        403,
        374,
        65535
      ],
      [
        403,
        375,
        65535
      ],
      [
        403,
        382,
        65535
      ],
      [
        403,
        385,
        65535
      ],
      [
        379,
        65535,
        65535
      ],
      [
        403,
        65535,
        65535
      ],
      [
        403,
        65535,
        65535
      ],
      [
        403,
        65535,
        408
      ],
      [
        394,
        65535,
        65535
      ],
      [
        401,
        65535,
        65535
      ],
      [
        0,
        65535,
        65535
      ],
      [
        358,
        65535,
        65535
      ],
      [
        400,
        65535,
        65535
      ],
      [
        393,
        65535,
        65535
      ],
      [
        403,
        65535,
        65535
      ],
      [
        403,
        65535,
        65535
      ],
      [
        403,
        65535,
        65535
      ]
    ],
    [
      [
        403,
        65535,
        65535
      ],
      [
        377,
        65535,
        65535
      ],
      [
        403,
        384,
        65535
      ],
      [
        403,
        387,
        65535
      ],
      [
        403,
        381,
        65535
      ],
      [
        403,
        65535,
        65535
      ],
      [
        403,
        390,
        65535
      ],
      [
        403,
        65535,
        65535
      ],
      [
        403,
        409,
        65535
      ],
      [
        403,
        65535,
        65535
      ],
      [
        397,
        65535,
        65535
      ],
      [
        403,
        1890,
        65535
      ],
      [
        403,
        1891,
        65535
      ],
      [
        406,
        65535,
        65535
      ],
      [
        398,
        65535,
        65535
      ],
      [
        403,
        65535,
        65535
      ],
      [
        403,
        65535,
        65535
      ],
      [
        403,
        65535,
        65535
      ]
    ],
    [
      [
        403,
        65535,
        65535
      ],
      [
        403,
        374,
        65535
      ],
      [
        403,
        382,
        65535
      ],
      [
        403,
        385,
        65535
      ],
      [
        379,
        65535,
        933
      ],
      [
        403,
        374,
        65535
      ],
      [
        403,
        375,
        65535
      ],
      [
        403,
        376,
        65535
      ],
      [
        403,
        65535,
        65535
      ],
      [
        403,
        65535,
        65535
      ],
      [
        397,
        65535,
        65535
      ],
      [
        1892,
        355,
        65535
      ],
      [
        1893,
        355,
        65535
      ],
      [
        402,
        65535,
        65535
      ],
      [
        396,
        65535,
        65535
      ],
      [
        403,
        65535,
        871
      ],
      [
        403,
        65535,
        873
      ],
      [
        403,
        65535,
        65535
      ]
    ],
    [
      [
        403,
        65535,
        65535
      ],
      [
        403,
        380,
        65535
      ],
      [
        403,
        386,
        65535
      ],
      [
        403,
        381,
        65535
      ],
      [
        1575,
        898,
        65535
      ],
      [
        403,
        380,
        65535
      ],
      [
        403,
        387,
        65535
      ],
      [
        403,
        381,
        65535
      ],
      [
        403,
        65535,
        410
      ],
      [
        403,
        65535,
        65535
      ],
      [
        394,
        65535,
        65535
      ],
      [
        395,
        65535,
        65535
      ],
      [
        395,
        65535,
        65535
      ],
      [
        396,
        65535,
        65535
      ],
      [
        403,
        65535,
        65535
      ],
      [
        403,
        65535,
        883
      ],
      [
        403,
        65535,
        885
      ],
      [
        403,
        65535,
        65535
      ]
    ],
    [
      [
        403,
        65535,
        65535
      ],
      [
        377,
        65535,
        65535
      ],
      [
        378,
        384,
        65535
      ],
      [
        379,
        383,
        65535
      ],
      [
        403,
        375,
        65535
      ],
      [
        403,
        382,
        65535
      ],
      [
        403,
        385,
        65535
      ],
      [
        379,
        65535,
        65535
      ],
      [
        403,
        411,
        65535
      ],
      [
        403,
        65535,
        65535
      ],
      [
        403,
        65535,
        65535
      ],
      [
        403,
        65535,
        65535
      ],
      [
        403,
        65535,
        65535
      ],
      [
        403,
        65535,
        65535
      ],
      [
        403,
        65535,
        65535
      ],
      [
        1579,
        891,
        65535
      ],
      [
        861,
        893,
        65535
      ],
      [
        403,
        65535,
        65535
      ]
    ],
    [
      [
        403,
        65535,
        65535
      ],
      [
        403,
        65535,
        65535
      ],
      [
        377,
        65535,
        65535
      ],
      [
        378,
        65535,
        65535
      ],
      [
        378,
        65535,
        65535
      ],
      [
        378,
        65535,
        65535
      ],
      [
        379,
        65535,
        65535
      ],
      [
        403,
        65535,
        65535
      ],
      [
        403,
        65535,
        65535
      ],
      [
        403,
        65535,
        65535
      ],
      [
        403,
        65535,
        65535
      ],
      [
        1579,
        65535,
        65535
      ],
      [
        403,
        65535,
        65535
      ],
      [
        403,
        65535,
        65535
      ],
      [
        403,
        65535,
        65535
      ],
      [
        879,
        65535,
        65535
      ],
      [
        881,
        65535,
        65535
      ],
      [
        403,
        65535,
        65535
      ]
    ],
    [
      [
        403,
        65535,
        65535
      ],
      [
        403,
        65535,
        65535
      ],
      [
        403,
        65535,
        65535
      ],
      [
        403,
        65535,
        65535
      ],
      [
        403,
        65535,
        65535
      ],
      [
        403,
        65535,
        65535
      ],
      [
        403,
        65535,
        65535
      ],
      [
        403,
        65535,
        65535
      ],
      [
        403,
        65535,
        65535
      ],
      [
        403,
        65535,
        65535
      ],
      [
        403,
        65535,
        65535
      ],
      [
        403,
        65535,
        65535
      ],
      [
        403,
        65535,
        65535
      ],
      [
        403,
        65535,
        65535
      ],
      [
        403,
        65535,
        65535
      ],
      [
        403,
        65535,
        65535
      ],
      [
        403,
        65535,
        65535
      ],
      [
        403,
        65535,
        65535
      ]
    ],
    []
  ]
}