{
  "zoneId": 526,
  "zoneType": 3,
  "width": 18,
  "height": 18,
  "type": 17,
  "world": 3,
  "objects": [
    {
      "type": 9,
      "x": 10,
      "y": 10,
      "unknown": 1,
      "param": 564
    },
    {
      "type": 0,
      "x": 9,
      "y": 9,
      "unknown": 1,
      "param": 65535
    }
  ],
  "actions": [
    {
      "triggers": [
        [
          "on_first_enter",
          258,
          0,
          0,
          53544,
          257,
          0
        ]
      ],
      "commands": [
        [
          "hide_all_entities",
          0,
          0,
          0,
          0,
          0,
          0
        ],
        [
          "random",
          3,
          0,
          26708,
          28530,
          21111,
          0
        ],
        [
          "set_global_var",
          0,
          0,
          25939,
          18292,
          28524,
          0
        ]
      ]
    },
    {
      "triggers": [
        [
          "on_first_enter",
          0,
          3152,
          190,
          0,
          0,
          0
        ],
        [
          "on_rand_var_eq",
          3,
          10,
          0,
          25939,
          17268,
          0
        ]
      ],
      "commands": [
        [
          "set_global_var",
          1,
          0,
          0,
          0,
          0,
          0
        ]
      ]
    },
    {
      "triggers": [
        [
          "on_bump_tile",
          8,
          3,
          373,
          30018,
          28781,
          0
        ],
        [
          "on_temp_var_eq",
          2,
          8,
          0,
          28483,
          28277,
          0
        ]
      ],
      "commands": [
        [
          "play_sound",
          4,
          0,
          27728,
          31073,
          28499,
          0
        ],
        [
          "add_health",
          65526,
          0,
          25665,
          21604,
          18543,
          0
        ]
      ]
    },
    {
      "triggers": [
        [
          "on_bump_tile",
          8,
          3,
          373,
          30018,
          28781,
          0
        ],
        [
          "on_temp_var_eq",
          1,
          8,
          0,
          28483,
          28277,
          0
        ]
      ],
      "commands": [
        [
          "play_sound",
          4,
          0,
          27728,
          31073,
          28499,
          0
        ],
        [
          "add_health",
          65526,
          0,
          25665,
          21604,
          18543,
          0
        ],
        [
          "say_text",
          8,
          0,
          26707,
          30575,
          25940,
          59
        ],
        [
          "set_temp_var",
          2,
          0,
          25939,
          17268,
          30063,
          0
        ]
      ]
    },
    {
      "triggers": [
        [
          "on_bump_tile",
          8,
          3,
          373,
          30018,
          28781,
          0
        ],
        [
          "on_temp_var_eq",
          0,
          8,
          0,
          28483,
          28277,
          0
        ]
      ],
      "commands": [
        [
          "play_sound",
          4,
          0,
          27728,
          31073,
          28499,
          0
        ],
        [
          "add_health",
          65526,
          0,
          25665,
          21604,
          18543,
          0
        ],
        [
          "say_text",
          8,
          0,
          26707,
          30575,
          25940,
          67
        ],
        [
          "set_temp_var",
          1,
          0,
          25939,
          17268,
          30063,
          0
        ]
      ]
    },
    {
      "triggers": [
        [
          "on_bump_tile",
          12,
          5,
          381,
          30018,
          28781,
          0
        ],
        [
          "on_temp_var_neq",
          10,
          1,
          0,
          0,
          0,
          0
        ],
        [
          "on_temp_var_neq",
          11,
          0,
          0,
          20500,
          70,
          0
        ]
      ],
      "commands": [
        [
          "say_text",
          8,
          0,
          26707,
          30575,
          25940,
          46
        ]
      ]
    },
    {
      "triggers": [
        [
          "on_drag_item",
          10,
          5,
          0,
          377,
          511,
          0
        ]
      ],
      "commands": [
        [
          "play_sound",
          1,
          0,
          0,
          0,
          12337,
          0
        ],
        [
          "move_map_tile",
          9,
          5,
          1,
          10,
          5,
          0
        ],
        [
          "set_tile",
          9,
          5,
          1,
          1426,
          25441,
          0
        ],
        [
          "redraw_tiles",
          9,
          5,
          10,
          5,
          30561,
          0
        ],
        [
          "render_changes",
          44,
          110,
          6620,
          258,
          0,
          0
        ],
        [
          "wait_ticks",
          2,
          0,
          24919,
          29801,
          28486,
          0
        ],
        [
          "clear_tile",
          8,
          3,
          1,
          28525,
          25974,
          0
        ],
        [
          "set_tile",
          7,
          3,
          2,
          294,
          25441,
          0
        ],
        [
          "set_tile",
          9,
          3,
          2,
          294,
          25441,
          0
        ],
        [
          "clear_tile",
          10,
          10,
          1,
          28525,
          25974,
          0
        ],
        [
          "redraw_tile",
          10,
          10,
          25938,
          29284,
          30561,
          0
        ],
        [
          "redraw_tiles",
          7,
          3,
          9,
          3,
          30561,
          0
        ],
        [
          "render_changes",
          0,
          0,
          6720,
          258,
          0,
          0
        ],
        [
          "wait_ticks",
          4,
          0,
          24919,
          29801,
          28486,
          0
        ],
        [
          "play_sound",
          16,
          0,
          27728,
          31073,
          28499,
          0
        ],
        [
          "say_text",
          8,
          0,
          26707,
          30575,
          25940,
          25
        ],
        [
          "set_temp_var",
          10,
          0,
          25939,
          17268,
          30063,
          0
        ],
        [
          "flag_once",
          0,
          0,
          6912,
          258,
          0,
          0
        ]
      ]
    },
    {
      "triggers": [
        [
          "on_temp_var_eq",
          10,
          8,
          0,
          28483,
          28277,
          0
        ],
        [
          "on_rand_var_eq",
          1,
          8,
          0,
          24914,
          25710,
          0
        ]
      ],
      "commands": [
        [
          "show_entity",
          0,
          11312,
          12576,
          10545,
          20480,
          0
        ],
        [
          "show_entity",
          2,
          22560,
          8250,
          12337,
          22816,
          0
        ],
        [
          "show_entity",
          3,
          0,
          28486,
          25970,
          29811,
          0
        ],
        [
          "show_entity",
          4,
          0,
          0,
          0,
          0,
          0
        ],
        [
          "show_entity",
          5,
          0,
          28486,
          25970,
          29811,
          0
        ],
        [
          "show_entity",
          6,
          22560,
          8250,
          14128,
          22816,
          0
        ],
        [
          "show_entity",
          7,
          0,
          30035,
          25968,
          21618,
          0
        ],
        [
          "show_entity",
          8,
          22560,
          8250,
          14384,
          22816,
          0
        ],
        [
          "set_temp_var",
          11,
          0,
          0,
          0,
          0,
          0
        ]
      ]
    },
    {
      "triggers": [
        [
          "on_temp_var_eq",
          10,
          8,
          0,
          28483,
          28277,
          0
        ],
        [
          "on_rand_var_eq",
          2,
          8,
          0,
          24914,
          25710,
          0
        ]
      ],
      "commands": [
        [
          "show_entity",
          1,
          11312,
          12576,
          10545,
          20480,
          0
        ],
        [
          "show_entity",
          2,
          22560,
          8250,
          12337,
          22816,
          0
        ],
        [
          "show_entity",
          3,
          0,
          28486,
          25970,
          29811,
          0
        ],
        [
          "show_entity",
          4,
          0,
          0,
          0,
          0,
          0
        ],
        [
          "show_entity",
          5,
          0,
          28486,
          25970,
          29811,
          0
        ],
        [
          "show_entity",
          6,
          22560,
          8250,
          14128,
          22816,
          0
        ],
        [
          "show_entity",
          7,
          0,
          30035,
          25968,
          21618,
          0
        ],
        [
          "show_entity",
          8,
          22560,
          8250,
          14384,
          22816,
          0
        ],
        [
          "set_temp_var",
          11,
          0,
          0,
          0,
          0,
          0
        ]
      ]
    },
    {
      "triggers": [
        [
          "on_temp_var_eq",
          10,
          8,
          0,
          28483,
          28277,
          0
        ],
        [
          "on_rand_var_eq",
          3,
          8,
          0,
          24914,
          25710,
          0
        ]
      ],
      "commands": [
        [
          "show_entity",
          2,
          22560,
          8250,
          12337,
          22816,
          0
        ],
        [
          "show_entity",
          3,
          0,
          28486,
          25970,
          29811,
          0
        ],
        [
          "show_entity",
          4,
          0,
          0,
          0,
          0,
          0
        ],
        [
          "show_entity",
          5,
          0,
          28486,
          25970,
          29811,
          0
        ],
        [
          "show_entity",
          6,
          22560,
          8250,
          14128,
          22816,
          0
        ],
        [
          "show_entity",
          7,
          0,
          30035,
          25968,
          21618,
          0
        ],
        [
          "show_entity",
          8,
          22560,
          8250,
          14384,
          22816,
          0
        ],
        [
          "set_temp_var",
          11,
          0,
          0,
          0,
          0,
          0
        ]
      ]
    }
  ],
  "tilemap": [
    [
      [
        403,
        65535,
        65535
      ],
      [
        403,
        65535,
        65535
      ],
      [
        403,
        65535,
        65535
      ],
      [
        403,
        65535,
        65535
      ],
      [
        403,
        65535,
        1137
      ],
      [
        403,
        65535,
        65535
      ],
      [
        403,
        65535,
        65535
      ],
      [
        403,
        65535,
        65535
      ],
      [
        403,
        65535,
        65535
      ],
      [
        403,
        65535,
        65535
      ],
      [
        403,
        65535,
        65535
      ],
      [
        403,
        65535,
        65535
      ],
      [
        403,
        65535,
        65535
      ],
      [
        403,
        65535,
        65535
      ],
      [
        403,
        65535,
        65535
      ],
      [
        403,
        65535,
        65535
      ],
      [
        403,
        65535,
        65535
      ],
      [
        403,
        65535,
        65535
      ]
    ],
    [
      [
        403,
        65535,
        65535
      ],
      [
        403,
        374,
        944
      ],
      [
        403,
        375,
        945
      ],
      [
        403,
        376,
        946
      ],
      [
        403,
        374,
        1138
      ],
      [
        403,
        375,
        65535
      ],
      [
        403,
        375,
        65535
      ],
      [
        403,
        376,
        65535
      ],
      [
        1579,
        65535,
        65535
      ],
      [
        403,
        374,
        65535
      ],
      [
        403,
        375,
        65535
      ],
      [
        403,
        375,
        65535
      ],
      [
        403,
        376,
        944
      ],
      [
        403,
        374,
        945
      ],
      [
        403,
        375,
        946
      ],
      [
        403,
        375,
        65535
      ],
      [
        403,
        376,
        65535
      ],
      [
        403,
        65535,
        65535
      ]
    ],
    [
      [
        1578,
        65535,
        65535
      ],
      [
        403,
        380,
        941
      ],
      [
        403,
        387,
        900
      ],
      [
        403,
        383,
        943
      ],
      [
        403,
        382,
        65535
      ],
      [
        403,
        386,
        65535
      ],
      [
        403,
        387,
        65535
      ],
      [
        403,
        381,
        65535
      ],
      [
        403,
        65535,
        65535
      ],
      [
        403,
        380,
        65535
      ],
      [
        403,
        387,
        65535
      ],
      [
        403,
        386,
        65535
      ],
      [
        403,
        383,
        941
      ],
      [
        403,
        382,
        900
      ],
      [
        403,
        386,
        943
      ],
      [
        403,
        389,
        65535
      ],
      [
        403,
        381,
        65535
      ],
      [
        403,
        65535,
        65535
      ]
    ],
    [
      [
        403,
        65535,
        65535
      ],
      [
        403,
        380,
        65535
      ],
      [
        403,
        386,
        1023
      ],
      [
        403,
        387,
        65535
      ],
      [
        403,
        386,
        65535
      ],
      [
        403,
        387,
        65535
      ],
      [
        403,
        389,
        65535
      ],
      [
        403,
        381,
        287
      ],
      [
        403,
        373,
        65535
      ],
      [
        403,
        380,
        289
      ],
      [
        403,
        386,
        65535
      ],
      [
        403,
        387,
        65535
      ],
      [
        403,
        386,
        65535
      ],
      [
        403,
        387,
        1023
      ],
      [
        403,
        385,
        65535
      ],
      [
        378,
        65535,
        65535
      ],
      [
        379,
        1580,
        65535
      ],
      [
        403,
        65535,
        65535
      ]
    ],
    [
      [
        403,
        65535,
        65535
      ],
      [
        377,
        65535,
        65535
      ],
      [
        378,
        901,
        65535
      ],
      [
        403,
        384,
        65535
      ],
      [
        403,
        385,
        65535
      ],
      [
        403,
        384,
        65535
      ],
      [
        403,
        387,
        65535
      ],
      [
        403,
        381,
        65535
      ],
      [
        403,
        65535,
        65535
      ],
      [
        377,
        355,
        1425
      ],
      [
        403,
        384,
        65535
      ],
      [
        403,
        386,
        65535
      ],
      [
        403,
        385,
        65535
      ],
      [
        378,
        901,
        65535
      ],
      [
        379,
        65535,
        65535
      ],
      [
        403,
        65535,
        1137
      ],
      [
        403,
        65535,
        65535
      ],
      [
        403,
        65535,
        65535
      ]
    ],
    [
      [
        403,
        65535,
        65535
      ],
      [
        403,
        65535,
        65535
      ],
      [
        403,
        374,
        65535
      ],
      [
        403,
        382,
        65535
      ],
      [
        403,
        383,
        65535
      ],
      [
        403,
        382,
        65535
      ],
      [
        403,
        386,
        65535
      ],
      [
        403,
        381,
        65535
      ],
      [
        403,
        65535,
        65535
      ],
      [
        403,
        1403,
        65535
      ],
      [
        377,
        65535,
        65535
      ],
      [
        403,
        384,
        65535
      ],
      [
        403,
        381,
        65535
      ],
      [
        403,
        65535,
        65535
      ],
      [
        403,
        65535,
        65535
      ],
      [
        403,
        1138,
        65535
      ],
      [
        1579,
        65535,
        65535
      ],
      [
        403,
        65535,
        65535
      ]
    ],
    [
      [
        403,
        65535,
        65535
      ],
      [
        1579,
        65535,
        65535
      ],
      [
        403,
        380,
        65535
      ],
      [
        403,
        385,
        65535
      ],
      [
        403,
        384,
        65535
      ],
      [
        403,
        386,
        65535
      ],
      [
        403,
        385,
        65535
      ],
      [
        379,
        65535,
        65535
      ],
      [
        403,
        65535,
        65535
      ],
      [
        403,
        65535,
        65535
      ],
      [
        1577,
        65535,
        65535
      ],
      [
        403,
        380,
        65535
      ],
      [
        403,
        383,
        65535
      ],
      [
        403,
        375,
        65535
      ],
      [
        403,
        375,
        65535
      ],
      [
        379,
        376,
        65535
      ],
      [
        403,
        65535,
        65535
      ],
      [
        403,
        65535,
        65535
      ]
    ],
    [
      [
        403,
        65535,
        65535
      ],
      [
        403,
        374,
        65535
      ],
      [
        403,
        382,
        65535
      ],
      [
        403,
        381,
        65535
      ],
      [
        403,
        380,
        65535
      ],
      [
        403,
        385,
        65535
      ],
      [
        379,
        65535,
        65535
      ],
      [
        403,
        65535,
        65535
      ],
      [
        403,
        65535,
        1549
      ],
      [
        403,
        1547,
        65535
      ],
      [
        403,
        1547,
        65535
      ],
      [
        377,
        1547,
        65535
      ],
      [
        403,
        389,
        1550
      ],
      [
        403,
        387,
        65535
      ],
      [
        403,
        386,
        65535
      ],
      [
        403,
        383,
        65535
      ],
      [
        403,
        376,
        65535
      ],
      [
        403,
        65535,
        65535
      ]
    ],
    [
      [
        403,
        65535,
        65535
      ],
      [
        403,
        380,
        65535
      ],
      [
        403,
        387,
        65535
      ],
      [
        403,
        381,
        65535
      ],
      [
        403,
        380,
        65535
      ],
      [
        403,
        381,
        65535
      ],
      [
        1578,
        65535,
        65535
      ],
      [
        1579,
        65535,
        65535
      ],
      [
        403,
        1546,
        65535
      ],
      [
        403,
        1547,
        65535
      ],
      [
        403,
        1547,
        65535
      ],
      [
        403,
        1547,
        65535
      ],
      [
        377,
        1548,
        65535
      ],
      [
        378,
        65535,
        65535
      ],
      [
        403,
        384,
        65535
      ],
      [
        403,
        386,
        65535
      ],
      [
        403,
        381,
        65535
      ],
      [
        403,
        65535,
        65535
      ]
    ],
    [
      [
        403,
        65535,
        65535
      ],
      [
        377,
        65535,
        65535
      ],
      [
        378,
        65535,
        1137
      ],
      [
        379,
        65535,
        65535
      ],
      [
        403,
        380,
        944
      ],
      [
        403,
        383,
        945
      ],
      [
        403,
        376,
        946
      ],
      [
        403,
        65535,
        65535
      ],
      [
        403,
        1546,
        65535
      ],
      [
        403,
        1547,
        65535
      ],
      [
        403,
        1547,
        65535
      ],
      [
        403,
        1547,
        65535
      ],
      [
        403,
        1548,
        65535
      ],
      [
        403,
        374,
        65535
      ],
      [
        403,
        382,
        65535
      ],
      [
        403,
        387,
        65535
      ],
      [
        403,
        381,
        65535
      ],
      [
        403,
        65535,
        65535
      ]
    ],
    [
      [
        403,
        65535,
        65535
      ],
      [
        403,
        65535,
        65535
      ],
      [
        403,
        374,
        1138
      ],
      [
        403,
        375,
        65535
      ],
      [
        403,
        376,
        941
      ],
      [
        403,
        384,
        900
      ],
      [
        403,
        381,
        943
      ],
      [
        1577,
        65535,
        65535
      ],
      [
        403,
        1541,
        65535
      ],
      [
        403,
        1542,
        65535
      ],
      [
        1543,
        1544,
        65535
      ],
      [
        403,
        1542,
        178
      ],
      [
        403,
        1545,
        1137
      ],
      [
        403,
        380,
        65535
      ],
      [
        403,
        387,
        65535
      ],
      [
        403,
        385,
        65535
      ],
      [
        379,
        65535,
        65535
      ],
      [
        403,
        65535,
        65535
      ]
    ],
    [
      [
        403,
        65535,
        65535
      ],
      [
        1578,
        65535,
        65535
      ],
      [
        377,
        65535,
        65535
      ],
      [
        403,
        384,
        65535
      ],
      [
        403,
        383,
        65535
      ],
      [
        403,
        382,
        1023
      ],
      [
        403,
        383,
        65535
      ],
      [
        403,
        376,
        65535
      ],
      [
        1579,
        65535,
        65535
      ],
      [
        1578,
        65535,
        65535
      ],
      [
        403,
        65535,
        65535
      ],
      [
        403,
        355,
        179
      ],
      [
        403,
        1138,
        65535
      ],
      [
        403,
        380,
        65535
      ],
      [
        403,
        386,
        65535
      ],
      [
        403,
        381,
        65535
      ],
      [
        403,
        65535,
        65535
      ],
      [
        1579,
        65535,
        65535
      ]
    ],
    [
      [
        403,
        65535,
        65535
      ],
      [
        403,
        374,
        65535
      ],
      [
        403,
        376,
        65535
      ],
      [
        377,
        65535,
        1137
      ],
      [
        378,
        65535,
        65535
      ],
      [
        378,
        901,
        65535
      ],
      [
        403,
        384,
        65535
      ],
      [
        403,
        383,
        65535
      ],
      [
        403,
        376,
        65535
      ],
      [
        403,
        65535,
        65535
      ],
      [
        374,
        65535,
        65535
      ],
      [
        403,
        375,
        65535
      ],
      [
        403,
        376,
        65535
      ],
      [
        403,
        380,
        65535
      ],
      [
        403,
        387,
        65535
      ],
      [
        403,
        383,
        65535
      ],
      [
        403,
        376,
        65535
      ],
      [
        403,
        65535,
        65535
      ]
    ],
    [
      [
        403,
        65535,
        65535
      ],
      [
        403,
        380,
        899
      ],
      [
        403,
        383,
        65535
      ],
      [
        403,
        376,
        1138
      ],
      [
        403,
        65535,
        65535
      ],
      [
        403,
        374,
        65535
      ],
      [
        403,
        382,
        65535
      ],
      [
        403,
        387,
        65535
      ],
      [
        403,
        383,
        65535
      ],
      [
        403,
        375,
        65535
      ],
      [
        403,
        382,
        65535
      ],
      [
        403,
        387,
        65535
      ],
      [
        403,
        383,
        65535
      ],
      [
        403,
        382,
        65535
      ],
      [
        403,
        389,
        65535
      ],
      [
        403,
        387,
        65535
      ],
      [
        403,
        381,
        65535
      ],
      [
        403,
        65535,
        65535
      ]
    ],
    [
      [
        403,
        65535,
        65535
      ],
      [
        377,
        65535,
        1815
      ],
      [
        403,
        384,
        65535
      ],
      [
        403,
        381,
        65535
      ],
      [
        403,
        65535,
        65535
      ],
      [
        403,
        380,
        65535
      ],
      [
        403,
        387,
        65535
      ],
      [
        403,
        386,
        65535
      ],
      [
        403,
        387,
        1137
      ],
      [
        403,
        386,
        899
      ],
      [
        403,
        385,
        65535
      ],
      [
        403,
        384,
        65535
      ],
      [
        403,
        387,
        65535
      ],
      [
        403,
        386,
        65535
      ],
      [
        403,
        387,
        1137
      ],
      [
        403,
        386,
        65535
      ],
      [
        403,
        381,
        65535
      ],
      [
        403,
        65535,
        65535
      ]
    ],
    [
      [
        1578,
        65535,
        65535
      ],
      [
        403,
        898,
        65535
      ],
      [
        403,
        380,
        65535
      ],
      [
        403,
        381,
        65535
      ],
      [
        374,
        65535,
        65535
      ],
      [
        403,
        382,
        65535
      ],
      [
        403,
        386,
        65535
      ],
      [
        403,
        385,
        65535
      ],
      [
        378,
        1138,
        65535
      ],
      [
        378,
        65535,
        1815
      ],
      [
        379,
        65535,
        65535
      ],
      [
        403,
        380,
        1137
      ],
      [
        403,
        386,
        65535
      ],
      [
        403,
        385,
        65535
      ],
      [
        378,
        1138,
        65535
      ],
      [
        378,
        65535,
        65535
      ],
      [
        379,
        65535,
        65535
      ],
      [
        403,
        65535,
        65535
      ]
    ],
    [
      [
        403,
        65535,
        65535
      ],
      [
        403,
        65535,
        65535
      ],
      [
        377,
        65535,
        65535
      ],
      [
        379,
        65535,
        65535
      ],
      [
        377,
        65535,
        65535
      ],
      [
        378,
        65535,
        65535
      ],
      [
        378,
        65535,
        65535
      ],
      [
        379,
        65535,
        65535
      ],
      [
        403,
        65535,
        65535
      ],
      [
        403,
        898,
        65535
      ],
      [
        1579,
        65535,
        65535
      ],
      [
        377,
        1138,
        65535
      ],
      [
        378,
        65535,
        65535
      ],
      [
        379,
        65535,
        65535
      ],
      [
        403,
        65535,
        65535
      ],
      [
        1577,
        65535,
        65535
      ],
      [
        403,
        65535,
        65535
      ],
      [
        403,
        65535,
        65535
      ]
    ],
    [
      [
        403,
        65535,
        65535
      ],
      [
        403,
        65535,
        65535
      ],
      [
        403,
        65535,
        65535
      ],
      [
        1579,
        65535,
        65535
      ],
      [
        403,
        65535,
        65535
      ],
      [
        403,
        65535,
        65535
      ],
      [
        403,
        1580,
        65535
      ],
      [
        403,
        65535,
        65535
      ],
      [
        403,
        65535,
        65535
      ],
      [
        403,
        65535,
        65535
      ],
      [
        403,
        65535,
        65535
      ],
      [
        403,
        65535,
        65535
      ],
      [
        403,
        65535,
        65535
      ],
      [
        403,
        65535,
        65535
      ],
      [
        403,
        65535,
        65535
      ],
      [
        403,
        65535,
        65535
      ],
      [
        403,
        65535,
        65535
      ],
      [
        403,
        65535,
        65535
      ]
    ],
    []
  ]
}