{
  "zoneId": 583,
  "zoneType": 3,
  "width": 18,
  "height": 18,
  "type": 1,
  "world": 3,
  "objects": [],
  "actions": [],
  "tilemap": [
    [
      [
        403,
        65535,
        65535
      ],
      [
        391,
        65535,
        65535
      ],
      [
        392,
        65535,
        65535
      ],
      [
        392,
        65535,
        65535
      ],
      [
        392,
        65535,
        65535
      ],
      [
        393,
        65535,
        65535
      ],
      [
        403,
        65535,
        65535
      ],
      [
        391,
        65535,
        65535
      ],
      [
        392,
        65535,
        65535
      ],
      [
        392,
        65535,
        65535
      ],
      [
        393,
        65535,
        65535
      ],
      [
        403,
        65535,
        65535
      ],
      [
        403,
        65535,
        65535
      ],
      [
        403,
        65535,
        65535
      ],
      [
        1578,
        65535,
        65535
      ],
      [
        403,
        65535,
        65535
      ],
      [
        1579,
        65535,
        65535
      ],
      [
        403,
        65535,
        65535
      ]
    ],
    [
      [
        391,
        65535,
        65535
      ],
      [
        399,
        65535,
        65535
      ],
      [
        404,
        65535,
        65535
      ],
      [
        356,
        65535,
        65535
      ],
      [
        0,
        65535,
        65535
      ],
      [
        400,
        65535,
        65535
      ],
      [
        392,
        65535,
        65535
      ],
      [
        399,
        65535,
        65535
      ],
      [
        367,
        65535,
        65535
      ],
      [
        369,
        65535,
        65535
      ],
      [
        398,
        65535,
        65535
      ],
      [
        403,
        65535,
        65535
      ],
      [
        403,
        65535,
        65535
      ],
      [
        403,
        65535,
        65535
      ],
      [
        403,
        65535,
        65535
      ],
      [
        403,
        65535,
        65535
      ],
      [
        403,
        65535,
        65535
      ],
      [
        403,
        65535,
        65535
      ]
    ],
    [
      [
        397,
        65535,
        65535
      ],
      [
        407,
        65535,
        65535
      ],
      [
        0,
        65535,
        65535
      ],
      [
        365,
        65535,
        65535
      ],
      [
        0,
        354,
        65535
      ],
      [
        365,
        65535,
        65535
      ],
      [
        0,
        65535,
        65535
      ],
      [
        0,
        65535,
        65535
      ],
      [
        0,
        65535,
        65535
      ],
      [
        402,
        65535,
        65535
      ],
      [
        396,
        65535,
        65535
      ],
      [
        391,
        65535,
        65535
      ],
      [
        392,
        65535,
        65535
      ],
      [
        392,
        65535,
        65535
      ],
      [
        393,
        65535,
        65535
      ],
      [
        403,
        65535,
        65535
      ],
      [
        403,
        65535,
        65535
      ],
      [
        1577,
        65535,
        65535
      ]
    ],
    [
      [
        397,
        65535,
        65535
      ],
      [
        0,
        65535,
        65535
      ],
      [
        364,
        65535,
        65535
      ],
      [
        368,
        65535,
        65535
      ],
      [
        366,
        65535,
        65535
      ],
      [
        368,
        65535,
        65535
      ],
      [
        364,
        65535,
        65535
      ],
      [
        366,
        65535,
        65535
      ],
      [
        406,
        65535,
        65535
      ],
      [
        398,
        65535,
        65535
      ],
      [
        403,
        65535,
        65535
      ],
      [
        397,
        65535,
        65535
      ],
      [
        404,
        65535,
        65535
      ],
      [
        402,
        65535,
        65535
      ],
      [
        396,
        65535,
        65535
      ],
      [
        403,
        65535,
        65535
      ],
      [
        403,
        65535,
        65535
      ],
      [
        403,
        65535,
        65535
      ]
    ],
    [
      [
        397,
        65535,
        65535
      ],
      [
        0,
        65535,
        65535
      ],
      [
        368,
        65535,
        65535
      ],
      [
        372,
        65535,
        65535
      ],
      [
        364,
        65535,
        65535
      ],
      [
        372,
        65535,
        65535
      ],
      [
        371,
        65535,
        65535
      ],
      [
        402,
        65535,
        65535
      ],
      [
        395,
        65535,
        65535
      ],
      [
        396,
        65535,
        65535
      ],
      [
        403,
        65535,
        65535
      ],
      [
        394,
        65535,
        65535
      ],
      [
        395,
        65535,
        65535
      ],
      [
        396,
        65535,
        65535
      ],
      [
        403,
        65535,
        65535
      ],
      [
        403,
        65535,
        65535
      ],
      [
        403,
        65535,
        65535
      ],
      [
        1579,
        65535,
        65535
      ]
    ],
    [
      [
        397,
        65535,
        65535
      ],
      [
        357,
        65535,
        65535
      ],
      [
        370,
        65535,
        65535
      ],
      [
        364,
        65535,
        65535
      ],
      [
        372,
        65535,
        352
      ],
      [
        353,
        65535,
        65535
      ],
      [
        402,
        65535,
        65535
      ],
      [
        396,
        65535,
        65535
      ],
      [
        391,
        65535,
        65535
      ],
      [
        393,
        65535,
        65535
      ],
      [
        391,
        65535,
        65535
      ],
      [
        392,
        65535,
        65535
      ],
      [
        393,
        65535,
        65535
      ],
      [
        391,
        65535,
        65535
      ],
      [
        392,
        65535,
        65535
      ],
      [
        393,
        65535,
        65535
      ],
      [
        403,
        65535,
        65535
      ],
      [
        403,
        65535,
        65535
      ]
    ],
    [
      [
        394,
        65535,
        65535
      ],
      [
        401,
        65535,
        65535
      ],
      [
        358,
        65535,
        65535
      ],
      [
        371,
        65535,
        65535
      ],
      [
        0,
        351,
        65535
      ],
      [
        356,
        65535,
        65535
      ],
      [
        398,
        65535,
        65535
      ],
      [
        403,
        65535,
        65535
      ],
      [
        394,
        65535,
        65535
      ],
      [
        396,
        65535,
        65535
      ],
      [
        397,
        65535,
        65535
      ],
      [
        407,
        65535,
        65535
      ],
      [
        398,
        65535,
        65535
      ],
      [
        397,
        65535,
        65535
      ],
      [
        406,
        65535,
        65535
      ],
      [
        400,
        65535,
        65535
      ],
      [
        393,
        65535,
        65535
      ],
      [
        403,
        65535,
        65535
      ]
    ],
    [
      [
        403,
        65535,
        65535
      ],
      [
        394,
        65535,
        65535
      ],
      [
        401,
        65535,
        65535
      ],
      [
        406,
        65535,
        65535
      ],
      [
        0,
        65535,
        65535
      ],
      [
        402,
        65535,
        65535
      ],
      [
        396,
        65535,
        65535
      ],
      [
        403,
        65535,
        65535
      ],
      [
        391,
        65535,
        65535
      ],
      [
        392,
        65535,
        65535
      ],
      [
        399,
        65535,
        65535
      ],
      [
        0,
        65535,
        352
      ],
      [
        398,
        65535,
        65535
      ],
      [
        394,
        65535,
        65535
      ],
      [
        395,
        65535,
        65535
      ],
      [
        395,
        65535,
        65535
      ],
      [
        396,
        65535,
        65535
      ],
      [
        403,
        65535,
        65535
      ]
    ],
    [
      [
        403,
        65535,
        65535
      ],
      [
        403,
        65535,
        65535
      ],
      [
        394,
        65535,
        65535
      ],
      [
        395,
        65535,
        65535
      ],
      [
        395,
        65535,
        65535
      ],
      [
        396,
        65535,
        65535
      ],
      [
        403,
        65535,
        65535
      ],
      [
        403,
        65535,
        65535
      ],
      [
        397,
        65535,
        65535
      ],
      [
        406,
        65535,
        65535
      ],
      [
        0,
        65535,
        65535
      ],
      [
        0,
        351,
        65535
      ],
      [
        400,
        65535,
        65535
      ],
      [
        392,
        65535,
        65535
      ],
      [
        392,
        65535,
        65535
      ],
      [
        393,
        65535,
        65535
      ],
      [
        403,
        65535,
        65535
      ],
      [
        403,
        65535,
        65535
      ]
    ],
    [
      [
        1579,
        65535,
        65535
      ],
      [
        403,
        65535,
        65535
      ],
      [
        391,
        65535,
        65535
      ],
      [
        392,
        65535,
        65535
      ],
      [
        393,
        65535,
        65535
      ],
      [
        391,
        65535,
        65535
      ],
      [
        393,
        65535,
        65535
      ],
      [
        391,
        65535,
        65535
      ],
      [
        399,
        65535,
        65535
      ],
      [
        0,
        65535,
        65535
      ],
      [
        364,
        65535,
        65535
      ],
      [
        366,
        65535,
        65535
      ],
      [
        365,
        65535,
        65535
      ],
      [
        0,
        65535,
        65535
      ],
      [
        356,
        65535,
        65535
      ],
      [
        400,
        65535,
        65535
      ],
      [
        392,
        65535,
        65535
      ],
      [
        393,
        65535,
        65535
      ]
    ],
    [
      [
        403,
        65535,
        65535
      ],
      [
        403,
        65535,
        65535
      ],
      [
        397,
        65535,
        65535
      ],
      [
        404,
        65535,
        65535
      ],
      [
        398,
        65535,
        65535
      ],
      [
        397,
        65535,
        65535
      ],
      [
        398,
        65535,
        65535
      ],
      [
        397,
        65535,
        65535
      ],
      [
        358,
        65535,
        65535
      ],
      [
        0,
        65535,
        65535
      ],
      [
        370,
        65535,
        65535
      ],
      [
        368,
        65535,
        65535
      ],
      [
        368,
        65535,
        352
      ],
      [
        369,
        65535,
        65535
      ],
      [
        0,
        65535,
        65535
      ],
      [
        358,
        65535,
        65535
      ],
      [
        404,
        65535,
        65535
      ],
      [
        398,
        65535,
        65535
      ]
    ],
    [
      [
        403,
        65535,
        65535
      ],
      [
        391,
        65535,
        65535
      ],
      [
        399,
        65535,
        65535
      ],
      [
        402,
        65535,
        65535
      ],
      [
        396,
        65535,
        65535
      ],
      [
        394,
        65535,
        65535
      ],
      [
        396,
        65535,
        65535
      ],
      [
        397,
        65535,
        65535
      ],
      [
        356,
        65535,
        65535
      ],
      [
        357,
        65535,
        65535
      ],
      [
        353,
        65535,
        65535
      ],
      [
        371,
        65535,
        65535
      ],
      [
        371,
        351,
        352
      ],
      [
        0,
        359,
        65535
      ],
      [
        402,
        65535,
        65535
      ],
      [
        395,
        65535,
        65535
      ],
      [
        395,
        65535,
        65535
      ],
      [
        396,
        65535,
        65535
      ]
    ],
    [
      [
        391,
        65535,
        65535
      ],
      [
        399,
        65535,
        65535
      ],
      [
        356,
        65535,
        65535
      ],
      [
        400,
        65535,
        65535
      ],
      [
        392,
        65535,
        65535
      ],
      [
        392,
        65535,
        65535
      ],
      [
        393,
        65535,
        65535
      ],
      [
        394,
        65535,
        65535
      ],
      [
        395,
        65535,
        65535
      ],
      [
        395,
        65535,
        65535
      ],
      [
        395,
        65535,
        65535
      ],
      [
        401,
        65535,
        65535
      ],
      [
        0,
        351,
        65535
      ],
      [
        365,
        65535,
        65535
      ],
      [
        400,
        65535,
        65535
      ],
      [
        392,
        65535,
        65535
      ],
      [
        393,
        65535,
        65535
      ],
      [
        403,
        65535,
        65535
      ]
    ],
    [
      [
        397,
        65535,
        65535
      ],
      [
        402,
        65535,
        65535
      ],
      [
        395,
        65535,
        65535
      ],
      [
        395,
        65535,
        65535
      ],
      [
        401,
        65535,
        65535
      ],
      [
        407,
        65535,
        65535
      ],
      [
        398,
        65535,
        65535
      ],
      [
        403,
        65535,
        65535
      ],
      [
        391,
        65535,
        65535
      ],
      [
        392,
        65535,
        65535
      ],
      [
        393,
        65535,
        65535
      ],
      [
        397,
        65535,
        65535
      ],
      [
        367,
        65535,
        65535
      ],
      [
        368,
        65535,
        65535
      ],
      [
        366,
        65535,
        65535
      ],
      [
        0,
        65535,
        65535
      ],
      [
        400,
        65535,
        65535
      ],
      [
        393,
        65535,
        65535
      ]
    ],
    [
      [
        397,
        65535,
        65535
      ],
      [
        398,
        65535,
        65535
      ],
      [
        403,
        1580,
        65535
      ],
      [
        391,
        65535,
        65535
      ],
      [
        399,
        65535,
        65535
      ],
      [
        402,
        65535,
        65535
      ],
      [
        396,
        65535,
        65535
      ],
      [
        403,
        65535,
        65535
      ],
      [
        394,
        65535,
        65535
      ],
      [
        401,
        65535,
        65535
      ],
      [
        400,
        65535,
        65535
      ],
      [
        399,
        65535,
        65535
      ],
      [
        0,
        65535,
        65535
      ],
      [
        370,
        65535,
        65535
      ],
      [
        364,
        65535,
        65535
      ],
      [
        368,
        65535,
        65535
      ],
      [
        369,
        65535,
        65535
      ],
      [
        398,
        65535,
        65535
      ]
    ],
    [
      [
        397,
        65535,
        65535
      ],
      [
        400,
        65535,
        65535
      ],
      [
        392,
        65535,
        65535
      ],
      [
        399,
        65535,
        65535
      ],
      [
        402,
        65535,
        65535
      ],
      [
        396,
        65535,
        65535
      ],
      [
        403,
        65535,
        65535
      ],
      [
        403,
        65535,
        65535
      ],
      [
        403,
        65535,
        65535
      ],
      [
        394,
        65535,
        65535
      ],
      [
        395,
        65535,
        65535
      ],
      [
        401,
        65535,
        65535
      ],
      [
        0,
        65535,
        65535
      ],
      [
        357,
        65535,
        65535
      ],
      [
        371,
        65535,
        65535
      ],
      [
        371,
        65535,
        65535
      ],
      [
        407,
        65535,
        65535
      ],
      [
        398,
        65535,
        65535
      ]
    ],
    [
      [
        394,
        65535,
        65535
      ],
      [
        395,
        65535,
        65535
      ],
      [
        401,
        65535,
        65535
      ],
      [
        406,
        65535,
        65535
      ],
      [
        398,
        65535,
        65535
      ],
      [
        391,
        65535,
        65535
      ],
      [
        393,
        65535,
        65535
      ],
      [
        403,
        65535,
        65535
      ],
      [
        391,
        65535,
        65535
      ],
      [
        392,
        65535,
        65535
      ],
      [
        392,
        65535,
        65535
      ],
      [
        399,
        65535,
        65535
      ],
      [
        404,
        65535,
        65535
      ],
      [
        402,
        65535,
        65535
      ],
      [
        395,
        65535,
        65535
      ],
      [
        395,
        65535,
        65535
      ],
      [
        395,
        65535,
        65535
      ],
      [
        396,
        65535,
        65535
      ]
    ],
    [
      [
        403,
        65535,
        65535
      ],
      [
        403,
        65535,
        65535
      ],
      [
        394,
        65535,
        65535
      ],
      [
        395,
        65535,
        65535
      ],
      [
        396,
        65535,
        65535
      ],
      [
        394,
        65535,
        65535
      ],
      [
        396,
        65535,
        65535
      ],
      [
        403,
        65535,
        65535
      ],
      [
        394,
        65535,
        65535
      ],
      [
        395,
        65535,
        65535
      ],
      [
        395,
        65535,
        65535
      ],
      [
        395,
        65535,
        65535
      ],
      [
        395,
        65535,
        65535
      ],
      [
        396,
        65535,
        65535
      ],
      [
        403,
        65535,
        65535
      ],
      [
        403,
        65535,
        65535
      ],
      [
        403,
        65535,
        65535
      ],
      [
        403,
        65535,
        65535
      ]
    ],
    []
  ]
}