{
  "zoneId": 593,
  "zoneType": 3,
  "width": 18,
  "height": 18,
  "type": 1,
  "world": 3,
  "objects": [
    {
      "type": 13,
      "x": 9,
      "y": 9,
      "unknown": 1,
      "param": 65535
    }
  ],
  "actions": [],
  "tilemap": [
    [
      [
        403,
        65535,
        65535
      ],
      [
        403,
        65535,
        65535
      ],
      [
        403,
        65535,
        65535
      ],
      [
        403,
        65535,
        65535
      ],
      [
        403,
        65535,
        65535
      ],
      [
        1579,
        65535,
        65535
      ],
      [
        403,
        65535,
        65535
      ],
      [
        403,
        65535,
        65535
      ],
      [
        403,
        65535,
        65535
      ],
      [
        403,
        65535,
        65535
      ],
      [
        403,
        65535,
        65535
      ],
      [
        403,
        65535,
        65535
      ],
      [
        1578,
        65535,
        65535
      ],
      [
        403,
        65535,
        65535
      ],
      [
        403,
        65535,
        65535
      ],
      [
        403,
        65535,
        65535
      ],
      [
        403,
        65535,
        65535
      ],
      [
        403,
        65535,
        65535
      ]
    ],
    [
      [
        403,
        65535,
        65535
      ],
      [
        1578,
        65535,
        65535
      ],
      [
        1578,
        65535,
        65535
      ],
      [
        403,
        374,
        65535
      ],
      [
        403,
        375,
        65535
      ],
      [
        403,
        375,
        65535
      ],
      [
        403,
        375,
        65535
      ],
      [
        403,
        375,
        65535
      ],
      [
        403,
        376,
        65535
      ],
      [
        403,
        65535,
        65535
      ],
      [
        403,
        65535,
        65535
      ],
      [
        403,
        65535,
        65535
      ],
      [
        403,
        65535,
        65535
      ],
      [
        403,
        65535,
        65535
      ],
      [
        1579,
        65535,
        65535
      ],
      [
        403,
        65535,
        65535
      ],
      [
        403,
        65535,
        65535
      ],
      [
        403,
        65535,
        65535
      ]
    ],
    [
      [
        403,
        65535,
        65535
      ],
      [
        403,
        65535,
        65535
      ],
      [
        403,
        374,
        65535
      ],
      [
        403,
        382,
        65535
      ],
      [
        403,
        385,
        65535
      ],
      [
        378,
        65535,
        65535
      ],
      [
        403,
        384,
        65535
      ],
      [
        403,
        387,
        65535
      ],
      [
        403,
        381,
        65535
      ],
      [
        403,
        65535,
        65535
      ],
      [
        403,
        374,
        65535
      ],
      [
        403,
        375,
        65535
      ],
      [
        403,
        376,
        65535
      ],
      [
        403,
        65535,
        65535
      ],
      [
        403,
        65535,
        65535
      ],
      [
        403,
        65535,
        65535
      ],
      [
        1577,
        65535,
        65535
      ],
      [
        1577,
        65535,
        65535
      ]
    ],
    [
      [
        403,
        65535,
        65535
      ],
      [
        403,
        374,
        65535
      ],
      [
        403,
        382,
        65535
      ],
      [
        403,
        385,
        65535
      ],
      [
        379,
        65535,
        65535
      ],
      [
        403,
        374,
        65535
      ],
      [
        403,
        382,
        65535
      ],
      [
        403,
        386,
        65535
      ],
      [
        403,
        381,
        65535
      ],
      [
        403,
        65535,
        65535
      ],
      [
        403,
        380,
        65535
      ],
      [
        403,
        386,
        65535
      ],
      [
        403,
        383,
        412
      ],
      [
        403,
        375,
        65535
      ],
      [
        403,
        375,
        65535
      ],
      [
        403,
        376,
        65535
      ],
      [
        403,
        65535,
        65535
      ],
      [
        403,
        65535,
        65535
      ]
    ],
    [
      [
        403,
        65535,
        65535
      ],
      [
        403,
        380,
        65535
      ],
      [
        403,
        387,
        65535
      ],
      [
        403,
        383,
        65535
      ],
      [
        403,
        375,
        65535
      ],
      [
        403,
        382,
        65535
      ],
      [
        378,
        385,
        412
      ],
      [
        378,
        65535,
        65535
      ],
      [
        379,
        65535,
        65535
      ],
      [
        403,
        374,
        65535
      ],
      [
        403,
        382,
        65535
      ],
      [
        403,
        385,
        65535
      ],
      [
        378,
        355,
        413
      ],
      [
        403,
        384,
        65535
      ],
      [
        403,
        387,
        65535
      ],
      [
        403,
        381,
        65535
      ],
      [
        403,
        65535,
        65535
      ],
      [
        1578,
        65535,
        65535
      ]
    ],
    [
      [
        1577,
        65535,
        65535
      ],
      [
        377,
        65535,
        412
      ],
      [
        378,
        65535,
        65535
      ],
      [
        378,
        65535,
        65535
      ],
      [
        378,
        65535,
        65535
      ],
      [
        378,
        65535,
        65535
      ],
      [
        379,
        355,
        413
      ],
      [
        1579,
        65535,
        65535
      ],
      [
        403,
        65535,
        65535
      ],
      [
        403,
        380,
        65535
      ],
      [
        403,
        387,
        65535
      ],
      [
        403,
        383,
        65535
      ],
      [
        403,
        376,
        65535
      ],
      [
        377,
        65535,
        65535
      ],
      [
        378,
        65535,
        65535
      ],
      [
        379,
        65535,
        65535
      ],
      [
        403,
        65535,
        65535
      ],
      [
        1578,
        65535,
        65535
      ]
    ],
    [
      [
        403,
        65535,
        65535
      ],
      [
        403,
        355,
        413
      ],
      [
        403,
        374,
        65535
      ],
      [
        403,
        375,
        65535
      ],
      [
        403,
        375,
        65535
      ],
      [
        403,
        376,
        65535
      ],
      [
        403,
        65535,
        65535
      ],
      [
        1575,
        65535,
        65535
      ],
      [
        403,
        65535,
        65535
      ],
      [
        378,
        380,
        65535
      ],
      [
        378,
        386,
        65535
      ],
      [
        378,
        387,
        65535
      ],
      [
        378,
        381,
        65535
      ],
      [
        374,
        65535,
        412
      ],
      [
        403,
        375,
        65535
      ],
      [
        403,
        376,
        65535
      ],
      [
        403,
        65535,
        65535
      ],
      [
        403,
        65535,
        65535
      ]
    ],
    [
      [
        403,
        65535,
        65535
      ],
      [
        1579,
        65535,
        65535
      ],
      [
        403,
        380,
        65535
      ],
      [
        403,
        386,
        65535
      ],
      [
        403,
        385,
        65535
      ],
      [
        379,
        65535,
        65535
      ],
      [
        403,
        374,
        65535
      ],
      [
        403,
        375,
        65535
      ],
      [
        403,
        376,
        65535
      ],
      [
        377,
        65535,
        65535
      ],
      [
        378,
        65535,
        65535
      ],
      [
        378,
        65535,
        65535
      ],
      [
        379,
        65535,
        65535
      ],
      [
        403,
        380,
        413
      ],
      [
        403,
        387,
        65535
      ],
      [
        403,
        383,
        65535
      ],
      [
        403,
        376,
        65535
      ],
      [
        403,
        65535,
        65535
      ]
    ],
    [
      [
        403,
        65535,
        65535
      ],
      [
        403,
        374,
        65535
      ],
      [
        403,
        382,
        412
      ],
      [
        403,
        387,
        65535
      ],
      [
        378,
        381,
        65535
      ],
      [
        1576,
        65535,
        65535
      ],
      [
        403,
        380,
        65535
      ],
      [
        403,
        385,
        65535
      ],
      [
        379,
        65535,
        530
      ],
      [
        403,
        65535,
        65535
      ],
      [
        403,
        374,
        65535
      ],
      [
        403,
        376,
        65535
      ],
      [
        1576,
        65535,
        412
      ],
      [
        377,
        65535,
        65535
      ],
      [
        378,
        384,
        65535
      ],
      [
        403,
        387,
        65535
      ],
      [
        403,
        381,
        65535
      ],
      [
        403,
        65535,
        65535
      ]
    ],
    [
      [
        403,
        65535,
        65535
      ],
      [
        377,
        65535,
        65535
      ],
      [
        403,
        384,
        413
      ],
      [
        403,
        386,
        65535
      ],
      [
        403,
        381,
        65535
      ],
      [
        1576,
        65535,
        65535
      ],
      [
        403,
        380,
        412
      ],
      [
        403,
        383,
        65535
      ],
      [
        403,
        376,
        531
      ],
      [
        537,
        65535,
        65535
      ],
      [
        403,
        380,
        532
      ],
      [
        403,
        383,
        412
      ],
      [
        403,
        376,
        413
      ],
      [
        1575,
        65535,
        65535
      ],
      [
        403,
        380,
        65535
      ],
      [
        403,
        386,
        65535
      ],
      [
        403,
        381,
        65535
      ],
      [
        403,
        65535,
        65535
      ]
    ],
    [
      [
        403,
        65535,
        65535
      ],
      [
        403,
        65535,
        65535
      ],
      [
        403,
        380,
        65535
      ],
      [
        403,
        387,
        65535
      ],
      [
        403,
        381,
        65535
      ],
      [
        403,
        65535,
        65535
      ],
      [
        377,
        355,
        413
      ],
      [
        403,
        384,
        65535
      ],
      [
        403,
        381,
        65535
      ],
      [
        403,
        65535,
        65535
      ],
      [
        377,
        1403,
        412
      ],
      [
        403,
        384,
        413
      ],
      [
        403,
        381,
        65535
      ],
      [
        403,
        65535,
        65535
      ],
      [
        377,
        65535,
        65535
      ],
      [
        378,
        65535,
        65535
      ],
      [
        379,
        65535,
        65535
      ],
      [
        403,
        65535,
        65535
      ]
    ],
    [
      [
        1578,
        65535,
        65535
      ],
      [
        403,
        65535,
        65535
      ],
      [
        403,
        380,
        65535
      ],
      [
        403,
        386,
        65535
      ],
      [
        403,
        383,
        65535
      ],
      [
        1575,
        376,
        65535
      ],
      [
        403,
        65535,
        65535
      ],
      [
        377,
        65535,
        65535
      ],
      [
        379,
        65535,
        65535
      ],
      [
        403,
        65535,
        65535
      ],
      [
        403,
        390,
        413
      ],
      [
        377,
        65535,
        65535
      ],
      [
        379,
        65535,
        65535
      ],
      [
        1575,
        65535,
        65535
      ],
      [
        403,
        374,
        65535
      ],
      [
        403,
        375,
        65535
      ],
      [
        403,
        376,
        65535
      ],
      [
        403,
        65535,
        65535
      ]
    ],
    [
      [
        403,
        65535,
        65535
      ],
      [
        403,
        65535,
        65535
      ],
      [
        377,
        65535,
        65535
      ],
      [
        378,
        65535,
        65535
      ],
      [
        379,
        384,
        65535
      ],
      [
        403,
        383,
        65535
      ],
      [
        403,
        375,
        65535
      ],
      [
        403,
        375,
        65535
      ],
      [
        403,
        376,
        65535
      ],
      [
        1576,
        65535,
        65535
      ],
      [
        1576,
        65535,
        65535
      ],
      [
        1576,
        65535,
        65535
      ],
      [
        403,
        65535,
        65535
      ],
      [
        403,
        374,
        65535
      ],
      [
        403,
        382,
        65535
      ],
      [
        403,
        387,
        65535
      ],
      [
        403,
        381,
        65535
      ],
      [
        403,
        65535,
        65535
      ]
    ],
    [
      [
        403,
        65535,
        65535
      ],
      [
        403,
        374,
        65535
      ],
      [
        403,
        375,
        65535
      ],
      [
        403,
        376,
        65535
      ],
      [
        403,
        380,
        65535
      ],
      [
        403,
        386,
        65535
      ],
      [
        403,
        387,
        65535
      ],
      [
        403,
        385,
        65535
      ],
      [
        379,
        65535,
        65535
      ],
      [
        403,
        65535,
        65535
      ],
      [
        1576,
        65535,
        65535
      ],
      [
        403,
        65535,
        65535
      ],
      [
        403,
        65535,
        65535
      ],
      [
        403,
        380,
        65535
      ],
      [
        403,
        387,
        65535
      ],
      [
        403,
        385,
        65535
      ],
      [
        379,
        65535,
        65535
      ],
      [
        403,
        65535,
        65535
      ]
    ],
    [
      [
        403,
        65535,
        65535
      ],
      [
        403,
        380,
        65535
      ],
      [
        403,
        386,
        65535
      ],
      [
        403,
        383,
        65535
      ],
      [
        403,
        382,
        65535
      ],
      [
        403,
        387,
        65535
      ],
      [
        403,
        385,
        65535
      ],
      [
        379,
        65535,
        65535
      ],
      [
        403,
        374,
        65535
      ],
      [
        403,
        375,
        65535
      ],
      [
        403,
        376,
        65535
      ],
      [
        403,
        65535,
        65535
      ],
      [
        403,
        374,
        65535
      ],
      [
        403,
        382,
        65535
      ],
      [
        403,
        385,
        65535
      ],
      [
        379,
        65535,
        65535
      ],
      [
        1579,
        65535,
        65535
      ],
      [
        403,
        65535,
        65535
      ]
    ],
    [
      [
        403,
        65535,
        65535
      ],
      [
        377,
        65535,
        65535
      ],
      [
        378,
        65535,
        65535
      ],
      [
        403,
        384,
        65535
      ],
      [
        403,
        387,
        65535
      ],
      [
        403,
        385,
        65535
      ],
      [
        379,
        65535,
        65535
      ],
      [
        403,
        65535,
        65535
      ],
      [
        403,
        380,
        65535
      ],
      [
        403,
        386,
        65535
      ],
      [
        403,
        383,
        65535
      ],
      [
        376,
        65535,
        65535
      ],
      [
        403,
        380,
        65535
      ],
      [
        403,
        386,
        65535
      ],
      [
        403,
        381,
        65535
      ],
      [
        403,
        390,
        65535
      ],
      [
        403,
        65535,
        65535
      ],
      [
        403,
        65535,
        65535
      ]
    ],
    [
      [
        1577,
        65535,
        65535
      ],
      [
        403,
        65535,
        65535
      ],
      [
        403,
        65535,
        65535
      ],
      [
        403,
        380,
        65535
      ],
      [
        403,
        386,
        65535
      ],
      [
        403,
        381,
        65535
      ],
      [
        403,
        65535,
        65535
      ],
      [
        1579,
        65535,
        65535
      ],
      [
        377,
        65535,
        65535
      ],
      [
        378,
        65535,
        65535
      ],
      [
        378,
        384,
        65535
      ],
      [
        403,
        381,
        65535
      ],
      [
        377,
        65535,
        65535
      ],
      [
        378,
        65535,
        65535
      ],
      [
        379,
        65535,
        65535
      ],
      [
        403,
        65535,
        65535
      ],
      [
        403,
        65535,
        65535
      ],
      [
        403,
        65535,
        65535
      ]
    ],
    [
      [
        403,
        65535,
        65535
      ],
      [
        403,
        65535,
        65535
      ],
      [
        403,
        65535,
        65535
      ],
      [
        377,
        65535,
        65535
      ],
      [
        378,
        65535,
        65535
      ],
      [
        379,
        65535,
        65535
      ],
      [
        403,
        65535,
        65535
      ],
      [
        403,
        65535,
        65535
      ],
      [
        403,
        65535,
        65535
      ],
      [
        1578,
        65535,
        65535
      ],
      [
        377,
        65535,
        65535
      ],
      [
        379,
        65535,
        65535
      ],
      [
        403,
        65535,
        65535
      ],
      [
        403,
        65535,
        65535
      ],
      [
        403,
        65535,
        65535
      ],
      [
        403,
        65535,
        65535
      ],
      [
        403,
        65535,
        65535
      ],
      [
        403,
        65535,
        65535
      ]
    ],
    []
  ]
}