{
  "zoneId": 622,
  "zoneType": 3,
  "width": 18,
  "height": 18,
  "type": 15,
  "world": 3,
  "objects": [
    {
      "type": 0,
      "x": 4,
      "y": 10,
      "unknown": 1,
      "param": 65535
    },
    {
      "type": 12,
      "x": 1,
      "y": 12,
      "unknown": 1,
      "param": 65535
    },
    {
      "type": 12,
      "x": 2,
      "y": 12,
      "unknown": 1,
      "param": 65535
    },
    {
      "type": 12,
      "x": 10,
      "y": 11,
      "unknown": 1,
      "param": 65535
    }
  ],
  "actions": [
    {
      "triggers": [
        [
          "on_first_enter",
          0,
          0,
          0,
          3940,
          130,
          0
        ]
      ],
      "commands": [
        [
          "set_temp_var",
          1,
          0,
          0,
          0,
          0,
          0
        ]
      ]
    },
    {
      "triggers": [
        [
          "on_bump_tile",
          4,
          11,
          54,
          0,
          0,
          0
        ],
        [
          "on_check_map_tile",
          1619,
          4,
          10,
          0,
          21280,
          0
        ]
      ],
      "commands": [
        [
          "say_text",
          0,
          0,
          0,
          0,
          0,
          36
        ],
        [
          "set_map_tile_var",
          9,
          4,
          0,
          1,
          0,
          0
        ]
      ]
    },
    {
      "triggers": [
        [
          "on_bump_tile",
          2,
          12,
          1950,
          28789,
          19488,
          0
        ]
      ],
      "commands": [
        [
          "set_rand_var",
          90,
          0,
          0,
          0,
          0,
          0
        ]
      ]
    },
    {
      "triggers": [
        [
          "on_bump_tile",
          10,
          11,
          1946,
          28789,
          19488,
          0
        ]
      ],
      "commands": [
        [
          "set_rand_var",
          90,
          0,
          0,
          0,
          0,
          0
        ]
      ]
    },
    {
      "triggers": [
        [
          "on_rand_var_eq",
          90,
          3920,
          0,
          10032,
          191,
          0
        ],
        [
          "on_check_map_tile_var",
          0,
          9,
          4,
          0,
          0,
          0
        ]
      ],
      "commands": [
        [
          "say_text",
          0,
          0,
          0,
          0,
          0,
          63
        ],
        [
          "set_rand_var",
          0,
          0,
          0,
          0,
          0,
          0
        ]
      ]
    },
    {
      "triggers": [
        [
          "on_rand_var_eq",
          90,
          0,
          0,
          0,
          0,
          0
        ],
        [
          "on_temp_var_eq",
          1,
          0,
          0,
          0,
          0,
          0
        ],
        [
          "on_check_map_tile_var",
          1,
          9,
          4,
          0,
          28277,
          0
        ]
      ],
      "commands": [
        [
          "say_text",
          0,
          0,
          0,
          0,
          0,
          81
        ],
        [
          "add_temp_var",
          1,
          0,
          25939,
          21108,
          28257,
          0
        ],
        [
          "set_rand_var",
          0,
          0,
          0,
          0,
          0,
          0
        ]
      ]
    },
    {
      "triggers": [
        [
          "on_rand_var_eq",
          90,
          0,
          0,
          0,
          0,
          0
        ],
        [
          "on_temp_var_eq",
          2,
          0,
          0,
          0,
          0,
          0
        ],
        [
          "on_check_map_tile_var",
          1,
          9,
          4,
          0,
          21108,
          0
        ]
      ],
      "commands": [
        [
          "say_text",
          0,
          0,
          0,
          0,
          0,
          57
        ],
        [
          "set_rand_var",
          0,
          0,
          0,
          0,
          0,
          0
        ]
      ]
    },
    {
      "triggers": [
        [
          "on_rand_var_eq",
          90,
          0,
          0,
          0,
          0,
          0
        ],
        [
          "on_temp_var_eq",
          3,
          0,
          0,
          0,
          0,
          0
        ],
        [
          "on_check_map_tile_var",
          1,
          9,
          4,
          0,
          0,
          0
        ]
      ],
      "commands": [
        [
          "play_sound",
          6,
          0,
          0,
          0,
          0,
          0
        ],
        [
          "set_rand_var",
          0,
          0,
          0,
          0,
          0,
          0
        ]
      ]
    },
    {
      "triggers": [
        [
          "on_drag_item",
          10,
          11,
          1,
          1946,
          65535,
          0
        ]
      ],
      "commands": [
        [
          "set_temp_var",
          3,
          0,
          21325,
          21280,
          28257,
          0
        ]
      ]
    },
    {
      "triggers": [
        [
          "on_drag_item",
          1,
          12,
          1,
          1949,
          65535,
          0
        ]
      ],
      "commands": [
        [
          "set_temp_var",
          3,
          0,
          21325,
          21280,
          28257,
          0
        ]
      ]
    },
    {
      "triggers": [
        [
          "on_drag_item",
          2,
          12,
          1,
          1950,
          65535,
          0
        ]
      ],
      "commands": [
        [
          "set_temp_var",
          3,
          0,
          21325,
          21280,
          28257,
          0
        ]
      ]
    },
    {
      "triggers": [
        [
          "on_temp_var_eq",
          3,
          9460,
          130,
          0,
          0,
          0
        ]
      ],
      "commands": [
        [
          "open",
          0,
          0,
          43096,
          130,
          0,
          0
        ],
        [
          "say_text",
          268,
          0,
          8992,
          130,
          9068,
          34
        ],
        [
          "remove_item_from_inv",
          65535,
          0,
          11936,
          130,
          12236,
          0
        ],
        [
          "add_item_to_inv",
          65535,
          0,
          28483,
          28277,
          25972,
          0
        ],
        [
          "set_tile",
          1,
          6,
          0,
          403,
          0,
          0
        ],
        [
          "set_tile",
          2,
          6,
          0,
          403,
          19660,
          0
        ],
        [
          "set_tile",
          3,
          6,
          0,
          403,
          30309,
          0
        ],
        [
          "set_tile",
          4,
          6,
          0,
          403,
          18128,
          0
        ],
        [
          "set_tile",
          5,
          6,
          0,
          403,
          0,
          0
        ],
        [
          "clear_tile",
          1,
          5,
          1,
          130,
          18444,
          0
        ],
        [
          "set_tile",
          2,
          5,
          0,
          403,
          18716,
          0
        ],
        [
          "set_tile",
          3,
          5,
          0,
          403,
          8240,
          0
        ],
        [
          "set_tile",
          4,
          5,
          0,
          403,
          0,
          0
        ],
        [
          "set_tile",
          5,
          5,
          0,
          403,
          0,
          0
        ],
        [
          "clear_tile",
          1,
          4,
          1,
          8303,
          16796,
          0
        ],
        [
          "set_tile",
          2,
          4,
          0,
          403,
          0,
          0
        ],
        [
          "set_tile",
          3,
          4,
          0,
          403,
          25972,
          0
        ],
        [
          "set_tile",
          4,
          4,
          0,
          403,
          20252,
          0
        ],
        [
          "set_tile",
          5,
          4,
          0,
          403,
          14476,
          0
        ],
        [
          "set_tile",
          6,
          4,
          0,
          403,
          23340,
          0
        ],
        [
          "clear_tile",
          1,
          3,
          1,
          0,
          22876,
          0
        ],
        [
          "clear_tile",
          2,
          3,
          1,
          0,
          0,
          0
        ],
        [
          "clear_tile",
          3,
          3,
          1,
          0,
          0,
          0
        ],
        [
          "clear_tile",
          4,
          3,
          1,
          130,
          20252,
          0
        ],
        [
          "clear_tile",
          5,
          3,
          1,
          130,
          0,
          0
        ],
        [
          "clear_tile",
          6,
          3,
          1,
          0,
          0,
          0
        ],
        [
          "clear_tile",
          3,
          2,
          1,
          109,
          23372,
          0
        ],
        [
          "clear_tile",
          4,
          2,
          1,
          130,
          0,
          0
        ],
        [
          "clear_tile",
          5,
          2,
          1,
          0,
          0,
          0
        ],
        [
          "set_tile",
          3,
          7,
          0,
          375,
          0,
          0
        ],
        [
          "set_tile",
          4,
          7,
          1,
          375,
          0,
          0
        ],
        [
          "set_tile",
          5,
          7,
          0,
          375,
          0,
          0
        ],
        [
          "redraw_tiles",
          1,
          2,
          6,
          7,
          17708,
          0
        ],
        [
          "render_changes",
          27,
          0,
          22618,
          12346,
          8240,
          0
        ],
        [
          "play_sound",
          50,
          0,
          0,
          0,
          20500,
          0
        ],
        [
          "wait_ticks",
          2,
          0,
          18336,
          130,
          0,
          0
        ],
        [
          "set_tile",
          3,
          7,
          0,
          403,
          0,
          0
        ],
        [
          "clear_tile",
          4,
          7,
          1,
          0,
          0,
          0
        ],
        [
          "set_tile",
          5,
          7,
          0,
          403,
          19692,
          0
        ],
        [
          "set_tile",
          6,
          7,
          0,
          403,
          0,
          0
        ],
        [
          "set_tile",
          3,
          8,
          0,
          403,
          0,
          0
        ],
        [
          "set_tile",
          4,
          8,
          0,
          375,
          0,
          0
        ],
        [
          "set_tile",
          6,
          8,
          0,
          375,
          24508,
          0
        ],
        [
          "set_tile",
          5,
          8,
          1,
          375,
          0,
          0
        ],
        [
          "redraw_tiles",
          3,
          7,
          6,
          8,
          20252,
          0
        ],
        [
          "render_changes",
          0,
          0,
          21012,
          130,
          0,
          0
        ],
        [
          "wait_ticks",
          2,
          0,
          0,
          0,
          0,
          0
        ],
        [
          "set_tile",
          4,
          8,
          0,
          403,
          0,
          0
        ],
        [
          "set_tile",
          6,
          8,
          0,
          403,
          0,
          0
        ],
        [
          "clear_tile",
          5,
          8,
          1,
          12346,
          8240,
          0
        ],
        [
          "set_tile",
          4,
          9,
          0,
          375,
          8224,
          0
        ],
        [
          "set_tile",
          5,
          9,
          0,
          375,
          17980,
          0
        ],
        [
          "set_tile",
          6,
          9,
          0,
          375,
          25441,
          0
        ],
        [
          "clear_tile",
          5,
          9,
          1,
          0,
          0,
          0
        ],
        [
          "redraw_tiles",
          4,
          8,
          6,
          9,
          2428,
          0
        ],
        [
          "render_changes",
          0,
          0,
          0,
          0,
          0,
          0
        ],
        [
          "wait_ticks",
          2,
          0,
          23556,
          130,
          0,
          0
        ],
        [
          "set_tile",
          3,
          9,
          0,
          403,
          0,
          0
        ],
        [
          "set_tile",
          4,
          9,
          0,
          403,
          0,
          0
        ],
        [
          "set_tile",
          5,
          9,
          0,
          403,
          20252,
          0
        ],
        [
          "set_tile",
          6,
          9,
          0,
          403,
          20252,
          0
        ],
        [
          "set_tile",
          3,
          10,
          0,
          375,
          0,
          0
        ],
        [
          "set_tile",
          4,
          10,
          0,
          375,
          0,
          0
        ],
        [
          "clear_tile",
          5,
          10,
          2,
          0,
          0,
          0
        ],
        [
          "set_tile",
          5,
          10,
          0,
          375,
          20252,
          0
        ],
        [
          "set_tile",
          6,
          10,
          0,
          375,
          0,
          0
        ],
        [
          "clear_tile",
          4,
          10,
          2,
          12320,
          8224,
          0
        ],
        [
          "redraw_tiles",
          3,
          9,
          6,
          10,
          0,
          0
        ],
        [
          "render_changes",
          27460,
          130,
          27464,
          130,
          28257,
          0
        ],
        [
          "wait_ticks",
          2,
          12337,
          8233,
          12576,
          25344,
          0
        ],
        [
          "set_tile",
          3,
          10,
          0,
          403,
          0,
          0
        ],
        [
          "set_tile",
          4,
          10,
          0,
          403,
          26860,
          0
        ],
        [
          "set_tile",
          5,
          10,
          0,
          403,
          0,
          0
        ],
        [
          "set_tile",
          6,
          10,
          0,
          403,
          0,
          0
        ],
        [
          "set_tile",
          7,
          10,
          0,
          403,
          0,
          0
        ],
        [
          "set_tile",
          3,
          11,
          0,
          403,
          0,
          0
        ],
        [
          "set_tile",
          4,
          11,
          0,
          403,
          31340,
          0
        ],
        [
          "set_tile",
          5,
          11,
          0,
          375,
          20252,
          0
        ],
        [
          "set_tile",
          6,
          11,
          0,
          375,
          8245,
          0
        ],
        [
          "set_tile",
          7,
          11,
          0,
          375,
          24910,
          0
        ],
        [
          "clear_tile",
          6,
          11,
          1,
          12346,
          8240,
          0
        ],
        [
          "redraw_tiles",
          3,
          10,
          7,
          11,
          31500,
          0
        ],
        [
          "render_changes",
          0,
          0,
          0,
          0,
          0,
          0
        ],
        [
          "wait_ticks",
          2,
          0,
          0,
          0,
          31476,
          0
        ],
        [
          "set_tile",
          5,
          11,
          0,
          403,
          0,
          0
        ],
        [
          "set_tile",
          6,
          11,
          0,
          403,
          0,
          0
        ],
        [
          "set_tile",
          7,
          11,
          0,
          403,
          0,
          0
        ],
        [
          "set_tile",
          8,
          11,
          0,
          403,
          0,
          0
        ],
        [
          "set_tile",
          5,
          12,
          0,
          403,
          0,
          0
        ],
        [
          "set_tile",
          6,
          12,
          0,
          375,
          0,
          0
        ],
        [
          "set_tile",
          7,
          12,
          0,
          375,
          0,
          0
        ],
        [
          "set_tile",
          8,
          12,
          0,
          375,
          0,
          0
        ],
        [
          "clear_tile",
          7,
          12,
          1,
          130,
          24910,
          0
        ],
        [
          "redraw_tiles",
          5,
          11,
          8,
          12,
          0,
          0
        ],
        [
          "render_changes",
          0,
          0,
          0,
          0,
          0,
          0
        ],
        [
          "wait_ticks",
          2,
          0,
          21325,
          21280,
          28257,
          0
        ],
        [
          "set_tile",
          6,
          12,
          0,
          403,
          36332,
          0
        ],
        [
          "set_tile",
          7,
          12,
          0,
          403,
          0,
          0
        ],
        [
          "set_tile",
          8,
          12,
          0,
          380,
          0,
          0
        ],
        [
          "set_tile",
          6,
          13,
          0,
          403,
          0,
          0
        ],
        [
          "set_tile",
          7,
          13,
          0,
          375,
          8243,
          0
        ],
        [
          "set_tile",
          8,
          13,
          0,
          382,
          8248,
          0
        ],
        [
          "clear_tile",
          8,
          13,
          1,
          109,
          39388,
          0
        ],
        [
          "redraw_tiles",
          6,
          12,
          8,
          13,
          40348,
          0
        ],
        [
          "render_changes",
          0,
          0,
          22618,
          12346,
          38220,
          0
        ],
        [
          "wait_ticks",
          2,
          0,
          0,
          0,
          0,
          0
        ],
        [
          "set_tile",
          7,
          13,
          0,
          403,
          38716,
          0
        ],
        [
          "set_tile",
          8,
          13,
          0,
          377,
          24910,
          0
        ],
        [
          "set_tile",
          7,
          14,
          0,
          403,
          8244,
          0
        ],
        [
          "set_tile",
          8,
          14,
          0,
          403,
          0,
          0
        ],
        [
          "set_tile",
          9,
          13,
          0,
          384,
          0,
          0
        ],
        [
          "set_tile",
          9,
          14,
          0,
          380,
          25974,
          0
        ],
        [
          "clear_tile",
          9,
          13,
          1,
          130,
          30309,
          0
        ],
        [
          "redraw_tiles",
          7,
          13,
          9,
          14,
          0,
          0
        ],
        [
          "render_changes",
          0,
          0,
          0,
          0,
          0,
          0
        ],
        [
          "wait_ticks",
          2,
          0,
          0,
          0,
          0,
          0
        ],
        [
          "set_tile",
          8,
          12,
          0,
          403,
          30309,
          0
        ],
        [
          "set_tile",
          9,
          12,
          0,
          380,
          0,
          0
        ],
        [
          "set_tile",
          9,
          13,
          0,
          380,
          0,
          0
        ],
        [
          "set_tile",
          8,
          13,
          0,
          403,
          0,
          0
        ],
        [
          "redraw_tiles",
          8,
          12,
          9,
          14,
          0,
          0
        ],
        [
          "render_changes",
          0,
          0,
          0,
          0,
          0,
          0
        ],
        [
          "wait_ticks",
          2,
          0,
          27728,
          31073,
          28499,
          0
        ],
        [
          "flag_once",
          8,
          0,
          26707,
          30575,
          25940,
          0
        ]
      ]
    }
  ],
  "tilemap": [
    [
      [
        403,
        65535,
        65535
      ],
      [
        403,
        65535,
        65535
      ],
      [
        403,
        65535,
        65535
      ],
      [
        403,
        65535,
        65535
      ],
      [
        403,
        65535,
        65535
      ],
      [
        403,
        65535,
        65535
      ],
      [
        403,
        65535,
        65535
      ],
      [
        403,
        65535,
        65535
      ],
      [
        403,
        65535,
        65535
      ],
      [
        403,
        65535,
        65535
      ],
      [
        403,
        65535,
        65535
      ],
      [
        403,
        65535,
        65535
      ],
      [
        403,
        65535,
        65535
      ],
      [
        403,
        65535,
        65535
      ],
      [
        403,
        65535,
        65535
      ],
      [
        403,
        65535,
        65535
      ],
      [
        403,
        65535,
        65535
      ],
      [
        403,
        65535,
        65535
      ]
    ],
    [
      [
        403,
        65535,
        65535
      ],
      [
        403,
        388,
        65535
      ],
      [
        403,
        65535,
        65535
      ],
      [
        403,
        65535,
        65535
      ],
      [
        403,
        65535,
        65535
      ],
      [
        403,
        65535,
        65535
      ],
      [
        403,
        65535,
        65535
      ],
      [
        403,
        65535,
        65535
      ],
      [
        403,
        65535,
        65535
      ],
      [
        403,
        65535,
        65535
      ],
      [
        391,
        65535,
        65535
      ],
      [
        393,
        65535,
        65535
      ],
      [
        403,
        65535,
        65535
      ],
      [
        859,
        65535,
        871
      ],
      [
        861,
        65535,
        873
      ],
      [
        403,
        65535,
        65535
      ],
      [
        403,
        65535,
        65535
      ],
      [
        403,
        65535,
        65535
      ]
    ],
    [
      [
        403,
        65535,
        65535
      ],
      [
        403,
        65535,
        65535
      ],
      [
        1578,
        65535,
        65535
      ],
      [
        403,
        374,
        65535
      ],
      [
        403,
        375,
        65535
      ],
      [
        403,
        376,
        65535
      ],
      [
        403,
        65535,
        65535
      ],
      [
        403,
        390,
        65535
      ],
      [
        391,
        65535,
        65535
      ],
      [
        393,
        65535,
        65535
      ],
      [
        394,
        65535,
        65535
      ],
      [
        396,
        65535,
        65535
      ],
      [
        403,
        65535,
        65535
      ],
      [
        865,
        65535,
        874
      ],
      [
        868,
        355,
        878
      ],
      [
        860,
        65535,
        872
      ],
      [
        861,
        65535,
        873
      ],
      [
        403,
        65535,
        65535
      ]
    ],
    [
      [
        403,
        65535,
        65535
      ],
      [
        403,
        374,
        65535
      ],
      [
        403,
        375,
        65535
      ],
      [
        403,
        382,
        65535
      ],
      [
        403,
        389,
        65535
      ],
      [
        403,
        383,
        65535
      ],
      [
        403,
        376,
        65535
      ],
      [
        391,
        65535,
        65535
      ],
      [
        399,
        65535,
        65535
      ],
      [
        400,
        65535,
        65535
      ],
      [
        393,
        65535,
        65535
      ],
      [
        403,
        65535,
        65535
      ],
      [
        403,
        65535,
        65535
      ],
      [
        862,
        65535,
        883
      ],
      [
        403,
        355,
        887
      ],
      [
        857,
        355,
        875
      ],
      [
        866,
        65535,
        876
      ],
      [
        403,
        65535,
        65535
      ]
    ],
    [
      [
        403,
        65535,
        65535
      ],
      [
        403,
        380,
        65535
      ],
      [
        386,
        65535,
        65535
      ],
      [
        386,
        65535,
        65535
      ],
      [
        386,
        65535,
        65535
      ],
      [
        386,
        57,
        65535
      ],
      [
        381,
        54,
        408
      ],
      [
        397,
        54,
        65535
      ],
      [
        0,
        54,
        65535
      ],
      [
        0,
        59,
        65535
      ],
      [
        398,
        65535,
        65535
      ],
      [
        391,
        65535,
        65535
      ],
      [
        393,
        65535,
        65535
      ],
      [
        879,
        891,
        65535
      ],
      [
        862,
        892,
        883
      ],
      [
        863,
        355,
        884
      ],
      [
        866,
        65535,
        885
      ],
      [
        403,
        65535,
        65535
      ]
    ],
    [
      [
        403,
        65535,
        65535
      ],
      [
        403,
        380,
        65535
      ],
      [
        386,
        57,
        65535
      ],
      [
        386,
        59,
        65535
      ],
      [
        386,
        65535,
        65535
      ],
      [
        386,
        55,
        65535
      ],
      [
        0,
        409,
        65535
      ],
      [
        357,
        65535,
        65535
      ],
      [
        356,
        65535,
        65535
      ],
      [
        0,
        42,
        65535
      ],
      [
        398,
        65535,
        65535
      ],
      [
        397,
        65535,
        65535
      ],
      [
        398,
        65535,
        65535
      ],
      [
        879,
        65535,
        65535
      ],
      [
        880,
        891,
        65535
      ],
      [
        403,
        892,
        65535
      ],
      [
        881,
        893,
        65535
      ],
      [
        403,
        65535,
        65535
      ]
    ],
    [
      [
        1577,
        65535,
        65535
      ],
      [
        377,
        65535,
        65535
      ],
      [
        378,
        55,
        65535
      ],
      [
        386,
        56,
        65535
      ],
      [
        386,
        65535,
        65535
      ],
      [
        386,
        55,
        65535
      ],
      [
        0,
        65535,
        65535
      ],
      [
        402,
        65535,
        65535
      ],
      [
        401,
        65535,
        65535
      ],
      [
        402,
        65535,
        65535
      ],
      [
        396,
        65535,
        65535
      ],
      [
        394,
        65535,
        65535
      ],
      [
        396,
        65535,
        65535
      ],
      [
        859,
        65535,
        871
      ],
      [
        879,
        65535,
        873
      ],
      [
        880,
        65535,
        65535
      ],
      [
        881,
        65535,
        65535
      ],
      [
        403,
        65535,
        65535
      ]
    ],
    [
      [
        403,
        65535,
        65535
      ],
      [
        391,
        65535,
        65535
      ],
      [
        392,
        55,
        65535
      ],
      [
        386,
        56,
        65535
      ],
      [
        403,
        386,
        65535
      ],
      [
        386,
        60,
        65535
      ],
      [
        387,
        64,
        65535
      ],
      [
        398,
        65535,
        65535
      ],
      [
        394,
        65535,
        65535
      ],
      [
        396,
        65535,
        65535
      ],
      [
        403,
        65535,
        65535
      ],
      [
        403,
        65535,
        65535
      ],
      [
        403,
        65535,
        65535
      ],
      [
        862,
        65535,
        883
      ],
      [
        864,
        65535,
        885
      ],
      [
        1579,
        65535,
        65535
      ],
      [
        403,
        65535,
        65535
      ],
      [
        403,
        65535,
        65535
      ]
    ],
    [
      [
        403,
        65535,
        65535
      ],
      [
        397,
        65535,
        65535
      ],
      [
        392,
        44,
        65535
      ],
      [
        386,
        63,
        65535
      ],
      [
        386,
        59,
        65535
      ],
      [
        403,
        386,
        65535
      ],
      [
        386,
        55,
        65535
      ],
      [
        398,
        65535,
        65535
      ],
      [
        403,
        65535,
        65535
      ],
      [
        403,
        65535,
        65535
      ],
      [
        403,
        65535,
        65535
      ],
      [
        403,
        65535,
        65535
      ],
      [
        403,
        65535,
        65535
      ],
      [
        403,
        891,
        65535
      ],
      [
        861,
        893,
        65535
      ],
      [
        403,
        65535,
        65535
      ],
      [
        403,
        65535,
        65535
      ],
      [
        403,
        65535,
        65535
      ]
    ],
    [
      [
        403,
        65535,
        65535
      ],
      [
        397,
        65535,
        65535
      ],
      [
        0,
        65535,
        410
      ],
      [
        386,
        65,
        65535
      ],
      [
        386,
        61,
        65535
      ],
      [
        403,
        386,
        65535
      ],
      [
        386,
        55,
        65535
      ],
      [
        400,
        65535,
        65535
      ],
      [
        393,
        65535,
        65535
      ],
      [
        403,
        65535,
        65535
      ],
      [
        403,
        65535,
        65535
      ],
      [
        403,
        65535,
        65535
      ],
      [
        403,
        65535,
        65535
      ],
      [
        879,
        65535,
        65535
      ],
      [
        881,
        65535,
        65535
      ],
      [
        403,
        65535,
        65535
      ],
      [
        403,
        65535,
        65535
      ],
      [
        403,
        65535,
        65535
      ]
    ],
    [
      [
        403,
        65535,
        65535
      ],
      [
        397,
        65535,
        65535
      ],
      [
        0,
        411,
        65535
      ],
      [
        386,
        56,
        65535
      ],
      [
        1619,
        65535,
        1626
      ],
      [
        387,
        65535,
        1626
      ],
      [
        386,
        60,
        65535
      ],
      [
        386,
        64,
        65535
      ],
      [
        400,
        65535,
        65535
      ],
      [
        392,
        355,
        1943
      ],
      [
        392,
        355,
        1944
      ],
      [
        393,
        65535,
        65535
      ],
      [
        403,
        65535,
        65535
      ],
      [
        403,
        65535,
        65535
      ],
      [
        403,
        65535,
        65535
      ],
      [
        403,
        65535,
        65535
      ],
      [
        1578,
        65535,
        65535
      ],
      [
        403,
        65535,
        65535
      ]
    ],
    [
      [
        403,
        65535,
        65535
      ],
      [
        394,
        355,
        1947
      ],
      [
        0,
        617,
        1948
      ],
      [
        386,
        63,
        617
      ],
      [
        386,
        54,
        617
      ],
      [
        386,
        59,
        617
      ],
      [
        403,
        386,
        617
      ],
      [
        386,
        60,
        617
      ],
      [
        387,
        64,
        617
      ],
      [
        0,
        1945,
        617
      ],
      [
        0,
        1946,
        1424
      ],
      [
        400,
        65535,
        65535
      ],
      [
        393,
        65535,
        65535
      ],
      [
        403,
        65535,
        65535
      ],
      [
        403,
        65535,
        65535
      ],
      [
        403,
        65535,
        65535
      ],
      [
        403,
        65535,
        65535
      ],
      [
        403,
        65535,
        65535
      ]
    ],
    [
      [
        403,
        65535,
        65535
      ],
      [
        403,
        1949,
        65535
      ],
      [
        401,
        1950,
        65535
      ],
      [
        402,
        65535,
        65535
      ],
      [
        401,
        65535,
        65535
      ],
      [
        386,
        63,
        65535
      ],
      [
        386,
        59,
        65535
      ],
      [
        403,
        386,
        65535
      ],
      [
        386,
        60,
        65535
      ],
      [
        386,
        53,
        65535
      ],
      [
        387,
        53,
        1425
      ],
      [
        387,
        64,
        65535
      ],
      [
        398,
        65535,
        65535
      ],
      [
        403,
        65535,
        65535
      ],
      [
        403,
        65535,
        871
      ],
      [
        403,
        65535,
        873
      ],
      [
        403,
        65535,
        65535
      ],
      [
        403,
        65535,
        65535
      ]
    ],
    [
      [
        403,
        65535,
        65535
      ],
      [
        403,
        65535,
        65535
      ],
      [
        397,
        65535,
        65535
      ],
      [
        400,
        65535,
        65535
      ],
      [
        399,
        65535,
        65535
      ],
      [
        98,
        65535,
        65535
      ],
      [
        386,
        63,
        65535
      ],
      [
        386,
        59,
        65535
      ],
      [
        403,
        386,
        65535
      ],
      [
        403,
        386,
        65535
      ],
      [
        386,
        1426,
        1626
      ],
      [
        387,
        55,
        65535
      ],
      [
        398,
        65535,
        65535
      ],
      [
        403,
        65535,
        65535
      ],
      [
        865,
        65535,
        874
      ],
      [
        866,
        65535,
        876
      ],
      [
        403,
        65535,
        65535
      ],
      [
        403,
        65535,
        65535
      ]
    ],
    [
      [
        403,
        65535,
        65535
      ],
      [
        403,
        65535,
        65535
      ],
      [
        394,
        65535,
        65535
      ],
      [
        401,
        65535,
        65535
      ],
      [
        402,
        65535,
        65535
      ],
      [
        401,
        65535,
        65535
      ],
      [
        0,
        65535,
        65535
      ],
      [
        386,
        63,
        65535
      ],
      [
        386,
        54,
        65535
      ],
      [
        386,
        54,
        65535
      ],
      [
        386,
        54,
        65535
      ],
      [
        387,
        62,
        65535
      ],
      [
        398,
        65535,
        65535
      ],
      [
        403,
        65535,
        65535
      ],
      [
        862,
        65535,
        883
      ],
      [
        866,
        65535,
        885
      ],
      [
        403,
        65535,
        65535
      ],
      [
        403,
        65535,
        65535
      ]
    ],
    [
      [
        403,
        65535,
        65535
      ],
      [
        1577,
        65535,
        65535
      ],
      [
        403,
        65535,
        65535
      ],
      [
        394,
        65535,
        65535
      ],
      [
        396,
        65535,
        65535
      ],
      [
        397,
        65535,
        65535
      ],
      [
        406,
        65535,
        65535
      ],
      [
        402,
        65535,
        65535
      ],
      [
        395,
        65535,
        65535
      ],
      [
        401,
        65535,
        65535
      ],
      [
        358,
        65535,
        65535
      ],
      [
        402,
        65535,
        65535
      ],
      [
        396,
        65535,
        65535
      ],
      [
        1577,
        65535,
        65535
      ],
      [
        879,
        891,
        65535
      ],
      [
        881,
        893,
        65535
      ],
      [
        403,
        65535,
        65535
      ],
      [
        403,
        65535,
        65535
      ]
    ],
    [
      [
        403,
        65535,
        65535
      ],
      [
        403,
        65535,
        65535
      ],
      [
        403,
        65535,
        65535
      ],
      [
        1578,
        65535,
        65535
      ],
      [
        403,
        65535,
        65535
      ],
      [
        394,
        65535,
        65535
      ],
      [
        395,
        65535,
        65535
      ],
      [
        396,
        65535,
        65535
      ],
      [
        403,
        65535,
        65535
      ],
      [
        394,
        65535,
        65535
      ],
      [
        395,
        65535,
        65535
      ],
      [
        396,
        65535,
        65535
      ],
      [
        1578,
        65535,
        65535
      ],
      [
        403,
        65535,
        65535
      ],
      [
        879,
        65535,
        65535
      ],
      [
        881,
        65535,
        65535
      ],
      [
        403,
        65535,
        65535
      ],
      [
        403,
        65535,
        65535
      ]
    ],
    [
      [
        403,
        65535,
        65535
      ],
      [
        403,
        65535,
        65535
      ],
      [
        403,
        65535,
        65535
      ],
      [
        403,
        65535,
        65535
      ],
      [
        403,
        65535,
        65535
      ],
      [
        403,
        65535,
        65535
      ],
      [
        403,
        65535,
        65535
      ],
      [
        403,
        65535,
        65535
      ],
      [
        403,
        65535,
        65535
      ],
      [
        403,
        65535,
        65535
      ],
      [
        403,
        65535,
        65535
      ],
      [
        403,
        65535,
        65535
      ],
      [
        403,
        65535,
        65535
      ],
      [
        403,
        65535,
        65535
      ],
      [
        403,
        65535,
        65535
      ],
      [
        403,
        65535,
        65535
      ],
      [
        403,
        65535,
        65535
      ],
      [
        403,
        65535,
        65535
      ]
    ],
    []
  ]
}