{
  "zoneId": 653,
  "zoneType": 3,
  "width": 18,
  "height": 18,
  "type": 1,
  "world": 3,
  "objects": [],
  "actions": [],
  "tilemap": [
    [
      [
        403,
        65535,
        65535
      ],
      [
        403,
        65535,
        65535
      ],
      [
        403,
        65535,
        65535
      ],
      [
        403,
        65535,
        65535
      ],
      [
        1576,
        65535,
        65535
      ],
      [
        1575,
        65535,
        65535
      ],
      [
        403,
        65535,
        65535
      ],
      [
        403,
        65535,
        65535
      ],
      [
        403,
        65535,
        65535
      ],
      [
        403,
        65535,
        65535
      ],
      [
        403,
        65535,
        65535
      ],
      [
        859,
        65535,
        65535
      ],
      [
        861,
        65535,
        933
      ],
      [
        403,
        65535,
        65535
      ],
      [
        403,
        65535,
        65535
      ],
      [
        403,
        65535,
        65535
      ],
      [
        403,
        65535,
        65535
      ],
      [
        403,
        65535,
        65535
      ]
    ],
    [
      [
        403,
        65535,
        65535
      ],
      [
        403,
        65535,
        899
      ],
      [
        403,
        65535,
        65535
      ],
      [
        403,
        65535,
        65535
      ],
      [
        403,
        65535,
        65535
      ],
      [
        403,
        65535,
        65535
      ],
      [
        859,
        65535,
        65535
      ],
      [
        860,
        65535,
        65535
      ],
      [
        860,
        65535,
        65535
      ],
      [
        861,
        65535,
        65535
      ],
      [
        403,
        65535,
        65535
      ],
      [
        865,
        65535,
        65535
      ],
      [
        868,
        935,
        65535
      ],
      [
        861,
        65535,
        65535
      ],
      [
        403,
        65535,
        65535
      ],
      [
        403,
        65535,
        65535
      ],
      [
        403,
        65535,
        899
      ],
      [
        403,
        65535,
        65535
      ]
    ],
    [
      [
        403,
        65535,
        65535
      ],
      [
        403,
        898,
        65535
      ],
      [
        403,
        65535,
        65535
      ],
      [
        859,
        65535,
        65535
      ],
      [
        860,
        65535,
        65535
      ],
      [
        861,
        65535,
        65535
      ],
      [
        865,
        65535,
        65535
      ],
      [
        856,
        65535,
        65535
      ],
      [
        858,
        65535,
        933
      ],
      [
        868,
        65535,
        65535
      ],
      [
        861,
        65535,
        65535
      ],
      [
        862,
        65535,
        65535
      ],
      [
        863,
        65535,
        65535
      ],
      [
        864,
        65535,
        65535
      ],
      [
        403,
        65535,
        65535
      ],
      [
        403,
        65535,
        65535
      ],
      [
        403,
        898,
        65535
      ],
      [
        403,
        65535,
        65535
      ]
    ],
    [
      [
        403,
        65535,
        65535
      ],
      [
        1576,
        65535,
        65535
      ],
      [
        859,
        65535,
        65535
      ],
      [
        867,
        65535,
        65535
      ],
      [
        858,
        65535,
        65535
      ],
      [
        866,
        65535,
        933
      ],
      [
        862,
        65535,
        65535
      ],
      [
        869,
        65535,
        65535
      ],
      [
        858,
        935,
        65535
      ],
      [
        858,
        65535,
        65535
      ],
      [
        868,
        65535,
        65535
      ],
      [
        860,
        65535,
        65535
      ],
      [
        861,
        65535,
        65535
      ],
      [
        403,
        65535,
        65535
      ],
      [
        403,
        65535,
        65535
      ],
      [
        403,
        65535,
        899
      ],
      [
        403,
        65535,
        65535
      ],
      [
        403,
        65535,
        65535
      ]
    ],
    [
      [
        403,
        65535,
        65535
      ],
      [
        403,
        65535,
        65535
      ],
      [
        865,
        65535,
        65535
      ],
      [
        403,
        931,
        65535
      ],
      [
        858,
        65535,
        65535
      ],
      [
        868,
        65535,
        934
      ],
      [
        861,
        65535,
        65535
      ],
      [
        865,
        65535,
        65535
      ],
      [
        858,
        65535,
        65535
      ],
      [
        858,
        919,
        65535
      ],
      [
        858,
        920,
        65535
      ],
      [
        858,
        65535,
        65535
      ],
      [
        866,
        65535,
        65535
      ],
      [
        403,
        1580,
        65535
      ],
      [
        403,
        65535,
        65535
      ],
      [
        403,
        65535,
        1815
      ],
      [
        1575,
        65535,
        65535
      ],
      [
        403,
        65535,
        65535
      ]
    ],
    [
      [
        859,
        65535,
        65535
      ],
      [
        861,
        65535,
        65535
      ],
      [
        862,
        65535,
        65535
      ],
      [
        869,
        65535,
        65535
      ],
      [
        857,
        65535,
        65535
      ],
      [
        858,
        935,
        65535
      ],
      [
        866,
        65535,
        65535
      ],
      [
        865,
        65535,
        65535
      ],
      [
        858,
        919,
        65535
      ],
      [
        858,
        927,
        65535
      ],
      [
        857,
        926,
        65535
      ],
      [
        858,
        65535,
        933
      ],
      [
        866,
        65535,
        65535
      ],
      [
        403,
        65535,
        65535
      ],
      [
        403,
        65535,
        65535
      ],
      [
        403,
        898,
        65535
      ],
      [
        403,
        65535,
        65535
      ],
      [
        403,
        65535,
        65535
      ]
    ],
    [
      [
        862,
        65535,
        65535
      ],
      [
        864,
        65535,
        65535
      ],
      [
        403,
        65535,
        65535
      ],
      [
        862,
        65535,
        899
      ],
      [
        863,
        65535,
        65535
      ],
      [
        863,
        65535,
        65535
      ],
      [
        864,
        65535,
        65535
      ],
      [
        865,
        65535,
        65535
      ],
      [
        858,
        925,
        65535
      ],
      [
        858,
        930,
        65535
      ],
      [
        922,
        65535,
        65535
      ],
      [
        858,
        935,
        65535
      ],
      [
        868,
        65535,
        65535
      ],
      [
        861,
        65535,
        65535
      ],
      [
        403,
        65535,
        65535
      ],
      [
        403,
        65535,
        65535
      ],
      [
        403,
        65535,
        65535
      ],
      [
        403,
        65535,
        65535
      ]
    ],
    [
      [
        403,
        65535,
        65535
      ],
      [
        1576,
        65535,
        65535
      ],
      [
        403,
        65535,
        65535
      ],
      [
        403,
        898,
        65535
      ],
      [
        403,
        65535,
        65535
      ],
      [
        859,
        65535,
        65535
      ],
      [
        860,
        65535,
        65535
      ],
      [
        867,
        65535,
        65535
      ],
      [
        921,
        65535,
        65535
      ],
      [
        922,
        65535,
        65535
      ],
      [
        858,
        65535,
        65535
      ],
      [
        870,
        65535,
        65535
      ],
      [
        863,
        65535,
        933
      ],
      [
        864,
        65535,
        65535
      ],
      [
        403,
        65535,
        65535
      ],
      [
        403,
        65535,
        65535
      ],
      [
        403,
        65535,
        65535
      ],
      [
        403,
        65535,
        65535
      ]
    ],
    [
      [
        403,
        65535,
        65535
      ],
      [
        859,
        65535,
        65535
      ],
      [
        861,
        65535,
        65535
      ],
      [
        403,
        65535,
        65535
      ],
      [
        403,
        65535,
        65535
      ],
      [
        862,
        65535,
        65535
      ],
      [
        869,
        65535,
        65535
      ],
      [
        870,
        65535,
        65535
      ],
      [
        863,
        65535,
        65535
      ],
      [
        863,
        65535,
        65535
      ],
      [
        863,
        65535,
        65535
      ],
      [
        864,
        65535,
        65535
      ],
      [
        859,
        65535,
        934
      ],
      [
        860,
        65535,
        65535
      ],
      [
        860,
        65535,
        65535
      ],
      [
        861,
        65535,
        65535
      ],
      [
        1576,
        65535,
        65535
      ],
      [
        403,
        65535,
        65535
      ]
    ],
    [
      [
        403,
        65535,
        65535
      ],
      [
        865,
        65535,
        65535
      ],
      [
        868,
        65535,
        65535
      ],
      [
        860,
        65535,
        65535
      ],
      [
        860,
        65535,
        933
      ],
      [
        861,
        65535,
        65535
      ],
      [
        865,
        65535,
        65535
      ],
      [
        866,
        65535,
        65535
      ],
      [
        403,
        1580,
        65535
      ],
      [
        403,
        65535,
        65535
      ],
      [
        859,
        65535,
        65535
      ],
      [
        860,
        65535,
        65535
      ],
      [
        867,
        935,
        65535
      ],
      [
        858,
        65535,
        65535
      ],
      [
        870,
        65535,
        65535
      ],
      [
        864,
        65535,
        65535
      ],
      [
        403,
        65535,
        65535
      ],
      [
        403,
        65535,
        65535
      ]
    ],
    [
      [
        859,
        65535,
        65535
      ],
      [
        867,
        65535,
        65535
      ],
      [
        858,
        1580,
        65535
      ],
      [
        858,
        65535,
        65535
      ],
      [
        858,
        65535,
        934
      ],
      [
        866,
        65535,
        65535
      ],
      [
        862,
        65535,
        65535
      ],
      [
        864,
        65535,
        65535
      ],
      [
        859,
        65535,
        65535
      ],
      [
        861,
        65535,
        65535
      ],
      [
        865,
        65535,
        65535
      ],
      [
        857,
        65535,
        65535
      ],
      [
        858,
        65535,
        65535
      ],
      [
        870,
        65535,
        65535
      ],
      [
        864,
        65535,
        65535
      ],
      [
        403,
        1580,
        65535
      ],
      [
        403,
        65535,
        65535
      ],
      [
        403,
        65535,
        65535
      ]
    ],
    [
      [
        862,
        65535,
        65535
      ],
      [
        863,
        65535,
        65535
      ],
      [
        869,
        65535,
        65535
      ],
      [
        858,
        65535,
        65535
      ],
      [
        857,
        935,
        65535
      ],
      [
        868,
        65535,
        65535
      ],
      [
        860,
        65535,
        65535
      ],
      [
        860,
        65535,
        65535
      ],
      [
        867,
        65535,
        65535
      ],
      [
        866,
        65535,
        65535
      ],
      [
        862,
        65535,
        65535
      ],
      [
        869,
        65535,
        65535
      ],
      [
        870,
        65535,
        65535
      ],
      [
        864,
        65535,
        65535
      ],
      [
        859,
        65535,
        65535
      ],
      [
        860,
        65535,
        65535
      ],
      [
        861,
        65535,
        65535
      ],
      [
        403,
        65535,
        65535
      ]
    ],
    [
      [
        403,
        65535,
        65535
      ],
      [
        403,
        65535,
        65535
      ],
      [
        862,
        65535,
        899
      ],
      [
        863,
        65535,
        65535
      ],
      [
        869,
        65535,
        65535
      ],
      [
        858,
        65535,
        65535
      ],
      [
        857,
        65535,
        933
      ],
      [
        858,
        65535,
        65535
      ],
      [
        870,
        65535,
        65535
      ],
      [
        864,
        65535,
        65535
      ],
      [
        859,
        65535,
        65535
      ],
      [
        867,
        65535,
        65535
      ],
      [
        866,
        65535,
        65535
      ],
      [
        859,
        65535,
        65535
      ],
      [
        867,
        65535,
        65535
      ],
      [
        403,
        931,
        65535
      ],
      [
        866,
        65535,
        65535
      ],
      [
        403,
        65535,
        65535
      ]
    ],
    [
      [
        403,
        65535,
        65535
      ],
      [
        1575,
        65535,
        65535
      ],
      [
        403,
        65535,
        1815
      ],
      [
        403,
        65535,
        65535
      ],
      [
        862,
        65535,
        65535
      ],
      [
        869,
        65535,
        65535
      ],
      [
        858,
        935,
        65535
      ],
      [
        858,
        65535,
        65535
      ],
      [
        866,
        65535,
        65535
      ],
      [
        859,
        65535,
        65535
      ],
      [
        867,
        65535,
        65535
      ],
      [
        858,
        65535,
        65535
      ],
      [
        866,
        65535,
        65535
      ],
      [
        862,
        65535,
        899
      ],
      [
        863,
        65535,
        65535
      ],
      [
        863,
        65535,
        65535
      ],
      [
        864,
        65535,
        65535
      ],
      [
        403,
        65535,
        65535
      ]
    ],
    [
      [
        403,
        65535,
        65535
      ],
      [
        403,
        65535,
        65535
      ],
      [
        403,
        898,
        65535
      ],
      [
        403,
        65535,
        65535
      ],
      [
        403,
        65535,
        65535
      ],
      [
        862,
        65535,
        65535
      ],
      [
        863,
        65535,
        65535
      ],
      [
        863,
        65535,
        933
      ],
      [
        864,
        65535,
        65535
      ],
      [
        865,
        65535,
        65535
      ],
      [
        858,
        65535,
        65535
      ],
      [
        857,
        65535,
        933
      ],
      [
        866,
        65535,
        65535
      ],
      [
        403,
        898,
        65535
      ],
      [
        403,
        65535,
        65535
      ],
      [
        403,
        65535,
        65535
      ],
      [
        403,
        65535,
        65535
      ],
      [
        403,
        65535,
        65535
      ]
    ],
    [
      [
        403,
        65535,
        65535
      ],
      [
        403,
        65535,
        65535
      ],
      [
        403,
        65535,
        65535
      ],
      [
        403,
        65535,
        65535
      ],
      [
        403,
        65535,
        899
      ],
      [
        403,
        65535,
        65535
      ],
      [
        403,
        65535,
        65535
      ],
      [
        403,
        65535,
        1815
      ],
      [
        403,
        65535,
        65535
      ],
      [
        862,
        65535,
        65535
      ],
      [
        869,
        65535,
        65535
      ],
      [
        858,
        935,
        65535
      ],
      [
        868,
        65535,
        65535
      ],
      [
        861,
        65535,
        65535
      ],
      [
        403,
        65535,
        65535
      ],
      [
        403,
        65535,
        65535
      ],
      [
        1576,
        65535,
        65535
      ],
      [
        403,
        65535,
        65535
      ]
    ],
    [
      [
        403,
        65535,
        65535
      ],
      [
        403,
        1580,
        65535
      ],
      [
        403,
        65535,
        65535
      ],
      [
        403,
        65535,
        65535
      ],
      [
        403,
        898,
        65535
      ],
      [
        1575,
        65535,
        65535
      ],
      [
        403,
        65535,
        65535
      ],
      [
        403,
        898,
        65535
      ],
      [
        403,
        65535,
        65535
      ],
      [
        403,
        65535,
        65535
      ],
      [
        865,
        65535,
        65535
      ],
      [
        870,
        65535,
        65535
      ],
      [
        863,
        65535,
        65535
      ],
      [
        864,
        65535,
        65535
      ],
      [
        403,
        65535,
        65535
      ],
      [
        403,
        65535,
        65535
      ],
      [
        1576,
        65535,
        65535
      ],
      [
        403,
        65535,
        65535
      ]
    ],
    [
      [
        403,
        65535,
        65535
      ],
      [
        403,
        65535,
        65535
      ],
      [
        403,
        65535,
        65535
      ],
      [
        403,
        65535,
        65535
      ],
      [
        403,
        65535,
        65535
      ],
      [
        403,
        65535,
        65535
      ],
      [
        403,
        65535,
        65535
      ],
      [
        403,
        65535,
        65535
      ],
      [
        403,
        65535,
        65535
      ],
      [
        403,
        65535,
        65535
      ],
      [
        862,
        65535,
        65535
      ],
      [
        864,
        65535,
        65535
      ],
      [
        403,
        65535,
        65535
      ],
      [
        403,
        65535,
        65535
      ],
      [
        403,
        65535,
        65535
      ],
      [
        403,
        65535,
        65535
      ],
      [
        403,
        65535,
        65535
      ],
      [
        403,
        65535,
        65535
      ]
    ],
    []
  ]
}